          Statistics Report          
           Stuck-at Faults           
-------------------------------------
Fault Classes              #faults   
                           (coll.)   
---------------------  --------------
  FU (full)                  582     
  -------------------  --------------
  DS (det_simulation)    479 (82.30%)
  TI (tied)                3 ( 0.52%)
  RE (redundant)         100 (17.18%)
-------------------------------------
Coverage                             
  -------------------                
  test_coverage              100.00% 
  fault_coverage              82.30% 
  atpg_effectiveness         100.00% 
-------------------------------------
#test_patterns                    45 
#simulated_patterns               51 
CPU_time (secs)                  1.5 
-------------------------------------

