          Statistics Report          
           Stuck-at Faults           
-------------------------------------
Fault Classes              #faults   
                           (coll.)   
---------------------  --------------
  FU (full)                  582     
  -------------------  --------------
  DS (det_simulation)    444 (76.29%)
  TI (tied)                7 ( 1.20%)
  RE (redundant)         131 (22.51%)
-------------------------------------
Coverage                             
  -------------------                
  test_coverage              100.00% 
  fault_coverage              76.29% 
  atpg_effectiveness         100.00% 
-------------------------------------
#test_patterns                    40 
#simulated_patterns               44 
CPU_time (secs)                  1.5 
-------------------------------------

