          Statistics Report          
           Stuck-at Faults           
-------------------------------------
Fault Classes              #faults   
                           (coll.)   
---------------------  --------------
  FU (full)                 1706     
  -------------------  --------------
  DS (det_simulation)   1187 (69.58%)
  TI (tied)                5 ( 0.29%)
  BL (blocked)             5 ( 0.29%)
  RE (redundant)         509 (29.84%)
-------------------------------------
Coverage                             
  -------------------                
  test_coverage              100.00% 
  fault_coverage              69.58% 
  atpg_effectiveness         100.00% 
-------------------------------------
#test_patterns                   153 
#simulated_patterns              168 
CPU_time (secs)                  1.6 
-------------------------------------

