          Statistics Report          
           Stuck-at Faults           
-------------------------------------
Fault Classes              #faults   
                           (coll.)   
---------------------  --------------
  FU (full)                 1556     
  -------------------  --------------
  DS (det_simulation)    901 (57.90%)
  TI (tied)               27 ( 1.74%)
  BL (blocked)            54 ( 3.47%)
  RE (redundant)         574 (36.89%)
-------------------------------------
Coverage                             
  -------------------                
  test_coverage              100.00% 
  fault_coverage              57.90% 
  atpg_effectiveness         100.00% 
-------------------------------------
#test_patterns                    95 
#simulated_patterns              106 
CPU_time (secs)                  1.6 
-------------------------------------

