           Statistics Report          
            Stuck-at Faults           
--------------------------------------
Fault Classes               #faults   
                            (coll.)   
----------------------  --------------
  FU (full)                  47162    
  --------------------  --------------
  UO (unobserved)           8 ( 0.02%)
  DS (det_simulation)   19413 (41.16%)
  TI (tied)              4545 ( 9.64%)
  BL (blocked)           8515 (18.05%)
  RE (redundant)        14640 (31.04%)
  AU (atpg_untestable)     41 ( 0.09%)
--------------------------------------
Fault Sub-classes                     
  --------------------                
  UC+UO                               
    AAB  (atpg_abort)       8 ( 0.02%)
--------------------------------------
Coverage                              
  --------------------                
  test_coverage                99.75% 
  fault_coverage               41.16% 
  atpg_effectiveness           99.98% 
--------------------------------------
#test_patterns                    202 
#simulated_patterns               209 
CPU_time (secs)                  11.9 
--------------------------------------

