           Statistics Report          
            Stuck-at Faults           
--------------------------------------
Fault Classes               #faults   
                            (coll.)   
----------------------  --------------
  FU (full)                  47162    
  --------------------  --------------
  UO (unobserved)           6 ( 0.01%)
  DS (det_simulation)   18386 (38.98%)
  TI (tied)              3725 ( 7.90%)
  BL (blocked)           8680 (18.40%)
  RE (redundant)        16302 (34.57%)
  AU (atpg_untestable)     63 ( 0.13%)
--------------------------------------
Fault Sub-classes                     
  --------------------                
  UC+UO                               
    AAB  (atpg_abort)       6 ( 0.01%)
--------------------------------------
Coverage                              
  --------------------                
  test_coverage                99.63% 
  fault_coverage               38.98% 
  atpg_effectiveness           99.99% 
--------------------------------------
#test_patterns                    189 
#simulated_patterns               197 
CPU_time (secs)                  14.1 
--------------------------------------

