          Statistics Report          
           Stuck-at Faults           
-------------------------------------
Fault Classes              #faults   
                           (coll.)   
---------------------  --------------
  FU (full)                 3574     
  -------------------  --------------
  DS (det_simulation)   2860 (80.02%)
  TI (tied)               37 ( 1.04%)
  BL (blocked)            52 ( 1.45%)
  RE (redundant)         625 (17.49%)
-------------------------------------
Coverage                             
  -------------------                
  test_coverage              100.00% 
  fault_coverage              80.02% 
  atpg_effectiveness         100.00% 
-------------------------------------
#test_patterns                   129 
#simulated_patterns              132 
CPU_time (secs)                  1.9 
-------------------------------------

