// | ------------------------------------------------------------------------------------------------------------------ |
// |                                                                                                                    |
// |          Current split capture setting:     Off (optimal)                                                          |
// |                                                                                                                    |
// |   Current clock off simulation setting:     Off (optimal)                                                          |
// | ------------------------------------------------------------------------------------------------------------------ |
//  ------------------------------------------------------------------------
//  Simulation performed for #gates = 15830  #faults = 32132
//  Run fault simulation without storing patterns.  pattern source = 148 external patterns
//  ------------------------------------------------------------------------
//  #patterns  test      #faults  #faults    # eff.    # test         process 
//  simulated  coverage  in list  detected   patterns  patterns       CPU time
//   64         66.78%    10675     21457       64         0          0.18 sec
//   128        69.97%     9649      1026       63         0          0.23 sec
//   148        70.58%     9452       197       18         0          0.27 sec
