          Statistics Report          
           Stuck-at Faults           
-------------------------------------
Fault Classes              #faults   
                           (coll.)   
---------------------  --------------
  FU (full)                  582     
  -------------------  --------------
  DS (det_simulation)    503 (86.43%)
  TI (tied)                5 ( 0.86%)
  RE (redundant)          74 (12.71%)
-------------------------------------
Coverage                             
  -------------------                
  test_coverage              100.00% 
  fault_coverage              86.43% 
  atpg_effectiveness         100.00% 
-------------------------------------
#test_patterns                    46 
#simulated_patterns               52 
CPU_time (secs)                  1.4 
-------------------------------------

