          Statistics Report          
           Stuck-at Faults           
-------------------------------------
Fault Classes              #faults   
                           (coll.)   
---------------------  --------------
  FU (full)                  582     
  -------------------  --------------
  DS (det_simulation)    452 (77.66%)
  TI (tied)               14 ( 2.41%)
  BL (blocked)            73 (12.54%)
  RE (redundant)          43 ( 7.39%)
-------------------------------------
Coverage                             
  -------------------                
  test_coverage              100.00% 
  fault_coverage              77.66% 
  atpg_effectiveness         100.00% 
-------------------------------------
#test_patterns                    43 
#simulated_patterns               46 
CPU_time (secs)                  1.5 
-------------------------------------

