          Statistics Report          
           Stuck-at Faults           
-------------------------------------
Fault Classes              #faults   
                           (coll.)   
---------------------  --------------
  FU (full)                  582     
  -------------------  --------------
  DS (det_simulation)    459 (78.87%)
  TI (tied)               10 ( 1.72%)
  RE (redundant)         113 (19.42%)
-------------------------------------
Coverage                             
  -------------------                
  test_coverage              100.00% 
  fault_coverage              78.87% 
  atpg_effectiveness         100.00% 
-------------------------------------
#test_patterns                    37 
#simulated_patterns               43 
CPU_time (secs)                  1.5 
-------------------------------------

