// | ------------------------------------------------------------------------------------------------------------------ |
// |                                                                                                                    |
// |          Current split capture setting:     Off (optimal)                                                          |
// |                                                                                                                    |
// |   Current clock off simulation setting:     Off (optimal)                                                          |
// | ------------------------------------------------------------------------------------------------------------------ |
//  ------------------------------------------------------------------------
//  Simulation performed for #gates = 4195  #faults = 7858
//  Run fault simulation without storing patterns.  pattern source = 238 external patterns
//  ------------------------------------------------------------------------
//  #patterns  test      #faults  #faults    # eff.    # test         process 
//  simulated  coverage  in list  detected   patterns  patterns       CPU time
//   64         41.86%     4569      3289       52         0          0.04 sec
//   128        44.38%     4371       198       21         0          0.06 sec
//   192        45.51%     4282        89       12         0          0.08 sec
//   238        45.58%     4276         6        3         0          0.09 sec
