          Statistics Report          
           Stuck-at Faults           
-------------------------------------
Fault Classes              #faults   
                           (coll.)   
---------------------  --------------
  FU (full)                 5106     
  -------------------  --------------
  DS (det_simulation)   3844 (75.28%)
  TI (tied)               85 ( 1.66%)
  BL (blocked)           775 (15.18%)
  RE (redundant)         402 ( 7.87%)
-------------------------------------
Coverage                             
  -------------------                
  test_coverage              100.00% 
  fault_coverage              75.28% 
  atpg_effectiveness         100.00% 
-------------------------------------
#test_patterns                   116 
#simulated_patterns              120 
CPU_time (secs)                  2.2 
-------------------------------------

