           Statistics Report          
            Stuck-at Faults           
--------------------------------------
Fault Classes               #faults   
                            (coll.)   
----------------------  --------------
  FU (full)                  59756    
  --------------------  --------------
  UO (unobserved)          21 ( 0.04%)
  DS (det_simulation)   52777 (88.32%)
  TI (tied)               602 ( 1.01%)
  BL (blocked)            244 ( 0.41%)
  RE (redundant)         6062 (10.14%)
  AU (atpg_untestable)     50 ( 0.08%)
--------------------------------------
Fault Sub-classes                     
  --------------------                
  UC+UO                               
    AAB  (atpg_abort)      21 ( 0.04%)
--------------------------------------
Coverage                              
  --------------------                
  test_coverage                99.87% 
  fault_coverage               88.32% 
  atpg_effectiveness           99.96% 
--------------------------------------
#test_patterns                    268 
#simulated_patterns               284 
CPU_time (secs)                  41.5 
--------------------------------------

