          Statistics Report          
           Stuck-at Faults           
-------------------------------------
Fault Classes              #faults   
                           (coll.)   
---------------------  --------------
  FU (full)                 5106     
  -------------------  --------------
  DS (det_simulation)   3064 (60.01%)
  TI (tied)              171 ( 3.35%)
  BL (blocked)           366 ( 7.17%)
  RE (redundant)        1505 (29.48%)
-------------------------------------
Coverage                             
  -------------------                
  test_coverage              100.00% 
  fault_coverage              60.01% 
  atpg_effectiveness         100.00% 
-------------------------------------
#test_patterns                    78 
#simulated_patterns               79 
CPU_time (secs)                  2.4 
-------------------------------------

