// | ------------------------------------------------------------------------------------------------------------------ |
// |                                                                                                                    |
// |          Current split capture setting:     Off (optimal)                                                          |
// |                                                                                                                    |
// |   Current clock off simulation setting:     Off (optimal)                                                          |
// | ------------------------------------------------------------------------------------------------------------------ |
//  ------------------------------------------------------------------------
//  Simulation performed for #gates = 6497  #faults = 13091
//  Run fault simulation without storing patterns.  pattern source = 345 external patterns
//  ------------------------------------------------------------------------
//  #patterns  test      #faults  #faults    # eff.    # test         process 
//  simulated  coverage  in list  detected   patterns  patterns       CPU time
//   64         56.95%     5636      7455       62         0          0.11 sec
//   128        63.94%     4720       916       44         0          0.13 sec
//   192        66.23%     4421       299       32         0          0.15 sec
//   256        67.75%     4222       199       26         0          0.16 sec
//   320        68.63%     4107       115       18         0          0.17 sec
//   345        69.40%     4006       101        8         0          0.18 sec
