// | ------------------------------------------------------------------------------------------------------------------ |
// |                                                                                                                    |
// |          Current split capture setting:     Off (optimal)                                                          |
// |                                                                                                                    |
// |   Current clock off simulation setting:     Off (optimal)                                                          |
// | ------------------------------------------------------------------------------------------------------------------ |
//  ------------------------------------------------------------------------
//  Simulation performed for #gates = 6497  #faults = 14558
//  Run fault simulation without storing patterns.  pattern source = 276 external patterns
//  ------------------------------------------------------------------------
//  #patterns  test      #faults  #faults    # eff.    # test         process 
//  simulated  coverage  in list  detected   patterns  patterns       CPU time
//   64         49.16%     7402      7156       64         0          0.15 sec
//   128        55.72%     6447       955       57         0          0.17 sec
//   192        58.79%     5999       448       50         0          0.19 sec
//   256        61.13%     5659       340       44         0          0.21 sec
//   276        61.57%     5594        65       13         0          0.23 sec
