// | ------------------------------------------------------------------------------------------------------------------ |
// |                                                                                                                    |
// |          Current split capture setting:     Off (optimal)                                                          |
// |                                                                                                                    |
// |   Current clock off simulation setting:     Off (optimal)                                                          |
// | ------------------------------------------------------------------------------------------------------------------ |
//  ------------------------------------------------------------------------
//  Simulation performed for #gates = 6497  #faults = 14916
//  Run fault simulation without storing patterns.  pattern source = 299 external patterns
//  ------------------------------------------------------------------------
//  #patterns  test      #faults  #faults    # eff.    # test         process 
//  simulated  coverage  in list  detected   patterns  patterns       CPU time
//   64         39.47%     9029      5887       64         0          0.12 sec
//   128        42.73%     8542       487       54         0          0.15 sec
//   192        44.74%     8242       300       38         0          0.18 sec
//   256        46.72%     7947       295       25         0          0.20 sec
//   299        50.01%     7456       491       19         0          0.23 sec
