// | ------------------------------------------------------------------------------------------------------------------ |
// |                                                                                                                    |
// |          Current split capture setting:     Off (optimal)                                                          |
// |                                                                                                                    |
// |   Current clock off simulation setting:     Off (optimal)                                                          |
// | ------------------------------------------------------------------------------------------------------------------ |
//  ------------------------------------------------------------------------
//  Simulation performed for #gates = 6497  #faults = 14108
//  Run fault simulation without storing patterns.  pattern source = 336 external patterns
//  ------------------------------------------------------------------------
//  #patterns  test      #faults  #faults    # eff.    # test         process 
//  simulated  coverage  in list  detected   patterns  patterns       CPU time
//   64         48.71%     7236      6872       63         0          0.13 sec
//   128        53.83%     6514       722       55         0          0.15 sec
//   192        56.46%     6143       371       42         0          0.17 sec
//   256        57.51%     5994       149       29         0          0.19 sec
//   320        58.71%     5825       169       22         0          0.21 sec
//   336        58.76%     5818         7        4         0          0.23 sec
