// | ------------------------------------------------------------------------------------------------------------------ |
// |                                                                                                                    |
// |          Current split capture setting:     Off (optimal)                                                          |
// |                                                                                                                    |
// |   Current clock off simulation setting:     Off (optimal)                                                          |
// | ------------------------------------------------------------------------------------------------------------------ |
//  ------------------------------------------------------------------------
//  Simulation performed for #gates = 6497  #faults = 13091
//  Run fault simulation without storing patterns.  pattern source = 324 external patterns
//  ------------------------------------------------------------------------
//  #patterns  test      #faults  #faults    # eff.    # test         process 
//  simulated  coverage  in list  detected   patterns  patterns       CPU time
//   64         57.40%     5577      7514       62         0          0.11 sec
//   128        61.59%     5028       549       44         0          0.13 sec
//   192        63.95%     4719       309       29         0          0.14 sec
//   256        65.37%     4533       186       21         0          0.16 sec
//   320        66.73%     4356       177       21         0          0.17 sec
//   324        66.98%     4323        33        1         0          0.18 sec
