//  command: set_current_design b14_C 
//  Warning: 1 case: Unused net in DFT library model
//  Note: Issue set_current_design with the -show_elaboration_warnings option to see more details about previous warnings
//  command: set_system_mode analysis
//  Flattening process completed,  design_cells=5856  leaf_cells=5856  library_primitives=5856  sim_gates=6497  PIs=277  POs=245  CPU time=0.02 sec.
//  ---------------------------------------------------------------------------
//  Begin circuit learning analyses.
//  --------------------------------
//  Learning completed, CPU time=0.02 sec.
//  ---------------------------------------------------------------------------
//  Begin scan chain identification process, memory elements = 0.
//  ---------------------------------------------------------------------------
//  Circuit has no memory elements.
//  command: add_faults -all
//  command: set_fault_mode collapsed
//  command: set_fault_type stuck
//  command: read_patterns /home/animesh/currentResearch/ISI/atpg_structural/code/dumpData/tessent/itc99/b14_synth/tenPercent/b14_synth_tenPercent_31.spf
//  Reading STIL input file "/home/animesh/currentResearch/ISI/atpg_structural/code/dumpData/tessent/itc99/b14_synth/tenPercent/b14_synth_tenPercent_31.spf"
//  command: simulate_patterns > /home/animesh/currentResearch/ISI/atpg_structural/code/dumpData/tessent/itc99/b14_synth/bin_0/simulateLogFile_b14_synth_ninetyPercent_15_b14_synth_tenPercent_31.atpg.result
//  command: exit 
