// | ------------------------------------------------------------------------------------------------------------------ |
// |                                                                                                                    |
// |          Current split capture setting:     Off (optimal)                                                          |
// |                                                                                                                    |
// |   Current clock off simulation setting:     Off (optimal)                                                          |
// | ------------------------------------------------------------------------------------------------------------------ |
//  ------------------------------------------------------------------------
//  Simulation performed for #gates = 6497  #faults = 14737
//  Run fault simulation without storing patterns.  pattern source = 319 external patterns
//  ------------------------------------------------------------------------
//  #patterns  test      #faults  #faults    # eff.    # test         process 
//  simulated  coverage  in list  detected   patterns  patterns       CPU time
//   64         48.00%     7663      7074       64         0          0.14 sec
//   128        52.85%     6949       714       47         0          0.17 sec
//   192        56.27%     6444       505       36         0          0.19 sec
//   256        58.21%     6158       286       31         0          0.21 sec
//   319        58.87%     6062        96       25         0          0.22 sec
