// | ------------------------------------------------------------------------------------------------------------------ |
// |                                                                                                                    |
// |          Current split capture setting:     Off (optimal)                                                          |
// |                                                                                                                    |
// |   Current clock off simulation setting:     Off (optimal)                                                          |
// | ------------------------------------------------------------------------------------------------------------------ |
//  ------------------------------------------------------------------------
//  Simulation performed for #gates = 6497  #faults = 14861
//  Run fault simulation without storing patterns.  pattern source = 319 external patterns
//  ------------------------------------------------------------------------
//  #patterns  test      #faults  #faults    # eff.    # test         process 
//  simulated  coverage  in list  detected   patterns  patterns       CPU time
//   64         35.99%     9513      5348       62         0          0.12 sec
//   128        42.51%     8543       970       48         0          0.16 sec
//   192        45.66%     8076       467       34         0          0.19 sec
//   256        46.34%     7974       102       27         0          0.21 sec
//   319        46.88%     7894        80       18         0          0.24 sec
