// | ------------------------------------------------------------------------------------------------------------------ |
// |                                                                                                                    |
// |          Current split capture setting:     Off (optimal)                                                          |
// |                                                                                                                    |
// |   Current clock off simulation setting:     Off (optimal)                                                          |
// | ------------------------------------------------------------------------------------------------------------------ |
//  ------------------------------------------------------------------------
//  Simulation performed for #gates = 6497  #faults = 14154
//  Run fault simulation without storing patterns.  pattern source = 247 external patterns
//  ------------------------------------------------------------------------
//  #patterns  test      #faults  #faults    # eff.    # test         process 
//  simulated  coverage  in list  detected   patterns  patterns       CPU time
//   64         55.69%     6272      7882       64         0          0.16 sec
//   128        62.82%     5262      1010       55         0          0.18 sec
//   192        65.08%     4942       320       41         0          0.20 sec
//   247        66.60%     4727       215       28         0          0.21 sec
