// | ------------------------------------------------------------------------------------------------------------------ |
// |                                                                                                                    |
// |          Current split capture setting:     Off (optimal)                                                          |
// |                                                                                                                    |
// |   Current clock off simulation setting:     Off (optimal)                                                          |
// | ------------------------------------------------------------------------------------------------------------------ |
//  ------------------------------------------------------------------------
//  Simulation performed for #gates = 6497  #faults = 14735
//  Run fault simulation without storing patterns.  pattern source = 302 external patterns
//  ------------------------------------------------------------------------
//  #patterns  test      #faults  #faults    # eff.    # test         process 
//  simulated  coverage  in list  detected   patterns  patterns       CPU time
//   64         53.90%     6793      7942       64         0          0.15 sec
//   128        59.93%     5904       889       57         0          0.17 sec
//   192        62.25%     5563       341       49         0          0.19 sec
//   256        63.50%     5378       185       40         0          0.21 sec
//   302        64.03%     5300        78       24         0          0.22 sec
