// | ------------------------------------------------------------------------------------------------------------------ |
// |                                                                                                                    |
// |          Current split capture setting:     Off (optimal)                                                          |
// |                                                                                                                    |
// |   Current clock off simulation setting:     Off (optimal)                                                          |
// | ------------------------------------------------------------------------------------------------------------------ |
//  ------------------------------------------------------------------------
//  Simulation performed for #gates = 6497  #faults = 14108
//  Run fault simulation without storing patterns.  pattern source = 320 external patterns
//  ------------------------------------------------------------------------
//  #patterns  test      #faults  #faults    # eff.    # test         process 
//  simulated  coverage  in list  detected   patterns  patterns       CPU time
//   64         44.36%     7849      6259       64         0          0.12 sec
//   128        47.30%     7435       414       43         0          0.15 sec
//   192        49.73%     7092       343       39         0          0.17 sec
//   256        50.79%     6942       150       24         0          0.19 sec
//   320        51.12%     6896        46       17         0          0.22 sec
