// | ------------------------------------------------------------------------------------------------------------------ |
// |                                                                                                                    |
// |          Current split capture setting:     Off (optimal)                                                          |
// |                                                                                                                    |
// |   Current clock off simulation setting:     Off (optimal)                                                          |
// | ------------------------------------------------------------------------------------------------------------------ |
//  ------------------------------------------------------------------------
//  Simulation performed for #gates = 6497  #faults = 12642
//  Run fault simulation without storing patterns.  pattern source = 299 external patterns
//  ------------------------------------------------------------------------
//  #patterns  test      #faults  #faults    # eff.    # test         process 
//  simulated  coverage  in list  detected   patterns  patterns       CPU time
//   64         64.85%     4444      8198       64         0          0.12 sec
//   128        71.03%     3663       781       60         0          0.13 sec
//   192        73.75%     3319       344       48         0          0.14 sec
//   256        75.60%     3085       234       38         0          0.15 sec
//   299        76.32%     2994        91       25         0          0.16 sec
