// | ------------------------------------------------------------------------------------------------------------------ |
// |                                                                                                                    |
// |          Current split capture setting:     Off (optimal)                                                          |
// |                                                                                                                    |
// |   Current clock off simulation setting:     Off (optimal)                                                          |
// | ------------------------------------------------------------------------------------------------------------------ |
//  ------------------------------------------------------------------------
//  Simulation performed for #gates = 6497  #faults = 12642
//  Run fault simulation without storing patterns.  pattern source = 260 external patterns
//  ------------------------------------------------------------------------
//  #patterns  test      #faults  #faults    # eff.    # test         process 
//  simulated  coverage  in list  detected   patterns  patterns       CPU time
//   64         66.14%     4280      8362       64         0          0.11 sec
//   128        70.13%     3776       504       54         0          0.13 sec
//   192        72.51%     3475       301       50         0          0.14 sec
//   256        74.28%     3252       223       38         0          0.15 sec
//   260        74.32%     3247         5        1         0          0.16 sec
