// | ------------------------------------------------------------------------------------------------------------------ |
// |                                                                                                                    |
// |          Current split capture setting:     Off (optimal)                                                          |
// |                                                                                                                    |
// |   Current clock off simulation setting:     Off (optimal)                                                          |
// | ------------------------------------------------------------------------------------------------------------------ |
//  ------------------------------------------------------------------------
//  Simulation performed for #gates = 6497  #faults = 13474
//  Run fault simulation without storing patterns.  pattern source = 324 external patterns
//  ------------------------------------------------------------------------
//  #patterns  test      #faults  #faults    # eff.    # test         process 
//  simulated  coverage  in list  detected   patterns  patterns       CPU time
//   64         47.02%     7139      6335       63         0          0.12 sec
//   128        51.86%     6486       653       47         0          0.14 sec
//   192        55.33%     6019       467       37         0          0.16 sec
//   256        59.74%     5424       595       35         0          0.18 sec
//   320        61.70%     5160       264       32         0          0.20 sec
//   324        62.30%     5080        80        3         0          0.21 sec
