// | ------------------------------------------------------------------------------------------------------------------ |
// |                                                                                                                    |
// |          Current split capture setting:     Off (optimal)                                                          |
// |                                                                                                                    |
// |   Current clock off simulation setting:     Off (optimal)                                                          |
// | ------------------------------------------------------------------------------------------------------------------ |
//  ------------------------------------------------------------------------
//  Simulation performed for #gates = 6497  #faults = 13616
//  Run fault simulation without storing patterns.  pattern source = 276 external patterns
//  ------------------------------------------------------------------------
//  #patterns  test      #faults  #faults    # eff.    # test         process 
//  simulated  coverage  in list  detected   patterns  patterns       CPU time
//   64         52.69%     6442      7174       64         0          0.14 sec
//   128        60.94%     5318      1124       56         0          0.16 sec
//   192        63.67%     4947       371       48         0          0.18 sec
//   256        66.66%     4540       407       44         0          0.19 sec
//   276        67.39%     4440       100       11         0          0.20 sec
