// | ------------------------------------------------------------------------------------------------------------------ |
// |                                                                                                                    |
// |          Current split capture setting:     Off (optimal)                                                          |
// |                                                                                                                    |
// |   Current clock off simulation setting:     Off (optimal)                                                          |
// | ------------------------------------------------------------------------------------------------------------------ |
//  ------------------------------------------------------------------------
//  Simulation performed for #gates = 6497  #faults = 13560
//  Run fault simulation without storing patterns.  pattern source = 272 external patterns
//  ------------------------------------------------------------------------
//  #patterns  test      #faults  #faults    # eff.    # test         process 
//  simulated  coverage  in list  detected   patterns  patterns       CPU time
//   64         36.85%     8563      4997       62         0          0.11 sec
//   128        39.42%     8214       349       41         0          0.14 sec
//   192        40.24%     8104       110       29         0          0.16 sec
//   256        41.12%     7984       120       25         0          0.19 sec
//   272        41.38%     7949        35        4         0          0.21 sec
