// | ------------------------------------------------------------------------------------------------------------------ |
// |                                                                                                                    |
// |          Current split capture setting:     Off (optimal)                                                          |
// |                                                                                                                    |
// |   Current clock off simulation setting:     Off (optimal)                                                          |
// | ------------------------------------------------------------------------------------------------------------------ |
//  ------------------------------------------------------------------------
//  Simulation performed for #gates = 6497  #faults = 14558
//  Run fault simulation without storing patterns.  pattern source = 324 external patterns
//  ------------------------------------------------------------------------
//  #patterns  test      #faults  #faults    # eff.    # test         process 
//  simulated  coverage  in list  detected   patterns  patterns       CPU time
//   64         46.70%     7760      6798       62         0          0.14 sec
//   128        53.71%     6739      1021       52         0          0.17 sec
//   192        56.60%     6318       421       49         0          0.19 sec
//   256        58.85%     5990       328       35         0          0.21 sec
//   320        60.39%     5766       224       25         0          0.23 sec
//   324        60.41%     5764         2        1         0          0.24 sec
