// | ------------------------------------------------------------------------------------------------------------------ |
// |                                                                                                                    |
// |          Current split capture setting:     Off (optimal)                                                          |
// |                                                                                                                    |
// |   Current clock off simulation setting:     Off (optimal)                                                          |
// | ------------------------------------------------------------------------------------------------------------------ |
//  ------------------------------------------------------------------------
//  Simulation performed for #gates = 6497  #faults = 14784
//  Run fault simulation without storing patterns.  pattern source = 312 external patterns
//  ------------------------------------------------------------------------
//  #patterns  test      #faults  #faults    # eff.    # test         process 
//  simulated  coverage  in list  detected   patterns  patterns       CPU time
//   64         38.25%     9129      5655       64         0          0.12 sec
//   128        41.46%     8655       474       45         0          0.15 sec
//   192        43.22%     8394       261       32         0          0.18 sec
//   256        45.35%     8080       314       30         0          0.21 sec
//   312        46.22%     7951       129       16         0          0.23 sec
