// | ------------------------------------------------------------------------------------------------------------------ |
// |                                                                                                                    |
// |          Current split capture setting:     Off (optimal)                                                          |
// |                                                                                                                    |
// |   Current clock off simulation setting:     Off (optimal)                                                          |
// | ------------------------------------------------------------------------------------------------------------------ |
//  ------------------------------------------------------------------------
//  Simulation performed for #gates = 6497  #faults = 14784
//  Run fault simulation without storing patterns.  pattern source = 332 external patterns
//  ------------------------------------------------------------------------
//  #patterns  test      #faults  #faults    # eff.    # test         process 
//  simulated  coverage  in list  detected   patterns  patterns       CPU time
//   64         37.16%     9290      5494       62         0          0.12 sec
//   128        39.23%     8984       306       47         0          0.15 sec
//   192        42.23%     8540       444       29         0          0.18 sec
//   256        43.67%     8328       212       24         0          0.21 sec
//   320        44.71%     8174       154       19         0          0.23 sec
//   332        44.87%     8151        23        6         0          0.26 sec
