// | ------------------------------------------------------------------------------------------------------------------ |
// |                                                                                                                    |
// |          Current split capture setting:     Off (optimal)                                                          |
// |                                                                                                                    |
// |   Current clock off simulation setting:     Off (optimal)                                                          |
// | ------------------------------------------------------------------------------------------------------------------ |
//  ------------------------------------------------------------------------
//  Simulation performed for #gates = 6497  #faults = 13616
//  Run fault simulation without storing patterns.  pattern source = 332 external patterns
//  ------------------------------------------------------------------------
//  #patterns  test      #faults  #faults    # eff.    # test         process 
//  simulated  coverage  in list  detected   patterns  patterns       CPU time
//   64         55.14%     6108      7508       64         0          0.14 sec
//   128        60.56%     5370       738       52         0          0.16 sec
//   192        62.46%     5112       258       47         0          0.17 sec
//   256        64.91%     4778       334       34         0          0.19 sec
//   320        67.04%     4488       290       35         0          0.20 sec
//   332        67.14%     4474        14        7         0          0.22 sec
