// | ------------------------------------------------------------------------------------------------------------------ |
// |                                                                                                                    |
// |          Current split capture setting:     Off (optimal)                                                          |
// |                                                                                                                    |
// |   Current clock off simulation setting:     Off (optimal)                                                          |
// | ------------------------------------------------------------------------------------------------------------------ |
//  ------------------------------------------------------------------------
//  Simulation performed for #gates = 6497  #faults = 13091
//  Run fault simulation without storing patterns.  pattern source = 303 external patterns
//  ------------------------------------------------------------------------
//  #patterns  test      #faults  #faults    # eff.    # test         process 
//  simulated  coverage  in list  detected   patterns  patterns       CPU time
//   64         52.30%     6245      6846       63         0          0.11 sec
//   128        57.25%     5596       649       48         0          0.13 sec
//   192        58.32%     5456       140       25         0          0.15 sec
//   256        60.47%     5175       281       24         0          0.17 sec
//   303        62.14%     4956       219       16         0          0.18 sec
