// | ------------------------------------------------------------------------------------------------------------------ |
// |                                                                                                                    |
// |          Current split capture setting:     Off (optimal)                                                          |
// |                                                                                                                    |
// |   Current clock off simulation setting:     Off (optimal)                                                          |
// | ------------------------------------------------------------------------------------------------------------------ |
//  ------------------------------------------------------------------------
//  Simulation performed for #gates = 6497  #faults = 14558
//  Run fault simulation without storing patterns.  pattern source = 352 external patterns
//  ------------------------------------------------------------------------
//  #patterns  test      #faults  #faults    # eff.    # test         process 
//  simulated  coverage  in list  detected   patterns  patterns       CPU time
//   64         60.89%     5694      8864       64         0          0.17 sec
//   128        69.23%     4479      1215       64         0          0.19 sec
//   192        73.01%     3929       550       62         0          0.21 sec
//   256        74.76%     3675       254       64         0          0.22 sec
//   320        75.69%     3539       136       64         0          0.23 sec
//   352        75.95%     3501        38       32         0          0.24 sec
