// | ------------------------------------------------------------------------------------------------------------------ |
// |                                                                                                                    |
// |          Current split capture setting:     Off (optimal)                                                          |
// |                                                                                                                    |
// |   Current clock off simulation setting:     Off (optimal)                                                          |
// | ------------------------------------------------------------------------------------------------------------------ |
//  ------------------------------------------------------------------------
//  Simulation performed for #gates = 6497  #faults = 13616
//  Run fault simulation without storing patterns.  pattern source = 345 external patterns
//  ------------------------------------------------------------------------
//  #patterns  test      #faults  #faults    # eff.    # test         process 
//  simulated  coverage  in list  detected   patterns  patterns       CPU time
//   64         52.95%     6407      7209       63         0          0.13 sec
//   128        57.99%     5720       687       54         0          0.15 sec
//   192        60.38%     5395       325       43         0          0.17 sec
//   256        62.13%     5157       238       40         0          0.19 sec
//   320        62.85%     5058        99       28         0          0.20 sec
//   345        63.81%     4927       131       12         0          0.22 sec
