// | ------------------------------------------------------------------------------------------------------------------ |
// |                                                                                                                    |
// |          Current split capture setting:     Off (optimal)                                                          |
// |                                                                                                                    |
// |   Current clock off simulation setting:     Off (optimal)                                                          |
// | ------------------------------------------------------------------------------------------------------------------ |
//  ------------------------------------------------------------------------
//  Simulation performed for #gates = 6497  #faults = 13539
//  Run fault simulation without storing patterns.  pattern source = 345 external patterns
//  ------------------------------------------------------------------------
//  #patterns  test      #faults  #faults    # eff.    # test         process 
//  simulated  coverage  in list  detected   patterns  patterns       CPU time
//   64         62.74%     5045      8494       64         0          0.16 sec
//   128        70.20%     4034      1011       64         0          0.18 sec
//   192        73.23%     3625       409       63         0          0.19 sec
//   256        74.73%     3421       204       63         0          0.20 sec
//   320        75.53%     3313       108       64         0          0.21 sec
//   345        75.76%     3282        31       25         0          0.22 sec
