// | ------------------------------------------------------------------------------------------------------------------ |
// |                                                                                                                    |
// |          Current split capture setting:     Off (optimal)                                                          |
// |                                                                                                                    |
// |   Current clock off simulation setting:     Off (optimal)                                                          |
// | ------------------------------------------------------------------------------------------------------------------ |
//  ------------------------------------------------------------------------
//  Simulation performed for #gates = 6497  #faults = 12966
//  Run fault simulation without storing patterns.  pattern source = 330 external patterns
//  ------------------------------------------------------------------------
//  #patterns  test      #faults  #faults    # eff.    # test         process 
//  simulated  coverage  in list  detected   patterns  patterns       CPU time
//   64         51.46%     6294      6672       64         0          0.14 sec
//   128        57.57%     5502       792       53         0          0.16 sec
//   192        62.77%     4827       675       50         0          0.18 sec
//   256        64.78%     4566       261       38         0          0.20 sec
//   320        66.60%     4330       236       29         0          0.21 sec
//   330        66.66%     4323         7        5         0          0.22 sec
