// | ------------------------------------------------------------------------------------------------------------------ |
// |                                                                                                                    |
// |          Current split capture setting:     Off (optimal)                                                          |
// |                                                                                                                    |
// |   Current clock off simulation setting:     Off (optimal)                                                          |
// | ------------------------------------------------------------------------------------------------------------------ |
//  ------------------------------------------------------------------------
//  Simulation performed for #gates = 12864  #faults = 25984
//  Run fault simulation without storing patterns.  pattern source = 909 external patterns
//  ------------------------------------------------------------------------
//  #patterns  test      #faults  #faults    # eff.    # test         process 
//  simulated  coverage  in list  detected   patterns  patterns       CPU time
//   64         12.55%    22724      3260       64         0          0.11 sec
//   128        14.11%    22317       407       50         0          0.17 sec
//   192        14.70%    22165       152       38         0          0.23 sec
//   256        15.22%    22030       135       36         0          0.29 sec
//   320        15.60%    21930       100       28         0          0.34 sec
//   384        15.91%    21850        80       31         0          0.40 sec
//   448        16.40%    21722       128       34         0          0.45 sec
//   512        16.67%    21653        69       23         0          0.51 sec
//   576        16.88%    21598        55       20         0          0.56 sec
//   640        17.13%    21533        65       24         0          0.62 sec
//   704        17.38%    21469        64       21         0          0.67 sec
//   768        17.56%    21421        48       23         0          0.73 sec
//   832        17.64%    21401        20       10         0          0.78 sec
//   896        17.71%    21382        19       11         0          0.83 sec
//   909        17.71%    21381         1        1         0          0.88 sec
