// | ------------------------------------------------------------------------------------------------------------------ |
// |                                                                                                                    |
// |          Current split capture setting:     Off (optimal)                                                          |
// |                                                                                                                    |
// |   Current clock off simulation setting:     Off (optimal)                                                          |
// | ------------------------------------------------------------------------------------------------------------------ |
//  ------------------------------------------------------------------------
//  Simulation performed for #gates = 12864  #faults = 25984
//  Run fault simulation without storing patterns.  pattern source = 1007 external patterns
//  ------------------------------------------------------------------------
//  #patterns  test      #faults  #faults    # eff.    # test         process 
//  simulated  coverage  in list  detected   patterns  patterns       CPU time
//   64         15.78%    21884      4100       63         0          0.13 sec
//   128        17.42%    21457       427       56         0          0.20 sec
//   192        18.43%    21194       263       56         0          0.26 sec
//   256        19.00%    21046       148       45         0          0.31 sec
//   320        19.49%    20919       127       37         0          0.37 sec
//   384        19.81%    20836        83       33         0          0.43 sec
//   448        19.99%    20791        45       25         0          0.48 sec
//   512        20.14%    20752        39       24         0          0.54 sec
//   576        20.29%    20713        39       18         0          0.59 sec
//   640        20.39%    20687        26       14         0          0.65 sec
//   704        20.49%    20659        28       15         0          0.70 sec
//   768        20.55%    20644        15       11         0          0.76 sec
//   832        20.59%    20635         9        7         0          0.81 sec
//   896        20.63%    20624        11        9         0          0.87 sec
//   960        20.68%    20610        14        6         0          0.93 sec
//   1007       20.74%    20596        14        8         0          0.98 sec
