// | ------------------------------------------------------------------------------------------------------------------ |
// |                                                                                                                    |
// |          Current split capture setting:     Off (optimal)                                                          |
// |                                                                                                                    |
// |   Current clock off simulation setting:     Off (optimal)                                                          |
// | ------------------------------------------------------------------------------------------------------------------ |
//  ------------------------------------------------------------------------
//  Simulation performed for #gates = 12864  #faults = 25984
//  Run fault simulation without storing patterns.  pattern source = 1127 external patterns
//  ------------------------------------------------------------------------
//  #patterns  test      #faults  #faults    # eff.    # test         process 
//  simulated  coverage  in list  detected   patterns  patterns       CPU time
//   64         15.44%    21971      4013       64         0          0.13 sec
//   128        17.00%    21566       405       57         0          0.20 sec
//   192        17.78%    21363       203       44         0          0.26 sec
//   256        18.25%    21243       120       35         0          0.32 sec
//   320        18.57%    21159        84       29         0          0.37 sec
//   384        18.94%    21063        96       34         0          0.43 sec
//   448        19.12%    21015        48       27         0          0.49 sec
//   512        19.25%    20981        34       22         0          0.54 sec
//   576        19.43%    20936        45       18         0          0.60 sec
//   640        19.55%    20903        33       21         0          0.65 sec
//   704        19.70%    20865        38       21         0          0.71 sec
//   768        19.83%    20832        33       19         0          0.76 sec
//   832        19.97%    20796        36       17         0          0.81 sec
//   896        20.02%    20781        15        9         0          0.87 sec
//   960        20.07%    20768        13        8         0          0.92 sec
//   1024       20.12%    20757        11        7         0          0.97 sec
//   1088       20.15%    20748         9        6         0          1.02 sec
//   1127       20.19%    20739         9        4         0          1.07 sec
