// | ------------------------------------------------------------------------------------------------------------------ |
// |                                                                                                                    |
// |          Current split capture setting:     Off (optimal)                                                          |
// |                                                                                                                    |
// |   Current clock off simulation setting:     Off (optimal)                                                          |
// | ------------------------------------------------------------------------------------------------------------------ |
//  ------------------------------------------------------------------------
//  Simulation performed for #gates = 12864  #faults = 25984
//  Run fault simulation without storing patterns.  pattern source = 995 external patterns
//  ------------------------------------------------------------------------
//  #patterns  test      #faults  #faults    # eff.    # test         process 
//  simulated  coverage  in list  detected   patterns  patterns       CPU time
//   64         14.26%    22279      3705       64         0          0.13 sec
//   128        15.95%    21840       439       59         0          0.20 sec
//   192        16.84%    21608       232       47         0          0.26 sec
//   256        17.46%    21446       162       41         0          0.32 sec
//   320        18.03%    21298       148       39         0          0.38 sec
//   384        18.48%    21183       115       34         0          0.43 sec
//   448        18.72%    21121        62       29         0          0.49 sec
//   512        19.05%    21034        87       29         0          0.55 sec
//   576        19.30%    20968        66       32         0          0.60 sec
//   640        19.60%    20891        77       26         0          0.66 sec
//   704        19.83%    20831        60       23         0          0.71 sec
//   768        20.02%    20783        48       22         0          0.77 sec
//   832        20.15%    20749        34       14         0          0.82 sec
//   896        20.29%    20713        36       12         0          0.87 sec
//   960        20.36%    20694        19        6         0          0.93 sec
//   995        20.40%    20684        10        5         0          0.98 sec
