// | ------------------------------------------------------------------------------------------------------------------ |
// |                                                                                                                    |
// |          Current split capture setting:     Off (optimal)                                                          |
// |                                                                                                                    |
// |   Current clock off simulation setting:     Off (optimal)                                                          |
// | ------------------------------------------------------------------------------------------------------------------ |
//  ------------------------------------------------------------------------
//  Simulation performed for #gates = 12864  #faults = 25984
//  Run fault simulation without storing patterns.  pattern source = 825 external patterns
//  ------------------------------------------------------------------------
//  #patterns  test      #faults  #faults    # eff.    # test         process 
//  simulated  coverage  in list  detected   patterns  patterns       CPU time
//   64         14.46%    22228      3756       63         0          0.12 sec
//   128        15.96%    21836       392       52         0          0.19 sec
//   192        16.81%    21615       221       50         0          0.25 sec
//   256        17.31%    21485       130       40         0          0.31 sec
//   320        17.72%    21380       105       34         0          0.37 sec
//   384        17.96%    21317        63       26         0          0.43 sec
//   448        18.23%    21246        71       28         0          0.49 sec
//   512        18.38%    21207        39       20         0          0.54 sec
//   576        18.52%    21171        36       19         0          0.60 sec
//   640        18.71%    21123        48       23         0          0.66 sec
//   704        18.83%    21092        31       15         0          0.72 sec
//   768        18.89%    21076        16       11         0          0.77 sec
//   825        18.95%    21060        16        9         0          0.83 sec
