// | ------------------------------------------------------------------------------------------------------------------ |
// |                                                                                                                    |
// |          Current split capture setting:     Off (optimal)                                                          |
// |                                                                                                                    |
// |   Current clock off simulation setting:     Off (optimal)                                                          |
// | ------------------------------------------------------------------------------------------------------------------ |
//  ------------------------------------------------------------------------
//  Simulation performed for #gates = 12864  #faults = 25984
//  Run fault simulation without storing patterns.  pattern source = 820 external patterns
//  ------------------------------------------------------------------------
//  #patterns  test      #faults  #faults    # eff.    # test         process 
//  simulated  coverage  in list  detected   patterns  patterns       CPU time
//   64         12.97%    22613      3371       64         0          0.11 sec
//   128        15.01%    22084       529       58         0          0.17 sec
//   192        15.71%    21901       183       43         0          0.23 sec
//   256        16.15%    21787       114       37         0          0.29 sec
//   320        16.51%    21693        94       30         0          0.35 sec
//   384        16.83%    21612        81       29         0          0.40 sec
//   448        17.05%    21555        57       28         0          0.46 sec
//   512        17.26%    21500        55       21         0          0.51 sec
//   576        17.52%    21431        69       24         0          0.57 sec
//   640        17.70%    21385        46       22         0          0.62 sec
//   704        17.77%    21366        19       12         0          0.68 sec
//   768        17.89%    21335        31       12         0          0.73 sec
//   820        17.98%    21312        23       10         0          0.79 sec
