// | ------------------------------------------------------------------------------------------------------------------ |
// |                                                                                                                    |
// |          Current split capture setting:     Off (optimal)                                                          |
// |                                                                                                                    |
// |   Current clock off simulation setting:     Off (optimal)                                                          |
// | ------------------------------------------------------------------------------------------------------------------ |
//  ------------------------------------------------------------------------
//  Simulation performed for #gates = 12864  #faults = 25984
//  Run fault simulation without storing patterns.  pattern source = 1158 external patterns
//  ------------------------------------------------------------------------
//  #patterns  test      #faults  #faults    # eff.    # test         process 
//  simulated  coverage  in list  detected   patterns  patterns       CPU time
//   64         14.67%    22172      3812       64         0          0.13 sec
//   128        16.72%    21640       532       59         0          0.20 sec
//   192        17.56%    21421       219       51         0          0.26 sec
//   256        18.22%    21251       170       48         0          0.32 sec
//   320        18.62%    21146       105       42         0          0.38 sec
//   384        18.98%    21052        94       29         0          0.44 sec
//   448        19.26%    20979        73       31         0          0.49 sec
//   512        19.45%    20929        50       24         0          0.55 sec
//   576        19.60%    20892        37       15         0          0.60 sec
//   640        19.86%    20823        69       25         0          0.66 sec
//   704        19.95%    20799        24       13         0          0.72 sec
//   768        20.10%    20760        39       18         0          0.77 sec
//   832        20.19%    20738        22       13         0          0.82 sec
//   896        20.29%    20711        27       13         0          0.88 sec
//   960        20.35%    20697        14        7         0          0.93 sec
//   1024       20.39%    20685        12        8         0          0.99 sec
//   1088       20.43%    20676         9        5         0          1.04 sec
//   1152       20.49%    20661        15        8         0          1.10 sec
