// | ------------------------------------------------------------------------------------------------------------------ |
// |                                                                                                                    |
// |          Current split capture setting:     Off (optimal)                                                          |
// |                                                                                                                    |
// |   Current clock off simulation setting:     Off (optimal)                                                          |
// | ------------------------------------------------------------------------------------------------------------------ |
//  ------------------------------------------------------------------------
//  Simulation performed for #gates = 12864  #faults = 25984
//  Run fault simulation without storing patterns.  pattern source = 854 external patterns
//  ------------------------------------------------------------------------
//  #patterns  test      #faults  #faults    # eff.    # test         process 
//  simulated  coverage  in list  detected   patterns  patterns       CPU time
//   64         14.71%    22161      3823       64         0          0.13 sec
//   128        16.36%    21733       428       56         0          0.20 sec
//   192        17.25%    21503       230       49         0          0.26 sec
//   256        17.88%    21337       166       45         0          0.32 sec
//   320        18.37%    21212       125       37         0          0.38 sec
//   384        18.68%    21129        83       35         0          0.44 sec
//   448        18.93%    21065        64       25         0          0.49 sec
//   512        19.16%    21005        60       29         0          0.55 sec
//   576        19.32%    20965        40       19         0          0.61 sec
//   640        19.50%    20916        49       22         0          0.66 sec
//   704        19.64%    20880        36       19         0          0.72 sec
//   768        19.85%    20827        53       19         0          0.77 sec
//   832        19.93%    20806        21       16         0          0.83 sec
//   854        20.00%    20786        20        7         0          0.88 sec
