// | ------------------------------------------------------------------------------------------------------------------ |
// |                                                                                                                    |
// |          Current split capture setting:     Off (optimal)                                                          |
// |                                                                                                                    |
// |   Current clock off simulation setting:     Off (optimal)                                                          |
// | ------------------------------------------------------------------------------------------------------------------ |
//  ------------------------------------------------------------------------
//  Simulation performed for #gates = 12864  #faults = 25984
//  Run fault simulation without storing patterns.  pattern source = 876 external patterns
//  ------------------------------------------------------------------------
//  #patterns  test      #faults  #faults    # eff.    # test         process 
//  simulated  coverage  in list  detected   patterns  patterns       CPU time
//   64         14.35%    22256      3728       64         0          0.12 sec
//   128        15.91%    21851       405       59         0          0.18 sec
//   192        16.93%    21585       266       55         0          0.25 sec
//   256        17.61%    21408       177       47         0          0.31 sec
//   320        18.00%    21307       101       38         0          0.36 sec
//   384        18.31%    21226        81       35         0          0.42 sec
//   448        18.57%    21160        66       26         0          0.48 sec
//   512        18.77%    21107        53       23         0          0.53 sec
//   576        19.03%    21039        68       25         0          0.59 sec
//   640        19.21%    20992        47       21         0          0.64 sec
//   704        19.33%    20960        32       15         0          0.70 sec
//   768        19.46%    20928        32       14         0          0.76 sec
//   832        19.52%    20912        16        9         0          0.81 sec
//   876        19.55%    20905         7        5         0          0.87 sec
