// | ------------------------------------------------------------------------------------------------------------------ |
// |                                                                                                                    |
// |          Current split capture setting:     Off (optimal)                                                          |
// |                                                                                                                    |
// |   Current clock off simulation setting:     Off (optimal)                                                          |
// | ------------------------------------------------------------------------------------------------------------------ |
//  ------------------------------------------------------------------------
//  Simulation performed for #gates = 12864  #faults = 25984
//  Run fault simulation without storing patterns.  pattern source = 995 external patterns
//  ------------------------------------------------------------------------
//  #patterns  test      #faults  #faults    # eff.    # test         process 
//  simulated  coverage  in list  detected   patterns  patterns       CPU time
//   64         20.21%    20733      5251       64         0          0.14 sec
//   128        23.79%    19803       930       64         0          0.20 sec
//   192        25.75%    19294       509       64         0          0.26 sec
//   256        27.07%    18950       344       64         0          0.31 sec
//   320        28.11%    18679       271       64         0          0.36 sec
//   384        28.93%    18466       213       64         0          0.41 sec
//   448        29.52%    18313       153       64         0          0.46 sec
//   512        30.08%    18167       146       64         0          0.51 sec
//   576        30.52%    18053       114       64         0          0.56 sec
//   640        30.93%    17946       107       64         0          0.61 sec
//   704        31.30%    17852        94       64         0          0.65 sec
//   768        31.74%    17736       116       64         0          0.70 sec
//   832        32.13%    17636       100       64         0          0.75 sec
//   896        32.54%    17530       106       64         0          0.79 sec
//   960        32.97%    17417       113       64         0          0.84 sec
//   995        33.17%    17364        53       35         0          0.89 sec
