// | ------------------------------------------------------------------------------------------------------------------ |
// |                                                                                                                    |
// |          Current split capture setting:     Off (optimal)                                                          |
// |                                                                                                                    |
// |   Current clock off simulation setting:     Off (optimal)                                                          |
// | ------------------------------------------------------------------------------------------------------------------ |
//  ------------------------------------------------------------------------
//  Simulation performed for #gates = 12864  #faults = 25984
//  Run fault simulation without storing patterns.  pattern source = 1013 external patterns
//  ------------------------------------------------------------------------
//  #patterns  test      #faults  #faults    # eff.    # test         process 
//  simulated  coverage  in list  detected   patterns  patterns       CPU time
//   64         13.52%    22472      3512       64         0          0.12 sec
//   128        14.72%    22158       314       53         0          0.18 sec
//   192        15.73%    21898       260       50         0          0.25 sec
//   256        16.27%    21756       142       41         0          0.31 sec
//   320        16.78%    21623       133       37         0          0.36 sec
//   384        17.03%    21560        63       25         0          0.42 sec
//   448        17.43%    21456       104       25         0          0.48 sec
//   512        17.66%    21396        60       25         0          0.54 sec
//   576        17.94%    21323        73       30         0          0.60 sec
//   640        18.22%    21251        72       30         0          0.66 sec
//   704        18.47%    21184        67       22         0          0.72 sec
//   768        18.60%    21152        32       14         0          0.78 sec
//   832        18.77%    21107        45       14         0          0.83 sec
//   896        18.88%    21078        29       16         0          0.89 sec
//   960        18.93%    21066        12        6         0          0.94 sec
//   1013       18.96%    21058         8        6         0          1.00 sec
