// | ------------------------------------------------------------------------------------------------------------------ |
// |                                                                                                                    |
// |          Current split capture setting:     Off (optimal)                                                          |
// |                                                                                                                    |
// |   Current clock off simulation setting:     Off (optimal)                                                          |
// | ------------------------------------------------------------------------------------------------------------------ |
//  ------------------------------------------------------------------------
//  Simulation performed for #gates = 12864  #faults = 25984
//  Run fault simulation without storing patterns.  pattern source = 825 external patterns
//  ------------------------------------------------------------------------
//  #patterns  test      #faults  #faults    # eff.    # test         process 
//  simulated  coverage  in list  detected   patterns  patterns       CPU time
//   64         15.27%    22015      3969       64         0          0.13 sec
//   128        17.10%    21541       474       61         0          0.19 sec
//   192        17.88%    21338       203       50         0          0.25 sec
//   256        18.68%    21130       208       52         0          0.31 sec
//   320        19.05%    21033        97       43         0          0.37 sec
//   384        19.29%    20971        62       32         0          0.43 sec
//   448        19.49%    20919        52       23         0          0.48 sec
//   512        19.67%    20872        47       20         0          0.54 sec
//   576        19.79%    20841        31       20         0          0.59 sec
//   640        19.95%    20801        40       24         0          0.65 sec
//   704        20.03%    20780        21       15         0          0.70 sec
//   768        20.10%    20761        19       11         0          0.76 sec
//   825        20.14%    20752         9        6         0          0.81 sec
