// | ------------------------------------------------------------------------------------------------------------------ |
// |                                                                                                                    |
// |          Current split capture setting:     Off (optimal)                                                          |
// |                                                                                                                    |
// |   Current clock off simulation setting:     Off (optimal)                                                          |
// | ------------------------------------------------------------------------------------------------------------------ |
//  ------------------------------------------------------------------------
//  Simulation performed for #gates = 12864  #faults = 25984
//  Run fault simulation without storing patterns.  pattern source = 825 external patterns
//  ------------------------------------------------------------------------
//  #patterns  test      #faults  #faults    # eff.    # test         process 
//  simulated  coverage  in list  detected   patterns  patterns       CPU time
//   64         14.56%    22202      3782       64         0          0.13 sec
//   128        16.11%    21797       405       59         0          0.19 sec
//   192        16.94%    21583       214       50         0          0.26 sec
//   256        17.53%    21428       155       45         0          0.32 sec
//   320        17.88%    21338        90       32         0          0.38 sec
//   384        18.26%    21240        98       34         0          0.44 sec
//   448        18.49%    21180        60       24         0          0.49 sec
//   512        18.68%    21131        49       23         0          0.55 sec
//   576        18.81%    21097        34       17         0          0.61 sec
//   640        18.94%    21063        34       16         0          0.67 sec
//   704        19.10%    21021        42       19         0          0.72 sec
//   768        19.18%    21001        20       12         0          0.78 sec
//   825        19.25%    20981        20       14         0          0.84 sec
