// | ------------------------------------------------------------------------------------------------------------------ |
// |                                                                                                                    |
// |          Current split capture setting:     Off (optimal)                                                          |
// |                                                                                                                    |
// |   Current clock off simulation setting:     Off (optimal)                                                          |
// | ------------------------------------------------------------------------------------------------------------------ |
//  ------------------------------------------------------------------------
//  Simulation performed for #gates = 12864  #faults = 25984
//  Run fault simulation without storing patterns.  pattern source = 941 external patterns
//  ------------------------------------------------------------------------
//  #patterns  test      #faults  #faults    # eff.    # test         process 
//  simulated  coverage  in list  detected   patterns  patterns       CPU time
//   64         13.25%    22542      3442       64         0          0.11 sec
//   128        14.95%    22100       442       58         0          0.17 sec
//   192        15.87%    21860       240       48         0          0.23 sec
//   256        16.39%    21725       135       40         0          0.29 sec
//   320        16.78%    21624       101       37         0          0.35 sec
//   384        17.05%    21555        69       30         0          0.41 sec
//   448        17.34%    21478        77       34         0          0.46 sec
//   512        17.54%    21427        51       20         0          0.52 sec
//   576        17.73%    21376        51       20         0          0.57 sec
//   640        17.83%    21352        24       16         0          0.63 sec
//   704        17.91%    21331        21       11         0          0.68 sec
//   768        18.02%    21302        29       15         0          0.73 sec
//   832        18.10%    21282        20       11         0          0.79 sec
//   896        18.13%    21274         8        5         0          0.84 sec
//   941        18.13%    21273         1        1         0          0.89 sec
