// | ------------------------------------------------------------------------------------------------------------------ |
// |                                                                                                                    |
// |          Current split capture setting:     Off (optimal)                                                          |
// |                                                                                                                    |
// |   Current clock off simulation setting:     Off (optimal)                                                          |
// | ------------------------------------------------------------------------------------------------------------------ |
//  ------------------------------------------------------------------------
//  Simulation performed for #gates = 12864  #faults = 25984
//  Run fault simulation without storing patterns.  pattern source = 820 external patterns
//  ------------------------------------------------------------------------
//  #patterns  test      #faults  #faults    # eff.    # test         process 
//  simulated  coverage  in list  detected   patterns  patterns       CPU time
//   64         13.83%    22391      3593       62         0          0.12 sec
//   128        15.62%    21925       466       59         0          0.19 sec
//   192        16.48%    21701       224       43         0          0.25 sec
//   256        17.00%    21566       135       38         0          0.31 sec
//   320        17.38%    21469        97       33         0          0.38 sec
//   384        17.66%    21396        73       29         0          0.43 sec
//   448        17.88%    21339        57       31         0          0.49 sec
//   512        18.09%    21283        56       22         0          0.55 sec
//   576        18.31%    21227        56       18         0          0.61 sec
//   640        18.57%    21158        69       26         0          0.67 sec
//   704        18.68%    21129        29       17         0          0.72 sec
//   768        18.78%    21103        26       17         0          0.78 sec
//   820        18.87%    21080        23       10         0          0.83 sec
