// | ------------------------------------------------------------------------------------------------------------------ |
// |                                                                                                                    |
// |          Current split capture setting:     Off (optimal)                                                          |
// |                                                                                                                    |
// |   Current clock off simulation setting:     Off (optimal)                                                          |
// | ------------------------------------------------------------------------------------------------------------------ |
//  ------------------------------------------------------------------------
//  Simulation performed for #gates = 12864  #faults = 25984
//  Run fault simulation without storing patterns.  pattern source = 929 external patterns
//  ------------------------------------------------------------------------
//  #patterns  test      #faults  #faults    # eff.    # test         process 
//  simulated  coverage  in list  detected   patterns  patterns       CPU time
//   64         15.46%    21966      4018       64         0          0.13 sec
//   128        17.33%    21481       485       60         0          0.19 sec
//   192        18.02%    21301       180       52         0          0.25 sec
//   256        18.49%    21179       122       41         0          0.31 sec
//   320        18.76%    21109        70       26         0          0.37 sec
//   384        19.01%    21044        65       31         0          0.42 sec
//   448        19.22%    20989        55       28         0          0.48 sec
//   512        19.43%    20936        53       22         0          0.54 sec
//   576        19.61%    20889        47       21         0          0.60 sec
//   640        19.74%    20855        34       18         0          0.65 sec
//   704        19.83%    20832        23       14         0          0.71 sec
//   768        19.92%    20809        23       10         0          0.76 sec
//   832        20.00%    20786        23       12         0          0.82 sec
//   896        20.09%    20765        21       13         0          0.88 sec
//   929        20.14%    20752        13        7         0          0.93 sec
