// | ------------------------------------------------------------------------------------------------------------------ |
// |                                                                                                                    |
// |          Current split capture setting:     Off (optimal)                                                          |
// |                                                                                                                    |
// |   Current clock off simulation setting:     Off (optimal)                                                          |
// | ------------------------------------------------------------------------------------------------------------------ |
//  ------------------------------------------------------------------------
//  Simulation performed for #gates = 12864  #faults = 25984
//  Run fault simulation without storing patterns.  pattern source = 809 external patterns
//  ------------------------------------------------------------------------
//  #patterns  test      #faults  #faults    # eff.    # test         process 
//  simulated  coverage  in list  detected   patterns  patterns       CPU time
//   64         14.64%    22179      3805       64         0          0.12 sec
//   128        16.51%    21694       485       61         0          0.19 sec
//   192        17.37%    21470       224       50         0          0.25 sec
//   256        17.91%    21329       141       48         0          0.31 sec
//   320        18.29%    21232        97       38         0          0.36 sec
//   384        18.56%    21162        70       23         0          0.42 sec
//   448        18.76%    21110        52       24         0          0.48 sec
//   512        18.92%    21068        42       20         0          0.53 sec
//   576        19.11%    21019        49       26         0          0.59 sec
//   640        19.27%    20976        43       20         0          0.64 sec
//   704        19.39%    20947        29       12         0          0.70 sec
//   768        19.54%    20906        41       16         0          0.75 sec
//   809        19.55%    20904         2        2         0          0.80 sec
