// | ------------------------------------------------------------------------------------------------------------------ |
// |                                                                                                                    |
// |          Current split capture setting:     Off (optimal)                                                          |
// |                                                                                                                    |
// |   Current clock off simulation setting:     Off (optimal)                                                          |
// | ------------------------------------------------------------------------------------------------------------------ |
//  ------------------------------------------------------------------------
//  Simulation performed for #gates = 12864  #faults = 25984
//  Run fault simulation without storing patterns.  pattern source = 920 external patterns
//  ------------------------------------------------------------------------
//  #patterns  test      #faults  #faults    # eff.    # test         process 
//  simulated  coverage  in list  detected   patterns  patterns       CPU time
//   64         15.36%    21994      3990       64         0          0.13 sec
//   128        17.04%    21556       438       55         0          0.20 sec
//   192        18.01%    21305       251       51         0          0.26 sec
//   256        18.53%    21168       137       47         0          0.32 sec
//   320        18.86%    21084        84       34         0          0.38 sec
//   384        19.19%    20998        86       36         0          0.44 sec
//   448        19.39%    20947        51       25         0          0.50 sec
//   512        19.60%    20892        55       18         0          0.55 sec
//   576        19.75%    20852        40       19         0          0.61 sec
//   640        19.85%    20826        26       16         0          0.67 sec
//   704        19.94%    20804        22       12         0          0.72 sec
//   768        20.01%    20785        19        9         0          0.78 sec
//   832        20.10%    20760        25       15         0          0.83 sec
//   896        20.18%    20740        20       12         0          0.89 sec
//   920        20.22%    20731         9        3         0          0.94 sec
