// | ------------------------------------------------------------------------------------------------------------------ |
// |                                                                                                                    |
// |          Current split capture setting:     Off (optimal)                                                          |
// |                                                                                                                    |
// |   Current clock off simulation setting:     Off (optimal)                                                          |
// | ------------------------------------------------------------------------------------------------------------------ |
//  ------------------------------------------------------------------------
//  Simulation performed for #gates = 12864  #faults = 25984
//  Run fault simulation without storing patterns.  pattern source = 1007 external patterns
//  ------------------------------------------------------------------------
//  #patterns  test      #faults  #faults    # eff.    # test         process 
//  simulated  coverage  in list  detected   patterns  patterns       CPU time
//   64         15.19%    22038      3946       63         0          0.13 sec
//   128        17.06%    21552       486       60         0          0.20 sec
//   192        17.96%    21316       236       51         0          0.26 sec
//   256        18.59%    21154       162       48         0          0.32 sec
//   320        18.87%    21082        72       31         0          0.37 sec
//   384        19.10%    21020        62       29         0          0.43 sec
//   448        19.37%    20952        68       26         0          0.49 sec
//   512        19.50%    20918        34       18         0          0.55 sec
//   576        19.61%    20888        30       18         0          0.60 sec
//   640        19.74%    20856        32       14         0          0.66 sec
//   704        19.78%    20845        11        8         0          0.72 sec
//   768        19.88%    20819        26       13         0          0.77 sec
//   832        20.00%    20788        31       19         0          0.83 sec
//   896        20.06%    20771        17       10         0          0.89 sec
//   960        20.14%    20752        19        7         0          0.94 sec
//   1007       20.20%    20735        17       11         0          0.99 sec
