// | ------------------------------------------------------------------------------------------------------------------ |
// |                                                                                                                    |
// |          Current split capture setting:     Off (optimal)                                                          |
// |                                                                                                                    |
// |   Current clock off simulation setting:     Off (optimal)                                                          |
// | ------------------------------------------------------------------------------------------------------------------ |
//  ------------------------------------------------------------------------
//  Simulation performed for #gates = 12864  #faults = 25984
//  Run fault simulation without storing patterns.  pattern source = 916 external patterns
//  ------------------------------------------------------------------------
//  #patterns  test      #faults  #faults    # eff.    # test         process 
//  simulated  coverage  in list  detected   patterns  patterns       CPU time
//   64         14.53%    22208      3776       63         0          0.12 sec
//   128        16.44%    21711       497       61         0          0.19 sec
//   192        17.45%    21450       261       50         0          0.25 sec
//   256        18.03%    21299       151       47         0          0.31 sec
//   320        18.49%    21179       120       35         0          0.37 sec
//   384        18.84%    21089        90       33         0          0.43 sec
//   448        19.12%    21017        72       27         0          0.48 sec
//   512        19.27%    20977        40       19         0          0.54 sec
//   576        19.44%    20932        45       18         0          0.59 sec
//   640        19.63%    20883        49       20         0          0.65 sec
//   704        19.82%    20834        49       23         0          0.70 sec
//   768        20.06%    20771        63       24         0          0.76 sec
//   832        20.14%    20750        21       16         0          0.81 sec
//   896        20.20%    20734        16        9         0          0.86 sec
//   916        20.22%    20730         4        2         0          0.91 sec
