// | ------------------------------------------------------------------------------------------------------------------ |
// |                                                                                                                    |
// |          Current split capture setting:     Off (optimal)                                                          |
// |                                                                                                                    |
// |   Current clock off simulation setting:     Off (optimal)                                                          |
// | ------------------------------------------------------------------------------------------------------------------ |
//  ------------------------------------------------------------------------
//  Simulation performed for #gates = 12864  #faults = 25984
//  Run fault simulation without storing patterns.  pattern source = 857 external patterns
//  ------------------------------------------------------------------------
//  #patterns  test      #faults  #faults    # eff.    # test         process 
//  simulated  coverage  in list  detected   patterns  patterns       CPU time
//   64         14.61%    22189      3795       64         0          0.12 sec
//   128        16.36%    21734       455       62         0          0.19 sec
//   192        17.32%    21483       251       56         0          0.25 sec
//   256        17.79%    21362       121       40         0          0.31 sec
//   320        18.27%    21238       124       38         0          0.37 sec
//   384        18.57%    21160        78       29         0          0.42 sec
//   448        18.82%    21093        67       26         0          0.48 sec
//   512        18.93%    21065        28       14         0          0.53 sec
//   576        19.08%    21026        39       18         0          0.59 sec
//   640        19.22%    20991        35       18         0          0.64 sec
//   704        19.29%    20972        19       13         0          0.70 sec
//   768        19.38%    20949        23       11         0          0.75 sec
//   832        19.44%    20934        15        9         0          0.81 sec
//   857        19.44%    20933         1        1         0          0.86 sec
