// | ------------------------------------------------------------------------------------------------------------------ |
// |                                                                                                                    |
// |          Current split capture setting:     Off (optimal)                                                          |
// |                                                                                                                    |
// |   Current clock off simulation setting:     Off (optimal)                                                          |
// | ------------------------------------------------------------------------------------------------------------------ |
//  ------------------------------------------------------------------------
//  Simulation performed for #gates = 12864  #faults = 25984
//  Run fault simulation without storing patterns.  pattern source = 827 external patterns
//  ------------------------------------------------------------------------
//  #patterns  test      #faults  #faults    # eff.    # test         process 
//  simulated  coverage  in list  detected   patterns  patterns       CPU time
//   64         14.46%    22227      3757       64         0          0.12 sec
//   128        16.17%    21782       445       62         0          0.18 sec
//   192        16.87%    21601       181       45         0          0.24 sec
//   256        17.33%    21481       120       43         0          0.29 sec
//   320        17.75%    21373       108       33         0          0.35 sec
//   384        18.00%    21308        65       29         0          0.41 sec
//   448        18.22%    21249        59       24         0          0.46 sec
//   512        18.36%    21213        36       17         0          0.51 sec
//   576        18.48%    21181        32       14         0          0.57 sec
//   640        18.59%    21154        27       14         0          0.62 sec
//   704        18.67%    21132        22       14         0          0.67 sec
//   768        18.77%    21108        24       15         0          0.73 sec
//   827        18.84%    21089        19       10         0          0.78 sec
