// | ------------------------------------------------------------------------------------------------------------------ |
// |                                                                                                                    |
// |          Current split capture setting:     Off (optimal)                                                          |
// |                                                                                                                    |
// |   Current clock off simulation setting:     Off (optimal)                                                          |
// | ------------------------------------------------------------------------------------------------------------------ |
//  ------------------------------------------------------------------------
//  Simulation performed for #gates = 12864  #faults = 25984
//  Run fault simulation without storing patterns.  pattern source = 907 external patterns
//  ------------------------------------------------------------------------
//  #patterns  test      #faults  #faults    # eff.    # test         process 
//  simulated  coverage  in list  detected   patterns  patterns       CPU time
//   64         12.55%    22723      3261       59         0          0.11 sec
//   128        14.28%    22274       449       55         0          0.18 sec
//   192        15.08%    22066       208       48         0          0.24 sec
//   256        15.60%    21931       135       39         0          0.30 sec
//   320        16.04%    21815       116       35         0          0.36 sec
//   384        16.30%    21748        67       24         0          0.42 sec
//   448        16.65%    21657        91       29         0          0.48 sec
//   512        16.88%    21598        59       21         0          0.53 sec
//   576        16.98%    21571        27       12         0          0.59 sec
//   640        17.26%    21500        71       23         0          0.65 sec
//   704        17.48%    21443        57       24         0          0.70 sec
//   768        17.72%    21380        63       28         0          0.76 sec
//   832        17.85%    21345        35       15         0          0.82 sec
//   896        17.96%    21316        29       12         0          0.87 sec
//   907        17.97%    21314         2        1         0          0.92 sec
