// | ------------------------------------------------------------------------------------------------------------------ |
// |                                                                                                                    |
// |          Current split capture setting:     Off (optimal)                                                          |
// |                                                                                                                    |
// |   Current clock off simulation setting:     Off (optimal)                                                          |
// | ------------------------------------------------------------------------------------------------------------------ |
//  ------------------------------------------------------------------------
//  Simulation performed for #gates = 12864  #faults = 25984
//  Run fault simulation without storing patterns.  pattern source = 825 external patterns
//  ------------------------------------------------------------------------
//  #patterns  test      #faults  #faults    # eff.    # test         process 
//  simulated  coverage  in list  detected   patterns  patterns       CPU time
//   64         13.39%    22505      3479       63         0          0.11 sec
//   128        15.41%    21980       525       58         0          0.18 sec
//   192        16.34%    21737       243       49         0          0.24 sec
//   256        16.88%    21598       139       41         0          0.30 sec
//   320        17.18%    21519        79       27         0          0.35 sec
//   384        17.45%    21449        70       31         0          0.41 sec
//   448        17.64%    21400        49       21         0          0.46 sec
//   512        17.75%    21372        28       18         0          0.52 sec
//   576        17.87%    21340        32       17         0          0.57 sec
//   640        18.09%    21283        57       25         0          0.63 sec
//   704        18.25%    21242        41       19         0          0.68 sec
//   768        18.37%    21210        32       16         0          0.74 sec
//   825        18.48%    21183        27       13         0          0.79 sec
