// | ------------------------------------------------------------------------------------------------------------------ |
// |                                                                                                                    |
// |          Current split capture setting:     Off (optimal)                                                          |
// |                                                                                                                    |
// |   Current clock off simulation setting:     Off (optimal)                                                          |
// | ------------------------------------------------------------------------------------------------------------------ |
//  ------------------------------------------------------------------------
//  Simulation performed for #gates = 12864  #faults = 25984
//  Run fault simulation without storing patterns.  pattern source = 915 external patterns
//  ------------------------------------------------------------------------
//  #patterns  test      #faults  #faults    # eff.    # test         process 
//  simulated  coverage  in list  detected   patterns  patterns       CPU time
//   64         13.43%    22495      3489       63         0          0.12 sec
//   128        15.32%    22002       493       53         0          0.19 sec
//   192        16.39%    21726       276       45         0          0.25 sec
//   256        17.00%    21567       159       40         0          0.31 sec
//   320        17.42%    21458       109       36         0          0.37 sec
//   384        17.59%    21414        44       23         0          0.42 sec
//   448        17.94%    21323        91       27         0          0.48 sec
//   512        18.21%    21252        71       25         0          0.54 sec
//   576        18.42%    21198        54       23         0          0.59 sec
//   640        18.58%    21157        41       18         0          0.65 sec
//   704        18.70%    21124        33       15         0          0.70 sec
//   768        18.93%    21064        60       23         0          0.76 sec
//   832        19.08%    21026        38       17         0          0.82 sec
//   896        19.18%    21000        26       13         0          0.87 sec
//   915        19.20%    20995         5        1         0          0.92 sec
