//  command: set_current_design b10_C 
//  Warning: 1 case: Unused net in DFT library model
//  Note: Issue set_current_design with the -show_elaboration_warnings option to see more details about previous warnings
//  command: set_system_mode analysis
//  Flattening process completed,  design_cells=188  leaf_cells=188  library_primitives=188  sim_gates=233  PIs=28  POs=17  CPU time=0.00 sec.
//  ---------------------------------------------------------------------------
//  Begin circuit learning analyses.
//  --------------------------------
//  Learning completed, CPU time=0.00 sec.
//  ---------------------------------------------------------------------------
//  Begin scan chain identification process, memory elements = 0.
//  ---------------------------------------------------------------------------
//  Circuit has no memory elements.
//  command: add_faults -all
//  command: set_fault_mode collapsed
//  command: set_fault_type stuck
//  command: read_patterns /home/animesh/currentResearch/ISI/atpg_structural/code/dumpData/tessent/itc99/b10_synth/thirtyPercent/b10_synth_thirtyPercent_15.spf
//  Reading STIL input file "/home/animesh/currentResearch/ISI/atpg_structural/code/dumpData/tessent/itc99/b10_synth/thirtyPercent/b10_synth_thirtyPercent_15.spf"
//  command: simulate_patterns > /home/animesh/currentResearch/ISI/atpg_structural/code/dumpData/tessent/itc99/b10_synth/bin_1/simulateLogFile_b10_synth_thirtyPercent_10_b10_synth_thirtyPercent_15.atpg.result
//  command: exit 
