// | ------------------------------------------------------------------------------------------------------------------ |
// |                                                                                                                    |
// |          Current split capture setting:     Off (optimal)                                                          |
// |                                                                                                                    |
// |   Current clock off simulation setting:     Off (optimal)                                                          |
// | ------------------------------------------------------------------------------------------------------------------ |
//  ------------------------------------------------------------------------
//  Simulation performed for #gates = 12864  #faults = 25984
//  Run fault simulation without storing patterns.  pattern source = 1119 external patterns
//  ------------------------------------------------------------------------
//  #patterns  test      #faults  #faults    # eff.    # test         process 
//  simulated  coverage  in list  detected   patterns  patterns       CPU time
//   64         21.44%    20412      5572       64         0          0.15 sec
//   128        25.37%    19393      1019       64         0          0.20 sec
//   192        27.36%    18874       519       64         0          0.25 sec
//   256        28.94%    18464       410       64         0          0.30 sec
//   320        30.07%    18170       294       64         0          0.35 sec
//   384        31.05%    17917       253       64         0          0.40 sec
//   448        31.88%    17701       216       64         0          0.45 sec
//   512        32.48%    17544       157       64         0          0.49 sec
//   576        33.06%    17394       150       64         0          0.54 sec
//   640        33.60%    17253       141       64         0          0.58 sec
//   704        34.07%    17130       123       64         0          0.63 sec
//   768        34.52%    17015       115       64         0          0.67 sec
//   832        34.92%    16910       105       64         0          0.71 sec
//   896        35.31%    16809       101       64         0          0.76 sec
//   960        35.76%    16691       118       64         0          0.80 sec
//   1024       36.18%    16583       108       64         0          0.84 sec
//   1088       36.49%    16502        81       64         0          0.88 sec
//   1119       36.63%    16466        36       31         0          0.93 sec
