// | ------------------------------------------------------------------------------------------------------------------ |
// |                                                                                                                    |
// |          Current split capture setting:     Off (optimal)                                                          |
// |                                                                                                                    |
// |   Current clock off simulation setting:     Off (optimal)                                                          |
// | ------------------------------------------------------------------------------------------------------------------ |
//  ------------------------------------------------------------------------
//  Simulation performed for #gates = 12864  #faults = 25984
//  Run fault simulation without storing patterns.  pattern source = 1014 external patterns
//  ------------------------------------------------------------------------
//  #patterns  test      #faults  #faults    # eff.    # test         process 
//  simulated  coverage  in list  detected   patterns  patterns       CPU time
//   64         15.67%    21912      4072       64         0          0.13 sec
//   128        17.29%    21491       421       57         0          0.19 sec
//   192        18.10%    21280       211       48         0          0.26 sec
//   256        18.63%    21142       138       42         0          0.31 sec
//   320        19.03%    21040       102       32         0          0.37 sec
//   384        19.26%    20980        60       29         0          0.43 sec
//   448        19.51%    20914        66       27         0          0.48 sec
//   512        19.75%    20852        62       29         0          0.54 sec
//   576        19.94%    20804        48       20         0          0.60 sec
//   640        20.13%    20753        51       23         0          0.65 sec
//   704        20.27%    20718        35       15         0          0.71 sec
//   768        20.42%    20677        41       24         0          0.76 sec
//   832        20.60%    20631        46       24         0          0.82 sec
//   896        20.75%    20593        38       21         0          0.87 sec
//   960        20.85%    20567        26       12         0          0.93 sec
//   1014       20.89%    20557        10        8         0          0.98 sec
