// | ------------------------------------------------------------------------------------------------------------------ |
// |                                                                                                                    |
// |          Current split capture setting:     Off (optimal)                                                          |
// |                                                                                                                    |
// |   Current clock off simulation setting:     Off (optimal)                                                          |
// | ------------------------------------------------------------------------------------------------------------------ |
//  ------------------------------------------------------------------------
//  Simulation performed for #gates = 12864  #faults = 25984
//  Run fault simulation without storing patterns.  pattern source = 1192 external patterns
//  ------------------------------------------------------------------------
//  #patterns  test      #faults  #faults    # eff.    # test         process 
//  simulated  coverage  in list  detected   patterns  patterns       CPU time
//   64         15.17%    22042      3942       64         0          0.13 sec
//   128        17.07%    21548       494       59         0          0.20 sec
//   192        17.80%    21358       190       44         0          0.26 sec
//   256        18.29%    21232       126       43         0          0.32 sec
//   320        18.62%    21145        87       33         0          0.38 sec
//   384        18.97%    21055        90       34         0          0.44 sec
//   448        19.20%    20994        61       25         0          0.49 sec
//   512        19.37%    20950        44       24         0          0.55 sec
//   576        19.54%    20906        44       18         0          0.61 sec
//   640        19.62%    20885        21       15         0          0.66 sec
//   704        19.82%    20835        50       23         0          0.72 sec
//   768        19.95%    20801        34       18         0          0.77 sec
//   832        20.10%    20762        39       18         0          0.83 sec
//   896        20.23%    20728        34       15         0          0.88 sec
//   960        20.34%    20699        29       11         0          0.94 sec
//   1024       20.40%    20683        16       12         0          0.99 sec
//   1088       20.45%    20670        13        4         0          1.04 sec
//   1152       20.52%    20653        17        8         0          1.09 sec
//   1192       20.52%    20652         1        1         0          1.15 sec
