// | ------------------------------------------------------------------------------------------------------------------ |
// |                                                                                                                    |
// |          Current split capture setting:     Off (optimal)                                                          |
// |                                                                                                                    |
// |   Current clock off simulation setting:     Off (optimal)                                                          |
// | ------------------------------------------------------------------------------------------------------------------ |
//  ------------------------------------------------------------------------
//  Simulation performed for #gates = 12864  #faults = 25984
//  Run fault simulation without storing patterns.  pattern source = 1625 external patterns
//  ------------------------------------------------------------------------
//  #patterns  test      #faults  #faults    # eff.    # test         process 
//  simulated  coverage  in list  detected   patterns  patterns       CPU time
//   64         20.02%    20781      5203       64         0          0.16 sec
//   128        23.63%    19843       938       64         0          0.22 sec
//   192        25.66%    19316       527       64         0          0.28 sec
//   256        27.11%    18940       376       64         0          0.33 sec
//   320        28.24%    18645       295       64         0          0.39 sec
//   384        29.26%    18381       264       64         0          0.44 sec
//   448        30.16%    18147       234       64         0          0.49 sec
//   512        30.96%    17939       208       64         0          0.54 sec
//   576        31.65%    17760       179       64         0          0.59 sec
//   640        32.27%    17600       160       64         0          0.64 sec
//   704        32.83%    17453       147       64         0          0.68 sec
//   768        33.36%    17315       138       64         0          0.73 sec
//   832        33.82%    17195       120       64         0          0.78 sec
//   896        34.27%    17080       115       64         0          0.83 sec
//   960        34.69%    16969       111       64         0          0.87 sec
//   1024       35.14%    16853       116       64         0          0.92 sec
//   1088       35.54%    16748       105       64         0          0.96 sec
//   1152       35.95%    16644       104       64         0          1.01 sec
//   1216       36.35%    16539       105       64         0          1.05 sec
//   1280       36.71%    16444        95       64         0          1.10 sec
//   1344       37.15%    16332       112       64         0          1.14 sec
//   1408       37.57%    16223       109       64         0          1.19 sec
//   1472       37.97%    16119       104       64         0          1.23 sec
//   1536       38.39%    16008       111       64         0          1.28 sec
//   1600       38.85%    15889       119       64         0          1.32 sec
//   1625       38.96%    15861        28       25         0          1.36 sec
