// | ------------------------------------------------------------------------------------------------------------------ |
// |                                                                                                                    |
// |          Current split capture setting:     Off (optimal)                                                          |
// |                                                                                                                    |
// |   Current clock off simulation setting:     Off (optimal)                                                          |
// | ------------------------------------------------------------------------------------------------------------------ |
//  ------------------------------------------------------------------------
//  Simulation performed for #gates = 12864  #faults = 25984
//  Run fault simulation without storing patterns.  pattern source = 1044 external patterns
//  ------------------------------------------------------------------------
//  #patterns  test      #faults  #faults    # eff.    # test         process 
//  simulated  coverage  in list  detected   patterns  patterns       CPU time
//   64         14.64%    22180      3804       64         0          0.13 sec
//   128        16.41%    21721       459       60         0          0.20 sec
//   192        17.30%    21489       232       48         0          0.26 sec
//   256        17.79%    21361       128       44         0          0.32 sec
//   320        18.21%    21252       109       38         0          0.38 sec
//   384        18.55%    21164        88       31         0          0.43 sec
//   448        18.82%    21095        69       27         0          0.49 sec
//   512        18.99%    21049        46       22         0          0.55 sec
//   576        19.16%    21006        43       17         0          0.60 sec
//   640        19.28%    20975        31       16         0          0.66 sec
//   704        19.39%    20945        30       19         0          0.71 sec
//   768        19.46%    20927        18       12         0          0.77 sec
//   832        19.60%    20891        36       12         0          0.82 sec
//   896        19.69%    20868        23       14         0          0.88 sec
//   960        19.74%    20855        13       10         0          0.93 sec
//   1024       19.77%    20847         8        7         0          0.99 sec
//   1044       19.78%    20845         2        1         0          1.04 sec
