// | ------------------------------------------------------------------------------------------------------------------ |
// |                                                                                                                    |
// |          Current split capture setting:     Off (optimal)                                                          |
// |                                                                                                                    |
// |   Current clock off simulation setting:     Off (optimal)                                                          |
// | ------------------------------------------------------------------------------------------------------------------ |
//  ------------------------------------------------------------------------
//  Simulation performed for #gates = 12864  #faults = 25984
//  Run fault simulation without storing patterns.  pattern source = 1246 external patterns
//  ------------------------------------------------------------------------
//  #patterns  test      #faults  #faults    # eff.    # test         process 
//  simulated  coverage  in list  detected   patterns  patterns       CPU time
//   64         15.09%    22062      3922       64         0          0.13 sec
//   128        17.16%    21525       537       60         0          0.19 sec
//   192        18.12%    21275       250       52         0          0.26 sec
//   256        18.67%    21134       141       35         0          0.31 sec
//   320        19.02%    21041        93       31         0          0.37 sec
//   384        19.23%    20988        53       33         0          0.43 sec
//   448        19.46%    20928        60       27         0          0.48 sec
//   512        19.64%    20882        46       22         0          0.54 sec
//   576        19.77%    20848        34       21         0          0.60 sec
//   640        19.94%    20803        45       22         0          0.65 sec
//   704        20.08%    20767        36       16         0          0.70 sec
//   768        20.16%    20746        21       12         0          0.76 sec
//   832        20.30%    20708        38       17         0          0.81 sec
//   896        20.37%    20690        18       11         0          0.87 sec
//   960        20.45%    20669        21       15         0          0.92 sec
//   1024       20.52%    20653        16        9         0          0.97 sec
//   1088       20.56%    20641        12        8         0          1.03 sec
//   1152       20.61%    20629        12        8         0          1.08 sec
//   1216       20.64%    20622         7        4         0          1.13 sec
//   1246       20.66%    20617         5        2         0          1.18 sec
