// | ------------------------------------------------------------------------------------------------------------------ |
// |                                                                                                                    |
// |          Current split capture setting:     Off (optimal)                                                          |
// |                                                                                                                    |
// |   Current clock off simulation setting:     Off (optimal)                                                          |
// | ------------------------------------------------------------------------------------------------------------------ |
//  ------------------------------------------------------------------------
//  Simulation performed for #gates = 12864  #faults = 25984
//  Run fault simulation without storing patterns.  pattern source = 1005 external patterns
//  ------------------------------------------------------------------------
//  #patterns  test      #faults  #faults    # eff.    # test         process 
//  simulated  coverage  in list  detected   patterns  patterns       CPU time
//   64         15.74%    21894      4090       64         0          0.14 sec
//   128        17.30%    21489       405       58         0          0.20 sec
//   192        18.19%    21257       232       56         0          0.27 sec
//   256        18.81%    21096       161       46         0          0.33 sec
//   320        19.24%    20984       112       43         0          0.38 sec
//   384        19.59%    20894        90       32         0          0.44 sec
//   448        19.82%    20833        61       28         0          0.50 sec
//   512        19.97%    20794        39       20         0          0.55 sec
//   576        20.10%    20762        32       18         0          0.61 sec
//   640        20.30%    20709        53       20         0          0.66 sec
//   704        20.42%    20679        30       18         0          0.72 sec
//   768        20.54%    20648        31       16         0          0.77 sec
//   832        20.67%    20613        35       15         0          0.83 sec
//   896        20.79%    20581        32       16         0          0.88 sec
//   960        20.85%    20566        15        9         0          0.94 sec
//   1005       20.87%    20561         5        4         0          0.99 sec
