// | ------------------------------------------------------------------------------------------------------------------ |
// |                                                                                                                    |
// |          Current split capture setting:     Off (optimal)                                                          |
// |                                                                                                                    |
// |   Current clock off simulation setting:     Off (optimal)                                                          |
// | ------------------------------------------------------------------------------------------------------------------ |
//  ------------------------------------------------------------------------
//  Simulation performed for #gates = 12864  #faults = 25984
//  Run fault simulation without storing patterns.  pattern source = 1012 external patterns
//  ------------------------------------------------------------------------
//  #patterns  test      #faults  #faults    # eff.    # test         process 
//  simulated  coverage  in list  detected   patterns  patterns       CPU time
//   64         15.38%    21988      3996       64         0          0.13 sec
//   128        17.26%    21498       490       59         0          0.20 sec
//   192        18.20%    21254       244       54         0          0.26 sec
//   256        18.85%    21085       169       42         0          0.32 sec
//   320        19.31%    20966       119       35         0          0.38 sec
//   384        19.64%    20880        86       30         0          0.43 sec
//   448        19.92%    20809        71       28         0          0.49 sec
//   512        20.12%    20755        54       31         0          0.54 sec
//   576        20.28%    20715        40       21         0          0.60 sec
//   640        20.37%    20692        23       18         0          0.65 sec
//   704        20.57%    20640        52       21         0          0.71 sec
//   768        20.67%    20613        27       18         0          0.76 sec
//   832        20.80%    20580        33       14         0          0.82 sec
//   896        20.89%    20555        25       14         0          0.87 sec
//   960        20.99%    20530        25       11         0          0.92 sec
//   1012       21.01%    20525         5        4         0          0.97 sec
