// | ------------------------------------------------------------------------------------------------------------------ |
// |                                                                                                                    |
// |          Current split capture setting:     Off (optimal)                                                          |
// |                                                                                                                    |
// |   Current clock off simulation setting:     Off (optimal)                                                          |
// | ------------------------------------------------------------------------------------------------------------------ |
//  ------------------------------------------------------------------------
//  Simulation performed for #gates = 12864  #faults = 25984
//  Run fault simulation without storing patterns.  pattern source = 1378 external patterns
//  ------------------------------------------------------------------------
//  #patterns  test      #faults  #faults    # eff.    # test         process 
//  simulated  coverage  in list  detected   patterns  patterns       CPU time
//   64         15.58%    21935      4049       64         0          0.13 sec
//   128        17.77%    21366       569       60         0          0.20 sec
//   192        18.62%    21147       219       55         0          0.26 sec
//   256        19.13%    21012       135       42         0          0.32 sec
//   320        19.54%    20906       106       41         0          0.38 sec
//   384        19.84%    20830        76       33         0          0.43 sec
//   448        20.10%    20762        68       32         0          0.49 sec
//   512        20.26%    20719        43       23         0          0.55 sec
//   576        20.40%    20683        36       18         0          0.60 sec
//   640        20.51%    20654        29       18         0          0.66 sec
//   704        20.64%    20620        34       16         0          0.72 sec
//   768        20.77%    20587        33       19         0          0.77 sec
//   832        20.93%    20546        41       16         0          0.83 sec
//   896        21.04%    20516        30        8         0          0.88 sec
//   960        21.17%    20484        32       17         0          0.94 sec
//   1024       21.24%    20465        19       13         0          0.99 sec
//   1088       21.29%    20452        13        8         0          1.05 sec
//   1152       21.37%    20432        20       12         0          1.10 sec
//   1216       21.44%    20412        20       14         0          1.16 sec
//   1280       21.49%    20400        12        5         0          1.21 sec
//   1344       21.56%    20383        17        8         0          1.26 sec
//   1378       21.59%    20375         8        3         0          1.31 sec
