// | ------------------------------------------------------------------------------------------------------------------ |
// |                                                                                                                    |
// |          Current split capture setting:     Off (optimal)                                                          |
// |                                                                                                                    |
// |   Current clock off simulation setting:     Off (optimal)                                                          |
// | ------------------------------------------------------------------------------------------------------------------ |
//  ------------------------------------------------------------------------
//  Simulation performed for #gates = 12864  #faults = 25984
//  Run fault simulation without storing patterns.  pattern source = 1625 external patterns
//  ------------------------------------------------------------------------
//  #patterns  test      #faults  #faults    # eff.    # test         process 
//  simulated  coverage  in list  detected   patterns  patterns       CPU time
//   64         13.85%    22384      3600       63         0          0.12 sec
//   128        15.76%    21890       494       58         0          0.19 sec
//   192        16.56%    21681       209       47         0          0.25 sec
//   256        17.18%    21520       161       41         0          0.31 sec
//   320        17.57%    21419       101       37         0          0.37 sec
//   384        17.81%    21357        62       27         0          0.43 sec
//   448        18.14%    21270        87       35         0          0.49 sec
//   512        18.35%    21216        54       22         0          0.54 sec
//   576        18.62%    21145        71       26         0          0.60 sec
//   640        18.99%    21050        95       31         0          0.66 sec
//   704        19.14%    21010        40       20         0          0.71 sec
//   768        19.28%    20973        37       18         0          0.77 sec
//   832        19.48%    20922        51       17         0          0.82 sec
//   896        19.57%    20899        23       14         0          0.88 sec
//   960        19.71%    20862        37       15         0          0.93 sec
//   1024       19.76%    20850        12        8         0          0.99 sec
//   1088       19.85%    20826        24       11         0          1.04 sec
//   1152       19.92%    20809        17       10         0          1.10 sec
//   1216       20.01%    20785        24        8         0          1.15 sec
//   1280       20.06%    20771        14        9         0          1.21 sec
//   1344       20.07%    20768         3        3         0          1.26 sec
//   1408       20.16%    20746        22       10         0          1.31 sec
//   1472       20.17%    20742         4        4         0          1.37 sec
//   1536       20.25%    20723        19        6         0          1.42 sec
//   1600       20.31%    20706        17        5         0          1.48 sec
//   1625       20.33%    20702         4        2         0          1.52 sec
