// | ------------------------------------------------------------------------------------------------------------------ |
// |                                                                                                                    |
// |          Current split capture setting:     Off (optimal)                                                          |
// |                                                                                                                    |
// |   Current clock off simulation setting:     Off (optimal)                                                          |
// | ------------------------------------------------------------------------------------------------------------------ |
//  ------------------------------------------------------------------------
//  Simulation performed for #gates = 12864  #faults = 25984
//  Run fault simulation without storing patterns.  pattern source = 1029 external patterns
//  ------------------------------------------------------------------------
//  #patterns  test      #faults  #faults    # eff.    # test         process 
//  simulated  coverage  in list  detected   patterns  patterns       CPU time
//   64         15.06%    22072      3912       63         0          0.12 sec
//   128        16.87%    21600       472       60         0          0.19 sec
//   192        17.96%    21316       284       50         0          0.25 sec
//   256        18.38%    21209       107       41         0          0.31 sec
//   320        18.77%    21108       101       33         0          0.37 sec
//   384        19.09%    21024        84       35         0          0.43 sec
//   448        19.34%    20959        65       25         0          0.48 sec
//   512        19.55%    20905        54       22         0          0.54 sec
//   576        19.73%    20857        48       23         0          0.59 sec
//   640        19.88%    20818        39       18         0          0.65 sec
//   704        19.97%    20794        24       11         0          0.70 sec
//   768        20.06%    20772        22       15         0          0.76 sec
//   832        20.17%    20744        28       12         0          0.81 sec
//   896        20.28%    20715        29       15         0          0.87 sec
//   960        20.33%    20702        13       11         0          0.92 sec
//   1024       20.45%    20670        32       13         0          0.97 sec
//   1029       20.46%    20668         2        2         0          1.02 sec
