// | ------------------------------------------------------------------------------------------------------------------ |
// |                                                                                                                    |
// |          Current split capture setting:     Off (optimal)                                                          |
// |                                                                                                                    |
// |   Current clock off simulation setting:     Off (optimal)                                                          |
// | ------------------------------------------------------------------------------------------------------------------ |
//  ------------------------------------------------------------------------
//  Simulation performed for #gates = 12864  #faults = 25984
//  Run fault simulation without storing patterns.  pattern source = 1517 external patterns
//  ------------------------------------------------------------------------
//  #patterns  test      #faults  #faults    # eff.    # test         process 
//  simulated  coverage  in list  detected   patterns  patterns       CPU time
//   64         13.04%    22595      3389       60         0          0.12 sec
//   128        14.59%    22194       401       51         0          0.18 sec
//   192        15.46%    21967       227       45         0          0.25 sec
//   256        16.08%    21805       162       46         0          0.31 sec
//   320        16.72%    21639       166       40         0          0.37 sec
//   384        16.98%    21571        68       28         0          0.43 sec
//   448        17.26%    21498        73       31         0          0.48 sec
//   512        17.60%    21412        86       30         0          0.54 sec
//   576        17.81%    21357        55       22         0          0.60 sec
//   640        18.06%    21290        67       19         0          0.65 sec
//   704        18.36%    21213        77       26         0          0.71 sec
//   768        18.50%    21176        37       18         0          0.76 sec
//   832        18.68%    21131        45       25         0          0.82 sec
//   896        18.85%    21087        44       17         0          0.87 sec
//   960        19.01%    21044        43       19         0          0.93 sec
//   1024       19.08%    21026        18        8         0          0.98 sec
//   1088       19.12%    21016        10        5         0          1.03 sec
//   1152       19.18%    21001        15       10         0          1.08 sec
//   1216       19.26%    20980        21        9         0          1.14 sec
//   1280       19.29%    20972         8        5         0          1.19 sec
//   1344       19.32%    20963         9        7         0          1.24 sec
//   1408       19.34%    20958         5        3         0          1.29 sec
//   1472       19.35%    20957         1        1         0          1.34 sec
