// | ------------------------------------------------------------------------------------------------------------------ |
// |                                                                                                                    |
// |          Current split capture setting:     Off (optimal)                                                          |
// |                                                                                                                    |
// |   Current clock off simulation setting:     Off (optimal)                                                          |
// | ------------------------------------------------------------------------------------------------------------------ |
//  ------------------------------------------------------------------------
//  Simulation performed for #gates = 12864  #faults = 25984
//  Run fault simulation without storing patterns.  pattern source = 1246 external patterns
//  ------------------------------------------------------------------------
//  #patterns  test      #faults  #faults    # eff.    # test         process 
//  simulated  coverage  in list  detected   patterns  patterns       CPU time
//   64         13.87%    22379      3605       63         0          0.11 sec
//   128        15.44%    21971       408       57         0          0.18 sec
//   192        16.26%    21758       213       53         0          0.24 sec
//   256        16.77%    21626       132       43         0          0.30 sec
//   320        17.23%    21507       119       35         0          0.36 sec
//   384        17.51%    21433        74       32         0          0.42 sec
//   448        17.82%    21353        80       27         0          0.47 sec
//   512        17.98%    21313        40       20         0          0.53 sec
//   576        18.14%    21270        43       20         0          0.58 sec
//   640        18.33%    21220        50       16         0          0.64 sec
//   704        18.40%    21202        18        9         0          0.69 sec
//   768        18.50%    21177        25       13         0          0.74 sec
//   832        18.61%    21149        28       10         0          0.80 sec
//   896        18.67%    21132        17       10         0          0.85 sec
//   960        18.75%    21112        20       10         0          0.90 sec
//   1024       18.85%    21087        25       14         0          0.96 sec
//   1088       18.92%    21068        19       12         0          1.01 sec
//   1152       18.98%    21053        15        8         0          1.06 sec
//   1216       19.00%    21046         7        6         0          1.12 sec
//   1246       19.02%    21041         5        2         0          1.17 sec
