// | ------------------------------------------------------------------------------------------------------------------ |
// |                                                                                                                    |
// |          Current split capture setting:     Off (optimal)                                                          |
// |                                                                                                                    |
// |   Current clock off simulation setting:     Off (optimal)                                                          |
// | ------------------------------------------------------------------------------------------------------------------ |
//  ------------------------------------------------------------------------
//  Simulation performed for #gates = 12864  #faults = 25984
//  Run fault simulation without storing patterns.  pattern source = 1326 external patterns
//  ------------------------------------------------------------------------
//  #patterns  test      #faults  #faults    # eff.    # test         process 
//  simulated  coverage  in list  detected   patterns  patterns       CPU time
//   64         15.51%    21955      4029       63         0          0.13 sec
//   128        17.00%    21567       388       56         0          0.20 sec
//   192        17.86%    21342       225       55         0          0.26 sec
//   256        18.43%    21194       148       46         0          0.32 sec
//   320        18.84%    21088       106       38         0          0.38 sec
//   384        19.03%    21039        49       23         0          0.43 sec
//   448        19.35%    20956        83       27         0          0.49 sec
//   512        19.56%    20901        55       25         0          0.54 sec
//   576        19.77%    20846        55       22         0          0.60 sec
//   640        19.87%    20821        25       13         0          0.66 sec
//   704        19.96%    20798        23       16         0          0.71 sec
//   768        20.06%    20771        27       14         0          0.77 sec
//   832        20.21%    20733        38       15         0          0.82 sec
//   896        20.24%    20725         8        5         0          0.88 sec
//   960        20.33%    20701        24       16         0          0.93 sec
//   1024       20.40%    20683        18        9         0          0.99 sec
//   1088       20.51%    20654        29       12         0          1.04 sec
//   1152       20.58%    20636        18       12         0          1.09 sec
//   1216       20.61%    20628         8        5         0          1.15 sec
//   1280       20.66%    20615        13        8         0          1.20 sec
//   1326       20.67%    20612         3        2         0          1.25 sec
