// | ------------------------------------------------------------------------------------------------------------------ |
// |                                                                                                                    |
// |          Current split capture setting:     Off (optimal)                                                          |
// |                                                                                                                    |
// |   Current clock off simulation setting:     Off (optimal)                                                          |
// | ------------------------------------------------------------------------------------------------------------------ |
//  ------------------------------------------------------------------------
//  Simulation performed for #gates = 12864  #faults = 25984
//  Run fault simulation without storing patterns.  pattern source = 939 external patterns
//  ------------------------------------------------------------------------
//  #patterns  test      #faults  #faults    # eff.    # test         process 
//  simulated  coverage  in list  detected   patterns  patterns       CPU time
//   64         15.21%    22032      3952       64         0          0.13 sec
//   128        16.79%    21620       412       55         0          0.20 sec
//   192        17.71%    21382       238       49         0          0.27 sec
//   256        18.28%    21235       147       41         0          0.33 sec
//   320        18.70%    21124       111       36         0          0.39 sec
//   384        19.00%    21046        78       27         0          0.45 sec
//   448        19.31%    20966        80       31         0          0.50 sec
//   512        19.55%    20905        61       26         0          0.56 sec
//   576        19.75%    20853        52       24         0          0.62 sec
//   640        19.91%    20811        42       21         0          0.67 sec
//   704        20.04%    20778        33       18         0          0.73 sec
//   768        20.13%    20754        24       10         0          0.78 sec
//   832        20.24%    20724        30       17         0          0.84 sec
//   896        20.32%    20705        19       14         0          0.89 sec
//   939        20.35%    20696         9        7         0          0.95 sec
