// | ------------------------------------------------------------------------------------------------------------------ |
// |                                                                                                                    |
// |          Current split capture setting:     Off (optimal)                                                          |
// |                                                                                                                    |
// |   Current clock off simulation setting:     Off (optimal)                                                          |
// | ------------------------------------------------------------------------------------------------------------------ |
//  ------------------------------------------------------------------------
//  Simulation performed for #gates = 12864  #faults = 25984
//  Run fault simulation without storing patterns.  pattern source = 1095 external patterns
//  ------------------------------------------------------------------------
//  #patterns  test      #faults  #faults    # eff.    # test         process 
//  simulated  coverage  in list  detected   patterns  patterns       CPU time
//   64         15.07%    22067      3917       63         0          0.13 sec
//   128        16.98%    21571       496       60         0          0.20 sec
//   192        17.88%    21339       232       49         0          0.26 sec
//   256        18.40%    21202       137       33         0          0.32 sec
//   320        18.88%    21078       124       42         0          0.38 sec
//   384        19.27%    20978       100       34         0          0.43 sec
//   448        19.49%    20919        59       28         0          0.49 sec
//   512        19.72%    20861        58       25         0          0.55 sec
//   576        19.85%    20825        36       20         0          0.60 sec
//   640        20.04%    20777        48       19         0          0.66 sec
//   704        20.14%    20751        26       13         0          0.71 sec
//   768        20.25%    20723        28       13         0          0.77 sec
//   832        20.39%    20685        38       13         0          0.82 sec
//   896        20.51%    20654        31       13         0          0.88 sec
//   960        20.58%    20637        17       11         0          0.93 sec
//   1024       20.67%    20613        24       13         0          0.99 sec
//   1088       20.74%    20595        18       11         0          1.04 sec
//   1095       20.75%    20593         2        1         0          1.09 sec
