// | ------------------------------------------------------------------------------------------------------------------ |
// |                                                                                                                    |
// |          Current split capture setting:     Off (optimal)                                                          |
// |                                                                                                                    |
// |   Current clock off simulation setting:     Off (optimal)                                                          |
// | ------------------------------------------------------------------------------------------------------------------ |
//  ------------------------------------------------------------------------
//  Simulation performed for #gates = 12864  #faults = 25984
//  Run fault simulation without storing patterns.  pattern source = 1320 external patterns
//  ------------------------------------------------------------------------
//  #patterns  test      #faults  #faults    # eff.    # test         process 
//  simulated  coverage  in list  detected   patterns  patterns       CPU time
//   64         16.09%    21804      4180       64         0          0.13 sec
//   128        17.68%    21391       413       58         0          0.20 sec
//   192        18.60%    21151       240       53         0          0.26 sec
//   256        19.15%    21008       143       44         0          0.31 sec
//   320        19.53%    20910        98       37         0          0.37 sec
//   384        19.79%    20843        67       30         0          0.43 sec
//   448        19.96%    20798        45       24         0          0.48 sec
//   512        20.14%    20752        46       18         0          0.54 sec
//   576        20.28%    20715        37       24         0          0.59 sec
//   640        20.39%    20687        28       16         0          0.65 sec
//   704        20.46%    20667        20       15         0          0.70 sec
//   768        20.52%    20651        16       13         0          0.76 sec
//   832        20.60%    20631        20       11         0          0.81 sec
//   896        20.67%    20613        18       11         0          0.86 sec
//   960        20.81%    20577        36       12         0          0.92 sec
//   1024       20.93%    20545        32       13         0          0.97 sec
//   1088       20.99%    20530        15       11         0          1.02 sec
//   1152       21.01%    20525         5        2         0          1.08 sec
//   1216       21.03%    20520         5        3         0          1.13 sec
//   1280       21.05%    20514         6        4         0          1.18 sec
//   1320       21.07%    20510         4        3         0          1.24 sec
