// | ------------------------------------------------------------------------------------------------------------------ |
// |                                                                                                                    |
// |          Current split capture setting:     Off (optimal)                                                          |
// |                                                                                                                    |
// |   Current clock off simulation setting:     Off (optimal)                                                          |
// | ------------------------------------------------------------------------------------------------------------------ |
//  ------------------------------------------------------------------------
//  Simulation performed for #gates = 12864  #faults = 25984
//  Run fault simulation without storing patterns.  pattern source = 1044 external patterns
//  ------------------------------------------------------------------------
//  #patterns  test      #faults  #faults    # eff.    # test         process 
//  simulated  coverage  in list  detected   patterns  patterns       CPU time
//   64         13.70%    22424      3560       63         0          0.11 sec
//   128        15.35%    21996       428       56         0          0.18 sec
//   192        16.06%    21810       186       50         0          0.24 sec
//   256        16.54%    21685       125       36         0          0.30 sec
//   320        16.96%    21577       108       36         0          0.36 sec
//   384        17.24%    21505        72       29         0          0.41 sec
//   448        17.53%    21430        75       27         0          0.47 sec
//   512        17.69%    21387        43       21         0          0.53 sec
//   576        17.88%    21338        49       19         0          0.58 sec
//   640        17.97%    21315        23       12         0          0.64 sec
//   704        18.13%    21272        43       17         0          0.69 sec
//   768        18.26%    21240        32       16         0          0.75 sec
//   832        18.32%    21223        17       11         0          0.81 sec
//   896        18.38%    21209        14        7         0          0.86 sec
//   960        18.45%    21189        20       10         0          0.91 sec
//   1024       18.52%    21172        17        8         0          0.97 sec
//   1044       18.53%    21170         2        1         0          1.02 sec
