//  command: set_current_design top 
//  Warning: 1 case: Unused net in DFT library model
//  Note: Issue set_current_design with the -show_elaboration_warnings option to see more details about previous warnings
//  command: set_system_mode analysis
//  Flattening process completed,  design_cells=11967  leaf_cells=11967  library_primitives=11967  sim_gates=12864  PIs=256  POs=129  CPU time=0.04 sec.
//  ---------------------------------------------------------------------------
//  Begin circuit learning analyses.
//  --------------------------------
//  Learning completed, CPU time=0.08 sec.
//  ---------------------------------------------------------------------------
//  Begin scan chain identification process, memory elements = 0.
//  ---------------------------------------------------------------------------
//  Circuit has no memory elements.
//  command: add_faults -all
//  command: set_fault_mode collapsed
//  command: set_fault_type stuck
//  command: read_patterns /home/animesh/currentResearch/ISI/atpg_structural/code/dumpData/tessent/epfl/random_control/arbiter_synth/fiftyPercent/arbiter_synth_fiftyPercent_28.spf
//  Reading STIL input file "/home/animesh/currentResearch/ISI/atpg_structural/code/dumpData/tessent/epfl/random_control/arbiter_synth/fiftyPercent/arbiter_synth_fiftyPercent_28.spf"
//  command: simulate_patterns > /home/animesh/currentResearch/ISI/atpg_structural/code/dumpData/tessent/epfl/random_control/arbiter_synth/bin_2/simulateLogFile_arbiter_synth_thirtyPercent_2_arbiter_synth_fiftyPercent_28.atpg.result
//  command: exit 
