// | ------------------------------------------------------------------------------------------------------------------ |
// |                                                                                                                    |
// |          Current split capture setting:     Off (optimal)                                                          |
// |                                                                                                                    |
// |   Current clock off simulation setting:     Off (optimal)                                                          |
// | ------------------------------------------------------------------------------------------------------------------ |
//  ------------------------------------------------------------------------
//  Simulation performed for #gates = 12864  #faults = 25984
//  Run fault simulation without storing patterns.  pattern source = 1309 external patterns
//  ------------------------------------------------------------------------
//  #patterns  test      #faults  #faults    # eff.    # test         process 
//  simulated  coverage  in list  detected   patterns  patterns       CPU time
//   64         13.66%    22434      3550       64         0          0.11 sec
//   128        15.64%    21921       513       59         0          0.18 sec
//   192        16.45%    21709       212       48         0          0.24 sec
//   256        16.93%    21586       123       38         0          0.30 sec
//   320        17.28%    21495        91       31         0          0.36 sec
//   384        17.51%    21433        62       25         0          0.42 sec
//   448        17.80%    21360        73       28         0          0.48 sec
//   512        17.98%    21311        49       23         0          0.54 sec
//   576        18.11%    21277        34       16         0          0.59 sec
//   640        18.28%    21235        42       18         0          0.65 sec
//   704        18.45%    21189        46       14         0          0.71 sec
//   768        18.60%    21150        39       20         0          0.77 sec
//   832        18.72%    21121        29       12         0          0.82 sec
//   896        18.83%    21091        30       10         0          0.88 sec
//   960        18.87%    21080        11        7         0          0.93 sec
//   1024       18.93%    21065        15        9         0          0.99 sec
//   1088       18.99%    21050        15        8         0          1.04 sec
//   1152       19.05%    21033        17       10         0          1.10 sec
//   1216       19.08%    21025         8        5         0          1.15 sec
//   1280       19.13%    21014        11        8         0          1.20 sec
//   1309       19.17%    21004        10        6         0          1.26 sec
