// | ------------------------------------------------------------------------------------------------------------------ |
// |                                                                                                                    |
// |          Current split capture setting:     Off (optimal)                                                          |
// |                                                                                                                    |
// |   Current clock off simulation setting:     Off (optimal)                                                          |
// | ------------------------------------------------------------------------------------------------------------------ |
//  ------------------------------------------------------------------------
//  Simulation performed for #gates = 12864  #faults = 25984
//  Run fault simulation without storing patterns.  pattern source = 1078 external patterns
//  ------------------------------------------------------------------------
//  #patterns  test      #faults  #faults    # eff.    # test         process 
//  simulated  coverage  in list  detected   patterns  patterns       CPU time
//   64         12.60%    22711      3273       63         0          0.10 sec
//   128        13.91%    22370       341       53         0          0.17 sec
//   192        14.61%    22189       181       41         0          0.23 sec
//   256        15.24%    22024       165       38         0          0.29 sec
//   320        15.56%    21940        84       31         0          0.34 sec
//   384        15.89%    21854        86       33         0          0.40 sec
//   448        16.04%    21816        38       18         0          0.46 sec
//   512        16.34%    21739        77       28         0          0.51 sec
//   576        16.56%    21682        57       21         0          0.57 sec
//   640        16.76%    21629        53       22         0          0.63 sec
//   704        17.05%    21553        76       24         0          0.69 sec
//   768        17.27%    21497        56       22         0          0.74 sec
//   832        17.40%    21464        33       17         0          0.80 sec
//   896        17.53%    21430        34       14         0          0.85 sec
//   960        17.61%    21407        23       12         0          0.91 sec
//   1024       17.75%    21372        35       12         0          0.96 sec
//   1078       17.80%    21360        12        8         0          1.02 sec
