// | ------------------------------------------------------------------------------------------------------------------ |
// |                                                                                                                    |
// |          Current split capture setting:     Off (optimal)                                                          |
// |                                                                                                                    |
// |   Current clock off simulation setting:     Off (optimal)                                                          |
// | ------------------------------------------------------------------------------------------------------------------ |
//  ------------------------------------------------------------------------
//  Simulation performed for #gates = 6497  #faults = 12808
//  Run fault simulation without storing patterns.  pattern source = 244 external patterns
//  ------------------------------------------------------------------------
//  #patterns  test      #faults  #faults    # eff.    # test         process 
//  simulated  coverage  in list  detected   patterns  patterns       CPU time
//   64         54.49%     5829      6979       62         0          0.11 sec
//   128        59.56%     5180       649       45         0          0.13 sec
//   192        61.62%     4916       264       35         0          0.14 sec
//   244        62.73%     4773       143       28         0          0.16 sec
