// | ------------------------------------------------------------------------------------------------------------------ |
// |                                                                                                                    |
// |          Current split capture setting:     Off (optimal)                                                          |
// |                                                                                                                    |
// |   Current clock off simulation setting:     Off (optimal)                                                          |
// | ------------------------------------------------------------------------------------------------------------------ |
//  ------------------------------------------------------------------------
//  Simulation performed for #gates = 6497  #faults = 12302
//  Run fault simulation without storing patterns.  pattern source = 259 external patterns
//  ------------------------------------------------------------------------
//  #patterns  test      #faults  #faults    # eff.    # test         process 
//  simulated  coverage  in list  detected   patterns  patterns       CPU time
//   64         51.99%     5906      6396       63         0          0.12 sec
//   128        57.36%     5246       660       55         0          0.15 sec
//   192        59.75%     4951       295       43         0          0.16 sec
//   256        61.31%     4760       191       36         0          0.18 sec
//   259        61.42%     4746        14        2         0          0.19 sec
