// | ------------------------------------------------------------------------------------------------------------------ |
// |                                                                                                                    |
// |          Current split capture setting:     Off (optimal)                                                          |
// |                                                                                                                    |
// |   Current clock off simulation setting:     Off (optimal)                                                          |
// | ------------------------------------------------------------------------------------------------------------------ |
//  ------------------------------------------------------------------------
//  Simulation performed for #gates = 6497  #faults = 13873
//  Run fault simulation without storing patterns.  pattern source = 242 external patterns
//  ------------------------------------------------------------------------
//  #patterns  test      #faults  #faults    # eff.    # test         process 
//  simulated  coverage  in list  detected   patterns  patterns       CPU time
//   64         37.62%     8654      5219       59         0          0.10 sec
//   128        42.41%     7990       664       31         0          0.13 sec
//   192        45.09%     7617       373       32         0          0.16 sec
//   242        45.79%     7520        97       17         0          0.18 sec
