// | ------------------------------------------------------------------------------------------------------------------ |
// |                                                                                                                    |
// |          Current split capture setting:     Off (optimal)                                                          |
// |                                                                                                                    |
// |   Current clock off simulation setting:     Off (optimal)                                                          |
// | ------------------------------------------------------------------------------------------------------------------ |
//  ------------------------------------------------------------------------
//  Simulation performed for #gates = 6497  #faults = 13537
//  Run fault simulation without storing patterns.  pattern source = 322 external patterns
//  ------------------------------------------------------------------------
//  #patterns  test      #faults  #faults    # eff.    # test         process 
//  simulated  coverage  in list  detected   patterns  patterns       CPU time
//   64         33.27%     9033      4504       62         0          0.11 sec
//   128        35.03%     8795       238       38         0          0.14 sec
//   192        39.87%     8140       655       29         0          0.18 sec
//   256        40.39%     8070        70       22         0          0.21 sec
//   320        40.84%     8008        62       16         0          0.23 sec
