// | ------------------------------------------------------------------------------------------------------------------ |
// |                                                                                                                    |
// |          Current split capture setting:     Off (optimal)                                                          |
// |                                                                                                                    |
// |   Current clock off simulation setting:     Off (optimal)                                                          |
// | ------------------------------------------------------------------------------------------------------------------ |
//  ------------------------------------------------------------------------
//  Simulation performed for #gates = 6497  #faults = 13591
//  Run fault simulation without storing patterns.  pattern source = 219 external patterns
//  ------------------------------------------------------------------------
//  #patterns  test      #faults  #faults    # eff.    # test         process 
//  simulated  coverage  in list  detected   patterns  patterns       CPU time
//   64         40.07%     8145      5446       58         0          0.10 sec
//   128        42.01%     7882       263       35         0          0.13 sec
//   192        44.90%     7489       393       32         0          0.15 sec
//   219        45.74%     7374       115       13         0          0.17 sec
