// | ------------------------------------------------------------------------------------------------------------------ |
// |                                                                                                                    |
// |          Current split capture setting:     Off (optimal)                                                          |
// |                                                                                                                    |
// |   Current clock off simulation setting:     Off (optimal)                                                          |
// | ------------------------------------------------------------------------------------------------------------------ |
//  ------------------------------------------------------------------------
//  Simulation performed for #gates = 6497  #faults = 14111
//  Run fault simulation without storing patterns.  pattern source = 322 external patterns
//  ------------------------------------------------------------------------
//  #patterns  test      #faults  #faults    # eff.    # test         process 
//  simulated  coverage  in list  detected   patterns  patterns       CPU time
//   64         33.18%     9429      4682       57         0          0.10 sec
//   128        35.22%     9141       288       36         0          0.13 sec
//   192        38.28%     8710       431       25         0          0.17 sec
//   256        39.27%     8569       141       17         0          0.19 sec
//   320        40.96%     8331       238       20         0          0.22 sec
//   322        40.99%     8327         4        1         0          0.24 sec
