// | ------------------------------------------------------------------------------------------------------------------ |
// |                                                                                                                    |
// |          Current split capture setting:     Off (optimal)                                                          |
// |                                                                                                                    |
// |   Current clock off simulation setting:     Off (optimal)                                                          |
// | ------------------------------------------------------------------------------------------------------------------ |
//  ------------------------------------------------------------------------
//  Simulation performed for #gates = 6497  #faults = 10731
//  Run fault simulation without storing patterns.  pattern source = 321 external patterns
//  ------------------------------------------------------------------------
//  #patterns  test      #faults  #faults    # eff.    # test         process 
//  simulated  coverage  in list  detected   patterns  patterns       CPU time
//   64         51.23%     5233      5498       60         0          0.10 sec
//   128        55.75%     4748       485       39         0          0.12 sec
//   192        61.44%     4138       610       25         0          0.14 sec
//   256        62.58%     4016       122       15         0          0.15 sec
//   320        62.69%     4004        12        5         0          0.17 sec
