// | ------------------------------------------------------------------------------------------------------------------ |
// |                                                                                                                    |
// |          Current split capture setting:     Off (optimal)                                                          |
// |                                                                                                                    |
// |   Current clock off simulation setting:     Off (optimal)                                                          |
// | ------------------------------------------------------------------------------------------------------------------ |
//  ------------------------------------------------------------------------
//  Simulation performed for #gates = 6497  #faults = 12628
//  Run fault simulation without storing patterns.  pattern source = 304 external patterns
//  ------------------------------------------------------------------------
//  #patterns  test      #faults  #faults    # eff.    # test         process 
//  simulated  coverage  in list  detected   patterns  patterns       CPU time
//   64         49.26%     6408      6220       62         0          0.11 sec
//   128        54.09%     5798       610       43         0          0.13 sec
//   192        56.37%     5510       288       36         0          0.15 sec
//   256        58.29%     5267       243       24         0          0.17 sec
//   304        59.03%     5174        93       15         0          0.18 sec
