// | ------------------------------------------------------------------------------------------------------------------ |
// |                                                                                                                    |
// |          Current split capture setting:     Off (optimal)                                                          |
// |                                                                                                                    |
// |   Current clock off simulation setting:     Off (optimal)                                                          |
// | ------------------------------------------------------------------------------------------------------------------ |
//  ------------------------------------------------------------------------
//  Simulation performed for #gates = 6497  #faults = 11643
//  Run fault simulation without storing patterns.  pattern source = 206 external patterns
//  ------------------------------------------------------------------------
//  #patterns  test      #faults  #faults    # eff.    # test         process 
//  simulated  coverage  in list  detected   patterns  patterns       CPU time
//   64         53.81%     5378      6265       62         0          0.11 sec
//   128        61.45%     4488       890       45         0          0.13 sec
//   192        62.32%     4387       101       28         0          0.14 sec
//   206        62.65%     4349        38       10         0          0.15 sec
