// | ------------------------------------------------------------------------------------------------------------------ |
// |                                                                                                                    |
// |          Current split capture setting:     Off (optimal)                                                          |
// |                                                                                                                    |
// |   Current clock off simulation setting:     Off (optimal)                                                          |
// | ------------------------------------------------------------------------------------------------------------------ |
//  ------------------------------------------------------------------------
//  Simulation performed for #gates = 6497  #faults = 11640
//  Run fault simulation without storing patterns.  pattern source = 295 external patterns
//  ------------------------------------------------------------------------
//  #patterns  test      #faults  #faults    # eff.    # test         process 
//  simulated  coverage  in list  detected   patterns  patterns       CPU time
//   64         53.01%     5470      6170       64         0          0.12 sec
//   128        63.09%     4296      1174       51         0          0.14 sec
//   192        65.02%     4072       224       38         0          0.15 sec
//   256        66.52%     3897       175       24         0          0.17 sec
//   295        67.58%     3774       123       12         0          0.18 sec
