// | ------------------------------------------------------------------------------------------------------------------ |
// |                                                                                                                    |
// |          Current split capture setting:     Off (optimal)                                                          |
// |                                                                                                                    |
// |   Current clock off simulation setting:     Off (optimal)                                                          |
// | ------------------------------------------------------------------------------------------------------------------ |
//  ------------------------------------------------------------------------
//  Simulation performed for #gates = 6497  #faults = 11904
//  Run fault simulation without storing patterns.  pattern source = 242 external patterns
//  ------------------------------------------------------------------------
//  #patterns  test      #faults  #faults    # eff.    # test         process 
//  simulated  coverage  in list  detected   patterns  patterns       CPU time
//   64         62.46%     4469      7435       63         0          0.12 sec
//   128        68.83%     3710       759       58         0          0.14 sec
//   192        71.90%     3345       365       43         0          0.15 sec
//   242        72.96%     3219       126       21         0          0.16 sec
