// | ------------------------------------------------------------------------------------------------------------------ |
// |                                                                                                                    |
// |          Current split capture setting:     Off (optimal)                                                          |
// |                                                                                                                    |
// |   Current clock off simulation setting:     Off (optimal)                                                          |
// | ------------------------------------------------------------------------------------------------------------------ |
//  ------------------------------------------------------------------------
//  Simulation performed for #gates = 6497  #faults = 14272
//  Run fault simulation without storing patterns.  pattern source = 322 external patterns
//  ------------------------------------------------------------------------
//  #patterns  test      #faults  #faults    # eff.    # test         process 
//  simulated  coverage  in list  detected   patterns  patterns       CPU time
//   64         42.72%     8175      6097       61         0          0.12 sec
//   128        48.35%     7372       803       41         0          0.14 sec
//   192        49.83%     7160       212       16         0          0.17 sec
//   256        51.34%     6945       215       18         0          0.19 sec
//   320        52.21%     6820       125       10         0          0.21 sec
//   322        52.28%     6811         9        1         0          0.22 sec
