// | ------------------------------------------------------------------------------------------------------------------ |
// |                                                                                                                    |
// |          Current split capture setting:     Off (optimal)                                                          |
// |                                                                                                                    |
// |   Current clock off simulation setting:     Off (optimal)                                                          |
// | ------------------------------------------------------------------------------------------------------------------ |
//  ------------------------------------------------------------------------
//  Simulation performed for #gates = 6497  #faults = 14617
//  Run fault simulation without storing patterns.  pattern source = 251 external patterns
//  ------------------------------------------------------------------------
//  #patterns  test      #faults  #faults    # eff.    # test         process 
//  simulated  coverage  in list  detected   patterns  patterns       CPU time
//   64         48.20%     7571      7046       64         0          0.14 sec
//   128        52.44%     6952       619       54         0          0.16 sec
//   192        54.44%     6659       293       34         0          0.18 sec
//   251        56.05%     6424       235       32         0          0.21 sec
