// | ------------------------------------------------------------------------------------------------------------------ |
// |                                                                                                                    |
// |          Current split capture setting:     Off (optimal)                                                          |
// |                                                                                                                    |
// |   Current clock off simulation setting:     Off (optimal)                                                          |
// | ------------------------------------------------------------------------------------------------------------------ |
//  ------------------------------------------------------------------------
//  Simulation performed for #gates = 6497  #faults = 13014
//  Run fault simulation without storing patterns.  pattern source = 295 external patterns
//  ------------------------------------------------------------------------
//  #patterns  test      #faults  #faults    # eff.    # test         process 
//  simulated  coverage  in list  detected   patterns  patterns       CPU time
//   64         44.36%     7241      5773       63         0          0.10 sec
//   128        46.45%     6969       272       38         0          0.13 sec
//   192        48.66%     6682       287       33         0          0.15 sec
//   256        49.38%     6588        94       19         0          0.17 sec
//   295        50.31%     6467       121        7         0          0.19 sec
