// | ------------------------------------------------------------------------------------------------------------------ |
// |                                                                                                                    |
// |          Current split capture setting:     Off (optimal)                                                          |
// |                                                                                                                    |
// |   Current clock off simulation setting:     Off (optimal)                                                          |
// | ------------------------------------------------------------------------------------------------------------------ |
//  ------------------------------------------------------------------------
//  Simulation performed for #gates = 6497  #faults = 13604
//  Run fault simulation without storing patterns.  pattern source = 250 external patterns
//  ------------------------------------------------------------------------
//  #patterns  test      #faults  #faults    # eff.    # test         process 
//  simulated  coverage  in list  detected   patterns  patterns       CPU time
//   64         41.06%     8018      5586       58         0          0.08 sec
//   128        48.53%     7002      1016       30         0          0.10 sec
//   192        51.77%     6561       441       18         0          0.12 sec
//   250        52.72%     6432       129       13         0          0.14 sec
