// | ------------------------------------------------------------------------------------------------------------------ |
// |                                                                                                                    |
// |          Current split capture setting:     Off (optimal)                                                          |
// |                                                                                                                    |
// |   Current clock off simulation setting:     Off (optimal)                                                          |
// | ------------------------------------------------------------------------------------------------------------------ |
//  ------------------------------------------------------------------------
//  Simulation performed for #gates = 6497  #faults = 14111
//  Run fault simulation without storing patterns.  pattern source = 238 external patterns
//  ------------------------------------------------------------------------
//  #patterns  test      #faults  #faults    # eff.    # test         process 
//  simulated  coverage  in list  detected   patterns  patterns       CPU time
//   64         39.17%     8584      5527       61         0          0.11 sec
//   128        41.58%     8243       341       31         0          0.14 sec
//   192        43.73%     7940       303       27         0          0.16 sec
//   238        44.26%     7866        74       17         0          0.19 sec
