          Statistics Report          
           Stuck-at Faults           
-------------------------------------
Fault Classes              #faults   
                           (coll.)   
---------------------  --------------
  FU (full)                 9584     
  -------------------  --------------
  DS (det_simulation)   7451 (77.74%)
  UU (unused)             22 ( 0.23%)
  TI (tied)              227 ( 2.37%)
  BL (blocked)           217 ( 2.26%)
  RE (redundant)        1667 (17.39%)
-------------------------------------
Coverage                             
  -------------------                
  test_coverage              100.00% 
  fault_coverage              77.74% 
  atpg_effectiveness         100.00% 
-------------------------------------
#test_patterns                   104 
#simulated_patterns              107 
CPU_time (secs)                  2.8 
-------------------------------------

