          Statistics Report          
           Stuck-at Faults           
-------------------------------------
Fault Classes              #faults   
                           (coll.)   
---------------------  --------------
  FU (full)                 8388     
  -------------------  --------------
  DS (det_simulation)   3107 (37.04%)
  TI (tied)              126 ( 1.50%)
  BL (blocked)          1177 (14.03%)
  RE (redundant)        3978 (47.42%)
-------------------------------------
Coverage                             
  -------------------                
  test_coverage              100.00% 
  fault_coverage              37.04% 
  atpg_effectiveness         100.00% 
-------------------------------------
#test_patterns                    87 
#simulated_patterns              103 
CPU_time (secs)                  3.6 
-------------------------------------

