// | ------------------------------------------------------------------------------------------------------------------ |
// |                                                                                                                    |
// |          Current split capture setting:     Off (optimal)                                                          |
// |                                                                                                                    |
// |   Current clock off simulation setting:     Off (optimal)                                                          |
// | ------------------------------------------------------------------------------------------------------------------ |
//  ------------------------------------------------------------------------
//  Simulation performed for #gates = 12864  #faults = 25984
//  Run fault simulation without storing patterns.  pattern source = 1044 external patterns
//  ------------------------------------------------------------------------
//  #patterns  test      #faults  #faults    # eff.    # test         process 
//  simulated  coverage  in list  detected   patterns  patterns       CPU time
//   64         14.39%    22244      3740       64         0          0.13 sec
//   128        16.49%    21700       544       61         0          0.20 sec
//   192        17.27%    21496       204       50         0          0.26 sec
//   256        17.86%    21344       152       44         0          0.32 sec
//   320        18.36%    21214       130       43         0          0.38 sec
//   384        18.72%    21120        94       34         0          0.44 sec
//   448        19.08%    21026        94       37         0          0.50 sec
//   512        19.25%    20982        44       20         0          0.56 sec
//   576        19.40%    20944        38       20         0          0.62 sec
//   640        19.51%    20915        29       18         0          0.68 sec
//   704        19.60%    20892        23       12         0          0.73 sec
//   768        19.76%    20850        42       17         0          0.79 sec
//   832        19.84%    20828        22       14         0          0.85 sec
//   896        19.97%    20794        34       11         0          0.90 sec
//   960        20.03%    20779        15       11         0          0.96 sec
//   1024       20.08%    20767        12        9         0          1.01 sec
//   1044       20.10%    20761         6        3         0          1.06 sec
