// | ------------------------------------------------------------------------------------------------------------------ |
// |                                                                                                                    |
// |          Current split capture setting:     Off (optimal)                                                          |
// |                                                                                                                    |
// |   Current clock off simulation setting:     Off (optimal)                                                          |
// | ------------------------------------------------------------------------------------------------------------------ |
//  ------------------------------------------------------------------------
//  Simulation performed for #gates = 12864  #faults = 25984
//  Run fault simulation without storing patterns.  pattern source = 1078 external patterns
//  ------------------------------------------------------------------------
//  #patterns  test      #faults  #faults    # eff.    # test         process 
//  simulated  coverage  in list  detected   patterns  patterns       CPU time
//   64         14.12%    22314      3670       61         0          0.13 sec
//   128        16.10%    21800       514       57         0          0.19 sec
//   192        17.06%    21552       248       52         0          0.26 sec
//   256        17.74%    21375       177       43         0          0.32 sec
//   320        18.15%    21267       108       36         0          0.37 sec
//   384        18.52%    21172        95       36         0          0.43 sec
//   448        18.84%    21088        84       29         0          0.49 sec
//   512        19.12%    21017        71       29         0          0.54 sec
//   576        19.43%    20935        82       29         0          0.60 sec
//   640        19.64%    20880        55       23         0          0.65 sec
//   704        19.88%    20819        61       26         0          0.71 sec
//   768        20.00%    20787        32       20         0          0.76 sec
//   832        20.13%    20754        33       18         0          0.82 sec
//   896        20.27%    20718        36       18         0          0.87 sec
//   960        20.37%    20690        28       13         0          0.92 sec
//   1024       20.46%    20667        23       11         0          0.98 sec
//   1078       20.50%    20658         9        4         0          1.03 sec
