// | ------------------------------------------------------------------------------------------------------------------ |
// |                                                                                                                    |
// |          Current split capture setting:     Off (optimal)                                                          |
// |                                                                                                                    |
// |   Current clock off simulation setting:     Off (optimal)                                                          |
// | ------------------------------------------------------------------------------------------------------------------ |
//  ------------------------------------------------------------------------
//  Simulation performed for #gates = 12864  #faults = 25984
//  Run fault simulation without storing patterns.  pattern source = 1320 external patterns
//  ------------------------------------------------------------------------
//  #patterns  test      #faults  #faults    # eff.    # test         process 
//  simulated  coverage  in list  detected   patterns  patterns       CPU time
//   64         15.71%    21901      4083       64         0          0.13 sec
//   128        17.44%    21453       448       56         0          0.20 sec
//   192        18.19%    21257       196       50         0          0.26 sec
//   256        18.76%    21110       147       46         0          0.32 sec
//   320        19.19%    20998       112       35         0          0.38 sec
//   384        19.56%    20902        96       35         0          0.44 sec
//   448        19.74%    20856        46       21         0          0.49 sec
//   512        19.91%    20811        45       21         0          0.55 sec
//   576        20.09%    20764        47       20         0          0.60 sec
//   640        20.18%    20740        24       11         0          0.66 sec
//   704        20.37%    20692        48       23         0          0.71 sec
//   768        20.54%    20648        44       21         0          0.77 sec
//   832        20.69%    20608        40       25         0          0.82 sec
//   896        20.85%    20566        42       18         0          0.88 sec
//   960        20.91%    20551        15       10         0          0.93 sec
//   1024       20.98%    20533        18        9         0          0.98 sec
//   1088       21.04%    20518        15        7         0          1.04 sec
//   1152       21.08%    20506        12        7         0          1.09 sec
//   1216       21.14%    20492        14        7         0          1.14 sec
//   1280       21.20%    20475        17       11         0          1.19 sec
//   1320       21.23%    20467         8        4         0          1.24 sec
