// | ------------------------------------------------------------------------------------------------------------------ |
// |                                                                                                                    |
// |          Current split capture setting:     Off (optimal)                                                          |
// |                                                                                                                    |
// |   Current clock off simulation setting:     Off (optimal)                                                          |
// | ------------------------------------------------------------------------------------------------------------------ |
//  ------------------------------------------------------------------------
//  Simulation performed for #gates = 12864  #faults = 25984
//  Run fault simulation without storing patterns.  pattern source = 1095 external patterns
//  ------------------------------------------------------------------------
//  #patterns  test      #faults  #faults    # eff.    # test         process 
//  simulated  coverage  in list  detected   patterns  patterns       CPU time
//   64         15.44%    21973      4011       64         0          0.13 sec
//   128        17.53%    21430       543       59         0          0.20 sec
//   192        18.35%    21217       213       49         0          0.27 sec
//   256        18.89%    21075       142       48         0          0.33 sec
//   320        19.25%    20983        92       35         0          0.39 sec
//   384        19.59%    20893        90       39         0          0.44 sec
//   448        19.79%    20842        51       28         0          0.50 sec
//   512        20.07%    20769        73       31         0          0.56 sec
//   576        20.23%    20728        41       16         0          0.61 sec
//   640        20.40%    20683        45       22         0          0.67 sec
//   704        20.46%    20667        16        8         0          0.72 sec
//   768        20.60%    20630        37       17         0          0.78 sec
//   832        20.76%    20590        40       19         0          0.83 sec
//   896        20.85%    20567        23       13         0          0.89 sec
//   960        20.94%    20544        23       11         0          0.94 sec
//   1024       21.09%    20503        41       21         0          1.00 sec
//   1088       21.13%    20493        10        6         0          1.05 sec
