// | ------------------------------------------------------------------------------------------------------------------ |
// |                                                                                                                    |
// |          Current split capture setting:     Off (optimal)                                                          |
// |                                                                                                                    |
// |   Current clock off simulation setting:     Off (optimal)                                                          |
// | ------------------------------------------------------------------------------------------------------------------ |
//  ------------------------------------------------------------------------
//  Simulation performed for #gates = 12864  #faults = 25984
//  Run fault simulation without storing patterns.  pattern source = 1069 external patterns
//  ------------------------------------------------------------------------
//  #patterns  test      #faults  #faults    # eff.    # test         process 
//  simulated  coverage  in list  detected   patterns  patterns       CPU time
//   64         14.71%    22161      3823       63         0          0.14 sec
//   128        16.55%    21683       478       61         0          0.21 sec
//   192        17.58%    21416       267       54         0          0.27 sec
//   256        18.11%    21278       138       41         0          0.33 sec
//   320        18.52%    21171       107       32         0          0.39 sec
//   384        18.86%    21083        88       33         0          0.46 sec
//   448        19.07%    21029        54       22         0          0.52 sec
//   512        19.34%    20958        71       22         0          0.57 sec
//   576        19.56%    20901        57       24         0          0.63 sec
//   640        19.80%    20839        62       21         0          0.69 sec
//   704        19.95%    20800        39       21         0          0.75 sec
//   768        20.11%    20759        41       24         0          0.80 sec
//   832        20.25%    20722        37       21         0          0.86 sec
//   896        20.41%    20681        41       20         0          0.91 sec
//   960        20.50%    20658        23       15         0          0.97 sec
//   1024       20.56%    20641        17       10         0          1.02 sec
//   1069       20.64%    20620        21       11         0          1.07 sec
