// | ------------------------------------------------------------------------------------------------------------------ |
// |                                                                                                                    |
// |          Current split capture setting:     Off (optimal)                                                          |
// |                                                                                                                    |
// |   Current clock off simulation setting:     Off (optimal)                                                          |
// | ------------------------------------------------------------------------------------------------------------------ |
//  ------------------------------------------------------------------------
//  Simulation performed for #gates = 12864  #faults = 25984
//  Run fault simulation without storing patterns.  pattern source = 1069 external patterns
//  ------------------------------------------------------------------------
//  #patterns  test      #faults  #faults    # eff.    # test         process 
//  simulated  coverage  in list  detected   patterns  patterns       CPU time
//   64         11.93%    22883      3101       59         0          0.11 sec
//   128        13.68%    22430       453       50         0          0.17 sec
//   192        14.20%    22295       135       35         0          0.23 sec
//   256        14.84%    22128       167       37         0          0.29 sec
//   320        15.18%    22040        88       25         0          0.35 sec
//   384        15.60%    21930       110       35         0          0.41 sec
//   448        15.86%    21864        66       24         0          0.47 sec
//   512        16.21%    21773        91       33         0          0.53 sec
//   576        16.56%    21682        91       28         0          0.58 sec
//   640        16.72%    21640        42       17         0          0.64 sec
//   704        16.88%    21598        42       17         0          0.69 sec
//   768        17.08%    21547        51       19         0          0.75 sec
//   832        17.29%    21491        56       24         0          0.80 sec
//   896        17.45%    21451        40       17         0          0.86 sec
//   960        17.51%    21435        16       10         0          0.91 sec
//   1024       17.58%    21415        20        8         0          0.96 sec
//   1069       17.59%    21414         1        1         0          1.01 sec
