// | ------------------------------------------------------------------------------------------------------------------ |
// |                                                                                                                    |
// |          Current split capture setting:     Off (optimal)                                                          |
// |                                                                                                                    |
// |   Current clock off simulation setting:     Off (optimal)                                                          |
// | ------------------------------------------------------------------------------------------------------------------ |
//  ------------------------------------------------------------------------
//  Simulation performed for #gates = 12864  #faults = 25984
//  Run fault simulation without storing patterns.  pattern source = 1123 external patterns
//  ------------------------------------------------------------------------
//  #patterns  test      #faults  #faults    # eff.    # test         process 
//  simulated  coverage  in list  detected   patterns  patterns       CPU time
//   64         15.16%    22045      3939       63         0          0.13 sec
//   128        16.93%    21586       459       59         0          0.19 sec
//   192        17.80%    21359       227       51         0          0.25 sec
//   256        18.42%    21199       160       51         0          0.31 sec
//   320        18.89%    21075       124       42         0          0.37 sec
//   384        19.23%    20988        87       31         0          0.43 sec
//   448        19.50%    20918        70       32         0          0.48 sec
//   512        19.64%    20881        37       18         0          0.54 sec
//   576        19.79%    20841        40       19         0          0.59 sec
//   640        19.92%    20808        33       17         0          0.65 sec
//   704        20.00%    20788        20       12         0          0.70 sec
//   768        20.09%    20763        25       19         0          0.76 sec
//   832        20.19%    20738        25       11         0          0.81 sec
//   896        20.23%    20727        11        8         0          0.86 sec
//   960        20.34%    20699        28       12         0          0.92 sec
//   1024       20.41%    20680        19        9         0          0.97 sec
//   1088       20.48%    20662        18        9         0          1.02 sec
//   1123       20.50%    20658         4        4         0          1.08 sec
