          Statistics Report          
           Stuck-at Faults           
-------------------------------------
Fault Classes              #faults   
                           (coll.)   
---------------------  --------------
  FU (full)                 8388     
  -------------------  --------------
  DS (det_simulation)   2641 (31.49%)
  TI (tied)              144 ( 1.72%)
  BL (blocked)           256 ( 3.05%)
  RE (redundant)        5347 (63.75%)
-------------------------------------
Coverage                             
  -------------------                
  test_coverage              100.00% 
  fault_coverage              31.49% 
  atpg_effectiveness         100.00% 
-------------------------------------
#test_patterns                    98 
#simulated_patterns              131 
CPU_time (secs)                  5.0 
-------------------------------------

