           Statistics Report          
            Stuck-at Faults           
--------------------------------------
Fault Classes               #faults   
                            (coll.)   
----------------------  --------------
  FU (full)                  47162    
  --------------------  --------------
  UO (unobserved)          10 ( 0.02%)
  DS (det_simulation)   23468 (49.76%)
  TI (tied)              2513 ( 5.33%)
  BL (blocked)           5134 (10.89%)
  RE (redundant)        16001 (33.93%)
  AU (atpg_untestable)     36 ( 0.08%)
--------------------------------------
Fault Sub-classes                     
  --------------------                
  UC+UO                               
    AAB  (atpg_abort)      10 ( 0.02%)
--------------------------------------
Coverage                              
  --------------------                
  test_coverage                99.80% 
  fault_coverage               49.76% 
  atpg_effectiveness           99.98% 
--------------------------------------
#test_patterns                    222 
#simulated_patterns               222 
CPU_time (secs)                  14.0 
--------------------------------------

