          Statistics Report          
           Stuck-at Faults           
-------------------------------------
Fault Classes              #faults   
                           (coll.)   
---------------------  --------------
  FU (full)                 1556     
  -------------------  --------------
  DS (det_simulation)    909 (58.42%)
  TI (tied)                8 ( 0.51%)
  BL (blocked)             2 ( 0.13%)
  RE (redundant)         637 (40.94%)
-------------------------------------
Coverage                             
  -------------------                
  test_coverage              100.00% 
  fault_coverage              58.42% 
  atpg_effectiveness         100.00% 
-------------------------------------
#test_patterns                   106 
#simulated_patterns              116 
CPU_time (secs)                  1.5 
-------------------------------------

