          Statistics Report          
           Stuck-at Faults           
-------------------------------------
Fault Classes              #faults   
                           (coll.)   
---------------------  --------------
  FU (full)                  514     
  -------------------  --------------
  DS (det_simulation)    374 (72.76%)
  TI (tied)                8 ( 1.56%)
  BL (blocked)            20 ( 3.89%)
  RE (redundant)         112 (21.79%)
-------------------------------------
Coverage                             
  -------------------                
  test_coverage              100.00% 
  fault_coverage              72.76% 
  atpg_effectiveness         100.00% 
-------------------------------------
#test_patterns                    32 
#simulated_patterns               36 
CPU_time (secs)                  1.4 
-------------------------------------

