          Statistics Report          
           Stuck-at Faults           
-------------------------------------
Fault Classes              #faults   
                           (coll.)   
---------------------  --------------
  FU (full)                 3062     
  -------------------  --------------
  DS (det_simulation)   2750 (89.81%)
  RE (redundant)         312 (10.19%)
-------------------------------------
Coverage                             
  -------------------                
  test_coverage              100.00% 
  fault_coverage              89.81% 
  atpg_effectiveness         100.00% 
-------------------------------------
#test_patterns                    37 
#simulated_patterns               57 
CPU_time (secs)                  1.8 
-------------------------------------

