          Statistics Report          
           Stuck-at Faults           
-------------------------------------
Fault Classes              #faults   
                           (coll.)   
---------------------  --------------
  FU (full)                 3062     
  -------------------  --------------
  DS (det_simulation)   2734 (89.29%)
  RE (redundant)         328 (10.71%)
-------------------------------------
Coverage                             
  -------------------                
  test_coverage              100.00% 
  fault_coverage              89.29% 
  atpg_effectiveness         100.00% 
-------------------------------------
#test_patterns                    33 
#simulated_patterns               57 
CPU_time (secs)                  1.8 
-------------------------------------

