          Statistics Report          
           Stuck-at Faults           
-------------------------------------
Fault Classes              #faults   
                           (coll.)   
---------------------  --------------
  FU (full)                 3062     
  -------------------  --------------
  DS (det_simulation)   2748 (89.75%)
  RE (redundant)         314 (10.25%)
-------------------------------------
Coverage                             
  -------------------                
  test_coverage              100.00% 
  fault_coverage              89.75% 
  atpg_effectiveness         100.00% 
-------------------------------------
#test_patterns                    38 
#simulated_patterns               59 
CPU_time (secs)                  1.8 
-------------------------------------

