          Statistics Report          
           Stuck-at Faults           
-------------------------------------
Fault Classes              #faults   
                           (coll.)   
---------------------  --------------
  FU (full)                 9584     
  -------------------  --------------
  DS (det_simulation)   8470 (88.38%)
  UU (unused)             22 ( 0.23%)
  TI (tied)               82 ( 0.86%)
  BL (blocked)           124 ( 1.29%)
  RE (redundant)         886 ( 9.24%)
-------------------------------------
Coverage                             
  -------------------                
  test_coverage              100.00% 
  fault_coverage              88.38% 
  atpg_effectiveness         100.00% 
-------------------------------------
#test_patterns                   136 
#simulated_patterns              142 
CPU_time (secs)                  2.7 
-------------------------------------

