          Statistics Report          
           Stuck-at Faults           
-------------------------------------
Fault Classes              #faults   
                           (coll.)   
---------------------  --------------
  FU (full)                 9584     
  -------------------  --------------
  DS (det_simulation)   8488 (88.56%)
  UU (unused)             22 ( 0.23%)
  TI (tied)              118 ( 1.23%)
  BL (blocked)            73 ( 0.76%)
  RE (redundant)         883 ( 9.21%)
-------------------------------------
Coverage                             
  -------------------                
  test_coverage              100.00% 
  fault_coverage              88.56% 
  atpg_effectiveness         100.00% 
-------------------------------------
#test_patterns                   135 
#simulated_patterns              139 
CPU_time (secs)                  2.7 
-------------------------------------

