// | ------------------------------------------------------------------------------------------------------------------ |
// |                                                                                                                    |
// |          Current split capture setting:     Off (optimal)                                                          |
// |                                                                                                                    |
// |   Current clock off simulation setting:     Off (optimal)                                                          |
// | ------------------------------------------------------------------------------------------------------------------ |
//  ------------------------------------------------------------------------
//  Simulation performed for #gates = 20871  #faults = 58122
//  Run fault simulation without storing patterns.  pattern source = 294 external patterns
//  ------------------------------------------------------------------------
//  #patterns  test      #faults  #faults    # eff.    # test         process 
//  simulated  coverage  in list  detected   patterns  patterns       CPU time
//   64         83.23%     9749     48373       64         0          1.43 sec
//   128        85.31%     8538      1211       64         0          1.48 sec
//   192        86.03%     8117       421       62         0          1.50 sec
//   256        86.40%     7906       211       51         0          1.53 sec
//   294        86.57%     7807        99       29         0          1.55 sec
