// | ------------------------------------------------------------------------------------------------------------------ |
// |                                                                                                                    |
// |          Current split capture setting:     Off (optimal)                                                          |
// |                                                                                                                    |
// |   Current clock off simulation setting:     Off (optimal)                                                          |
// | ------------------------------------------------------------------------------------------------------------------ |
//  ------------------------------------------------------------------------
//  Simulation performed for #gates = 20871  #faults = 58433
//  Run fault simulation without storing patterns.  pattern source = 303 external patterns
//  ------------------------------------------------------------------------
//  #patterns  test      #faults  #faults    # eff.    # test         process 
//  simulated  coverage  in list  detected   patterns  patterns       CPU time
//   64         83.28%     9768     48665       64         0          1.44 sec
//   128        85.74%     8332      1436       64         0          1.48 sec
//   192        86.57%     7847       485       64         0          1.51 sec
//   256        86.93%     7638       209       49         0          1.53 sec
//   303        87.12%     7529       109       39         0          1.55 sec
