// | ------------------------------------------------------------------------------------------------------------------ |
// |                                                                                                                    |
// |          Current split capture setting:     Off (optimal)                                                          |
// |                                                                                                                    |
// |   Current clock off simulation setting:     Off (optimal)                                                          |
// | ------------------------------------------------------------------------------------------------------------------ |
//  ------------------------------------------------------------------------
//  Simulation performed for #gates = 20871  #faults = 58266
//  Run fault simulation without storing patterns.  pattern source = 299 external patterns
//  ------------------------------------------------------------------------
//  #patterns  test      #faults  #faults    # eff.    # test         process 
//  simulated  coverage  in list  detected   patterns  patterns       CPU time
//   64         82.78%    10031     48235       64         0          1.44 sec
//   128        84.87%     8817      1214       64         0          1.48 sec
//   192        85.54%     8426       391       62         0          1.51 sec
//   256        85.84%     8252       174       52         0          1.53 sec
//   299        85.97%     8175        77       32         0          1.55 sec
