// | ------------------------------------------------------------------------------------------------------------------ |
// |                                                                                                                    |
// |          Current split capture setting:     Off (optimal)                                                          |
// |                                                                                                                    |
// |   Current clock off simulation setting:     Off (optimal)                                                          |
// | ------------------------------------------------------------------------------------------------------------------ |
//  ------------------------------------------------------------------------
//  Simulation performed for #gates = 20871  #faults = 58127
//  Run fault simulation without storing patterns.  pattern source = 299 external patterns
//  ------------------------------------------------------------------------
//  #patterns  test      #faults  #faults    # eff.    # test         process 
//  simulated  coverage  in list  detected   patterns  patterns       CPU time
//   64         82.85%     9966     48161       64         0          1.44 sec
//   128        85.14%     8640      1326       64         0          1.49 sec
//   192        85.77%     8273       367       63         0          1.51 sec
//   256        86.18%     8031       242       55         0          1.53 sec
//   299        86.32%     7952        79       33         0          1.56 sec
