// | ------------------------------------------------------------------------------------------------------------------ |
// |                                                                                                                    |
// |          Current split capture setting:     Off (optimal)                                                          |
// |                                                                                                                    |
// |   Current clock off simulation setting:     Off (optimal)                                                          |
// | ------------------------------------------------------------------------------------------------------------------ |
//  ------------------------------------------------------------------------
//  Simulation performed for #gates = 20871  #faults = 58162
//  Run fault simulation without storing patterns.  pattern source = 289 external patterns
//  ------------------------------------------------------------------------
//  #patterns  test      #faults  #faults    # eff.    # test         process 
//  simulated  coverage  in list  detected   patterns  patterns       CPU time
//   64         82.42%    10225     47937       64         0          1.39 sec
//   128        84.76%     8863      1362       64         0          1.43 sec
//   192        85.60%     8377       486       63         0          1.46 sec
//   256        85.96%     8168       209       53         0          1.48 sec
//   289        86.07%     8100        68       22         0          1.50 sec
