// | ------------------------------------------------------------------------------------------------------------------ |
// |                                                                                                                    |
// |          Current split capture setting:     Off (optimal)                                                          |
// |                                                                                                                    |
// |   Current clock off simulation setting:     Off (optimal)                                                          |
// | ------------------------------------------------------------------------------------------------------------------ |
//  ------------------------------------------------------------------------
//  Simulation performed for #gates = 20871  #faults = 58162
//  Run fault simulation without storing patterns.  pattern source = 281 external patterns
//  ------------------------------------------------------------------------
//  #patterns  test      #faults  #faults    # eff.    # test         process 
//  simulated  coverage  in list  detected   patterns  patterns       CPU time
//   64         82.91%     9941     48221       64         0          1.42 sec
//   128        85.13%     8648      1293       64         0          1.46 sec
//   192        85.83%     8241       407       63         0          1.49 sec
//   256        86.11%     8080       161       52         0          1.51 sec
//   281        86.20%     8025        55       20         0          1.53 sec
