// | ------------------------------------------------------------------------------------------------------------------ |
// |                                                                                                                    |
// |          Current split capture setting:     Off (optimal)                                                          |
// |                                                                                                                    |
// |   Current clock off simulation setting:     Off (optimal)                                                          |
// | ------------------------------------------------------------------------------------------------------------------ |
//  ------------------------------------------------------------------------
//  Simulation performed for #gates = 20871  #faults = 58321
//  Run fault simulation without storing patterns.  pattern source = 294 external patterns
//  ------------------------------------------------------------------------
//  #patterns  test      #faults  #faults    # eff.    # test         process 
//  simulated  coverage  in list  detected   patterns  patterns       CPU time
//   64         83.71%     9502     48819       64         0          1.48 sec
//   128        85.74%     8319      1183       64         0          1.52 sec
//   192        86.45%     7900       419       62         0          1.55 sec
//   256        86.83%     7678       222       56         0          1.57 sec
//   294        86.95%     7613        65       24         0          1.60 sec
