// | ------------------------------------------------------------------------------------------------------------------ |
// |                                                                                                                    |
// |          Current split capture setting:     Off (optimal)                                                          |
// |                                                                                                                    |
// |   Current clock off simulation setting:     Off (optimal)                                                          |
// | ------------------------------------------------------------------------------------------------------------------ |
//  ------------------------------------------------------------------------
//  Simulation performed for #gates = 20871  #faults = 58057
//  Run fault simulation without storing patterns.  pattern source = 294 external patterns
//  ------------------------------------------------------------------------
//  #patterns  test      #faults  #faults    # eff.    # test         process 
//  simulated  coverage  in list  detected   patterns  patterns       CPU time
//   64         82.54%    10136     47921       64         0          1.40 sec
//   128        84.85%     8797      1339       64         0          1.45 sec
//   192        85.65%     8334       463       63         0          1.48 sec
//   256        85.97%     8143       191       53         0          1.50 sec
//   294        86.13%     8053        90       30         0          1.53 sec
