// | ------------------------------------------------------------------------------------------------------------------ |
// |                                                                                                                    |
// |          Current split capture setting:     Off (optimal)                                                          |
// |                                                                                                                    |
// |   Current clock off simulation setting:     Off (optimal)                                                          |
// | ------------------------------------------------------------------------------------------------------------------ |
//  ------------------------------------------------------------------------
//  Simulation performed for #gates = 20871  #faults = 58296
//  Run fault simulation without storing patterns.  pattern source = 285 external patterns
//  ------------------------------------------------------------------------
//  #patterns  test      #faults  #faults    # eff.    # test         process 
//  simulated  coverage  in list  detected   patterns  patterns       CPU time
//   64         82.80%    10026     48270       64         0          1.46 sec
//   128        84.87%     8820      1206       64         0          1.50 sec
//   192        85.70%     8334       486       61         0          1.53 sec
//   256        86.06%     8127       207       52         0          1.56 sec
//   285        86.13%     8086        41       17         0          1.58 sec
