// | ------------------------------------------------------------------------------------------------------------------ |
// |                                                                                                                    |
// |          Current split capture setting:     Off (optimal)                                                          |
// |                                                                                                                    |
// |   Current clock off simulation setting:     Off (optimal)                                                          |
// | ------------------------------------------------------------------------------------------------------------------ |
//  ------------------------------------------------------------------------
//  Simulation performed for #gates = 20871  #faults = 58016
//  Run fault simulation without storing patterns.  pattern source = 307 external patterns
//  ------------------------------------------------------------------------
//  #patterns  test      #faults  #faults    # eff.    # test         process 
//  simulated  coverage  in list  detected   patterns  patterns       CPU time
//   64         83.54%     9547     48469       64         0          1.41 sec
//   128        85.61%     8350      1197       64         0          1.44 sec
//   192        86.37%     7908       442       63         0          1.47 sec
//   256        86.66%     7738       170       52         0          1.49 sec
//   307        86.78%     7671        67       33         0          1.51 sec
