// | ------------------------------------------------------------------------------------------------------------------ |
// |                                                                                                                    |
// |          Current split capture setting:     Off (optimal)                                                          |
// |                                                                                                                    |
// |   Current clock off simulation setting:     Off (optimal)                                                          |
// | ------------------------------------------------------------------------------------------------------------------ |
//  ------------------------------------------------------------------------
//  Simulation performed for #gates = 20871  #faults = 58057
//  Run fault simulation without storing patterns.  pattern source = 298 external patterns
//  ------------------------------------------------------------------------
//  #patterns  test      #faults  #faults    # eff.    # test         process 
//  simulated  coverage  in list  detected   patterns  patterns       CPU time
//   64         82.53%    10144     47913       64         0          1.41 sec
//   128        84.92%     8757      1387       64         0          1.45 sec
//   192        85.69%     8308       449       60         0          1.48 sec
//   256        86.03%     8111       197       51         0          1.50 sec
//   298        86.14%     8046        65       26         0          1.52 sec
