// | ------------------------------------------------------------------------------------------------------------------ |
// |                                                                                                                    |
// |          Current split capture setting:     Off (optimal)                                                          |
// |                                                                                                                    |
// |   Current clock off simulation setting:     Off (optimal)                                                          |
// | ------------------------------------------------------------------------------------------------------------------ |
//  ------------------------------------------------------------------------
//  Simulation performed for #gates = 20871  #faults = 58296
//  Run fault simulation without storing patterns.  pattern source = 299 external patterns
//  ------------------------------------------------------------------------
//  #patterns  test      #faults  #faults    # eff.    # test         process 
//  simulated  coverage  in list  detected   patterns  patterns       CPU time
//   64         82.64%    10120     48176       64         0          1.47 sec
//   128        84.94%     8780      1340       64         0          1.52 sec
//   192        85.67%     8353       427       61         0          1.54 sec
//   256        86.04%     8138       215       56         0          1.57 sec
//   299        86.16%     8066        72       25         0          1.59 sec
