// | ------------------------------------------------------------------------------------------------------------------ |
// |                                                                                                                    |
// |          Current split capture setting:     Off (optimal)                                                          |
// |                                                                                                                    |
// |   Current clock off simulation setting:     Off (optimal)                                                          |
// | ------------------------------------------------------------------------------------------------------------------ |
//  ------------------------------------------------------------------------
//  Simulation performed for #gates = 20871  #faults = 58135
//  Run fault simulation without storing patterns.  pattern source = 278 external patterns
//  ------------------------------------------------------------------------
//  #patterns  test      #faults  #faults    # eff.    # test         process 
//  simulated  coverage  in list  detected   patterns  patterns       CPU time
//   64         83.26%     9731     48404       64         0          1.46 sec
//   128        85.50%     8428      1303       64         0          1.50 sec
//   192        86.32%     7955       473       62         0          1.53 sec
//   256        86.69%     7737       218       57         0          1.55 sec
//   278        86.77%     7689        48       17         0          1.57 sec
