// | ------------------------------------------------------------------------------------------------------------------ |
// |                                                                                                                    |
// |          Current split capture setting:     Off (optimal)                                                          |
// |                                                                                                                    |
// |   Current clock off simulation setting:     Off (optimal)                                                          |
// | ------------------------------------------------------------------------------------------------------------------ |
//  ------------------------------------------------------------------------
//  Simulation performed for #gates = 20871  #faults = 58296
//  Run fault simulation without storing patterns.  pattern source = 308 external patterns
//  ------------------------------------------------------------------------
//  #patterns  test      #faults  #faults    # eff.    # test         process 
//  simulated  coverage  in list  detected   patterns  patterns       CPU time
//   64         82.62%    10130     48166       64         0          1.48 sec
//   128        85.01%     8737      1393       64         0          1.52 sec
//   192        85.68%     8350       387       60         0          1.54 sec
//   256        86.04%     8141       209       56         0          1.57 sec
//   308        86.20%     8047        94       34         0          1.59 sec
