// | ------------------------------------------------------------------------------------------------------------------ |
// |                                                                                                                    |
// |          Current split capture setting:     Off (optimal)                                                          |
// |                                                                                                                    |
// |   Current clock off simulation setting:     Off (optimal)                                                          |
// | ------------------------------------------------------------------------------------------------------------------ |
//  ------------------------------------------------------------------------
//  Simulation performed for #gates = 20871  #faults = 58395
//  Run fault simulation without storing patterns.  pattern source = 309 external patterns
//  ------------------------------------------------------------------------
//  #patterns  test      #faults  #faults    # eff.    # test         process 
//  simulated  coverage  in list  detected   patterns  patterns       CPU time
//   64         82.87%    10001     48394       64         0          1.42 sec
//   128        85.17%     8658      1343       64         0          1.47 sec
//   192        86.03%     8156       502       62         0          1.49 sec
//   256        86.38%     7953       203       53         0          1.52 sec
//   309        86.51%     7876        77       38         0          1.54 sec
