// | ------------------------------------------------------------------------------------------------------------------ |
// |                                                                                                                    |
// |          Current split capture setting:     Off (optimal)                                                          |
// |                                                                                                                    |
// |   Current clock off simulation setting:     Off (optimal)                                                          |
// | ------------------------------------------------------------------------------------------------------------------ |
//  ------------------------------------------------------------------------
//  Simulation performed for #gates = 20871  #faults = 58433
//  Run fault simulation without storing patterns.  pattern source = 272 external patterns
//  ------------------------------------------------------------------------
//  #patterns  test      #faults  #faults    # eff.    # test         process 
//  simulated  coverage  in list  detected   patterns  patterns       CPU time
//   64         83.81%     9461     48972       64         0          1.43 sec
//   128        86.03%     8166      1295       64         0          1.47 sec
//   192        86.72%     7762       404       62         0          1.49 sec
//   256        87.04%     7573       189       53         0          1.52 sec
//   272        87.08%     7549        24       12         0          1.53 sec
