// | ------------------------------------------------------------------------------------------------------------------ |
// |                                                                                                                    |
// |          Current split capture setting:     Off (optimal)                                                          |
// |                                                                                                                    |
// |   Current clock off simulation setting:     Off (optimal)                                                          |
// | ------------------------------------------------------------------------------------------------------------------ |
//  ------------------------------------------------------------------------
//  Simulation performed for #gates = 20871  #faults = 58194
//  Run fault simulation without storing patterns.  pattern source = 292 external patterns
//  ------------------------------------------------------------------------
//  #patterns  test      #faults  #faults    # eff.    # test         process 
//  simulated  coverage  in list  detected   patterns  patterns       CPU time
//   64         83.03%     9877     48317       64         0          1.45 sec
//   128        85.18%     8626      1251       63         0          1.49 sec
//   192        85.89%     8212       414       59         0          1.51 sec
//   256        86.22%     8019       193       54         0          1.53 sec
//   292        86.29%     7976        43       17         0          1.55 sec
