// | ------------------------------------------------------------------------------------------------------------------ |
// |                                                                                                                    |
// |          Current split capture setting:     Off (optimal)                                                          |
// |                                                                                                                    |
// |   Current clock off simulation setting:     Off (optimal)                                                          |
// | ------------------------------------------------------------------------------------------------------------------ |
//  ------------------------------------------------------------------------
//  Simulation performed for #gates = 20871  #faults = 58158
//  Run fault simulation without storing patterns.  pattern source = 283 external patterns
//  ------------------------------------------------------------------------
//  #patterns  test      #faults  #faults    # eff.    # test         process 
//  simulated  coverage  in list  detected   patterns  patterns       CPU time
//   64         83.27%     9727     48431       64         0          1.45 sec
//   128        85.40%     8489      1238       64         0          1.50 sec
//   192        86.12%     8073       416       59         0          1.52 sec
//   256        86.45%     7883       190       51         0          1.55 sec
//   283        86.56%     7816        67       25         0          1.57 sec
