// | ------------------------------------------------------------------------------------------------------------------ |
// |                                                                                                                    |
// |          Current split capture setting:     Off (optimal)                                                          |
// |                                                                                                                    |
// |   Current clock off simulation setting:     Off (optimal)                                                          |
// | ------------------------------------------------------------------------------------------------------------------ |
//  ------------------------------------------------------------------------
//  Simulation performed for #gates = 20871  #faults = 58122
//  Run fault simulation without storing patterns.  pattern source = 303 external patterns
//  ------------------------------------------------------------------------
//  #patterns  test      #faults  #faults    # eff.    # test         process 
//  simulated  coverage  in list  detected   patterns  patterns       CPU time
//   64         82.81%     9992     48130       64         0          1.43 sec
//   128        85.33%     8525      1467       64         0          1.47 sec
//   192        86.04%     8115       410       61         0          1.49 sec
//   256        86.43%     7890       225       56         0          1.52 sec
//   303        86.59%     7794        96       35         0          1.54 sec
