// | ------------------------------------------------------------------------------------------------------------------ |
// |                                                                                                                    |
// |          Current split capture setting:     Off (optimal)                                                          |
// |                                                                                                                    |
// |   Current clock off simulation setting:     Off (optimal)                                                          |
// | ------------------------------------------------------------------------------------------------------------------ |
//  ------------------------------------------------------------------------
//  Simulation performed for #gates = 20871  #faults = 58151
//  Run fault simulation without storing patterns.  pattern source = 290 external patterns
//  ------------------------------------------------------------------------
//  #patterns  test      #faults  #faults    # eff.    # test         process 
//  simulated  coverage  in list  detected   patterns  patterns       CPU time
//   64         82.62%    10108     48043       64         0          1.39 sec
//   128        84.82%     8825      1283       64         0          1.43 sec
//   192        85.58%     8388       437       63         0          1.45 sec
//   256        85.97%     8158       230       53         0          1.48 sec
//   290        86.06%     8108        50       22         0          1.50 sec
