// | ------------------------------------------------------------------------------------------------------------------ |
// |                                                                                                                    |
// |          Current split capture setting:     Off (optimal)                                                          |
// |                                                                                                                    |
// |   Current clock off simulation setting:     Off (optimal)                                                          |
// | ------------------------------------------------------------------------------------------------------------------ |
//  ------------------------------------------------------------------------
//  Simulation performed for #gates = 20871  #faults = 58135
//  Run fault simulation without storing patterns.  pattern source = 292 external patterns
//  ------------------------------------------------------------------------
//  #patterns  test      #faults  #faults    # eff.    # test         process 
//  simulated  coverage  in list  detected   patterns  patterns       CPU time
//   64         83.22%     9753     48382       64         0          1.46 sec
//   128        85.58%     8384      1369       64         0          1.50 sec
//   192        86.37%     7926       458       63         0          1.53 sec
//   256        86.72%     7718       208       56         0          1.55 sec
//   292        86.82%     7660        58       26         0          1.57 sec
