// | ------------------------------------------------------------------------------------------------------------------ |
// |                                                                                                                    |
// |          Current split capture setting:     Off (optimal)                                                          |
// |                                                                                                                    |
// |   Current clock off simulation setting:     Off (optimal)                                                          |
// | ------------------------------------------------------------------------------------------------------------------ |
//  ------------------------------------------------------------------------
//  Simulation performed for #gates = 20871  #faults = 58154
//  Run fault simulation without storing patterns.  pattern source = 292 external patterns
//  ------------------------------------------------------------------------
//  #patterns  test      #faults  #faults    # eff.    # test         process 
//  simulated  coverage  in list  detected   patterns  patterns       CPU time
//   64         82.90%     9942     48212       64         0          1.41 sec
//   128        84.96%     8749      1193       64         0          1.45 sec
//   192        85.68%     8328       421       64         0          1.48 sec
//   256        85.99%     8148       180       58         0          1.51 sec
//   292        86.08%     8094        54       23         0          1.53 sec
