// | ------------------------------------------------------------------------------------------------------------------ |
// |                                                                                                                    |
// |          Current split capture setting:     Off (optimal)                                                          |
// |                                                                                                                    |
// |   Current clock off simulation setting:     Off (optimal)                                                          |
// | ------------------------------------------------------------------------------------------------------------------ |
//  ------------------------------------------------------------------------
//  Simulation performed for #gates = 20871  #faults = 58175
//  Run fault simulation without storing patterns.  pattern source = 290 external patterns
//  ------------------------------------------------------------------------
//  #patterns  test      #faults  #faults    # eff.    # test         process 
//  simulated  coverage  in list  detected   patterns  patterns       CPU time
//   64         83.04%     9868     48307       64         0          1.41 sec
//   128        85.37%     8512      1356       64         0          1.45 sec
//   192        86.08%     8097       415       60         0          1.47 sec
//   256        86.42%     7899       198       54         0          1.50 sec
//   290        86.59%     7804        95       30         0          1.52 sec
