// | ------------------------------------------------------------------------------------------------------------------ |
// |                                                                                                                    |
// |          Current split capture setting:     Off (optimal)                                                          |
// |                                                                                                                    |
// |   Current clock off simulation setting:     Off (optimal)                                                          |
// | ------------------------------------------------------------------------------------------------------------------ |
//  ------------------------------------------------------------------------
//  Simulation performed for #gates = 20871  #faults = 58151
//  Run fault simulation without storing patterns.  pattern source = 292 external patterns
//  ------------------------------------------------------------------------
//  #patterns  test      #faults  #faults    # eff.    # test         process 
//  simulated  coverage  in list  detected   patterns  patterns       CPU time
//   64         82.74%    10035     48116       64         0          1.37 sec
//   128        84.95%     8749      1286       64         0          1.41 sec
//   192        85.68%     8329       420       62         0          1.44 sec
//   256        85.99%     8146       183       49         0          1.46 sec
//   292        86.08%     8096        50       21         0          1.48 sec
