// | ------------------------------------------------------------------------------------------------------------------ |
// |                                                                                                                    |
// |          Current split capture setting:     Off (optimal)                                                          |
// |                                                                                                                    |
// |   Current clock off simulation setting:     Off (optimal)                                                          |
// | ------------------------------------------------------------------------------------------------------------------ |
//  ------------------------------------------------------------------------
//  Simulation performed for #gates = 20871  #faults = 58330
//  Run fault simulation without storing patterns.  pattern source = 268 external patterns
//  ------------------------------------------------------------------------
//  #patterns  test      #faults  #faults    # eff.    # test         process 
//  simulated  coverage  in list  detected   patterns  patterns       CPU time
//   64         82.85%    10005     48325       64         0          1.43 sec
//   128        85.27%     8594      1411       64         0          1.47 sec
//   192        86.11%     8102       492       62         0          1.50 sec
//   256        86.49%     7880       222       56         0          1.52 sec
//   268        86.53%     7855        25        9         0          1.54 sec
