// | ------------------------------------------------------------------------------------------------------------------ |
// |                                                                                                                    |
// |          Current split capture setting:     Off (optimal)                                                          |
// |                                                                                                                    |
// |   Current clock off simulation setting:     Off (optimal)                                                          |
// | ------------------------------------------------------------------------------------------------------------------ |
//  ------------------------------------------------------------------------
//  Simulation performed for #gates = 20871  #faults = 58188
//  Run fault simulation without storing patterns.  pattern source = 293 external patterns
//  ------------------------------------------------------------------------
//  #patterns  test      #faults  #faults    # eff.    # test         process 
//  simulated  coverage  in list  detected   patterns  patterns       CPU time
//   64         82.47%    10200     47988       64         0          1.43 sec
//   128        84.52%     9007      1193       64         0          1.47 sec
//   192        85.32%     8544       463       62         0          1.50 sec
//   256        85.72%     8312       232       54         0          1.52 sec
//   293        85.85%     8231        81       29         0          1.55 sec
