// | ------------------------------------------------------------------------------------------------------------------ |
// |                                                                                                                    |
// |          Current split capture setting:     Off (optimal)                                                          |
// |                                                                                                                    |
// |   Current clock off simulation setting:     Off (optimal)                                                          |
// | ------------------------------------------------------------------------------------------------------------------ |
//  ------------------------------------------------------------------------
//  Simulation performed for #gates = 20871  #faults = 58127
//  Run fault simulation without storing patterns.  pattern source = 278 external patterns
//  ------------------------------------------------------------------------
//  #patterns  test      #faults  #faults    # eff.    # test         process 
//  simulated  coverage  in list  detected   patterns  patterns       CPU time
//   64         83.12%     9814     48313       64         0          1.41 sec
//   128        85.25%     8573      1241       64         0          1.45 sec
//   192        85.92%     8184       389       62         0          1.48 sec
//   256        86.28%     7975       209       54         0          1.50 sec
//   278        86.34%     7943        32       14         0          1.52 sec
