// | ------------------------------------------------------------------------------------------------------------------ |
// |                                                                                                                    |
// |          Current split capture setting:     Off (optimal)                                                          |
// |                                                                                                                    |
// |   Current clock off simulation setting:     Off (optimal)                                                          |
// | ------------------------------------------------------------------------------------------------------------------ |
//  ------------------------------------------------------------------------
//  Simulation performed for #gates = 20871  #faults = 58192
//  Run fault simulation without storing patterns.  pattern source = 309 external patterns
//  ------------------------------------------------------------------------
//  #patterns  test      #faults  #faults    # eff.    # test         process 
//  simulated  coverage  in list  detected   patterns  patterns       CPU time
//   64         82.54%    10158     48034       64         0          1.36 sec
//   128        85.20%     8614      1544       64         0          1.41 sec
//   192        85.88%     8219       395       62         0          1.44 sec
//   256        86.21%     8024       195       48         0          1.46 sec
//   309        86.33%     7956        68       31         0          1.48 sec
