// | ------------------------------------------------------------------------------------------------------------------ |
// |                                                                                                                    |
// |          Current split capture setting:     Off (optimal)                                                          |
// |                                                                                                                    |
// |   Current clock off simulation setting:     Off (optimal)                                                          |
// | ------------------------------------------------------------------------------------------------------------------ |
//  ------------------------------------------------------------------------
//  Simulation performed for #gates = 20871  #faults = 58208
//  Run fault simulation without storing patterns.  pattern source = 303 external patterns
//  ------------------------------------------------------------------------
//  #patterns  test      #faults  #faults    # eff.    # test         process 
//  simulated  coverage  in list  detected   patterns  patterns       CPU time
//   64         83.56%     9570     48638       64         0          1.45 sec
//   128        85.80%     8265      1305       64         0          1.49 sec
//   192        86.47%     7875       390       64         0          1.52 sec
//   256        86.80%     7686       189       61         0          1.54 sec
//   303        86.93%     7605        81       46         0          1.56 sec
