// | ------------------------------------------------------------------------------------------------------------------ |
// |                                                                                                                    |
// |          Current split capture setting:     Off (optimal)                                                          |
// |                                                                                                                    |
// |   Current clock off simulation setting:     Off (optimal)                                                          |
// | ------------------------------------------------------------------------------------------------------------------ |
//  ------------------------------------------------------------------------
//  Simulation performed for #gates = 20871  #faults = 58433
//  Run fault simulation without storing patterns.  pattern source = 294 external patterns
//  ------------------------------------------------------------------------
//  #patterns  test      #faults  #faults    # eff.    # test         process 
//  simulated  coverage  in list  detected   patterns  patterns       CPU time
//   64         83.70%     9522     48911       64         0          1.46 sec
//   128        85.92%     8227      1295       64         0          1.50 sec
//   192        86.73%     7754       473       64         0          1.52 sec
//   256        87.03%     7579       175       52         0          1.54 sec
//   294        87.15%     7510        69       26         0          1.56 sec
