// | ------------------------------------------------------------------------------------------------------------------ |
// |                                                                                                                    |
// |          Current split capture setting:     Off (optimal)                                                          |
// |                                                                                                                    |
// |   Current clock off simulation setting:     Off (optimal)                                                          |
// | ------------------------------------------------------------------------------------------------------------------ |
//  ------------------------------------------------------------------------
//  Simulation performed for #gates = 12864  #faults = 25984
//  Run fault simulation without storing patterns.  pattern source = 519 external patterns
//  ------------------------------------------------------------------------
//  #patterns  test      #faults  #faults    # eff.    # test         process 
//  simulated  coverage  in list  detected   patterns  patterns       CPU time
//   64         12.29%    22791      3193       59         0          0.11 sec
//   128        13.48%    22481       310       53         0          0.17 sec
//   192        14.16%    22305       176       44         0          0.23 sec
//   256        14.83%    22131       174       46         0          0.29 sec
//   320        15.29%    22012       119       31         0          0.35 sec
//   384        15.71%    21902       110       31         0          0.40 sec
//   448        16.16%    21786       116       32         0          0.46 sec
//   512        16.39%    21725        61       27         0          0.52 sec
//   519        16.41%    21721         4        3         0          0.57 sec
