// | ------------------------------------------------------------------------------------------------------------------ |
// |                                                                                                                    |
// |          Current split capture setting:     Off (optimal)                                                          |
// |                                                                                                                    |
// |   Current clock off simulation setting:     Off (optimal)                                                          |
// | ------------------------------------------------------------------------------------------------------------------ |
//  ------------------------------------------------------------------------
//  Simulation performed for #gates = 12864  #faults = 25984
//  Run fault simulation without storing patterns.  pattern source = 539 external patterns
//  ------------------------------------------------------------------------
//  #patterns  test      #faults  #faults    # eff.    # test         process 
//  simulated  coverage  in list  detected   patterns  patterns       CPU time
//   64         15.21%    22033      3951       64         0          0.12 sec
//   128        16.72%    21639       394       55         0          0.18 sec
//   192        17.31%    21486       153       45         0          0.24 sec
//   256        17.76%    21368       118       44         0          0.30 sec
//   320        18.06%    21292        76       34         0          0.36 sec
//   384        18.28%    21233        59       30         0          0.42 sec
//   448        18.47%    21185        48       23         0          0.47 sec
//   512        18.58%    21157        28       18         0          0.53 sec
//   539        18.64%    21141        16        6         0          0.58 sec
