// | ------------------------------------------------------------------------------------------------------------------ |
// |                                                                                                                    |
// |          Current split capture setting:     Off (optimal)                                                          |
// |                                                                                                                    |
// |   Current clock off simulation setting:     Off (optimal)                                                          |
// | ------------------------------------------------------------------------------------------------------------------ |
//  ------------------------------------------------------------------------
//  Simulation performed for #gates = 12864  #faults = 25984
//  Run fault simulation without storing patterns.  pattern source = 489 external patterns
//  ------------------------------------------------------------------------
//  #patterns  test      #faults  #faults    # eff.    # test         process 
//  simulated  coverage  in list  detected   patterns  patterns       CPU time
//   64         13.40%    22503      3481       62         0          0.11 sec
//   128        14.83%    22130       373       52         0          0.18 sec
//   192        15.71%    21903       227       43         0          0.24 sec
//   256        16.32%    21744       159       45         0          0.30 sec
//   320        16.77%    21626       118       33         0          0.36 sec
//   384        17.31%    21485       141       34         0          0.41 sec
//   448        17.77%    21367       118       31         0          0.47 sec
//   489        18.05%    21295        72       23         0          0.53 sec
