// | ------------------------------------------------------------------------------------------------------------------ |
// |                                                                                                                    |
// |          Current split capture setting:     Off (optimal)                                                          |
// |                                                                                                                    |
// |   Current clock off simulation setting:     Off (optimal)                                                          |
// | ------------------------------------------------------------------------------------------------------------------ |
//  ------------------------------------------------------------------------
//  Simulation performed for #gates = 12864  #faults = 25984
//  Run fault simulation without storing patterns.  pattern source = 524 external patterns
//  ------------------------------------------------------------------------
//  #patterns  test      #faults  #faults    # eff.    # test         process 
//  simulated  coverage  in list  detected   patterns  patterns       CPU time
//   64         12.13%    22833      3151       58         0          0.10 sec
//   128        13.34%    22519       314       44         0          0.17 sec
//   192        14.09%    22324       195       46         0          0.23 sec
//   256        14.84%    22129       195       42         0          0.29 sec
//   320        15.51%    21953       176       38         0          0.34 sec
//   384        15.93%    21846       107       35         0          0.40 sec
//   448        16.21%    21771        75       27         0          0.46 sec
//   512        16.36%    21734        37       18         0          0.51 sec
//   524        16.37%    21730         4        3         0          0.56 sec
