// | ------------------------------------------------------------------------------------------------------------------ |
// |                                                                                                                    |
// |          Current split capture setting:     Off (optimal)                                                          |
// |                                                                                                                    |
// |   Current clock off simulation setting:     Off (optimal)                                                          |
// | ------------------------------------------------------------------------------------------------------------------ |
//  ------------------------------------------------------------------------
//  Simulation performed for #gates = 12864  #faults = 25984
//  Run fault simulation without storing patterns.  pattern source = 582 external patterns
//  ------------------------------------------------------------------------
//  #patterns  test      #faults  #faults    # eff.    # test         process 
//  simulated  coverage  in list  detected   patterns  patterns       CPU time
//   64         19.44%    20932      5052       64         0          0.15 sec
//   128        23.01%    20004       928       64         0          0.21 sec
//   192        25.05%    19476       528       64         0          0.26 sec
//   256        26.63%    19064       412       64         0          0.32 sec
//   320        27.82%    18754       310       64         0          0.37 sec
//   384        28.82%    18496       258       64         0          0.42 sec
//   448        29.48%    18325       171       64         0          0.47 sec
//   512        29.91%    18212       113       64         0          0.52 sec
//   576        30.24%    18127        85       63         0          0.56 sec
//   582        30.26%    18120         7        6         0          0.60 sec
