// | ------------------------------------------------------------------------------------------------------------------ |
// |                                                                                                                    |
// |          Current split capture setting:     Off (optimal)                                                          |
// |                                                                                                                    |
// |   Current clock off simulation setting:     Off (optimal)                                                          |
// | ------------------------------------------------------------------------------------------------------------------ |
//  ------------------------------------------------------------------------
//  Simulation performed for #gates = 12864  #faults = 25984
//  Run fault simulation without storing patterns.  pattern source = 568 external patterns
//  ------------------------------------------------------------------------
//  #patterns  test      #faults  #faults    # eff.    # test         process 
//  simulated  coverage  in list  detected   patterns  patterns       CPU time
//   64         14.65%    22178      3806       64         0          0.12 sec
//   128        16.32%    21744       434       58         0          0.19 sec
//   192        17.09%    21543       201       50         0          0.25 sec
//   256        17.63%    21402       141       43         0          0.30 sec
//   320        17.91%    21331        71       28         0          0.36 sec
//   384        18.17%    21263        68       27         0          0.42 sec
//   448        18.35%    21217        46       24         0          0.47 sec
//   512        18.51%    21174        43       22         0          0.53 sec
//   568        18.71%    21122        52       20         0          0.58 sec
