// | ------------------------------------------------------------------------------------------------------------------ |
// |                                                                                                                    |
// |          Current split capture setting:     Off (optimal)                                                          |
// |                                                                                                                    |
// |   Current clock off simulation setting:     Off (optimal)                                                          |
// | ------------------------------------------------------------------------------------------------------------------ |
//  ------------------------------------------------------------------------
//  Simulation performed for #gates = 12864  #faults = 25984
//  Run fault simulation without storing patterns.  pattern source = 453 external patterns
//  ------------------------------------------------------------------------
//  #patterns  test      #faults  #faults    # eff.    # test         process 
//  simulated  coverage  in list  detected   patterns  patterns       CPU time
//   64         14.27%    22277      3707       64         0          0.12 sec
//   128        16.32%    21744       533       59         0          0.18 sec
//   192        17.04%    21556       188       51         0          0.24 sec
//   256        17.43%    21454       102       37         0          0.30 sec
//   320        17.78%    21364        90       38         0          0.36 sec
//   384        18.00%    21308        56       25         0          0.41 sec
//   448        18.18%    21259        49       23         0          0.47 sec
//   453        18.19%    21257         2        2         0          0.51 sec
