// | ------------------------------------------------------------------------------------------------------------------ |
// |                                                                                                                    |
// |          Current split capture setting:     Off (optimal)                                                          |
// |                                                                                                                    |
// |   Current clock off simulation setting:     Off (optimal)                                                          |
// | ------------------------------------------------------------------------------------------------------------------ |
//  ------------------------------------------------------------------------
//  Simulation performed for #gates = 12864  #faults = 25984
//  Run fault simulation without storing patterns.  pattern source = 545 external patterns
//  ------------------------------------------------------------------------
//  #patterns  test      #faults  #faults    # eff.    # test         process 
//  simulated  coverage  in list  detected   patterns  patterns       CPU time
//   64         13.16%    22565      3419       64         0          0.11 sec
//   128        14.47%    22224       341       50         0          0.17 sec
//   192        15.17%    22043       181       48         0          0.23 sec
//   256        15.67%    21912       131       36         0          0.29 sec
//   320        16.09%    21802       110       38         0          0.34 sec
//   384        16.46%    21707        95       35         0          0.40 sec
//   448        16.86%    21604       103       31         0          0.46 sec
//   512        17.07%    21548        56       25         0          0.51 sec
//   545        17.16%    21526        22       10         0          0.56 sec
