// | ------------------------------------------------------------------------------------------------------------------ |
// |                                                                                                                    |
// |          Current split capture setting:     Off (optimal)                                                          |
// |                                                                                                                    |
// |   Current clock off simulation setting:     Off (optimal)                                                          |
// | ------------------------------------------------------------------------------------------------------------------ |
//  ------------------------------------------------------------------------
//  Simulation performed for #gates = 12864  #faults = 25984
//  Run fault simulation without storing patterns.  pattern source = 568 external patterns
//  ------------------------------------------------------------------------
//  #patterns  test      #faults  #faults    # eff.    # test         process 
//  simulated  coverage  in list  detected   patterns  patterns       CPU time
//   64         14.29%    22272      3712       64         0          0.12 sec
//   128        16.06%    21810       462       59         0          0.19 sec
//   192        16.89%    21596       214       51         0          0.25 sec
//   256        17.42%    21458       138       42         0          0.31 sec
//   320        17.78%    21363        95       33         0          0.37 sec
//   384        18.05%    21293        70       24         0          0.43 sec
//   448        18.32%    21223        70       33         0          0.49 sec
//   512        18.54%    21166        57       28         0          0.55 sec
//   568        18.71%    21122        44       20         0          0.60 sec
