// | ------------------------------------------------------------------------------------------------------------------ |
// |                                                                                                                    |
// |          Current split capture setting:     Off (optimal)                                                          |
// |                                                                                                                    |
// |   Current clock off simulation setting:     Off (optimal)                                                          |
// | ------------------------------------------------------------------------------------------------------------------ |
//  ------------------------------------------------------------------------
//  Simulation performed for #gates = 12864  #faults = 25984
//  Run fault simulation without storing patterns.  pattern source = 587 external patterns
//  ------------------------------------------------------------------------
//  #patterns  test      #faults  #faults    # eff.    # test         process 
//  simulated  coverage  in list  detected   patterns  patterns       CPU time
//   64         14.31%    22265      3719       64         0          0.12 sec
//   128        16.00%    21826       439       57         0          0.19 sec
//   192        16.83%    21610       216       52         0          0.25 sec
//   256        17.47%    21445       165       41         0          0.30 sec
//   320        17.78%    21363        82       36         0          0.36 sec
//   384        18.05%    21293        70       34         0          0.42 sec
//   448        18.24%    21245        48       24         0          0.47 sec
//   512        18.45%    21189        56       30         0          0.53 sec
//   576        18.57%    21158        31       17         0          0.58 sec
//   587        18.60%    21152         6        3         0          0.63 sec
