// | ------------------------------------------------------------------------------------------------------------------ |
// |                                                                                                                    |
// |          Current split capture setting:     Off (optimal)                                                          |
// |                                                                                                                    |
// |   Current clock off simulation setting:     Off (optimal)                                                          |
// | ------------------------------------------------------------------------------------------------------------------ |
//  ------------------------------------------------------------------------
//  Simulation performed for #gates = 12864  #faults = 25984
//  Run fault simulation without storing patterns.  pattern source = 507 external patterns
//  ------------------------------------------------------------------------
//  #patterns  test      #faults  #faults    # eff.    # test         process 
//  simulated  coverage  in list  detected   patterns  patterns       CPU time
//   64         15.11%    22057      3927       64         0          0.14 sec
//   128        17.17%    21523       534       61         0          0.21 sec
//   192        17.90%    21334       189       51         0          0.27 sec
//   256        18.27%    21236        98       37         0          0.33 sec
//   320        18.72%    21121       115       39         0          0.39 sec
//   384        19.02%    21042        79       30         0          0.44 sec
//   448        19.27%    20976        66       27         0          0.50 sec
//   507        19.36%    20954        22       13         0          0.55 sec
