// | ------------------------------------------------------------------------------------------------------------------ |
// |                                                                                                                    |
// |          Current split capture setting:     Off (optimal)                                                          |
// |                                                                                                                    |
// |   Current clock off simulation setting:     Off (optimal)                                                          |
// | ------------------------------------------------------------------------------------------------------------------ |
//  ------------------------------------------------------------------------
//  Simulation performed for #gates = 12864  #faults = 25984
//  Run fault simulation without storing patterns.  pattern source = 649 external patterns
//  ------------------------------------------------------------------------
//  #patterns  test      #faults  #faults    # eff.    # test         process 
//  simulated  coverage  in list  detected   patterns  patterns       CPU time
//   64         14.63%    22183      3801       63         0          0.13 sec
//   128        15.91%    21850       333       55         0          0.20 sec
//   192        16.83%    21612       238       47         0          0.26 sec
//   256        17.34%    21479       133       36         0          0.32 sec
//   320        17.85%    21345       134       37         0          0.38 sec
//   384        18.07%    21288        57       25         0          0.44 sec
//   448        18.28%    21234        54       22         0          0.50 sec
//   512        18.46%    21188        46       21         0          0.55 sec
//   576        18.65%    21139        49       25         0          0.61 sec
//   640        18.82%    21095        44       13         0          0.67 sec
//   649        18.83%    21090         5        3         0          0.71 sec
