// | ------------------------------------------------------------------------------------------------------------------ |
// |                                                                                                                    |
// |          Current split capture setting:     Off (optimal)                                                          |
// |                                                                                                                    |
// |   Current clock off simulation setting:     Off (optimal)                                                          |
// | ------------------------------------------------------------------------------------------------------------------ |
//  ------------------------------------------------------------------------
//  Simulation performed for #gates = 12864  #faults = 25984
//  Run fault simulation without storing patterns.  pattern source = 507 external patterns
//  ------------------------------------------------------------------------
//  #patterns  test      #faults  #faults    # eff.    # test         process 
//  simulated  coverage  in list  detected   patterns  patterns       CPU time
//   64         15.31%    22005      3979       64         0          0.13 sec
//   128        17.16%    21524       481       58         0          0.20 sec
//   192        17.91%    21331       193       48         0          0.26 sec
//   256        18.34%    21218       113       37         0          0.32 sec
//   320        18.82%    21093       125       38         0          0.38 sec
//   384        19.15%    21008        85       27         0          0.44 sec
//   448        19.35%    20957        51       23         0          0.49 sec
//   507        19.47%    20925        32       16         0          0.55 sec
