// | ------------------------------------------------------------------------------------------------------------------ |
// |                                                                                                                    |
// |          Current split capture setting:     Off (optimal)                                                          |
// |                                                                                                                    |
// |   Current clock off simulation setting:     Off (optimal)                                                          |
// | ------------------------------------------------------------------------------------------------------------------ |
//  ------------------------------------------------------------------------
//  Simulation performed for #gates = 12864  #faults = 25984
//  Run fault simulation without storing patterns.  pattern source = 545 external patterns
//  ------------------------------------------------------------------------
//  #patterns  test      #faults  #faults    # eff.    # test         process 
//  simulated  coverage  in list  detected   patterns  patterns       CPU time
//   64         14.32%    22262      3722       64         0          0.12 sec
//   128        15.98%    21831       431       61         0          0.18 sec
//   192        16.83%    21611       220       51         0          0.24 sec
//   256        17.31%    21487       124       40         0          0.30 sec
//   320        17.76%    21368       119       39         0          0.36 sec
//   384        18.07%    21288        80       32         0          0.42 sec
//   448        18.37%    21212        76       31         0          0.47 sec
//   512        18.58%    21157        55       23         0          0.53 sec
//   545        18.68%    21130        27       11         0          0.58 sec
