// | ------------------------------------------------------------------------------------------------------------------ |
// |                                                                                                                    |
// |          Current split capture setting:     Off (optimal)                                                          |
// |                                                                                                                    |
// |   Current clock off simulation setting:     Off (optimal)                                                          |
// | ------------------------------------------------------------------------------------------------------------------ |
//  ------------------------------------------------------------------------
//  Simulation performed for #gates = 12864  #faults = 25984
//  Run fault simulation without storing patterns.  pattern source = 520 external patterns
//  ------------------------------------------------------------------------
//  #patterns  test      #faults  #faults    # eff.    # test         process 
//  simulated  coverage  in list  detected   patterns  patterns       CPU time
//   64         20.01%    20785      5199       64         0          0.14 sec
//   128        23.47%    19885       900       64         0          0.20 sec
//   192        25.30%    19411       474       64         0          0.25 sec
//   256        26.56%    19083       328       64         0          0.30 sec
//   320        27.65%    18799       284       64         0          0.35 sec
//   384        28.24%    18646       153       64         0          0.40 sec
//   448        28.67%    18534       112       64         0          0.45 sec
//   512        29.01%    18445        89       64         0          0.49 sec
//   520        29.04%    18437         8        8         0          0.54 sec
