// | ------------------------------------------------------------------------------------------------------------------ |
// |                                                                                                                    |
// |          Current split capture setting:     Off (optimal)                                                          |
// |                                                                                                                    |
// |   Current clock off simulation setting:     Off (optimal)                                                          |
// | ------------------------------------------------------------------------------------------------------------------ |
//  ------------------------------------------------------------------------
//  Simulation performed for #gates = 12864  #faults = 25984
//  Run fault simulation without storing patterns.  pattern source = 545 external patterns
//  ------------------------------------------------------------------------
//  #patterns  test      #faults  #faults    # eff.    # test         process 
//  simulated  coverage  in list  detected   patterns  patterns       CPU time
//   64         14.36%    22252      3732       64         0          0.12 sec
//   128        16.37%    21731       521       58         0          0.19 sec
//   192        17.20%    21515       216       46         0          0.25 sec
//   256        17.70%    21385       130       39         0          0.31 sec
//   320        18.09%    21283       102       34         0          0.37 sec
//   384        18.42%    21198        85       30         0          0.43 sec
//   448        18.62%    21147        51       22         0          0.48 sec
//   512        18.83%    21091        56       26         0          0.54 sec
//   545        18.90%    21072        19        8         0          0.59 sec
