// | ------------------------------------------------------------------------------------------------------------------ |
// |                                                                                                                    |
// |          Current split capture setting:     Off (optimal)                                                          |
// |                                                                                                                    |
// |   Current clock off simulation setting:     Off (optimal)                                                          |
// | ------------------------------------------------------------------------------------------------------------------ |
//  ------------------------------------------------------------------------
//  Simulation performed for #gates = 12864  #faults = 25984
//  Run fault simulation without storing patterns.  pattern source = 524 external patterns
//  ------------------------------------------------------------------------
//  #patterns  test      #faults  #faults    # eff.    # test         process 
//  simulated  coverage  in list  detected   patterns  patterns       CPU time
//   64         14.56%    22202      3782       64         0          0.13 sec
//   128        16.05%    21814       388       55         0          0.20 sec
//   192        16.84%    21607       207       44         0          0.26 sec
//   256        17.34%    21479       128       35         0          0.32 sec
//   320        17.65%    21399        80       31         0          0.38 sec
//   384        17.98%    21312        87       27         0          0.44 sec
//   448        18.17%    21262        50       21         0          0.50 sec
//   512        18.34%    21219        43       21         0          0.56 sec
//   524        18.36%    21214         5        3         0          0.61 sec
