// | ------------------------------------------------------------------------------------------------------------------ |
// |                                                                                                                    |
// |          Current split capture setting:     Off (optimal)                                                          |
// |                                                                                                                    |
// |   Current clock off simulation setting:     Off (optimal)                                                          |
// | ------------------------------------------------------------------------------------------------------------------ |
//  ------------------------------------------------------------------------
//  Simulation performed for #gates = 12864  #faults = 25984
//  Run fault simulation without storing patterns.  pattern source = 587 external patterns
//  ------------------------------------------------------------------------
//  #patterns  test      #faults  #faults    # eff.    # test         process 
//  simulated  coverage  in list  detected   patterns  patterns       CPU time
//   64         13.90%    22371      3613       64         0          0.12 sec
//   128        15.56%    21942       429       57         0          0.19 sec
//   192        16.49%    21699       243       49         0          0.25 sec
//   256        17.09%    21544       155       37         0          0.31 sec
//   320        17.51%    21434       110       39         0          0.37 sec
//   384        17.83%    21350        84       32         0          0.42 sec
//   448        18.03%    21300        50       25         0          0.48 sec
//   512        18.24%    21244        56       24         0          0.54 sec
//   576        18.39%    21205        39       19         0          0.59 sec
//   587        18.42%    21198         7        3         0          0.64 sec
