// | ------------------------------------------------------------------------------------------------------------------ |
// |                                                                                                                    |
// |          Current split capture setting:     Off (optimal)                                                          |
// |                                                                                                                    |
// |   Current clock off simulation setting:     Off (optimal)                                                          |
// | ------------------------------------------------------------------------------------------------------------------ |
//  ------------------------------------------------------------------------
//  Simulation performed for #gates = 12864  #faults = 25984
//  Run fault simulation without storing patterns.  pattern source = 472 external patterns
//  ------------------------------------------------------------------------
//  #patterns  test      #faults  #faults    # eff.    # test         process 
//  simulated  coverage  in list  detected   patterns  patterns       CPU time
//   64         13.03%    22598      3386       62         0          0.11 sec
//   128        14.65%    22178       420       53         0          0.17 sec
//   192        15.34%    21999       179       39         0          0.23 sec
//   256        15.86%    21864       135       33         0          0.29 sec
//   320        16.39%    21726       138       40         0          0.35 sec
//   384        16.88%    21597       129       39         0          0.41 sec
//   448        17.15%    21528        69       36         0          0.46 sec
//   472        17.22%    21509        19        9         0          0.51 sec
