// | ------------------------------------------------------------------------------------------------------------------ |
// |                                                                                                                    |
// |          Current split capture setting:     Off (optimal)                                                          |
// |                                                                                                                    |
// |   Current clock off simulation setting:     Off (optimal)                                                          |
// | ------------------------------------------------------------------------------------------------------------------ |
//  ------------------------------------------------------------------------
//  Simulation performed for #gates = 12864  #faults = 25984
//  Run fault simulation without storing patterns.  pattern source = 582 external patterns
//  ------------------------------------------------------------------------
//  #patterns  test      #faults  #faults    # eff.    # test         process 
//  simulated  coverage  in list  detected   patterns  patterns       CPU time
//   64         13.34%    22518      3466       63         0          0.11 sec
//   128        14.75%    22152       366       55         0          0.18 sec
//   192        15.55%    21943       209       48         0          0.24 sec
//   256        16.22%    21770       173       40         0          0.30 sec
//   320        16.71%    21642       128       36         0          0.36 sec
//   384        17.03%    21560        82       28         0          0.41 sec
//   448        17.29%    21491        69       24         0          0.47 sec
//   512        17.59%    21413        78       28         0          0.53 sec
//   576        17.77%    21366        47       24         0          0.58 sec
//   582        17.78%    21364         2        1         0          0.63 sec
