// | ------------------------------------------------------------------------------------------------------------------ |
// |                                                                                                                    |
// |          Current split capture setting:     Off (optimal)                                                          |
// |                                                                                                                    |
// |   Current clock off simulation setting:     Off (optimal)                                                          |
// | ------------------------------------------------------------------------------------------------------------------ |
//  ------------------------------------------------------------------------
//  Simulation performed for #gates = 12864  #faults = 25984
//  Run fault simulation without storing patterns.  pattern source = 573 external patterns
//  ------------------------------------------------------------------------
//  #patterns  test      #faults  #faults    # eff.    # test         process 
//  simulated  coverage  in list  detected   patterns  patterns       CPU time
//   64         19.44%    20933      5051       64         0          0.15 sec
//   128        23.26%    19941       992       64         0          0.21 sec
//   192        25.15%    19448       493       64         0          0.26 sec
//   256        26.34%    19140       308       64         0          0.31 sec
//   320        27.19%    18918       222       64         0          0.37 sec
//   384        27.84%    18750       168       64         0          0.42 sec
//   448        28.38%    18610       140       64         0          0.46 sec
//   512        28.78%    18507       103       64         0          0.51 sec
//   573        29.11%    18419        88       61         0          0.56 sec
