// | ------------------------------------------------------------------------------------------------------------------ |
// |                                                                                                                    |
// |          Current split capture setting:     Off (optimal)                                                          |
// |                                                                                                                    |
// |   Current clock off simulation setting:     Off (optimal)                                                          |
// | ------------------------------------------------------------------------------------------------------------------ |
//  ------------------------------------------------------------------------
//  Simulation performed for #gates = 12864  #faults = 25984
//  Run fault simulation without storing patterns.  pattern source = 507 external patterns
//  ------------------------------------------------------------------------
//  #patterns  test      #faults  #faults    # eff.    # test         process 
//  simulated  coverage  in list  detected   patterns  patterns       CPU time
//   64         15.49%    21959      4025       63         0          0.13 sec
//   128        17.06%    21550       409       56         0          0.19 sec
//   192        17.90%    21334       216       48         0          0.25 sec
//   256        18.28%    21233       101       37         0          0.31 sec
//   320        18.66%    21135        98       36         0          0.37 sec
//   384        18.92%    21067        68       31         0          0.42 sec
//   448        19.22%    20991        76       29         0          0.48 sec
//   507        19.42%    20939        52       20         0          0.53 sec
