// | ------------------------------------------------------------------------------------------------------------------ |
// |                                                                                                                    |
// |          Current split capture setting:     Off (optimal)                                                          |
// |                                                                                                                    |
// |   Current clock off simulation setting:     Off (optimal)                                                          |
// | ------------------------------------------------------------------------------------------------------------------ |
//  ------------------------------------------------------------------------
//  Simulation performed for #gates = 12864  #faults = 25984
//  Run fault simulation without storing patterns.  pattern source = 582 external patterns
//  ------------------------------------------------------------------------
//  #patterns  test      #faults  #faults    # eff.    # test         process 
//  simulated  coverage  in list  detected   patterns  patterns       CPU time
//   64         19.35%    20957      5027       64         0          0.15 sec
//   128        22.64%    20101       856       64         0          0.21 sec
//   192        24.54%    19607       494       64         0          0.26 sec
//   256        25.82%    19276       331       64         0          0.32 sec
//   320        26.67%    19055       221       64         0          0.37 sec
//   384        27.50%    18839       216       64         0          0.42 sec
//   448        28.02%    18703       136       64         0          0.47 sec
//   512        28.51%    18577       126       64         0          0.52 sec
//   576        28.92%    18470       107       64         0          0.57 sec
//   582        28.94%    18463         7        6         0          0.61 sec
