// | ------------------------------------------------------------------------------------------------------------------ |
// |                                                                                                                    |
// |          Current split capture setting:     Off (optimal)                                                          |
// |                                                                                                                    |
// |   Current clock off simulation setting:     Off (optimal)                                                          |
// | ------------------------------------------------------------------------------------------------------------------ |
//  ------------------------------------------------------------------------
//  Simulation performed for #gates = 12864  #faults = 25984
//  Run fault simulation without storing patterns.  pattern source = 587 external patterns
//  ------------------------------------------------------------------------
//  #patterns  test      #faults  #faults    # eff.    # test         process 
//  simulated  coverage  in list  detected   patterns  patterns       CPU time
//   64         14.30%    22269      3715       64         0          0.12 sec
//   128        15.98%    21833       436       59         0          0.19 sec
//   192        16.95%    21581       252       54         0          0.25 sec
//   256        17.41%    21460       121       38         0          0.31 sec
//   320        17.67%    21392        68       29         0          0.36 sec
//   384        17.94%    21322        70       29         0          0.42 sec
//   448        18.16%    21266        56       28         0          0.48 sec
//   512        18.29%    21231        35       19         0          0.53 sec
//   576        18.43%    21196        35       17         0          0.59 sec
