// | ------------------------------------------------------------------------------------------------------------------ |
// |                                                                                                                    |
// |          Current split capture setting:     Off (optimal)                                                          |
// |                                                                                                                    |
// |   Current clock off simulation setting:     Off (optimal)                                                          |
// | ------------------------------------------------------------------------------------------------------------------ |
//  ------------------------------------------------------------------------
//  Simulation performed for #gates = 12864  #faults = 25984
//  Run fault simulation without storing patterns.  pattern source = 702 external patterns
//  ------------------------------------------------------------------------
//  #patterns  test      #faults  #faults    # eff.    # test         process 
//  simulated  coverage  in list  detected   patterns  patterns       CPU time
//   64         12.28%    22792      3192       63         0          0.10 sec
//   128        13.49%    22480       312       50         0          0.16 sec
//   192        14.12%    22315       165       37         0          0.22 sec
//   256        14.74%    22155       160       45         0          0.28 sec
//   320        15.09%    22063        92       27         0          0.34 sec
//   384        15.76%    21889       174       38         0          0.40 sec
//   448        16.22%    21770       119       36         0          0.45 sec
//   512        16.47%    21704        66       24         0          0.51 sec
//   576        16.72%    21640        64       23         0          0.56 sec
//   640        16.86%    21604        36       19         0          0.62 sec
//   702        17.02%    21562        42       19         0          0.67 sec
