// | ------------------------------------------------------------------------------------------------------------------ |
// |                                                                                                                    |
// |          Current split capture setting:     Off (optimal)                                                          |
// |                                                                                                                    |
// |   Current clock off simulation setting:     Off (optimal)                                                          |
// | ------------------------------------------------------------------------------------------------------------------ |
//  ------------------------------------------------------------------------
//  Simulation performed for #gates = 12864  #faults = 25984
//  Run fault simulation without storing patterns.  pattern source = 658 external patterns
//  ------------------------------------------------------------------------
//  #patterns  test      #faults  #faults    # eff.    # test         process 
//  simulated  coverage  in list  detected   patterns  patterns       CPU time
//   64         11.85%    22905      3079       60         0          0.10 sec
//   128        13.39%    22505       400       53         0          0.16 sec
//   192        14.29%    22270       235       40         0          0.22 sec
//   256        14.97%    22094       176       40         0          0.28 sec
//   320        15.49%    21960       134       34         0          0.34 sec
//   384        15.79%    21882        78       29         0          0.40 sec
//   448        16.09%    21804        78       22         0          0.45 sec
//   512        16.41%    21719        85       29         0          0.51 sec
//   576        16.59%    21672        47       20         0          0.56 sec
//   640        16.77%    21627        45       15         0          0.62 sec
//   658        16.79%    21620         7        3         0          0.67 sec
