// | ------------------------------------------------------------------------------------------------------------------ |
// |                                                                                                                    |
// |          Current split capture setting:     Off (optimal)                                                          |
// |                                                                                                                    |
// |   Current clock off simulation setting:     Off (optimal)                                                          |
// | ------------------------------------------------------------------------------------------------------------------ |
//  ------------------------------------------------------------------------
//  Simulation performed for #gates = 12864  #faults = 25984
//  Run fault simulation without storing patterns.  pattern source = 461 external patterns
//  ------------------------------------------------------------------------
//  #patterns  test      #faults  #faults    # eff.    # test         process 
//  simulated  coverage  in list  detected   patterns  patterns       CPU time
//   64         15.86%    21862      4122       63         0          0.14 sec
//   128        17.85%    21347       515       61         0          0.20 sec
//   192        18.44%    21192       155       45         0          0.26 sec
//   256        19.09%    21023       169       45         0          0.32 sec
//   320        19.50%    20918       105       32         0          0.38 sec
//   384        19.75%    20851        67       34         0          0.43 sec
//   448        19.84%    20830        21       13         0          0.49 sec
//   461        19.87%    20822         8        5         0          0.54 sec
