// | ------------------------------------------------------------------------------------------------------------------ |
// |                                                                                                                    |
// |          Current split capture setting:     Off (optimal)                                                          |
// |                                                                                                                    |
// |   Current clock off simulation setting:     Off (optimal)                                                          |
// | ------------------------------------------------------------------------------------------------------------------ |
//  ------------------------------------------------------------------------
//  Simulation performed for #gates = 12864  #faults = 25984
//  Run fault simulation without storing patterns.  pattern source = 545 external patterns
//  ------------------------------------------------------------------------
//  #patterns  test      #faults  #faults    # eff.    # test         process 
//  simulated  coverage  in list  detected   patterns  patterns       CPU time
//   64         12.79%    22661      3323       63         0          0.11 sec
//   128        14.37%    22250       411       57         0          0.17 sec
//   192        15.16%    22046       204       46         0          0.23 sec
//   256        15.59%    21932       114       34         0          0.29 sec
//   320        16.01%    21823       109       35         0          0.35 sec
//   384        16.37%    21730        93       30         0          0.40 sec
//   448        16.62%    21665        65       26         0          0.46 sec
//   512        16.86%    21603        62       22         0          0.52 sec
//   545        16.96%    21577        26        9         0          0.57 sec
