// | ------------------------------------------------------------------------------------------------------------------ |
// |                                                                                                                    |
// |          Current split capture setting:     Off (optimal)                                                          |
// |                                                                                                                    |
// |   Current clock off simulation setting:     Off (optimal)                                                          |
// | ------------------------------------------------------------------------------------------------------------------ |
//  ------------------------------------------------------------------------
//  Simulation performed for #gates = 12864  #faults = 25984
//  Run fault simulation without storing patterns.  pattern source = 507 external patterns
//  ------------------------------------------------------------------------
//  #patterns  test      #faults  #faults    # eff.    # test         process 
//  simulated  coverage  in list  detected   patterns  patterns       CPU time
//   64         11.84%    22908      3076       64         0          0.11 sec
//   128        13.40%    22502       406       49         0          0.17 sec
//   192        14.17%    22302       200       40         0          0.23 sec
//   256        14.84%    22129       173       39         0          0.29 sec
//   320        15.27%    22015       114       30         0          0.35 sec
//   384        15.72%    21899       116       33         0          0.40 sec
//   448        15.93%    21846        53       23         0          0.46 sec
//   507        16.14%    21789        57       19         0          0.51 sec
