// | ------------------------------------------------------------------------------------------------------------------ |
// |                                                                                                                    |
// |          Current split capture setting:     Off (optimal)                                                          |
// |                                                                                                                    |
// |   Current clock off simulation setting:     Off (optimal)                                                          |
// | ------------------------------------------------------------------------------------------------------------------ |
//  ------------------------------------------------------------------------
//  Simulation performed for #gates = 12864  #faults = 25984
//  Run fault simulation without storing patterns.  pattern source = 464 external patterns
//  ------------------------------------------------------------------------
//  #patterns  test      #faults  #faults    # eff.    # test         process 
//  simulated  coverage  in list  detected   patterns  patterns       CPU time
//   64         12.74%    22674      3310       63         0          0.11 sec
//   128        14.06%    22331       343       55         0          0.17 sec
//   192        14.91%    22110       221       45         0          0.23 sec
//   256        15.37%    21990       120       42         0          0.29 sec
//   320        15.83%    21872       118       37         0          0.35 sec
//   384        16.13%    21794        78       24         0          0.41 sec
//   448        16.63%    21663       131       35         0          0.47 sec
//   464        16.70%    21644        19        4         0          0.52 sec
