// | ------------------------------------------------------------------------------------------------------------------ |
// |                                                                                                                    |
// |          Current split capture setting:     Off (optimal)                                                          |
// |                                                                                                                    |
// |   Current clock off simulation setting:     Off (optimal)                                                          |
// | ------------------------------------------------------------------------------------------------------------------ |
//  ------------------------------------------------------------------------
//  Simulation performed for #gates = 12864  #faults = 25984
//  Run fault simulation without storing patterns.  pattern source = 534 external patterns
//  ------------------------------------------------------------------------
//  #patterns  test      #faults  #faults    # eff.    # test         process 
//  simulated  coverage  in list  detected   patterns  patterns       CPU time
//   64         20.02%    20783      5201       64         0          0.14 sec
//   128        23.56%    19862       921       64         0          0.20 sec
//   192        25.40%    19385       477       64         0          0.25 sec
//   256        26.78%    19025       360       64         0          0.30 sec
//   320        27.82%    18756       269       64         0          0.35 sec
//   384        28.54%    18567       189       64         0          0.39 sec
//   448        29.14%    18411       156       64         0          0.44 sec
//   512        29.49%    18321        90       64         0          0.49 sec
//   534        29.58%    18297        24       22         0          0.53 sec
