// | ------------------------------------------------------------------------------------------------------------------ |
// |                                                                                                                    |
// |          Current split capture setting:     Off (optimal)                                                          |
// |                                                                                                                    |
// |   Current clock off simulation setting:     Off (optimal)                                                          |
// | ------------------------------------------------------------------------------------------------------------------ |
//  ------------------------------------------------------------------------
//  Simulation performed for #gates = 12864  #faults = 25984
//  Run fault simulation without storing patterns.  pattern source = 573 external patterns
//  ------------------------------------------------------------------------
//  #patterns  test      #faults  #faults    # eff.    # test         process 
//  simulated  coverage  in list  detected   patterns  patterns       CPU time
//   64         15.86%    21864      4120       64         0          0.14 sec
//   128        17.66%    21395       469       61         0          0.21 sec
//   192        18.46%    21188       207       45         0          0.27 sec
//   256        18.86%    21084       104       38         0          0.33 sec
//   320        19.27%    20976       108       37         0          0.39 sec
//   384        19.57%    20898        78       35         0          0.45 sec
//   448        19.90%    20814        84       33         0          0.51 sec
//   512        20.04%    20778        36       19         0          0.56 sec
//   573        20.15%    20749        29       13         0          0.62 sec
