// | ------------------------------------------------------------------------------------------------------------------ |
// |                                                                                                                    |
// |          Current split capture setting:     Off (optimal)                                                          |
// |                                                                                                                    |
// |   Current clock off simulation setting:     Off (optimal)                                                          |
// | ------------------------------------------------------------------------------------------------------------------ |
//  ------------------------------------------------------------------------
//  Simulation performed for #gates = 12864  #faults = 25984
//  Run fault simulation without storing patterns.  pattern source = 587 external patterns
//  ------------------------------------------------------------------------
//  #patterns  test      #faults  #faults    # eff.    # test         process 
//  simulated  coverage  in list  detected   patterns  patterns       CPU time
//   64         13.20%    22554      3430       62         0          0.11 sec
//   128        14.57%    22199       355       52         0          0.17 sec
//   192        15.51%    21955       244       50         0          0.23 sec
//   256        15.95%    21839       116       34         0          0.29 sec
//   320        16.26%    21758        81       31         0          0.35 sec
//   384        16.52%    21692        66       29         0          0.40 sec
//   448        16.78%    21623        69       26         0          0.46 sec
//   512        17.03%    21558        65       21         0          0.52 sec
//   576        17.19%    21518        40       18         0          0.57 sec
//   587        17.20%    21515         3        3         0          0.62 sec
