           Statistics Report          
            Stuck-at Faults           
--------------------------------------
Fault Classes               #faults   
                            (coll.)   
----------------------  --------------
  FU (full)                  59756    
  --------------------  --------------
  UO (unobserved)           1 ( 0.00%)
  DS (det_simulation)   56728 (94.93%)
  TI (tied)               320 ( 0.54%)
  BL (blocked)             71 ( 0.12%)
  RE (redundant)         2634 ( 4.41%)
  AU (atpg_untestable)      2 ( 0.00%)
--------------------------------------
Fault Sub-classes                     
  --------------------                
  UC+UO                               
    AAB  (atpg_abort)       1 ( 0.00%)
--------------------------------------
Coverage                              
  --------------------                
  test_coverage                99.99% 
  fault_coverage               94.93% 
  atpg_effectiveness          100.00% 
--------------------------------------
#test_patterns                    183 
#simulated_patterns               199 
CPU_time (secs)                  28.6 
--------------------------------------

