          Statistics Report          
           Stuck-at Faults           
-------------------------------------
Fault Classes              #faults   
                           (coll.)   
---------------------  --------------
  FU (full)                 3062     
  -------------------  --------------
  DS (det_simulation)   2733 (89.26%)
  RE (redundant)         329 (10.74%)
-------------------------------------
Coverage                             
  -------------------                
  test_coverage              100.00% 
  fault_coverage              89.26% 
  atpg_effectiveness         100.00% 
-------------------------------------
#test_patterns                    32 
#simulated_patterns               59 
CPU_time (secs)                  1.8 
-------------------------------------

