          Statistics Report          
           Stuck-at Faults           
-------------------------------------
Fault Classes              #faults   
                           (coll.)   
---------------------  --------------
  FU (full)                 3062     
  -------------------  --------------
  DS (det_simulation)   2741 (89.52%)
  RE (redundant)         321 (10.48%)
-------------------------------------
Coverage                             
  -------------------                
  test_coverage              100.00% 
  fault_coverage              89.52% 
  atpg_effectiveness         100.00% 
-------------------------------------
#test_patterns                    34 
#simulated_patterns               56 
CPU_time (secs)                  1.7 
-------------------------------------

