          Statistics Report          
           Stuck-at Faults           
-------------------------------------
Fault Classes              #faults   
                           (coll.)   
---------------------  --------------
  FU (full)                 3062     
  -------------------  --------------
  DS (det_simulation)   2764 (90.27%)
  RE (redundant)         298 ( 9.73%)
-------------------------------------
Coverage                             
  -------------------                
  test_coverage              100.00% 
  fault_coverage              90.27% 
  atpg_effectiveness         100.00% 
-------------------------------------
#test_patterns                    37 
#simulated_patterns               59 
CPU_time (secs)                  1.8 
-------------------------------------

