           Statistics Report          
            Stuck-at Faults           
--------------------------------------
Fault Classes               #faults   
                            (coll.)   
----------------------  --------------
  FU (full)                  47162    
  --------------------  --------------
  UO (unobserved)          12 ( 0.03%)
  DS (det_simulation)   27483 (58.27%)
  TI (tied)              2610 ( 5.53%)
  BL (blocked)           5227 (11.08%)
  RE (redundant)        11708 (24.83%)
  AU (atpg_untestable)    122 ( 0.26%)
--------------------------------------
Fault Sub-classes                     
  --------------------                
  UC+UO                               
    AAB  (atpg_abort)      12 ( 0.03%)
--------------------------------------
Coverage                              
  --------------------                
  test_coverage                99.51% 
  fault_coverage               58.27% 
  atpg_effectiveness           99.97% 
--------------------------------------
#test_patterns                    270 
#simulated_patterns               276 
CPU_time (secs)                  13.8 
--------------------------------------

