// | ------------------------------------------------------------------------------------------------------------------ |
// |                                                                                                                    |
// |          Current split capture setting:     Off (optimal)                                                          |
// |                                                                                                                    |
// |   Current clock off simulation setting:     Off (optimal)                                                          |
// | ------------------------------------------------------------------------------------------------------------------ |
//  ------------------------------------------------------------------------
//  Simulation performed for #gates = 1112  #faults = 2501
//  Run fault simulation without storing patterns.  pattern source = 156 external patterns
//  ------------------------------------------------------------------------
//  #patterns  test      #faults  #faults    # eff.    # test         process 
//  simulated  coverage  in list  detected   patterns  patterns       CPU time
//   64         55.46%     1114      1387       53         0          0.01 sec
//   128        60.42%      990       124       36         0          0.02 sec
//   156        61.62%      960        30       11         0          0.02 sec
