          Statistics Report          
           Stuck-at Faults           
-------------------------------------
Fault Classes              #faults   
                           (coll.)   
---------------------  --------------
  FU (full)                 5106     
  -------------------  --------------
  DS (det_simulation)   3280 (64.24%)
  TI (tied)              173 ( 3.39%)
  BL (blocked)           633 (12.40%)
  RE (redundant)        1020 (19.98%)
-------------------------------------
Coverage                             
  -------------------                
  test_coverage              100.00% 
  fault_coverage              64.24% 
  atpg_effectiveness         100.00% 
-------------------------------------
#test_patterns                   108 
#simulated_patterns              116 
CPU_time (secs)                  2.2 
-------------------------------------

