//  command: set_current_design top 
//  Warning: 1 case: Unused net in DFT library model
//  Note: Issue set_current_design with the -show_elaboration_warnings option to see more details about previous warnings
//  command: set_system_mode analysis
//  Flattening process completed,  design_cells=3506  leaf_cells=3506  library_primitives=3506  sim_gates=4195  PIs=512  POs=130  CPU time=0.02 sec.
//  ---------------------------------------------------------------------------
//  Begin circuit learning analyses.
//  --------------------------------
//  Learning completed, CPU time=0.01 sec.
//  ---------------------------------------------------------------------------
//  Begin scan chain identification process, memory elements = 0.
//  ---------------------------------------------------------------------------
//  Circuit has no memory elements.
//  command: add_faults -all
//  command: set_fault_mode collapsed
//  command: set_fault_type stuck
//  command: read_patterns /home/animesh/currentResearch/ISI/atpg_structural/code/dumpData/tessent/epfl/arithmetic/max_synth/fiftyPercent/max_synth_fiftyPercent_3.spf
//  Reading STIL input file "/home/animesh/currentResearch/ISI/atpg_structural/code/dumpData/tessent/epfl/arithmetic/max_synth/fiftyPercent/max_synth_fiftyPercent_3.spf"
//  command: simulate_patterns > /home/animesh/currentResearch/ISI/atpg_structural/code/dumpData/tessent/epfl/arithmetic/max_synth/bin_2/simulateLogFile_max_synth_fiftyPercent_31_max_synth_fiftyPercent_3.atpg.result
//  command: exit 
