//  command: set_current_design top 
//  Warning: 1 case: Unused net in DFT library model
//  Note: Issue set_current_design with the -show_elaboration_warnings option to see more details about previous warnings
//  command: set_system_mode analysis
//  Flattening process completed,  design_cells=11967  leaf_cells=11967  library_primitives=11967  sim_gates=12864  PIs=256  POs=129  CPU time=0.04 sec.
//  ---------------------------------------------------------------------------
//  Begin circuit learning analyses.
//  --------------------------------
//  Learning completed, CPU time=0.08 sec.
//  ---------------------------------------------------------------------------
//  Begin scan chain identification process, memory elements = 0.
//  ---------------------------------------------------------------------------
//  Circuit has no memory elements.
//  command: add_faults -all
//  command: set_fault_mode collapsed
//  command: set_fault_type stuck
//  command: create_patterns 
// | ------------------------------------------------------------------------------------------------------------------ |
// |                                             Analyzing the design                                                   |
// |                                                                                                                    |
// |      Current clock restriction setting:     Domain_clock (edge interaction)                                        |
// |                                             (optimal)                                                              |
// |                                                                                                                    |
// |          Current split capture setting:     Off (optimal)                                                          |
// |                                                                                                                    |
// |   Current clock off simulation setting:     Off (optimal)                                                          |
// |                                                                                                                    |
// |            Current abort limit setting:     30                                                                     |
// |                                Calling:     set_abort_limit 300 100                                                |
// | ------------------------------------------------------------------------------------------------------------------ |
// |                                                                                                                    |
// |               Current sequential depth:     0 (optimal)                                                            |
// |                                                                                                                    |
// | ------------------------------------------------------------------------------------------------------------------ |
//  ------------------------------------------------------------------------
//  Simulation performed for #gates = 12864  #faults = 25984
//  system mode = analysis    pattern source = internal patterns
//  ------------------------------------------------------------------------
//  #patterns  test      #faults  #faults    # eff.    # test         process      RE/AU/AAB
//  simulated  coverage  in list  detected   patterns  patterns       CPU time
//  deterministic ATPG invoked with comb/seq abort limit = 300/100
//   ---        ------      ---       ---      ---       ---          1.28 sec     3720/0/0
//   64         23.10%    17122      5142       64        64          1.41 sec
//   ---        ------      ---       ---      ---       ---          1.60 sec     9005/0/0
//   128        35.69%    10919       918       64       128          1.64 sec
//   ---        ------      ---       ---      ---       ---          1.76 sec     12762/0/0
//   192        49.49%     6678       484       64       192          1.78 sec
//   ---        ------      ---       ---      ---       ---          1.97 sec     18641/0/0
//   256        93.94%      445       354       64       256          1.97 sec
//   ---        ------      ---       ---      ---       ---          2.02 sec     18649/0/0
//   320        96.70%      242       195       62       318          2.02 sec
//   ---        ------      ---       ---      ---       ---          2.07 sec     18649/0/0
//   384        98.01%      146        96       52       370          2.07 sec
//   ---        ------      ---       ---      ---       ---          2.10 sec     18649/0/0
//   448        99.20%       59        87       51       421          2.10 sec
//   ---        ------      ---       ---      ---       ---          2.10 sec     18649/0/0
//   498       100.00%        0        59       40       461          2.10 sec
// | ------------------------------------------------------------------------------------------------------------------ |
// |                                                                                                                    |
// |                   Next step suggestion:     (optional)                                                             |
// |              If truncating pattern set:     Use command 'order_patterns 3'                                         |
// |                                                                                                                    |
// | ------------------------------------------------------------------------------------------------------------------ |
          Statistics Report          
           Stuck-at Faults           
-------------------------------------
Fault Classes              #faults   
                           (coll.)   
---------------------  --------------
  FU (full)                 25984    
  -------------------  --------------
  DS (det_simulation)   7335 (28.23%)
  RE (redundant)       18649 (71.77%)
-------------------------------------
Coverage                             
  -------------------                
  test_coverage              100.00% 
  fault_coverage              28.23% 
  atpg_effectiveness         100.00% 
-------------------------------------
#test_patterns                   461 
#simulated_patterns              498 
CPU_time (secs)                  4.0 
-------------------------------------

//  command: write_patterns /home/animesh/currentResearch/ISI/atpg_structural/code/dumpData/tessent/epfl/random_control/arbiter_synth/ninetyPercent/arbiter_synth_ninetyPercent_30.spf -stil -rep
//  command: report_statistics > /home/animesh/currentResearch/ISI/atpg_structural/code/dumpData/tessent/epfl/random_control/arbiter_synth/ninetyPercent/arbiter_synth_ninetyPercent_30.atpg.result
//  command: exit 
