//  command: set_current_design top 
//  Warning: 1 case: Unused net in DFT library model
//  Note: Issue set_current_design with the -show_elaboration_warnings option to see more details about previous warnings
//  command: set_system_mode analysis
//  Flattening process completed,  design_cells=11967  leaf_cells=11967  library_primitives=11967  sim_gates=12864  PIs=256  POs=129  CPU time=0.04 sec.
//  ---------------------------------------------------------------------------
//  Begin circuit learning analyses.
//  --------------------------------
//  Learning completed, CPU time=0.09 sec.
//  ---------------------------------------------------------------------------
//  Begin scan chain identification process, memory elements = 0.
//  ---------------------------------------------------------------------------
//  Circuit has no memory elements.
//  command: add_faults -all
//  command: set_fault_mode collapsed
//  command: set_fault_type stuck
//  command: create_patterns 
// | ------------------------------------------------------------------------------------------------------------------ |
// |                                             Analyzing the design                                                   |
// |                                                                                                                    |
// |      Current clock restriction setting:     Domain_clock (edge interaction)                                        |
// |                                             (optimal)                                                              |
// |                                                                                                                    |
// |          Current split capture setting:     Off (optimal)                                                          |
// |                                                                                                                    |
// |   Current clock off simulation setting:     Off (optimal)                                                          |
// |                                                                                                                    |
// |            Current abort limit setting:     30                                                                     |
// |                                Calling:     set_abort_limit 300 100                                                |
// | ------------------------------------------------------------------------------------------------------------------ |
// |                                                                                                                    |
// |               Current sequential depth:     0 (optimal)                                                            |
// |                                                                                                                    |
// | ------------------------------------------------------------------------------------------------------------------ |
//  ------------------------------------------------------------------------
//  Simulation performed for #gates = 12864  #faults = 25984
//  system mode = analysis    pattern source = internal patterns
//  ------------------------------------------------------------------------
//  #patterns  test      #faults  #faults    # eff.    # test         process      RE/AU/AAB
//  simulated  coverage  in list  detected   patterns  patterns       CPU time
//  deterministic ATPG invoked with comb/seq abort limit = 300/100
//   ---        ------      ---       ---      ---       ---          1.29 sec     3491/0/0
//   64         22.86%    17351      5142       64        64          1.43 sec
//   ---        ------      ---       ---      ---       ---          1.59 sec     9306/0/0
//   128        35.99%    10676       860       64       128          1.63 sec
//   ---        ------      ---       ---      ---       ---          1.78 sec     14709/0/0
//   192        57.68%     4772       501       64       192          1.80 sec
//   ---        ------      ---       ---      ---       ---          1.99 sec     18857/0/0
//   220        93.25%      481       143       28       220          1.99 sec
//   ---        ------      ---       ---      ---       ---          2.02 sec     18857/0/0
//   284        96.41%      256       225       63       283          2.02 sec
//   ---        ------      ---       ---      ---       ---          2.06 sec     18857/0/0
//   348        97.77%      159        97       54       337          2.06 sec
//   ---        ------      ---       ---      ---       ---          2.08 sec     18857/0/0
//   412        99.09%       65        94       56       393          2.08 sec
//   ---        ------      ---       ---      ---       ---          2.09 sec     18857/0/0
//   461       100.00%        0        65       42       435          2.09 sec
// | ------------------------------------------------------------------------------------------------------------------ |
// |                                                                                                                    |
// |                   Next step suggestion:     (optional)                                                             |
// |              If truncating pattern set:     Use command 'order_patterns 3'                                         |
// |                                                                                                                    |
// | ------------------------------------------------------------------------------------------------------------------ |
          Statistics Report          
           Stuck-at Faults           
-------------------------------------
Fault Classes              #faults   
                           (coll.)   
---------------------  --------------
  FU (full)                 25984    
  -------------------  --------------
  DS (det_simulation)   7127 (27.43%)
  RE (redundant)       18857 (72.57%)
-------------------------------------
Coverage                             
  -------------------                
  test_coverage              100.00% 
  fault_coverage              27.43% 
  atpg_effectiveness         100.00% 
-------------------------------------
#test_patterns                   435 
#simulated_patterns              461 
CPU_time (secs)                  3.9 
-------------------------------------

//  command: write_patterns /home/animesh/currentResearch/ISI/atpg_structural/code/dumpData/tessent/epfl/random_control/arbiter_synth/ninetyPercent/arbiter_synth_ninetyPercent_35.spf -stil -rep
//  command: report_statistics > /home/animesh/currentResearch/ISI/atpg_structural/code/dumpData/tessent/epfl/random_control/arbiter_synth/ninetyPercent/arbiter_synth_ninetyPercent_35.atpg.result
//  command: exit 
