// | ------------------------------------------------------------------------------------------------------------------ |
// |                                                                                                                    |
// |          Current split capture setting:     Off (optimal)                                                          |
// |                                                                                                                    |
// |   Current clock off simulation setting:     Off (optimal)                                                          |
// | ------------------------------------------------------------------------------------------------------------------ |
//  ------------------------------------------------------------------------
//  Simulation performed for #gates = 20077  #faults = 43183
//  Run fault simulation without storing patterns.  pattern source = 261 external patterns
//  ------------------------------------------------------------------------
//  #patterns  test      #faults  #faults    # eff.    # test         process 
//  simulated  coverage  in list  detected   patterns  patterns       CPU time
//   64         49.59%    21768     21415       64         0          0.51 sec
//   128        53.58%    20047      1721       64         0          0.62 sec
//   192        55.69%    19133       914       61         0          0.71 sec
//   256        57.10%    18527       606       56         0          0.79 sec
//   261        57.21%    18480        47        4         0          0.86 sec
