// | ------------------------------------------------------------------------------------------------------------------ |
// |                                                                                                                    |
// |          Current split capture setting:     Off (optimal)                                                          |
// |                                                                                                                    |
// |   Current clock off simulation setting:     Off (optimal)                                                          |
// | ------------------------------------------------------------------------------------------------------------------ |
//  ------------------------------------------------------------------------
//  Simulation performed for #gates = 20077  #faults = 44159
//  Run fault simulation without storing patterns.  pattern source = 318 external patterns
//  ------------------------------------------------------------------------
//  #patterns  test      #faults  #faults    # eff.    # test         process 
//  simulated  coverage  in list  detected   patterns  patterns       CPU time
//   64         54.38%    20147     24012       64         0          0.50 sec
//   128        58.19%    18465      1682       63         0          0.59 sec
//   192        60.52%    17436      1029       60         0          0.67 sec
//   256        61.51%    16995       441       60         0          0.74 sec
//   318        62.26%    16664       331       48         0          0.81 sec
