// | ------------------------------------------------------------------------------------------------------------------ |
// |                                                                                                                    |
// |          Current split capture setting:     Off (optimal)                                                          |
// |                                                                                                                    |
// |   Current clock off simulation setting:     Off (optimal)                                                          |
// | ------------------------------------------------------------------------------------------------------------------ |
//  ------------------------------------------------------------------------
//  Simulation performed for #gates = 20077  #faults = 43663
//  Run fault simulation without storing patterns.  pattern source = 322 external patterns
//  ------------------------------------------------------------------------
//  #patterns  test      #faults  #faults    # eff.    # test         process 
//  simulated  coverage  in list  detected   patterns  patterns       CPU time
//   64         41.71%    25449     18214       64         0          0.39 sec
//   128        47.80%    22794      2655       63         0          0.51 sec
//   192        49.41%    22088       706       50         0          0.60 sec
//   256        51.55%    21154       934       54         0          0.70 sec
//   320        53.05%    20500       654       53         0          0.79 sec
//   322        53.09%    20482        18        2         0          0.86 sec
