// | ------------------------------------------------------------------------------------------------------------------ |
// |                                                                                                                    |
// |          Current split capture setting:     Off (optimal)                                                          |
// |                                                                                                                    |
// |   Current clock off simulation setting:     Off (optimal)                                                          |
// | ------------------------------------------------------------------------------------------------------------------ |
//  ------------------------------------------------------------------------
//  Simulation performed for #gates = 20077  #faults = 38098
//  Run fault simulation without storing patterns.  pattern source = 301 external patterns
//  ------------------------------------------------------------------------
//  #patterns  test      #faults  #faults    # eff.    # test         process 
//  simulated  coverage  in list  detected   patterns  patterns       CPU time
//   64         55.74%    16864     21234       64         0          0.43 sec
//   128        59.78%    15322      1542       62         0          0.50 sec
//   192        62.62%    14241      1081       58         0          0.57 sec
//   256        64.09%    13682       559       59         0          0.63 sec
//   301        65.11%    13293       389       36         0          0.69 sec
