// | ------------------------------------------------------------------------------------------------------------------ |
// |                                                                                                                    |
// |          Current split capture setting:     Off (optimal)                                                          |
// |                                                                                                                    |
// |   Current clock off simulation setting:     Off (optimal)                                                          |
// | ------------------------------------------------------------------------------------------------------------------ |
//  ------------------------------------------------------------------------
//  Simulation performed for #gates = 20077  #faults = 43188
//  Run fault simulation without storing patterns.  pattern source = 285 external patterns
//  ------------------------------------------------------------------------
//  #patterns  test      #faults  #faults    # eff.    # test         process 
//  simulated  coverage  in list  detected   patterns  patterns       CPU time
//   64         45.44%    23565     19623       64         0          0.43 sec
//   128        49.91%    21632      1933       60         0          0.54 sec
//   192        52.08%    20696       936       58         0          0.63 sec
//   256        53.36%    20142       554       51         0          0.72 sec
//   285        54.36%    19712       430       29         0          0.79 sec
