// | ------------------------------------------------------------------------------------------------------------------ |
// |                                                                                                                    |
// |          Current split capture setting:     Off (optimal)                                                          |
// |                                                                                                                    |
// |   Current clock off simulation setting:     Off (optimal)                                                          |
// | ------------------------------------------------------------------------------------------------------------------ |
//  ------------------------------------------------------------------------
//  Simulation performed for #gates = 20077  #faults = 45476
//  Run fault simulation without storing patterns.  pattern source = 281 external patterns
//  ------------------------------------------------------------------------
//  #patterns  test      #faults  #faults    # eff.    # test         process 
//  simulated  coverage  in list  detected   patterns  patterns       CPU time
//   64         47.62%    23821     21655       64         0          0.54 sec
//   128        50.55%    22486      1335       62         0          0.65 sec
//   192        51.85%    21897       589       59         0          0.74 sec
//   256        53.05%    21350       547       55         0          0.84 sec
//   281        53.33%    21224       126       23         0          0.92 sec
