// | ------------------------------------------------------------------------------------------------------------------ |
// |                                                                                                                    |
// |          Current split capture setting:     Off (optimal)                                                          |
// |                                                                                                                    |
// |   Current clock off simulation setting:     Off (optimal)                                                          |
// | ------------------------------------------------------------------------------------------------------------------ |
//  ------------------------------------------------------------------------
//  Simulation performed for #gates = 20077  #faults = 43224
//  Run fault simulation without storing patterns.  pattern source = 290 external patterns
//  ------------------------------------------------------------------------
//  #patterns  test      #faults  #faults    # eff.    # test         process 
//  simulated  coverage  in list  detected   patterns  patterns       CPU time
//   64         43.05%    24614     18610       64         0          0.43 sec
//   128        47.10%    22864      1750       61         0          0.54 sec
//   192        49.22%    21949       915       61         0          0.65 sec
//   256        50.56%    21371       578       54         0          0.74 sec
//   290        52.51%    20528       843       27         0          0.83 sec
