// | ------------------------------------------------------------------------------------------------------------------ |
// |                                                                                                                    |
// |          Current split capture setting:     Off (optimal)                                                          |
// |                                                                                                                    |
// |   Current clock off simulation setting:     Off (optimal)                                                          |
// | ------------------------------------------------------------------------------------------------------------------ |
//  ------------------------------------------------------------------------
//  Simulation performed for #gates = 20077  #faults = 44830
//  Run fault simulation without storing patterns.  pattern source = 275 external patterns
//  ------------------------------------------------------------------------
//  #patterns  test      #faults  #faults    # eff.    # test         process 
//  simulated  coverage  in list  detected   patterns  patterns       CPU time
//   64         46.09%    24168     20662       64         0          0.46 sec
//   128        51.01%    21962      2206       63         0          0.57 sec
//   192        53.23%    20966       996       59         0          0.67 sec
//   256        54.33%    20476       490       54         0          0.76 sec
//   275        54.70%    20309       167       15         0          0.84 sec
