          Statistics Report          
           Stuck-at Faults           
-------------------------------------
Fault Classes              #faults   
                           (coll.)   
---------------------  --------------
  FU (full)                 2586     
  -------------------  --------------
  DS (det_simulation)   2056 (79.51%)
  TI (tied)               48 ( 1.86%)
  BL (blocked)           102 ( 3.94%)
  RE (redundant)         380 (14.69%)
-------------------------------------
Coverage                             
  -------------------                
  test_coverage              100.00% 
  fault_coverage              79.51% 
  atpg_effectiveness         100.00% 
-------------------------------------
#test_patterns                   156 
#simulated_patterns              173 
CPU_time (secs)                  2.1 
-------------------------------------

