// | ------------------------------------------------------------------------------------------------------------------ |
// |                                                                                                                    |
// |          Current split capture setting:     Off (optimal)                                                          |
// |                                                                                                                    |
// |   Current clock off simulation setting:     Off (optimal)                                                          |
// | ------------------------------------------------------------------------------------------------------------------ |
//  ------------------------------------------------------------------------
//  Simulation performed for #gates = 4839  #faults = 12839
//  Run fault simulation without storing patterns.  pattern source = 167 external patterns
//  ------------------------------------------------------------------------
//  #patterns  test      #faults  #faults    # eff.    # test         process 
//  simulated  coverage  in list  detected   patterns  patterns       CPU time
//   64         49.66%     6463      6376       55         0          0.23 sec
//   128        51.52%     6224       239       28         0          0.25 sec
//   167        53.09%     6023       201       12         0          0.27 sec
