// | ------------------------------------------------------------------------------------------------------------------ |
// |                                                                                                                    |
// |          Current split capture setting:     Off (optimal)                                                          |
// |                                                                                                                    |
// |   Current clock off simulation setting:     Off (optimal)                                                          |
// | ------------------------------------------------------------------------------------------------------------------ |
//  ------------------------------------------------------------------------
//  Simulation performed for #gates = 20077  #faults = 35514
//  Run fault simulation without storing patterns.  pattern source = 207 external patterns
//  ------------------------------------------------------------------------
//  #patterns  test      #faults  #faults    # eff.    # test         process 
//  simulated  coverage  in list  detected   patterns  patterns       CPU time
//   64         43.76%    19973     15541       64         0          0.31 sec
//   128        46.96%    18838      1135       63         0          0.40 sec
//   192        48.70%    18218       620       55         0          0.48 sec
//   207        49.00%    18112       106       12         0          0.54 sec
