// | ------------------------------------------------------------------------------------------------------------------ |
// |                                                                                                                    |
// |          Current split capture setting:     Off (optimal)                                                          |
// |                                                                                                                    |
// |   Current clock off simulation setting:     Off (optimal)                                                          |
// | ------------------------------------------------------------------------------------------------------------------ |
//  ------------------------------------------------------------------------
//  Simulation performed for #gates = 20077  #faults = 34771
//  Run fault simulation without storing patterns.  pattern source = 200 external patterns
//  ------------------------------------------------------------------------
//  #patterns  test      #faults  #faults    # eff.    # test         process 
//  simulated  coverage  in list  detected   patterns  patterns       CPU time
//   64         45.05%    19106     15665       64         0          0.31 sec
//   128        48.44%    17928      1178       62         0          0.40 sec
//   192        50.02%    17377       551       55         0          0.47 sec
//   200        50.26%    17294        83        7         0          0.53 sec
