// | ------------------------------------------------------------------------------------------------------------------ |
// |                                                                                                                    |
// |          Current split capture setting:     Off (optimal)                                                          |
// |                                                                                                                    |
// |   Current clock off simulation setting:     Off (optimal)                                                          |
// | ------------------------------------------------------------------------------------------------------------------ |
//  ------------------------------------------------------------------------
//  Simulation performed for #gates = 20077  #faults = 32321
//  Run fault simulation without storing patterns.  pattern source = 194 external patterns
//  ------------------------------------------------------------------------
//  #patterns  test      #faults  #faults    # eff.    # test         process 
//  simulated  coverage  in list  detected   patterns  patterns       CPU time
//   64         45.88%    17491     14830       64         0          0.28 sec
//   128        49.19%    16421      1070       61         0          0.36 sec
//   192        51.15%    15790       631       57         0          0.43 sec
//   194        51.18%    15779        11        2         0          0.48 sec
