// | ------------------------------------------------------------------------------------------------------------------ |
// |                                                                                                                    |
// |          Current split capture setting:     Off (optimal)                                                          |
// |                                                                                                                    |
// |   Current clock off simulation setting:     Off (optimal)                                                          |
// | ------------------------------------------------------------------------------------------------------------------ |
//  ------------------------------------------------------------------------
//  Simulation performed for #gates = 20077  #faults = 33703
//  Run fault simulation without storing patterns.  pattern source = 197 external patterns
//  ------------------------------------------------------------------------
//  #patterns  test      #faults  #faults    # eff.    # test         process 
//  simulated  coverage  in list  detected   patterns  patterns       CPU time
//   64         45.89%    18237     15466       64         0          0.28 sec
//   128        48.71%    17287       950       61         0          0.36 sec
//   192        49.47%    17029       258       49         0          0.43 sec
//   197        49.49%    17023         6        2         0          0.50 sec
