// | ------------------------------------------------------------------------------------------------------------------ |
// |                                                                                                                    |
// |          Current split capture setting:     Off (optimal)                                                          |
// |                                                                                                                    |
// |   Current clock off simulation setting:     Off (optimal)                                                          |
// | ------------------------------------------------------------------------------------------------------------------ |
//  ------------------------------------------------------------------------
//  Simulation performed for #gates = 20077  #faults = 32387
//  Run fault simulation without storing patterns.  pattern source = 234 external patterns
//  ------------------------------------------------------------------------
//  #patterns  test      #faults  #faults    # eff.    # test         process 
//  simulated  coverage  in list  detected   patterns  patterns       CPU time
//   64         45.75%    17570     14817       64         0          0.27 sec
//   128        49.61%    16321      1249       62         0          0.35 sec
//   192        51.22%    15799       522       53         0          0.42 sec
//   234        52.19%    15484       315       32         0          0.47 sec
