// | ------------------------------------------------------------------------------------------------------------------ |
// |                                                                                                                    |
// |          Current split capture setting:     Off (optimal)                                                          |
// |                                                                                                                    |
// |   Current clock off simulation setting:     Off (optimal)                                                          |
// | ------------------------------------------------------------------------------------------------------------------ |
//  ------------------------------------------------------------------------
//  Simulation performed for #gates = 20077  #faults = 35093
//  Run fault simulation without storing patterns.  pattern source = 229 external patterns
//  ------------------------------------------------------------------------
//  #patterns  test      #faults  #faults    # eff.    # test         process 
//  simulated  coverage  in list  detected   patterns  patterns       CPU time
//   64         43.99%    19654     15439       64         0          0.30 sec
//   128        47.33%    18484      1170       63         0          0.39 sec
//   192        49.42%    17750       734       56         0          0.46 sec
//   229        50.00%    17545       205       32         0          0.53 sec
