// | ------------------------------------------------------------------------------------------------------------------ |
// |                                                                                                                    |
// |          Current split capture setting:     Off (optimal)                                                          |
// |                                                                                                                    |
// |   Current clock off simulation setting:     Off (optimal)                                                          |
// | ------------------------------------------------------------------------------------------------------------------ |
//  ------------------------------------------------------------------------
//  Simulation performed for #gates = 20077  #faults = 31093
//  Run fault simulation without storing patterns.  pattern source = 194 external patterns
//  ------------------------------------------------------------------------
//  #patterns  test      #faults  #faults    # eff.    # test         process 
//  simulated  coverage  in list  detected   patterns  patterns       CPU time
//   64         45.71%    16880     14213       64         0          0.27 sec
//   128        49.75%    15624      1256       56         0          0.35 sec
//   192        51.23%    15165       459       57         0          0.41 sec
//   194        51.28%    15148        17        2         0          0.46 sec
