// | ------------------------------------------------------------------------------------------------------------------ |
// |                                                                                                                    |
// |          Current split capture setting:     Off (optimal)                                                          |
// |                                                                                                                    |
// |   Current clock off simulation setting:     Off (optimal)                                                          |
// | ------------------------------------------------------------------------------------------------------------------ |
//  ------------------------------------------------------------------------
//  Simulation performed for #gates = 20077  #faults = 30981
//  Run fault simulation without storing patterns.  pattern source = 229 external patterns
//  ------------------------------------------------------------------------
//  #patterns  test      #faults  #faults    # eff.    # test         process 
//  simulated  coverage  in list  detected   patterns  patterns       CPU time
//   64         50.26%    15411     15570       64         0          0.26 sec
//   128        53.98%    14257      1154       63         0          0.33 sec
//   192        55.77%    13702       555       55         0          0.39 sec
//   229        56.37%    13517       185       29         0          0.44 sec
