// | ------------------------------------------------------------------------------------------------------------------ |
// |                                                                                                                    |
// |          Current split capture setting:     Off (optimal)                                                          |
// |                                                                                                                    |
// |   Current clock off simulation setting:     Off (optimal)                                                          |
// | ------------------------------------------------------------------------------------------------------------------ |
//  ------------------------------------------------------------------------
//  Simulation performed for #gates = 20077  #faults = 31492
//  Run fault simulation without storing patterns.  pattern source = 220 external patterns
//  ------------------------------------------------------------------------
//  #patterns  test      #faults  #faults    # eff.    # test         process 
//  simulated  coverage  in list  detected   patterns  patterns       CPU time
//   64         47.17%    16637     14855       64         0          0.28 sec
//   128        50.49%    15593      1044       61         0          0.35 sec
//   192        52.77%    14874       719       58         0          0.42 sec
//   220        53.18%    14743       131       20         0          0.47 sec
