// | ------------------------------------------------------------------------------------------------------------------ |
// |                                                                                                                    |
// |          Current split capture setting:     Off (optimal)                                                          |
// |                                                                                                                    |
// |   Current clock off simulation setting:     Off (optimal)                                                          |
// | ------------------------------------------------------------------------------------------------------------------ |
//  ------------------------------------------------------------------------
//  Simulation performed for #gates = 12864  #faults = 25984
//  Run fault simulation without storing patterns.  pattern source = 505 external patterns
//  ------------------------------------------------------------------------
//  #patterns  test      #faults  #faults    # eff.    # test         process 
//  simulated  coverage  in list  detected   patterns  patterns       CPU time
//   64         15.31%    22006      3978       64         0          0.13 sec
//   128        17.28%    21493       513       59         0          0.20 sec
//   192        18.04%    21296       197       47         0          0.26 sec
//   256        18.53%    21169       127       44         0          0.33 sec
//   320        19.07%    21029       140       42         0          0.39 sec
//   384        19.47%    20924       105       32         0          0.44 sec
//   448        19.79%    20841        83       32         0          0.50 sec
//   505        19.98%    20793        48       24         0          0.56 sec
