// | ------------------------------------------------------------------------------------------------------------------ |
// |                                                                                                                    |
// |          Current split capture setting:     Off (optimal)                                                          |
// |                                                                                                                    |
// |   Current clock off simulation setting:     Off (optimal)                                                          |
// | ------------------------------------------------------------------------------------------------------------------ |
//  ------------------------------------------------------------------------
//  Simulation performed for #gates = 12864  #faults = 25984
//  Run fault simulation without storing patterns.  pattern source = 568 external patterns
//  ------------------------------------------------------------------------
//  #patterns  test      #faults  #faults    # eff.    # test         process 
//  simulated  coverage  in list  detected   patterns  patterns       CPU time
//   64         14.32%    22262      3722       64         0          0.12 sec
//   128        16.04%    21817       445       54         0          0.19 sec
//   192        16.66%    21655       162       45         0          0.25 sec
//   256        17.22%    21510       145       43         0          0.31 sec
//   320        17.43%    21455        55       28         0          0.36 sec
//   384        17.68%    21390        65       26         0          0.42 sec
//   448        17.84%    21349        41       18         0          0.48 sec
//   512        17.99%    21310        39       14         0          0.53 sec
//   568        18.15%    21268        42       16         0          0.59 sec
