// | ------------------------------------------------------------------------------------------------------------------ |
// |                                                                                                                    |
// |          Current split capture setting:     Off (optimal)                                                          |
// |                                                                                                                    |
// |   Current clock off simulation setting:     Off (optimal)                                                          |
// | ------------------------------------------------------------------------------------------------------------------ |
//  ------------------------------------------------------------------------
//  Simulation performed for #gates = 12864  #faults = 25984
//  Run fault simulation without storing patterns.  pattern source = 489 external patterns
//  ------------------------------------------------------------------------
//  #patterns  test      #faults  #faults    # eff.    # test         process 
//  simulated  coverage  in list  detected   patterns  patterns       CPU time
//   64         15.45%    21969      4015       64         0          0.13 sec
//   128        16.95%    21580       389       60         0          0.20 sec
//   192        17.65%    21397       183       46         0          0.26 sec
//   256        18.29%    21231       166       42         0          0.32 sec
//   320        18.63%    21143        88       40         0          0.38 sec
//   384        19.02%    21042       101       32         0          0.44 sec
//   448        19.29%    20972        70       34         0          0.50 sec
//   489        19.45%    20929        43       20         0          0.55 sec
