// | ------------------------------------------------------------------------------------------------------------------ |
// |                                                                                                                    |
// |          Current split capture setting:     Off (optimal)                                                          |
// |                                                                                                                    |
// |   Current clock off simulation setting:     Off (optimal)                                                          |
// | ------------------------------------------------------------------------------------------------------------------ |
//  ------------------------------------------------------------------------
//  Simulation performed for #gates = 12864  #faults = 25984
//  Run fault simulation without storing patterns.  pattern source = 590 external patterns
//  ------------------------------------------------------------------------
//  #patterns  test      #faults  #faults    # eff.    # test         process 
//  simulated  coverage  in list  detected   patterns  patterns       CPU time
//   64         14.19%    22297      3687       64         0          0.12 sec
//   128        15.79%    21881       416       59         0          0.19 sec
//   192        16.56%    21681       200       50         0          0.25 sec
//   256        17.16%    21526       155       43         0          0.31 sec
//   320        17.52%    21431        95       30         0          0.36 sec
//   384        17.91%    21331       100       28         0          0.42 sec
//   448        18.13%    21272        59       31         0          0.48 sec
//   512        18.42%    21199        73       30         0          0.53 sec
//   576        18.59%    21153        46       24         0          0.59 sec
//   590        18.60%    21152         1        1         0          0.64 sec
