// | ------------------------------------------------------------------------------------------------------------------ |
// |                                                                                                                    |
// |          Current split capture setting:     Off (optimal)                                                          |
// |                                                                                                                    |
// |   Current clock off simulation setting:     Off (optimal)                                                          |
// | ------------------------------------------------------------------------------------------------------------------ |
//  ------------------------------------------------------------------------
//  Simulation performed for #gates = 12864  #faults = 25984
//  Run fault simulation without storing patterns.  pattern source = 529 external patterns
//  ------------------------------------------------------------------------
//  #patterns  test      #faults  #faults    # eff.    # test         process 
//  simulated  coverage  in list  detected   patterns  patterns       CPU time
//   64         12.42%    22757      3227       64         0          0.11 sec
//   128        13.51%    22473       284       48         0          0.17 sec
//   192        14.51%    22214       259       42         0          0.23 sec
//   256        15.07%    22068       146       41         0          0.29 sec
//   320        15.54%    21946       122       34         0          0.35 sec
//   384        16.13%    21792       154       41         0          0.41 sec
//   448        16.53%    21690       102       25         0          0.47 sec
//   512        16.73%    21638        52       16         0          0.53 sec
//   529        16.76%    21630         8        3         0          0.58 sec
