// | ------------------------------------------------------------------------------------------------------------------ |
// |                                                                                                                    |
// |          Current split capture setting:     Off (optimal)                                                          |
// |                                                                                                                    |
// |   Current clock off simulation setting:     Off (optimal)                                                          |
// | ------------------------------------------------------------------------------------------------------------------ |
//  ------------------------------------------------------------------------
//  Simulation performed for #gates = 12864  #faults = 25984
//  Run fault simulation without storing patterns.  pattern source = 702 external patterns
//  ------------------------------------------------------------------------
//  #patterns  test      #faults  #faults    # eff.    # test         process 
//  simulated  coverage  in list  detected   patterns  patterns       CPU time
//   64         13.25%    22542      3442       62         0          0.12 sec
//   128        14.50%    22217       325       53         0          0.18 sec
//   192        15.19%    22036       181       43         0          0.24 sec
//   256        15.92%    21847       189       45         0          0.31 sec
//   320        16.31%    21746       101       34         0          0.36 sec
//   384        16.87%    21601       145       42         0          0.42 sec
//   448        17.19%    21517        84       28         0          0.48 sec
//   512        17.55%    21425        92       22         0          0.54 sec
//   576        17.83%    21350        75       23         0          0.60 sec
//   640        17.95%    21319        31       17         0          0.65 sec
//   702        18.11%    21278        41       12         0          0.71 sec
