// | ------------------------------------------------------------------------------------------------------------------ |
// |                                                                                                                    |
// |          Current split capture setting:     Off (optimal)                                                          |
// |                                                                                                                    |
// |   Current clock off simulation setting:     Off (optimal)                                                          |
// | ------------------------------------------------------------------------------------------------------------------ |
//  ------------------------------------------------------------------------
//  Simulation performed for #gates = 12864  #faults = 25984
//  Run fault simulation without storing patterns.  pattern source = 515 external patterns
//  ------------------------------------------------------------------------
//  #patterns  test      #faults  #faults    # eff.    # test         process 
//  simulated  coverage  in list  detected   patterns  patterns       CPU time
//   64         13.24%    22545      3439       62         0          0.12 sec
//   128        14.93%    22105       440       54         0          0.18 sec
//   192        15.64%    21920       185       42         0          0.24 sec
//   256        16.28%    21755       165       41         0          0.30 sec
//   320        16.88%    21599       156       43         0          0.36 sec
//   384        17.25%    21503        96       39         0          0.42 sec
//   448        17.66%    21395       108       37         0          0.48 sec
//   512        17.91%    21329        66       27         0          0.53 sec
