// | ------------------------------------------------------------------------------------------------------------------ |
// |                                                                                                                    |
// |          Current split capture setting:     Off (optimal)                                                          |
// |                                                                                                                    |
// |   Current clock off simulation setting:     Off (optimal)                                                          |
// | ------------------------------------------------------------------------------------------------------------------ |
//  ------------------------------------------------------------------------
//  Simulation performed for #gates = 12864  #faults = 25984
//  Run fault simulation without storing patterns.  pattern source = 438 external patterns
//  ------------------------------------------------------------------------
//  #patterns  test      #faults  #faults    # eff.    # test         process 
//  simulated  coverage  in list  detected   patterns  patterns       CPU time
//   64         15.35%    21995      3989       64         0          0.13 sec
//   128        16.98%    21571       424       58         0          0.19 sec
//   192        17.76%    21368       203       47         0          0.26 sec
//   256        18.47%    21184       184       40         0          0.31 sec
//   320        18.95%    21059       125       37         0          0.37 sec
//   384        19.15%    21007        52       26         0          0.43 sec
//   438        19.31%    20966        41       22         0          0.48 sec
