// | ------------------------------------------------------------------------------------------------------------------ |
// |                                                                                                                    |
// |          Current split capture setting:     Off (optimal)                                                          |
// |                                                                                                                    |
// |   Current clock off simulation setting:     Off (optimal)                                                          |
// | ------------------------------------------------------------------------------------------------------------------ |
//  ------------------------------------------------------------------------
//  Simulation performed for #gates = 12864  #faults = 25984
//  Run fault simulation without storing patterns.  pattern source = 573 external patterns
//  ------------------------------------------------------------------------
//  #patterns  test      #faults  #faults    # eff.    # test         process 
//  simulated  coverage  in list  detected   patterns  patterns       CPU time
//   64         14.56%    22201      3783       64         0          0.12 sec
//   128        16.33%    21741       460       60         0          0.19 sec
//   192        17.19%    21518       223       51         0          0.25 sec
//   256        17.62%    21406       112       38         0          0.31 sec
//   320        17.97%    21315        91       40         0          0.37 sec
//   384        18.26%    21240        75       27         0          0.43 sec
//   448        18.49%    21179        61       33         0          0.49 sec
//   512        18.66%    21136        43       19         0          0.54 sec
//   573        18.84%    21089        47       24         0          0.60 sec
