// | ------------------------------------------------------------------------------------------------------------------ |
// |                                                                                                                    |
// |          Current split capture setting:     Off (optimal)                                                          |
// |                                                                                                                    |
// |   Current clock off simulation setting:     Off (optimal)                                                          |
// | ------------------------------------------------------------------------------------------------------------------ |
//  ------------------------------------------------------------------------
//  Simulation performed for #gates = 12864  #faults = 25984
//  Run fault simulation without storing patterns.  pattern source = 578 external patterns
//  ------------------------------------------------------------------------
//  #patterns  test      #faults  #faults    # eff.    # test         process 
//  simulated  coverage  in list  detected   patterns  patterns       CPU time
//   64         12.19%    22817      3167       63         0          0.11 sec
//   128        13.55%    22464       353       51         0          0.17 sec
//   192        14.39%    22244       220       43         0          0.23 sec
//   256        14.98%    22091       153       36         0          0.29 sec
//   320        15.61%    21927       164       37         0          0.35 sec
//   384        16.13%    21793       134       41         0          0.41 sec
//   448        16.60%    21671       122       36         0          0.47 sec
//   512        16.86%    21603        68       23         0          0.53 sec
//   576        17.03%    21560        43       20         0          0.58 sec
