// | ------------------------------------------------------------------------------------------------------------------ |
// |                                                                                                                    |
// |          Current split capture setting:     Off (optimal)                                                          |
// |                                                                                                                    |
// |   Current clock off simulation setting:     Off (optimal)                                                          |
// | ------------------------------------------------------------------------------------------------------------------ |
//  ------------------------------------------------------------------------
//  Simulation performed for #gates = 12864  #faults = 25984
//  Run fault simulation without storing patterns.  pattern source = 520 external patterns
//  ------------------------------------------------------------------------
//  #patterns  test      #faults  #faults    # eff.    # test         process 
//  simulated  coverage  in list  detected   patterns  patterns       CPU time
//   64         14.77%    22147      3837       64         0          0.13 sec
//   128        16.59%    21673       474       56         0          0.19 sec
//   192        17.34%    21479       194       54         0          0.26 sec
//   256        17.80%    21359       120       41         0          0.32 sec
//   320        18.11%    21277        82       40         0          0.37 sec
//   384        18.40%    21202        75       29         0          0.43 sec
//   448        18.57%    21158        44       25         0          0.49 sec
//   512        18.73%    21117        41       18         0          0.55 sec
//   520        18.75%    21113         4        2         0          0.60 sec
