// | ------------------------------------------------------------------------------------------------------------------ |
// |                                                                                                                    |
// |          Current split capture setting:     Off (optimal)                                                          |
// |                                                                                                                    |
// |   Current clock off simulation setting:     Off (optimal)                                                          |
// | ------------------------------------------------------------------------------------------------------------------ |
//  ------------------------------------------------------------------------
//  Simulation performed for #gates = 12864  #faults = 25984
//  Run fault simulation without storing patterns.  pattern source = 477 external patterns
//  ------------------------------------------------------------------------
//  #patterns  test      #faults  #faults    # eff.    # test         process 
//  simulated  coverage  in list  detected   patterns  patterns       CPU time
//   64         11.94%    22881      3103       61         0          0.11 sec
//   128        13.29%    22532       349       47         0          0.17 sec
//   192        14.05%    22334       198       41         0          0.24 sec
//   256        14.93%    22105       229       40         0          0.30 sec
//   320        15.41%    21981       124       36         0          0.36 sec
//   384        15.72%    21900        81       31         0          0.42 sec
//   448        15.96%    21836        64       22         0          0.48 sec
//   477        16.09%    21803        33       11         0          0.53 sec
