// | ------------------------------------------------------------------------------------------------------------------ |
// |                                                                                                                    |
// |          Current split capture setting:     Off (optimal)                                                          |
// |                                                                                                                    |
// |   Current clock off simulation setting:     Off (optimal)                                                          |
// | ------------------------------------------------------------------------------------------------------------------ |
//  ------------------------------------------------------------------------
//  Simulation performed for #gates = 12864  #faults = 25984
//  Run fault simulation without storing patterns.  pattern source = 509 external patterns
//  ------------------------------------------------------------------------
//  #patterns  test      #faults  #faults    # eff.    # test         process 
//  simulated  coverage  in list  detected   patterns  patterns       CPU time
//   64         13.31%    22525      3459       64         0          0.11 sec
//   128        14.72%    22159       366       57         0          0.17 sec
//   192        15.57%    21938       221       45         0          0.24 sec
//   256        16.08%    21805       133       46         0          0.29 sec
//   320        16.41%    21721        84       32         0          0.35 sec
//   384        16.76%    21628        93       32         0          0.41 sec
//   448        17.01%    21565        63       28         0          0.47 sec
//   509        17.13%    21534        31       18         0          0.52 sec
