// | ------------------------------------------------------------------------------------------------------------------ |
// |                                                                                                                    |
// |          Current split capture setting:     Off (optimal)                                                          |
// |                                                                                                                    |
// |   Current clock off simulation setting:     Off (optimal)                                                          |
// | ------------------------------------------------------------------------------------------------------------------ |
//  ------------------------------------------------------------------------
//  Simulation performed for #gates = 12864  #faults = 25984
//  Run fault simulation without storing patterns.  pattern source = 1246 external patterns
//  ------------------------------------------------------------------------
//  #patterns  test      #faults  #faults    # eff.    # test         process 
//  simulated  coverage  in list  detected   patterns  patterns       CPU time
//   64         21.83%    20312      5672       64         0          0.15 sec
//   128        25.57%    19340       972       64         0          0.21 sec
//   192        27.71%    18783       557       64         0          0.26 sec
//   256        29.36%    18354       429       64         0          0.31 sec
//   320        30.60%    18033       321       64         0          0.36 sec
//   384        31.57%    17782       251       64         0          0.40 sec
//   448        32.59%    17517       265       64         0          0.45 sec
//   512        33.42%    17299       218       64         0          0.50 sec
//   576        34.16%    17108       191       64         0          0.55 sec
//   640        34.74%    16958       150       64         0          0.59 sec
//   704        35.39%    16788       170       64         0          0.63 sec
//   768        35.86%    16665       123       64         0          0.68 sec
//   832        36.39%    16528       137       64         0          0.72 sec
//   896        36.82%    16416       112       64         0          0.76 sec
//   960        37.22%    16313       103       64         0          0.81 sec
//   1024       37.62%    16208       105       64         0          0.85 sec
//   1088       38.01%    16108       100       64         0          0.89 sec
//   1152       38.39%    16009        99       64         0          0.93 sec
//   1216       38.92%    15872       137       64         0          0.97 sec
//   1246       39.04%    15841        31       30         0          1.01 sec
