// | ------------------------------------------------------------------------------------------------------------------ |
// |                                                                                                                    |
// |          Current split capture setting:     Off (optimal)                                                          |
// |                                                                                                                    |
// |   Current clock off simulation setting:     Off (optimal)                                                          |
// | ------------------------------------------------------------------------------------------------------------------ |
//  ------------------------------------------------------------------------
//  Simulation performed for #gates = 12864  #faults = 25984
//  Run fault simulation without storing patterns.  pattern source = 472 external patterns
//  ------------------------------------------------------------------------
//  #patterns  test      #faults  #faults    # eff.    # test         process 
//  simulated  coverage  in list  detected   patterns  patterns       CPU time
//   64         14.93%    22105      3879       63         0          0.14 sec
//   128        16.68%    21649       456       60         0          0.21 sec
//   192        17.50%    21437       212       45         0          0.27 sec
//   256        17.92%    21328       109       40         0          0.33 sec
//   320        18.23%    21247        81       35         0          0.39 sec
//   384        18.43%    21196        51       25         0          0.45 sec
//   448        18.55%    21164        32       18         0          0.51 sec
//   472        18.61%    21148        16        7         0          0.56 sec
