// | ------------------------------------------------------------------------------------------------------------------ |
// |                                                                                                                    |
// |          Current split capture setting:     Off (optimal)                                                          |
// |                                                                                                                    |
// |   Current clock off simulation setting:     Off (optimal)                                                          |
// | ------------------------------------------------------------------------------------------------------------------ |
//  ------------------------------------------------------------------------
//  Simulation performed for #gates = 12864  #faults = 25984
//  Run fault simulation without storing patterns.  pattern source = 582 external patterns
//  ------------------------------------------------------------------------
//  #patterns  test      #faults  #faults    # eff.    # test         process 
//  simulated  coverage  in list  detected   patterns  patterns       CPU time
//   64         14.75%    22152      3832       64         0          0.13 sec
//   128        16.56%    21680       472       59         0          0.20 sec
//   192        17.28%    21495       185       47         0          0.26 sec
//   256        17.74%    21374       121       38         0          0.32 sec
//   320        18.22%    21251       123       41         0          0.38 sec
//   384        18.50%    21177        74       28         0          0.44 sec
//   448        18.72%    21121        56       24         0          0.49 sec
//   512        18.87%    21082        39       22         0          0.55 sec
//   576        19.02%    21041        41       18         0          0.61 sec
//   582        19.06%    21032         9        4         0          0.66 sec
