// | ------------------------------------------------------------------------------------------------------------------ |
// |                                                                                                                    |
// |          Current split capture setting:     Off (optimal)                                                          |
// |                                                                                                                    |
// |   Current clock off simulation setting:     Off (optimal)                                                          |
// | ------------------------------------------------------------------------------------------------------------------ |
//  ------------------------------------------------------------------------
//  Simulation performed for #gates = 12864  #faults = 25984
//  Run fault simulation without storing patterns.  pattern source = 649 external patterns
//  ------------------------------------------------------------------------
//  #patterns  test      #faults  #faults    # eff.    # test         process 
//  simulated  coverage  in list  detected   patterns  patterns       CPU time
//   64         12.51%    22734      3250       64         0          0.10 sec
//   128        13.56%    22461       273       46         0          0.17 sec
//   192        14.21%    22291       170       37         0          0.23 sec
//   256        15.02%    22080       211       47         0          0.29 sec
//   320        15.71%    21903       177       40         0          0.35 sec
//   384        15.89%    21856        47       23         0          0.40 sec
//   448        16.18%    21780        76       27         0          0.46 sec
//   512        16.44%    21712        68       25         0          0.52 sec
//   576        16.61%    21667        45       21         0          0.57 sec
//   640        16.69%    21648        19       11         0          0.63 sec
//   649        16.69%    21646         2        1         0          0.68 sec
