// | ------------------------------------------------------------------------------------------------------------------ |
// |                                                                                                                    |
// |          Current split capture setting:     Off (optimal)                                                          |
// |                                                                                                                    |
// |   Current clock off simulation setting:     Off (optimal)                                                          |
// | ------------------------------------------------------------------------------------------------------------------ |
//  ------------------------------------------------------------------------
//  Simulation performed for #gates = 12864  #faults = 25984
//  Run fault simulation without storing patterns.  pattern source = 614 external patterns
//  ------------------------------------------------------------------------
//  #patterns  test      #faults  #faults    # eff.    # test         process 
//  simulated  coverage  in list  detected   patterns  patterns       CPU time
//   64         14.95%    22099      3885       64         0          0.12 sec
//   128        16.70%    21644       455       59         0          0.19 sec
//   192        17.44%    21452       192       46         0          0.25 sec
//   256        17.92%    21327       125       39         0          0.31 sec
//   320        18.17%    21263        64       29         0          0.37 sec
//   384        18.35%    21216        47       26         0          0.43 sec
//   448        18.57%    21160        56       26         0          0.48 sec
//   512        18.69%    21127        33       19         0          0.54 sec
//   576        18.85%    21086        41       20         0          0.60 sec
//   614        18.88%    21077         9        7         0          0.65 sec
