// | ------------------------------------------------------------------------------------------------------------------ |
// |                                                                                                                    |
// |          Current split capture setting:     Off (optimal)                                                          |
// |                                                                                                                    |
// |   Current clock off simulation setting:     Off (optimal)                                                          |
// | ------------------------------------------------------------------------------------------------------------------ |
//  ------------------------------------------------------------------------
//  Simulation performed for #gates = 12864  #faults = 25984
//  Run fault simulation without storing patterns.  pattern source = 627 external patterns
//  ------------------------------------------------------------------------
//  #patterns  test      #faults  #faults    # eff.    # test         process 
//  simulated  coverage  in list  detected   patterns  patterns       CPU time
//   64         13.25%    22540      3444       64         0          0.11 sec
//   128        14.56%    22201       339       54         0          0.17 sec
//   192        15.23%    22026       175       47         0          0.23 sec
//   256        15.78%    21883       143       40         0          0.29 sec
//   320        16.20%    21775       108       38         0          0.35 sec
//   384        16.71%    21642       133       38         0          0.41 sec
//   448        17.01%    21563        79       28         0          0.47 sec
//   512        17.21%    21512        51       26         0          0.52 sec
//   576        17.34%    21478        34       18         0          0.58 sec
//   627        17.52%    21431        47       17         0          0.63 sec
