// | ------------------------------------------------------------------------------------------------------------------ |
// |                                                                                                                    |
// |          Current split capture setting:     Off (optimal)                                                          |
// |                                                                                                                    |
// |   Current clock off simulation setting:     Off (optimal)                                                          |
// | ------------------------------------------------------------------------------------------------------------------ |
//  ------------------------------------------------------------------------
//  Simulation performed for #gates = 12864  #faults = 25984
//  Run fault simulation without storing patterns.  pattern source = 470 external patterns
//  ------------------------------------------------------------------------
//  #patterns  test      #faults  #faults    # eff.    # test         process 
//  simulated  coverage  in list  detected   patterns  patterns       CPU time
//   64         15.69%    21907      4077       64         0          0.14 sec
//   128        17.60%    21412       495       59         0          0.21 sec
//   192        18.22%    21250       162       44         0          0.27 sec
//   256        18.69%    21127       123       38         0          0.33 sec
//   320        19.03%    21038        89       31         0          0.39 sec
//   384        19.25%    20983        55       25         0          0.45 sec
//   448        19.44%    20934        49       25         0          0.51 sec
//   470        19.49%    20921        13        8         0          0.56 sec
