// | ------------------------------------------------------------------------------------------------------------------ |
// |                                                                                                                    |
// |          Current split capture setting:     Off (optimal)                                                          |
// |                                                                                                                    |
// |   Current clock off simulation setting:     Off (optimal)                                                          |
// | ------------------------------------------------------------------------------------------------------------------ |
//  ------------------------------------------------------------------------
//  Simulation performed for #gates = 12864  #faults = 25984
//  Run fault simulation without storing patterns.  pattern source = 576 external patterns
//  ------------------------------------------------------------------------
//  #patterns  test      #faults  #faults    # eff.    # test         process 
//  simulated  coverage  in list  detected   patterns  patterns       CPU time
//   64         14.87%    22119      3865       64         0          0.12 sec
//   128        16.43%    21716       403       57         0          0.19 sec
//   192        17.13%    21532       184       47         0          0.25 sec
//   256        17.66%    21396       136       40         0          0.31 sec
//   320        18.05%    21295       101       39         0          0.37 sec
//   384        18.26%    21239        56       24         0          0.42 sec
//   448        18.43%    21194        45       27         0          0.48 sec
//   512        18.57%    21160        34       17         0          0.54 sec
//   576        18.75%    21113        47       19         0          0.59 sec
