// | ------------------------------------------------------------------------------------------------------------------ |
// |                                                                                                                    |
// |          Current split capture setting:     Off (optimal)                                                          |
// |                                                                                                                    |
// |   Current clock off simulation setting:     Off (optimal)                                                          |
// | ------------------------------------------------------------------------------------------------------------------ |
//  ------------------------------------------------------------------------
//  Simulation performed for #gates = 12864  #faults = 25984
//  Run fault simulation without storing patterns.  pattern source = 477 external patterns
//  ------------------------------------------------------------------------
//  #patterns  test      #faults  #faults    # eff.    # test         process 
//  simulated  coverage  in list  detected   patterns  patterns       CPU time
//   64         15.19%    22036      3948       64         0          0.13 sec
//   128        17.08%    21545       491       59         0          0.20 sec
//   192        17.95%    21321       224       49         0          0.26 sec
//   256        18.38%    21207       114       44         0          0.32 sec
//   320        18.78%    21103       104       41         0          0.38 sec
//   384        19.00%    21047        56       25         0          0.44 sec
//   448        19.12%    21017        30       17         0          0.49 sec
//   477        19.16%    21006        11        5         0          0.55 sec
