// | ------------------------------------------------------------------------------------------------------------------ |
// |                                                                                                                    |
// |          Current split capture setting:     Off (optimal)                                                          |
// |                                                                                                                    |
// |   Current clock off simulation setting:     Off (optimal)                                                          |
// | ------------------------------------------------------------------------------------------------------------------ |
//  ------------------------------------------------------------------------
//  Simulation performed for #gates = 12864  #faults = 25984
//  Run fault simulation without storing patterns.  pattern source = 524 external patterns
//  ------------------------------------------------------------------------
//  #patterns  test      #faults  #faults    # eff.    # test         process 
//  simulated  coverage  in list  detected   patterns  patterns       CPU time
//   64         14.32%    22262      3722       64         0          0.12 sec
//   128        16.05%    21814       448       58         0          0.19 sec
//   192        16.81%    21615       199       54         0          0.25 sec
//   256        17.42%    21457       158       42         0          0.31 sec
//   320        17.79%    21362        95       37         0          0.37 sec
//   384        18.03%    21300        62       31         0          0.43 sec
//   448        18.27%    21238        62       32         0          0.48 sec
//   512        18.42%    21199        39       23         0          0.54 sec
//   524        18.42%    21197         2        2         0          0.59 sec
