// | ------------------------------------------------------------------------------------------------------------------ |
// |                                                                                                                    |
// |          Current split capture setting:     Off (optimal)                                                          |
// |                                                                                                                    |
// |   Current clock off simulation setting:     Off (optimal)                                                          |
// | ------------------------------------------------------------------------------------------------------------------ |
//  ------------------------------------------------------------------------
//  Simulation performed for #gates = 12864  #faults = 25984
//  Run fault simulation without storing patterns.  pattern source = 546 external patterns
//  ------------------------------------------------------------------------
//  #patterns  test      #faults  #faults    # eff.    # test         process 
//  simulated  coverage  in list  detected   patterns  patterns       CPU time
//   64         12.48%    22742      3242       62         0          0.11 sec
//   128        13.84%    22387       355       53         0          0.17 sec
//   192        14.72%    22159       228       47         0          0.23 sec
//   256        15.40%    21982       177       41         0          0.29 sec
//   320        16.06%    21811       171       40         0          0.35 sec
//   384        16.46%    21708       103       34         0          0.41 sec
//   448        16.77%    21626        82       28         0          0.47 sec
//   512        16.90%    21593        33       14         0          0.52 sec
//   546        16.93%    21586         7        5         0          0.58 sec
