// | ------------------------------------------------------------------------------------------------------------------ |
// |                                                                                                                    |
// |          Current split capture setting:     Off (optimal)                                                          |
// |                                                                                                                    |
// |   Current clock off simulation setting:     Off (optimal)                                                          |
// | ------------------------------------------------------------------------------------------------------------------ |
//  ------------------------------------------------------------------------
//  Simulation performed for #gates = 12864  #faults = 25984
//  Run fault simulation without storing patterns.  pattern source = 464 external patterns
//  ------------------------------------------------------------------------
//  #patterns  test      #faults  #faults    # eff.    # test         process 
//  simulated  coverage  in list  detected   patterns  patterns       CPU time
//   64         15.15%    22047      3937       63         0          0.13 sec
//   128        17.20%    21516       531       63         0          0.20 sec
//   192        17.95%    21321       195       54         0          0.26 sec
//   256        18.40%    21204       117       41         0          0.32 sec
//   320        18.80%    21100       104       35         0          0.38 sec
//   384        19.11%    21018        82       35         0          0.44 sec
//   448        19.28%    20973        45       28         0          0.50 sec
//   464        19.34%    20958        15        4         0          0.55 sec
