// | ------------------------------------------------------------------------------------------------------------------ |
// |                                                                                                                    |
// |          Current split capture setting:     Off (optimal)                                                          |
// |                                                                                                                    |
// |   Current clock off simulation setting:     Off (optimal)                                                          |
// | ------------------------------------------------------------------------------------------------------------------ |
//  ------------------------------------------------------------------------
//  Simulation performed for #gates = 12864  #faults = 25984
//  Run fault simulation without storing patterns.  pattern source = 587 external patterns
//  ------------------------------------------------------------------------
//  #patterns  test      #faults  #faults    # eff.    # test         process 
//  simulated  coverage  in list  detected   patterns  patterns       CPU time
//   64         13.27%    22535      3449       64         0          0.11 sec
//   128        14.81%    22135       400       58         0          0.18 sec
//   192        15.61%    21929       206       44         0          0.24 sec
//   256        16.13%    21793       136       34         0          0.30 sec
//   320        16.49%    21698        95       33         0          0.36 sec
//   384        16.78%    21624        74       28         0          0.42 sec
//   448        17.00%    21568        56       24         0          0.47 sec
//   512        17.25%    21502        66       22         0          0.53 sec
//   576        17.34%    21478        24       18         0          0.59 sec
//   587        17.38%    21468        10        4         0          0.64 sec
