// | ------------------------------------------------------------------------------------------------------------------ |
// |                                                                                                                    |
// |          Current split capture setting:     Off (optimal)                                                          |
// |                                                                                                                    |
// |   Current clock off simulation setting:     Off (optimal)                                                          |
// | ------------------------------------------------------------------------------------------------------------------ |
//  ------------------------------------------------------------------------
//  Simulation performed for #gates = 12864  #faults = 25984
//  Run fault simulation without storing patterns.  pattern source = 578 external patterns
//  ------------------------------------------------------------------------
//  #patterns  test      #faults  #faults    # eff.    # test         process 
//  simulated  coverage  in list  detected   patterns  patterns       CPU time
//   64         11.86%    22903      3081       64         0          0.11 sec
//   128        13.08%    22584       319       41         0          0.18 sec
//   192        14.03%    22338       246       46         0          0.24 sec
//   256        14.61%    22187       151       34         0          0.30 sec
//   320        15.13%    22053       134       31         0          0.36 sec
//   384        15.59%    21934       119       36         0          0.42 sec
//   448        16.00%    21826       108       39         0          0.49 sec
//   512        16.25%    21761        65       26         0          0.54 sec
//   576        16.36%    21732        29       18         0          0.60 sec
//   578        16.37%    21731         1        1         0          0.65 sec
