// | ------------------------------------------------------------------------------------------------------------------ |
// |                                                                                                                    |
// |          Current split capture setting:     Off (optimal)                                                          |
// |                                                                                                                    |
// |   Current clock off simulation setting:     Off (optimal)                                                          |
// | ------------------------------------------------------------------------------------------------------------------ |
//  ------------------------------------------------------------------------
//  Simulation performed for #gates = 12864  #faults = 25984
//  Run fault simulation without storing patterns.  pattern source = 489 external patterns
//  ------------------------------------------------------------------------
//  #patterns  test      #faults  #faults    # eff.    # test         process 
//  simulated  coverage  in list  detected   patterns  patterns       CPU time
//   64         14.81%    22137      3847       63         0          0.13 sec
//   128        16.32%    21743       394       56         0          0.20 sec
//   192        17.22%    21510       233       48         0          0.27 sec
//   256        17.62%    21405       105       36         0          0.33 sec
//   320        18.00%    21306        99       31         0          0.39 sec
//   384        18.30%    21229        77       30         0          0.45 sec
//   448        18.52%    21171        58       22         0          0.51 sec
//   489        18.63%    21142        29       11         0          0.57 sec
