// | ------------------------------------------------------------------------------------------------------------------ |
// |                                                                                                                    |
// |          Current split capture setting:     Off (optimal)                                                          |
// |                                                                                                                    |
// |   Current clock off simulation setting:     Off (optimal)                                                          |
// | ------------------------------------------------------------------------------------------------------------------ |
//  ------------------------------------------------------------------------
//  Simulation performed for #gates = 12864  #faults = 25984
//  Run fault simulation without storing patterns.  pattern source = 386 external patterns
//  ------------------------------------------------------------------------
//  #patterns  test      #faults  #faults    # eff.    # test         process 
//  simulated  coverage  in list  detected   patterns  patterns       CPU time
//   64         12.11%    22837      3147       63         0          0.11 sec
//   128        13.13%    22572       265       49         0          0.17 sec
//   192        13.89%    22374       198       43         0          0.23 sec
//   256        14.49%    22219       155       40         0          0.29 sec
//   320        14.99%    22088       131       38         0          0.35 sec
//   384        15.50%    21956       132       39         0          0.41 sec
//   386        15.52%    21952         4        1         0          0.46 sec
