// | ------------------------------------------------------------------------------------------------------------------ |
// |                                                                                                                    |
// |          Current split capture setting:     Off (optimal)                                                          |
// |                                                                                                                    |
// |   Current clock off simulation setting:     Off (optimal)                                                          |
// | ------------------------------------------------------------------------------------------------------------------ |
//  ------------------------------------------------------------------------
//  Simulation performed for #gates = 12864  #faults = 25984
//  Run fault simulation without storing patterns.  pattern source = 614 external patterns
//  ------------------------------------------------------------------------
//  #patterns  test      #faults  #faults    # eff.    # test         process 
//  simulated  coverage  in list  detected   patterns  patterns       CPU time
//   64         14.61%    22188      3796       63         0          0.12 sec
//   128        16.23%    21767       421       53         0          0.19 sec
//   192        17.12%    21536       231       51         0          0.25 sec
//   256        17.64%    21401       135       39         0          0.31 sec
//   320        18.04%    21296       105       36         0          0.36 sec
//   384        18.27%    21238        58       28         0          0.42 sec
//   448        18.50%    21178        60       24         0          0.48 sec
//   512        18.63%    21144        34       14         0          0.53 sec
//   576        18.82%    21095        49       22         0          0.58 sec
//   614        18.87%    21082        13        9         0          0.64 sec
