// | ------------------------------------------------------------------------------------------------------------------ |
// |                                                                                                                    |
// |          Current split capture setting:     Off (optimal)                                                          |
// |                                                                                                                    |
// |   Current clock off simulation setting:     Off (optimal)                                                          |
// | ------------------------------------------------------------------------------------------------------------------ |
//  ------------------------------------------------------------------------
//  Simulation performed for #gates = 12864  #faults = 25984
//  Run fault simulation without storing patterns.  pattern source = 1625 external patterns
//  ------------------------------------------------------------------------
//  #patterns  test      #faults  #faults    # eff.    # test         process 
//  simulated  coverage  in list  detected   patterns  patterns       CPU time
//   64         14.81%    22137      3847       63         0          0.12 sec
//   128        16.41%    21720       417       56         0          0.19 sec
//   192        17.30%    21490       230       50         0          0.25 sec
//   256        17.79%    21362       128       44         0          0.31 sec
//   320        18.20%    21254       108       38         0          0.37 sec
//   384        18.48%    21182        72       30         0          0.42 sec
//   448        18.80%    21100        82       32         0          0.48 sec
//   512        19.06%    21032        68       27         0          0.54 sec
//   576        19.35%    20955        77       31         0          0.59 sec
//   640        19.55%    20903        52       24         0          0.65 sec
//   704        19.73%    20857        46       21         0          0.70 sec
//   768        19.91%    20811        46       26         0          0.76 sec
//   832        20.00%    20787        24       18         0          0.81 sec
//   896        20.16%    20745        42       22         0          0.87 sec
//   960        20.24%    20725        20       10         0          0.92 sec
//   1024       20.33%    20702        23       13         0          0.97 sec
//   1088       20.42%    20677        25       14         0          1.03 sec
//   1152       20.48%    20663        14        9         0          1.08 sec
//   1216       20.55%    20645        18        8         0          1.13 sec
//   1280       20.60%    20631        14        5         0          1.19 sec
//   1344       20.64%    20621        10        7         0          1.24 sec
//   1408       20.72%    20601        20        9         0          1.29 sec
//   1472       20.74%    20596         5        3         0          1.35 sec
//   1536       20.77%    20586        10        5         0          1.40 sec
//   1600       20.79%    20582         4        4         0          1.45 sec
