// | ------------------------------------------------------------------------------------------------------------------ |
// |                                                                                                                    |
// |          Current split capture setting:     Off (optimal)                                                          |
// |                                                                                                                    |
// |   Current clock off simulation setting:     Off (optimal)                                                          |
// | ------------------------------------------------------------------------------------------------------------------ |
//  ------------------------------------------------------------------------
//  Simulation performed for #gates = 12864  #faults = 25984
//  Run fault simulation without storing patterns.  pattern source = 568 external patterns
//  ------------------------------------------------------------------------
//  #patterns  test      #faults  #faults    # eff.    # test         process 
//  simulated  coverage  in list  detected   patterns  patterns       CPU time
//   64         14.83%    22131      3853       64         0          0.12 sec
//   128        16.56%    21680       451       63         0          0.19 sec
//   192        17.28%    21494       186       42         0          0.25 sec
//   256        17.70%    21385       109       36         0          0.31 sec
//   320        18.13%    21274       111       40         0          0.36 sec
//   384        18.40%    21202        72       31         0          0.42 sec
//   448        18.69%    21127        75       29         0          0.48 sec
//   512        18.80%    21100        27       18         0          0.54 sec
//   568        18.94%    21063        37       14         0          0.59 sec
