// | ------------------------------------------------------------------------------------------------------------------ |
// |                                                                                                                    |
// |          Current split capture setting:     Off (optimal)                                                          |
// |                                                                                                                    |
// |   Current clock off simulation setting:     Off (optimal)                                                          |
// | ------------------------------------------------------------------------------------------------------------------ |
//  ------------------------------------------------------------------------
//  Simulation performed for #gates = 12864  #faults = 25984
//  Run fault simulation without storing patterns.  pattern source = 446 external patterns
//  ------------------------------------------------------------------------
//  #patterns  test      #faults  #faults    # eff.    # test         process 
//  simulated  coverage  in list  detected   patterns  patterns       CPU time
//   64         15.62%    21924      4060       64         0          0.13 sec
//   128        17.09%    21543       381       57         0          0.20 sec
//   192        17.90%    21333       210       50         0          0.26 sec
//   256        18.34%    21218       115       38         0          0.32 sec
//   320        18.67%    21133        85       35         0          0.38 sec
//   384        18.82%    21093        40       23         0          0.43 sec
//   446        19.11%    21018        75       30         0          0.49 sec
