// | ------------------------------------------------------------------------------------------------------------------ |
// |                                                                                                                    |
// |          Current split capture setting:     Off (optimal)                                                          |
// |                                                                                                                    |
// |   Current clock off simulation setting:     Off (optimal)                                                          |
// | ------------------------------------------------------------------------------------------------------------------ |
//  ------------------------------------------------------------------------
//  Simulation performed for #gates = 12864  #faults = 25984
//  Run fault simulation without storing patterns.  pattern source = 587 external patterns
//  ------------------------------------------------------------------------
//  #patterns  test      #faults  #faults    # eff.    # test         process 
//  simulated  coverage  in list  detected   patterns  patterns       CPU time
//   64         14.34%    22258      3726       64         0          0.12 sec
//   128        16.02%    21821       437       54         0          0.19 sec
//   192        16.87%    21601       220       45         0          0.26 sec
//   256        17.50%    21438       163       42         0          0.32 sec
//   320        17.88%    21338       100       36         0          0.38 sec
//   384        18.20%    21255        83       33         0          0.43 sec
//   448        18.39%    21205        50       23         0          0.49 sec
//   512        18.57%    21158        47       20         0          0.55 sec
//   576        18.68%    21129        29       19         0          0.60 sec
//   587        18.69%    21127         2        2         0          0.65 sec
