// | ------------------------------------------------------------------------------------------------------------------ |
// |                                                                                                                    |
// |          Current split capture setting:     Off (optimal)                                                          |
// |                                                                                                                    |
// |   Current clock off simulation setting:     Off (optimal)                                                          |
// | ------------------------------------------------------------------------------------------------------------------ |
//  ------------------------------------------------------------------------
//  Simulation performed for #gates = 12864  #faults = 25984
//  Run fault simulation without storing patterns.  pattern source = 582 external patterns
//  ------------------------------------------------------------------------
//  #patterns  test      #faults  #faults    # eff.    # test         process 
//  simulated  coverage  in list  detected   patterns  patterns       CPU time
//   64         14.96%    22097      3887       64         0          0.14 sec
//   128        16.71%    21641       456       58         0          0.21 sec
//   192        17.71%    21381       260       52         0          0.27 sec
//   256        18.14%    21270       111       38         0          0.33 sec
//   320        18.52%    21172        98       31         0          0.40 sec
//   384        18.86%    21083        89       34         0          0.46 sec
//   448        19.12%    21017        66       33         0          0.51 sec
//   512        19.23%    20987        30       16         0          0.57 sec
//   576        19.29%    20972        15       12         0          0.63 sec
//   582        19.29%    20971         1        1         0          0.68 sec
