// | ------------------------------------------------------------------------------------------------------------------ |
// |                                                                                                                    |
// |          Current split capture setting:     Off (optimal)                                                          |
// |                                                                                                                    |
// |   Current clock off simulation setting:     Off (optimal)                                                          |
// | ------------------------------------------------------------------------------------------------------------------ |
//  ------------------------------------------------------------------------
//  Simulation performed for #gates = 12864  #faults = 25984
//  Run fault simulation without storing patterns.  pattern source = 649 external patterns
//  ------------------------------------------------------------------------
//  #patterns  test      #faults  #faults    # eff.    # test         process 
//  simulated  coverage  in list  detected   patterns  patterns       CPU time
//   64         15.12%    22054      3930       64         0          0.13 sec
//   128        16.77%    21627       427       63         0          0.20 sec
//   192        17.54%    21426       201       45         0          0.26 sec
//   256        17.96%    21318       108       34         0          0.32 sec
//   320        18.27%    21238        80       34         0          0.38 sec
//   384        18.46%    21188        50       20         0          0.44 sec
//   448        18.64%    21140        48       25         0          0.49 sec
//   512        18.78%    21104        36       20         0          0.55 sec
//   576        18.85%    21087        17       13         0          0.60 sec
//   640        18.93%    21066        21       14         0          0.66 sec
