// | ------------------------------------------------------------------------------------------------------------------ |
// |                                                                                                                    |
// |          Current split capture setting:     Off (optimal)                                                          |
// |                                                                                                                    |
// |   Current clock off simulation setting:     Off (optimal)                                                          |
// | ------------------------------------------------------------------------------------------------------------------ |
//  ------------------------------------------------------------------------
//  Simulation performed for #gates = 12864  #faults = 25984
//  Run fault simulation without storing patterns.  pattern source = 1320 external patterns
//  ------------------------------------------------------------------------
//  #patterns  test      #faults  #faults    # eff.    # test         process 
//  simulated  coverage  in list  detected   patterns  patterns       CPU time
//   64         15.34%    21998      3986       64         0          0.13 sec
//   128        17.09%    21543       455       58         0          0.20 sec
//   192        18.11%    21277       266       49         0          0.27 sec
//   256        18.75%    21112       165       44         0          0.33 sec
//   320        19.07%    21030        82       36         0          0.39 sec
//   384        19.29%    20971        59       26         0          0.45 sec
//   448        19.62%    20885        86       30         0          0.50 sec
//   512        19.81%    20837        48       22         0          0.56 sec
//   576        19.93%    20805        32       22         0          0.62 sec
//   640        20.08%    20766        39       20         0          0.67 sec
//   704        20.15%    20747        19       10         0          0.73 sec
//   768        20.27%    20716        31       18         0          0.78 sec
//   832        20.42%    20679        37       17         0          0.84 sec
//   896        20.54%    20647        32       14         0          0.89 sec
//   960        20.59%    20633        14       10         0          0.94 sec
//   1024       20.64%    20620        13       10         0          1.00 sec
//   1088       20.71%    20603        17       12         0          1.05 sec
//   1152       20.77%    20587        16       10         0          1.11 sec
//   1216       20.82%    20575        12        7         0          1.16 sec
//   1280       20.88%    20558        17        7         0          1.21 sec
//   1320       20.89%    20557         1        1         0          1.26 sec
