// | ------------------------------------------------------------------------------------------------------------------ |
// |                                                                                                                    |
// |          Current split capture setting:     Off (optimal)                                                          |
// |                                                                                                                    |
// |   Current clock off simulation setting:     Off (optimal)                                                          |
// | ------------------------------------------------------------------------------------------------------------------ |
//  ------------------------------------------------------------------------
//  Simulation performed for #gates = 12864  #faults = 25984
//  Run fault simulation without storing patterns.  pattern source = 541 external patterns
//  ------------------------------------------------------------------------
//  #patterns  test      #faults  #faults    # eff.    # test         process 
//  simulated  coverage  in list  detected   patterns  patterns       CPU time
//   64         12.45%    22750      3234       63         0          0.11 sec
//   128        13.63%    22442       308       50         0          0.17 sec
//   192        14.38%    22248       194       42         0          0.23 sec
//   256        14.86%    22122       126       41         0          0.29 sec
//   320        15.26%    22020       102       20         0          0.35 sec
//   384        15.50%    21956        64       25         0          0.41 sec
//   448        15.70%    21905        51       25         0          0.46 sec
//   512        15.96%    21836        69       24         0          0.52 sec
//   541        16.04%    21815        21        5         0          0.58 sec
