// | ------------------------------------------------------------------------------------------------------------------ |
// |                                                                                                                    |
// |          Current split capture setting:     Off (optimal)                                                          |
// |                                                                                                                    |
// |   Current clock off simulation setting:     Off (optimal)                                                          |
// | ------------------------------------------------------------------------------------------------------------------ |
//  ------------------------------------------------------------------------
//  Simulation performed for #gates = 12864  #faults = 25984
//  Run fault simulation without storing patterns.  pattern source = 539 external patterns
//  ------------------------------------------------------------------------
//  #patterns  test      #faults  #faults    # eff.    # test         process 
//  simulated  coverage  in list  detected   patterns  patterns       CPU time
//   64         15.12%    22054      3930       64         0          0.13 sec
//   128        16.81%    21617       437       62         0          0.19 sec
//   192        17.72%    21380       237       47         0          0.25 sec
//   256        18.35%    21216       164       46         0          0.31 sec
//   320        18.73%    21116       100       35         0          0.37 sec
//   384        18.97%    21056        60       27         0          0.43 sec
//   448        19.24%    20985        71       29         0          0.48 sec
//   512        19.40%    20943        42       23         0          0.54 sec
//   539        19.50%    20918        25       13         0          0.59 sec
