// | ------------------------------------------------------------------------------------------------------------------ |
// |                                                                                                                    |
// |          Current split capture setting:     Off (optimal)                                                          |
// |                                                                                                                    |
// |   Current clock off simulation setting:     Off (optimal)                                                          |
// | ------------------------------------------------------------------------------------------------------------------ |
//  ------------------------------------------------------------------------
//  Simulation performed for #gates = 12864  #faults = 25984
//  Run fault simulation without storing patterns.  pattern source = 419 external patterns
//  ------------------------------------------------------------------------
//  #patterns  test      #faults  #faults    # eff.    # test         process 
//  simulated  coverage  in list  detected   patterns  patterns       CPU time
//   64         14.77%    22147      3837       64         0          0.13 sec
//   128        16.26%    21758       389       57         0          0.20 sec
//   192        17.11%    21537       221       43         0          0.26 sec
//   256        17.67%    21393       144       49         0          0.32 sec
//   320        18.04%    21296        97       31         0          0.38 sec
//   384        18.38%    21208        88       35         0          0.44 sec
//   419        18.55%    21165        43       14         0          0.50 sec
