// | ------------------------------------------------------------------------------------------------------------------ |
// |                                                                                                                    |
// |          Current split capture setting:     Off (optimal)                                                          |
// |                                                                                                                    |
// |   Current clock off simulation setting:     Off (optimal)                                                          |
// | ------------------------------------------------------------------------------------------------------------------ |
//  ------------------------------------------------------------------------
//  Simulation performed for #gates = 12864  #faults = 25984
//  Run fault simulation without storing patterns.  pattern source = 567 external patterns
//  ------------------------------------------------------------------------
//  #patterns  test      #faults  #faults    # eff.    # test         process 
//  simulated  coverage  in list  detected   patterns  patterns       CPU time
//   64         14.88%    22117      3867       63         0          0.13 sec
//   128        16.48%    21702       415       57         0          0.20 sec
//   192        17.29%    21492       210       47         0          0.26 sec
//   256        17.73%    21378       114       38         0          0.32 sec
//   320        18.09%    21284        94       38         0          0.38 sec
//   384        18.35%    21215        69       27         0          0.44 sec
//   448        18.55%    21163        52       23         0          0.50 sec
//   512        18.75%    21112        51       20         0          0.56 sec
//   567        18.93%    21065        47       20         0          0.61 sec
