// | ------------------------------------------------------------------------------------------------------------------ |
// |                                                                                                                    |
// |          Current split capture setting:     Off (optimal)                                                          |
// |                                                                                                                    |
// |   Current clock off simulation setting:     Off (optimal)                                                          |
// | ------------------------------------------------------------------------------------------------------------------ |
//  ------------------------------------------------------------------------
//  Simulation performed for #gates = 12864  #faults = 25984
//  Run fault simulation without storing patterns.  pattern source = 585 external patterns
//  ------------------------------------------------------------------------
//  #patterns  test      #faults  #faults    # eff.    # test         process 
//  simulated  coverage  in list  detected   patterns  patterns       CPU time
//   64         15.06%    22070      3914       64         0          0.13 sec
//   128        16.49%    21699       371       61         0          0.20 sec
//   192        17.36%    21473       226       48         0          0.26 sec
//   256        17.95%    21321       152       43         0          0.32 sec
//   320        18.25%    21242        79       35         0          0.38 sec
//   384        18.60%    21152        90       35         0          0.44 sec
//   448        18.89%    21075        77       27         0          0.50 sec
//   512        19.14%    21011        64       24         0          0.55 sec
//   576        19.30%    20970        41       22         0          0.61 sec
//   585        19.32%    20965         5        3         0          0.66 sec
