// | ------------------------------------------------------------------------------------------------------------------ |
// |                                                                                                                    |
// |          Current split capture setting:     Off (optimal)                                                          |
// |                                                                                                                    |
// |   Current clock off simulation setting:     Off (optimal)                                                          |
// | ------------------------------------------------------------------------------------------------------------------ |
//  ------------------------------------------------------------------------
//  Simulation performed for #gates = 12864  #faults = 25984
//  Run fault simulation without storing patterns.  pattern source = 1316 external patterns
//  ------------------------------------------------------------------------
//  #patterns  test      #faults  #faults    # eff.    # test         process 
//  simulated  coverage  in list  detected   patterns  patterns       CPU time
//   64         15.21%    22032      3952       64         0          0.13 sec
//   128        16.94%    21583       449       60         0          0.20 sec
//   192        17.68%    21390       193       44         0          0.27 sec
//   256        18.32%    21224       166       44         0          0.33 sec
//   320        18.84%    21089       135       42         0          0.39 sec
//   384        19.11%    21018        71       29         0          0.45 sec
//   448        19.30%    20970        48       25         0          0.51 sec
//   512        19.50%    20916        54       27         0          0.57 sec
//   576        19.64%    20880        36       22         0          0.62 sec
//   640        19.80%    20839        41       19         0          0.68 sec
//   704        19.95%    20799        40       22         0          0.74 sec
//   768        20.12%    20756        43       18         0          0.80 sec
//   832        20.23%    20728        28       14         0          0.86 sec
//   896        20.33%    20701        27       13         0          0.91 sec
//   960        20.44%    20672        29       14         0          0.97 sec
//   1024       20.59%    20635        37       15         0          1.03 sec
//   1088       20.65%    20619        16        8         0          1.08 sec
//   1152       20.73%    20597        22       10         0          1.14 sec
//   1216       20.78%    20584        13        7         0          1.19 sec
//   1280       20.81%    20578         6        5         0          1.25 sec
//   1316       20.83%    20572         6        4         0          1.30 sec
