// | ------------------------------------------------------------------------------------------------------------------ |
// |                                                                                                                    |
// |          Current split capture setting:     Off (optimal)                                                          |
// |                                                                                                                    |
// |   Current clock off simulation setting:     Off (optimal)                                                          |
// | ------------------------------------------------------------------------------------------------------------------ |
//  ------------------------------------------------------------------------
//  Simulation performed for #gates = 12864  #faults = 25984
//  Run fault simulation without storing patterns.  pattern source = 585 external patterns
//  ------------------------------------------------------------------------
//  #patterns  test      #faults  #faults    # eff.    # test         process 
//  simulated  coverage  in list  detected   patterns  patterns       CPU time
//   64         13.20%    22553      3431       63         0          0.12 sec
//   128        14.84%    22128       425       50         0          0.18 sec
//   192        15.73%    21898       230       44         0          0.25 sec
//   256        16.41%    21719       179       43         0          0.30 sec
//   320        16.92%    21587       132       31         0          0.36 sec
//   384        17.19%    21518        69       34         0          0.42 sec
//   448        17.50%    21438        80       31         0          0.48 sec
//   512        17.78%    21363        75       31         0          0.53 sec
//   576        17.99%    21310        53       28         0          0.59 sec
//   585        18.04%    21297        13        3         0          0.64 sec
