// | ------------------------------------------------------------------------------------------------------------------ |
// |                                                                                                                    |
// |          Current split capture setting:     Off (optimal)                                                          |
// |                                                                                                                    |
// |   Current clock off simulation setting:     Off (optimal)                                                          |
// | ------------------------------------------------------------------------------------------------------------------ |
//  ------------------------------------------------------------------------
//  Simulation performed for #gates = 12864  #faults = 25984
//  Run fault simulation without storing patterns.  pattern source = 655 external patterns
//  ------------------------------------------------------------------------
//  #patterns  test      #faults  #faults    # eff.    # test         process 
//  simulated  coverage  in list  detected   patterns  patterns       CPU time
//   64         15.67%    21913      4071       64         0          0.14 sec
//   128        17.61%    21409       504       60         0          0.21 sec
//   192        18.40%    21203       206       48         0          0.28 sec
//   256        18.75%    21113        90       27         0          0.34 sec
//   320        18.97%    21054        59       26         0          0.39 sec
//   384        19.25%    20982        72       31         0          0.45 sec
//   448        19.45%    20931        51       28         0          0.51 sec
//   512        19.59%    20894        37       17         0          0.56 sec
//   576        19.74%    20856        38       22         0          0.62 sec
//   640        19.82%    20833        23       12         0          0.68 sec
//   655        19.83%    20831         2        2         0          0.73 sec
