// | ------------------------------------------------------------------------------------------------------------------ |
// |                                                                                                                    |
// |          Current split capture setting:     Off (optimal)                                                          |
// |                                                                                                                    |
// |   Current clock off simulation setting:     Off (optimal)                                                          |
// | ------------------------------------------------------------------------------------------------------------------ |
//  ------------------------------------------------------------------------
//  Simulation performed for #gates = 12864  #faults = 25984
//  Run fault simulation without storing patterns.  pattern source = 589 external patterns
//  ------------------------------------------------------------------------
//  #patterns  test      #faults  #faults    # eff.    # test         process 
//  simulated  coverage  in list  detected   patterns  patterns       CPU time
//   64         13.67%    22433      3551       64         0          0.12 sec
//   128        15.15%    22047       386       53         0          0.18 sec
//   192        15.81%    21876       171       42         0          0.25 sec
//   256        16.22%    21770       106       28         0          0.31 sec
//   320        16.59%    21673        97       41         0          0.37 sec
//   384        16.93%    21584        89       33         0          0.43 sec
//   448        17.43%    21454       130       39         0          0.49 sec
//   512        17.76%    21370        84       28         0          0.54 sec
//   576        17.96%    21317        53       23         0          0.60 sec
//   589        17.98%    21312         5        3         0          0.65 sec
