// | ------------------------------------------------------------------------------------------------------------------ |
// |                                                                                                                    |
// |          Current split capture setting:     Off (optimal)                                                          |
// |                                                                                                                    |
// |   Current clock off simulation setting:     Off (optimal)                                                          |
// | ------------------------------------------------------------------------------------------------------------------ |
//  ------------------------------------------------------------------------
//  Simulation performed for #gates = 12864  #faults = 25984
//  Run fault simulation without storing patterns.  pattern source = 702 external patterns
//  ------------------------------------------------------------------------
//  #patterns  test      #faults  #faults    # eff.    # test         process 
//  simulated  coverage  in list  detected   patterns  patterns       CPU time
//   64         15.30%    22008      3976       64         0          0.14 sec
//   128        17.03%    21560       448       57         0          0.21 sec
//   192        17.75%    21373       187       43         0          0.27 sec
//   256        18.24%    21245       128       38         0          0.33 sec
//   320        18.54%    21166        79       33         0          0.39 sec
//   384        18.86%    21083        83       32         0          0.44 sec
//   448        19.10%    21020        63       29         0          0.50 sec
//   512        19.22%    20991        29       17         0          0.56 sec
//   576        19.33%    20961        30       16         0          0.61 sec
//   640        19.39%    20946        15        9         0          0.67 sec
//   702        19.46%    20928        18       12         0          0.73 sec
