// | ------------------------------------------------------------------------------------------------------------------ |
// |                                                                                                                    |
// |          Current split capture setting:     Off (optimal)                                                          |
// |                                                                                                                    |
// |   Current clock off simulation setting:     Off (optimal)                                                          |
// | ------------------------------------------------------------------------------------------------------------------ |
//  ------------------------------------------------------------------------
//  Simulation performed for #gates = 12864  #faults = 25984
//  Run fault simulation without storing patterns.  pattern source = 576 external patterns
//  ------------------------------------------------------------------------
//  #patterns  test      #faults  #faults    # eff.    # test         process 
//  simulated  coverage  in list  detected   patterns  patterns       CPU time
//   64         12.92%    22627      3357       64         0          0.11 sec
//   128        14.33%    22260       367       52         0          0.17 sec
//   192        15.17%    22043       217       48         0          0.24 sec
//   256        15.84%    21869       174       43         0          0.30 sec
//   320        16.31%    21746       123       39         0          0.35 sec
//   384        16.59%    21672        74       30         0          0.41 sec
//   448        16.82%    21613        59       28         0          0.47 sec
//   512        16.97%    21574        39       20         0          0.52 sec
//   576        17.13%    21534        40       18         0          0.58 sec
