// | ------------------------------------------------------------------------------------------------------------------ |
// |                                                                                                                    |
// |          Current split capture setting:     Off (optimal)                                                          |
// |                                                                                                                    |
// |   Current clock off simulation setting:     Off (optimal)                                                          |
// | ------------------------------------------------------------------------------------------------------------------ |
//  ------------------------------------------------------------------------
//  Simulation performed for #gates = 12864  #faults = 25984
//  Run fault simulation without storing patterns.  pattern source = 472 external patterns
//  ------------------------------------------------------------------------
//  #patterns  test      #faults  #faults    # eff.    # test         process 
//  simulated  coverage  in list  detected   patterns  patterns       CPU time
//   64         12.93%    22625      3359       64         0          0.11 sec
//   128        14.42%    22236       389       55         0          0.17 sec
//   192        15.26%    22018       218       43         0          0.23 sec
//   256        15.83%    21872       146       38         0          0.29 sec
//   320        16.33%    21741       131       36         0          0.35 sec
//   384        16.74%    21634       107       33         0          0.41 sec
//   448        17.02%    21562        72       23         0          0.47 sec
//   472        17.13%    21533        29       10         0          0.52 sec
