// | ------------------------------------------------------------------------------------------------------------------ |
// |                                                                                                                    |
// |          Current split capture setting:     Off (optimal)                                                          |
// |                                                                                                                    |
// |   Current clock off simulation setting:     Off (optimal)                                                          |
// | ------------------------------------------------------------------------------------------------------------------ |
//  ------------------------------------------------------------------------
//  Simulation performed for #gates = 12864  #faults = 25984
//  Run fault simulation without storing patterns.  pattern source = 524 external patterns
//  ------------------------------------------------------------------------
//  #patterns  test      #faults  #faults    # eff.    # test         process 
//  simulated  coverage  in list  detected   patterns  patterns       CPU time
//   64         13.03%    22598      3386       64         0          0.11 sec
//   128        14.51%    22213       385       50         0          0.17 sec
//   192        15.21%    22032       181       43         0          0.23 sec
//   256        15.76%    21890       142       42         0          0.29 sec
//   320        16.21%    21771       119       39         0          0.35 sec
//   384        16.66%    21655       116       33         0          0.41 sec
//   448        16.94%    21583        72       28         0          0.47 sec
//   512        17.10%    21542        41       21         0          0.52 sec
//   524        17.15%    21529        13        5         0          0.57 sec
