// | ------------------------------------------------------------------------------------------------------------------ |
// |                                                                                                                    |
// |          Current split capture setting:     Off (optimal)                                                          |
// |                                                                                                                    |
// |   Current clock off simulation setting:     Off (optimal)                                                          |
// | ------------------------------------------------------------------------------------------------------------------ |
//  ------------------------------------------------------------------------
//  Simulation performed for #gates = 12864  #faults = 25984
//  Run fault simulation without storing patterns.  pattern source = 649 external patterns
//  ------------------------------------------------------------------------
//  #patterns  test      #faults  #faults    # eff.    # test         process 
//  simulated  coverage  in list  detected   patterns  patterns       CPU time
//   64         15.24%    22025      3959       64         0          0.14 sec
//   128        16.93%    21584       441       59         0          0.20 sec
//   192        17.66%    21395       189       46         0          0.27 sec
//   256        18.22%    21249       146       46         0          0.33 sec
//   320        18.55%    21164        85       32         0          0.39 sec
//   384        18.90%    21074        90       34         0          0.44 sec
//   448        19.06%    21032        42       22         0          0.50 sec
//   512        19.17%    21002        30       16         0          0.56 sec
//   576        19.39%    20946        56       22         0          0.61 sec
//   640        19.45%    20929        17       13         0          0.67 sec
//   649        19.46%    20928         1        1         0          0.72 sec
