// | ------------------------------------------------------------------------------------------------------------------ |
// |                                                                                                                    |
// |          Current split capture setting:     Off (optimal)                                                          |
// |                                                                                                                    |
// |   Current clock off simulation setting:     Off (optimal)                                                          |
// | ------------------------------------------------------------------------------------------------------------------ |
//  ------------------------------------------------------------------------
//  Simulation performed for #gates = 12864  #faults = 25984
//  Run fault simulation without storing patterns.  pattern source = 573 external patterns
//  ------------------------------------------------------------------------
//  #patterns  test      #faults  #faults    # eff.    # test         process 
//  simulated  coverage  in list  detected   patterns  patterns       CPU time
//   64         12.58%    22716      3268       63         0          0.10 sec
//   128        13.95%    22360       356       50         0          0.17 sec
//   192        14.64%    22181       179       36         0          0.23 sec
//   256        15.10%    22060       121       32         0          0.29 sec
//   320        15.64%    21920       140       33         0          0.35 sec
//   384        16.14%    21791       129       40         0          0.40 sec
//   448        16.56%    21680       111       38         0          0.46 sec
//   512        16.87%    21600        80       35         0          0.52 sec
//   573        17.01%    21565        35       17         0          0.58 sec
