// | ------------------------------------------------------------------------------------------------------------------ |
// |                                                                                                                    |
// |          Current split capture setting:     Off (optimal)                                                          |
// |                                                                                                                    |
// |   Current clock off simulation setting:     Off (optimal)                                                          |
// | ------------------------------------------------------------------------------------------------------------------ |
//  ------------------------------------------------------------------------
//  Simulation performed for #gates = 12864  #faults = 25984
//  Run fault simulation without storing patterns.  pattern source = 681 external patterns
//  ------------------------------------------------------------------------
//  #patterns  test      #faults  #faults    # eff.    # test         process 
//  simulated  coverage  in list  detected   patterns  patterns       CPU time
//   64         14.58%    22195      3789       64         0          0.13 sec
//   128        16.21%    21772       423       57         0          0.20 sec
//   192        17.21%    21513       259       48         0          0.26 sec
//   256        17.83%    21350       163       45         0          0.32 sec
//   320        18.12%    21275        75       33         0          0.38 sec
//   384        18.44%    21193        82       36         0          0.44 sec
//   448        18.70%    21125        68       29         0          0.50 sec
//   512        18.98%    21051        74       31         0          0.56 sec
//   576        19.13%    21014        37       19         0          0.61 sec
//   640        19.28%    20975        39       15         0          0.67 sec
//   681        19.32%    20964        11        6         0          0.72 sec
