// | ------------------------------------------------------------------------------------------------------------------ |
// |                                                                                                                    |
// |          Current split capture setting:     Off (optimal)                                                          |
// |                                                                                                                    |
// |   Current clock off simulation setting:     Off (optimal)                                                          |
// | ------------------------------------------------------------------------------------------------------------------ |
//  ------------------------------------------------------------------------
//  Simulation performed for #gates = 12864  #faults = 25984
//  Run fault simulation without storing patterns.  pattern source = 582 external patterns
//  ------------------------------------------------------------------------
//  #patterns  test      #faults  #faults    # eff.    # test         process 
//  simulated  coverage  in list  detected   patterns  patterns       CPU time
//   64         15.07%    22068      3916       64         0          0.13 sec
//   128        16.94%    21582       486       63         0          0.20 sec
//   192        17.76%    21370       212       50         0          0.26 sec
//   256        18.37%    21212       158       41         0          0.32 sec
//   320        18.80%    21100       112       34         0          0.38 sec
//   384        19.07%    21030        70       32         0          0.44 sec
//   448        19.23%    20988        42       23         0          0.50 sec
//   512        19.44%    20934        54       25         0          0.56 sec
//   576        19.59%    20893        41       20         0          0.61 sec
//   582        19.60%    20892         1        1         0          0.66 sec
