// | ------------------------------------------------------------------------------------------------------------------ |
// |                                                                                                                    |
// |          Current split capture setting:     Off (optimal)                                                          |
// |                                                                                                                    |
// |   Current clock off simulation setting:     Off (optimal)                                                          |
// | ------------------------------------------------------------------------------------------------------------------ |
//  ------------------------------------------------------------------------
//  Simulation performed for #gates = 12864  #faults = 25984
//  Run fault simulation without storing patterns.  pattern source = 458 external patterns
//  ------------------------------------------------------------------------
//  #patterns  test      #faults  #faults    # eff.    # test         process 
//  simulated  coverage  in list  detected   patterns  patterns       CPU time
//   64         14.91%    22111      3873       64         0          0.13 sec
//   128        16.58%    21675       436       52         0          0.20 sec
//   192        17.25%    21501       174       45         0          0.26 sec
//   256        17.92%    21328       173       50         0          0.32 sec
//   320        18.38%    21207       121       38         0          0.37 sec
//   384        18.80%    21099       108       39         0          0.43 sec
//   448        19.01%    21045        54       22         0          0.49 sec
//   458        19.03%    21039         6        2         0          0.54 sec
