// | ------------------------------------------------------------------------------------------------------------------ |
// |                                                                                                                    |
// |          Current split capture setting:     Off (optimal)                                                          |
// |                                                                                                                    |
// |   Current clock off simulation setting:     Off (optimal)                                                          |
// | ------------------------------------------------------------------------------------------------------------------ |
//  ------------------------------------------------------------------------
//  Simulation performed for #gates = 12864  #faults = 25984
//  Run fault simulation without storing patterns.  pattern source = 555 external patterns
//  ------------------------------------------------------------------------
//  #patterns  test      #faults  #faults    # eff.    # test         process 
//  simulated  coverage  in list  detected   patterns  patterns       CPU time
//   64         12.47%    22743      3241       62         0          0.10 sec
//   128        13.50%    22475       268       46         0          0.17 sec
//   192        14.45%    22230       245       47         0          0.23 sec
//   256        15.04%    22076       154       35         0          0.29 sec
//   320        15.67%    21912       164       40         0          0.34 sec
//   384        16.13%    21793       119       36         0          0.40 sec
//   448        16.50%    21696        97       32         0          0.46 sec
//   512        16.75%    21631        65       23         0          0.51 sec
//   555        16.94%    21582        49       17         0          0.57 sec
