// | ------------------------------------------------------------------------------------------------------------------ |
// |                                                                                                                    |
// |          Current split capture setting:     Off (optimal)                                                          |
// |                                                                                                                    |
// |   Current clock off simulation setting:     Off (optimal)                                                          |
// | ------------------------------------------------------------------------------------------------------------------ |
//  ------------------------------------------------------------------------
//  Simulation performed for #gates = 12864  #faults = 25984
//  Run fault simulation without storing patterns.  pattern source = 509 external patterns
//  ------------------------------------------------------------------------
//  #patterns  test      #faults  #faults    # eff.    # test         process 
//  simulated  coverage  in list  detected   patterns  patterns       CPU time
//   64         15.64%    21920      4064       64         0          0.13 sec
//   128        17.21%    21511       409       57         0          0.20 sec
//   192        18.07%    21289       222       53         0          0.26 sec
//   256        18.48%    21182       107       40         0          0.32 sec
//   320        18.75%    21113        69       33         0          0.37 sec
//   384        19.00%    21046        67       31         0          0.43 sec
//   448        19.17%    21004        42       22         0          0.49 sec
//   509        19.39%    20946        58       27         0          0.54 sec
