// | ------------------------------------------------------------------------------------------------------------------ |
// |                                                                                                                    |
// |          Current split capture setting:     Off (optimal)                                                          |
// |                                                                                                                    |
// |   Current clock off simulation setting:     Off (optimal)                                                          |
// | ------------------------------------------------------------------------------------------------------------------ |
//  ------------------------------------------------------------------------
//  Simulation performed for #gates = 12864  #faults = 25984
//  Run fault simulation without storing patterns.  pattern source = 419 external patterns
//  ------------------------------------------------------------------------
//  #patterns  test      #faults  #faults    # eff.    # test         process 
//  simulated  coverage  in list  detected   patterns  patterns       CPU time
//   64         12.33%    22781      3203       63         0          0.10 sec
//   128        13.79%    22401       380       55         0          0.17 sec
//   192        14.46%    22227       174       40         0          0.23 sec
//   256        14.99%    22088       139       38         0          0.29 sec
//   320        15.57%    21939       149       36         0          0.35 sec
//   384        16.03%    21820       119       32         0          0.40 sec
//   419        16.28%    21753        67       20         0          0.46 sec
