// | ------------------------------------------------------------------------------------------------------------------ |
// |                                                                                                                    |
// |          Current split capture setting:     Off (optimal)                                                          |
// |                                                                                                                    |
// |   Current clock off simulation setting:     Off (optimal)                                                          |
// | ------------------------------------------------------------------------------------------------------------------ |
//  ------------------------------------------------------------------------
//  Simulation performed for #gates = 12864  #faults = 25984
//  Run fault simulation without storing patterns.  pattern source = 541 external patterns
//  ------------------------------------------------------------------------
//  #patterns  test      #faults  #faults    # eff.    # test         process 
//  simulated  coverage  in list  detected   patterns  patterns       CPU time
//   64         12.35%    22776      3208       63         0          0.11 sec
//   128        13.35%    22515       261       46         0          0.17 sec
//   192        14.13%    22313       202       43         0          0.24 sec
//   256        14.69%    22168       145       37         0          0.30 sec
//   320        14.95%    22100        68       21         0          0.36 sec
//   384        15.21%    22031        69       26         0          0.42 sec
//   448        15.68%    21911       120       31         0          0.48 sec
//   512        15.91%    21850        61       26         0          0.53 sec
//   541        15.99%    21828        22       10         0          0.59 sec
