// | ------------------------------------------------------------------------------------------------------------------ |
// |                                                                                                                    |
// |          Current split capture setting:     Off (optimal)                                                          |
// |                                                                                                                    |
// |   Current clock off simulation setting:     Off (optimal)                                                          |
// | ------------------------------------------------------------------------------------------------------------------ |
//  ------------------------------------------------------------------------
//  Simulation performed for #gates = 12864  #faults = 25984
//  Run fault simulation without storing patterns.  pattern source = 531 external patterns
//  ------------------------------------------------------------------------
//  #patterns  test      #faults  #faults    # eff.    # test         process 
//  simulated  coverage  in list  detected   patterns  patterns       CPU time
//   64         13.46%    22487      3497       64         0          0.12 sec
//   128        14.67%    22173       314       51         0          0.18 sec
//   192        15.57%    21937       236       49         0          0.24 sec
//   256        16.10%    21800       137       35         0          0.31 sec
//   320        16.79%    21622       178       43         0          0.37 sec
//   384        17.43%    21455       167       39         0          0.43 sec
//   448        17.78%    21364        91       31         0          0.48 sec
//   512        17.95%    21320        44       21         0          0.54 sec
//   531        17.98%    21312         8        6         0          0.59 sec
