// | ------------------------------------------------------------------------------------------------------------------ |
// |                                                                                                                    |
// |          Current split capture setting:     Off (optimal)                                                          |
// |                                                                                                                    |
// |   Current clock off simulation setting:     Off (optimal)                                                          |
// | ------------------------------------------------------------------------------------------------------------------ |
//  ------------------------------------------------------------------------
//  Simulation performed for #gates = 12864  #faults = 25984
//  Run fault simulation without storing patterns.  pattern source = 410 external patterns
//  ------------------------------------------------------------------------
//  #patterns  test      #faults  #faults    # eff.    # test         process 
//  simulated  coverage  in list  detected   patterns  patterns       CPU time
//   64         14.52%    22212      3772       64         0          0.13 sec
//   128        16.10%    21801       411       58         0          0.20 sec
//   192        16.95%    21580       221       50         0          0.27 sec
//   256        17.73%    21376       204       43         0          0.33 sec
//   320        18.22%    21249       127       41         0          0.39 sec
//   384        18.45%    21191        58       23         0          0.45 sec
//   410        18.52%    21172        19        8         0          0.51 sec
