// | ------------------------------------------------------------------------------------------------------------------ |
// |                                                                                                                    |
// |          Current split capture setting:     Off (optimal)                                                          |
// |                                                                                                                    |
// |   Current clock off simulation setting:     Off (optimal)                                                          |
// | ------------------------------------------------------------------------------------------------------------------ |
//  ------------------------------------------------------------------------
//  Simulation performed for #gates = 12864  #faults = 25984
//  Run fault simulation without storing patterns.  pattern source = 681 external patterns
//  ------------------------------------------------------------------------
//  #patterns  test      #faults  #faults    # eff.    # test         process 
//  simulated  coverage  in list  detected   patterns  patterns       CPU time
//   64         13.64%    22441      3543       61         0          0.12 sec
//   128        14.98%    22091       350       56         0          0.18 sec
//   192        15.68%    21910       181       43         0          0.24 sec
//   256        16.38%    21727       183       45         0          0.30 sec
//   320        16.76%    21628        99       32         0          0.36 sec
//   384        17.28%    21495       133       42         0          0.42 sec
//   448        17.69%    21388       107       35         0          0.48 sec
//   512        17.98%    21312        76       27         0          0.54 sec
//   576        18.17%    21263        49       20         0          0.59 sec
//   640        18.32%    21225        38       19         0          0.65 sec
//   681        18.41%    21201        24       13         0          0.70 sec
