// | ------------------------------------------------------------------------------------------------------------------ |
// |                                                                                                                    |
// |          Current split capture setting:     Off (optimal)                                                          |
// |                                                                                                                    |
// |   Current clock off simulation setting:     Off (optimal)                                                          |
// | ------------------------------------------------------------------------------------------------------------------ |
//  ------------------------------------------------------------------------
//  Simulation performed for #gates = 12864  #faults = 25984
//  Run fault simulation without storing patterns.  pattern source = 524 external patterns
//  ------------------------------------------------------------------------
//  #patterns  test      #faults  #faults    # eff.    # test         process 
//  simulated  coverage  in list  detected   patterns  patterns       CPU time
//   64         19.65%    20879      5105       64         0          0.15 sec
//   128        23.05%    19995       884       64         0          0.21 sec
//   192        24.72%    19560       435       64         0          0.27 sec
//   256        25.71%    19303       257       64         0          0.32 sec
//   320        26.69%    19050       253       64         0          0.37 sec
//   384        27.30%    18891       159       64         0          0.42 sec
//   448        27.80%    18760       131       64         0          0.48 sec
//   512        28.16%    18668        92       63         0          0.53 sec
//   524        28.21%    18654        14       12         0          0.57 sec
