// | ------------------------------------------------------------------------------------------------------------------ |
// |                                                                                                                    |
// |          Current split capture setting:     Off (optimal)                                                          |
// |                                                                                                                    |
// |   Current clock off simulation setting:     Off (optimal)                                                          |
// | ------------------------------------------------------------------------------------------------------------------ |
//  ------------------------------------------------------------------------
//  Simulation performed for #gates = 12864  #faults = 25984
//  Run fault simulation without storing patterns.  pattern source = 394 external patterns
//  ------------------------------------------------------------------------
//  #patterns  test      #faults  #faults    # eff.    # test         process 
//  simulated  coverage  in list  detected   patterns  patterns       CPU time
//   64         14.15%    22306      3678       63         0          0.12 sec
//   128        15.75%    21891       415       59         0          0.19 sec
//   192        16.54%    21686       205       47         0          0.25 sec
//   256        17.19%    21518       168       47         0          0.32 sec
//   320        17.58%    21415       103       37         0          0.37 sec
//   384        17.84%    21349        66       33         0          0.43 sec
//   394        17.89%    21335        14        7         0          0.48 sec
