// | ------------------------------------------------------------------------------------------------------------------ |
// |                                                                                                                    |
// |          Current split capture setting:     Off (optimal)                                                          |
// |                                                                                                                    |
// |   Current clock off simulation setting:     Off (optimal)                                                          |
// | ------------------------------------------------------------------------------------------------------------------ |
//  ------------------------------------------------------------------------
//  Simulation performed for #gates = 12864  #faults = 25984
//  Run fault simulation without storing patterns.  pattern source = 567 external patterns
//  ------------------------------------------------------------------------
//  #patterns  test      #faults  #faults    # eff.    # test         process 
//  simulated  coverage  in list  detected   patterns  patterns       CPU time
//   64         14.37%    22250      3734       64         0          0.13 sec
//   128        15.79%    21880       370       55         0          0.20 sec
//   192        16.79%    21621       259       54         0          0.27 sec
//   256        17.32%    21484       137       42         0          0.33 sec
//   320        17.82%    21353       131       35         0          0.40 sec
//   384        18.14%    21271        82       30         0          0.46 sec
//   448        18.36%    21213        58       24         0          0.52 sec
//   512        18.53%    21168        45       19         0          0.57 sec
//   567        18.71%    21122        46       23         0          0.63 sec
