// | ------------------------------------------------------------------------------------------------------------------ |
// |                                                                                                                    |
// |          Current split capture setting:     Off (optimal)                                                          |
// |                                                                                                                    |
// |   Current clock off simulation setting:     Off (optimal)                                                          |
// | ------------------------------------------------------------------------------------------------------------------ |
//  ------------------------------------------------------------------------
//  Simulation performed for #gates = 12864  #faults = 25984
//  Run fault simulation without storing patterns.  pattern source = 524 external patterns
//  ------------------------------------------------------------------------
//  #patterns  test      #faults  #faults    # eff.    # test         process 
//  simulated  coverage  in list  detected   patterns  patterns       CPU time
//   64         14.57%    22199      3785       63         0          0.12 sec
//   128        16.04%    21816       383       58         0          0.19 sec
//   192        16.88%    21597       219       51         0          0.25 sec
//   256        17.36%    21474       123       41         0          0.31 sec
//   320        17.68%    21389        85       34         0          0.37 sec
//   384        17.98%    21313        76       36         0          0.43 sec
//   448        18.11%    21277        36       17         0          0.48 sec
//   512        18.24%    21244        33       20         0          0.54 sec
//   524        18.27%    21238         6        5         0          0.59 sec
