// | ------------------------------------------------------------------------------------------------------------------ |
// |                                                                                                                    |
// |          Current split capture setting:     Off (optimal)                                                          |
// |                                                                                                                    |
// |   Current clock off simulation setting:     Off (optimal)                                                          |
// | ------------------------------------------------------------------------------------------------------------------ |
//  ------------------------------------------------------------------------
//  Simulation performed for #gates = 12864  #faults = 25984
//  Run fault simulation without storing patterns.  pattern source = 435 external patterns
//  ------------------------------------------------------------------------
//  #patterns  test      #faults  #faults    # eff.    # test         process 
//  simulated  coverage  in list  detected   patterns  patterns       CPU time
//   64         15.73%    21897      4087       64         0          0.14 sec
//   128        17.46%    21446       451       60         0          0.21 sec
//   192        18.24%    21244       202       51         0          0.27 sec
//   256        18.96%    21057       187       50         0          0.33 sec
//   320        19.40%    20944       113       37         0          0.39 sec
//   384        19.67%    20872        72       33         0          0.45 sec
//   435        19.74%    20855        17       12         0          0.50 sec
