// | ------------------------------------------------------------------------------------------------------------------ |
// |                                                                                                                    |
// |          Current split capture setting:     Off (optimal)                                                          |
// |                                                                                                                    |
// |   Current clock off simulation setting:     Off (optimal)                                                          |
// | ------------------------------------------------------------------------------------------------------------------ |
//  ------------------------------------------------------------------------
//  Simulation performed for #gates = 12864  #faults = 25984
//  Run fault simulation without storing patterns.  pattern source = 453 external patterns
//  ------------------------------------------------------------------------
//  #patterns  test      #faults  #faults    # eff.    # test         process 
//  simulated  coverage  in list  detected   patterns  patterns       CPU time
//   64         14.66%    22175      3809       63         0          0.12 sec
//   128        16.43%    21714       461       54         0          0.19 sec
//   192        17.18%    21521       193       49         0          0.25 sec
//   256        17.68%    21389       132       40         0          0.31 sec
//   320        18.06%    21290        99       31         0          0.37 sec
//   384        18.29%    21231        59       24         0          0.42 sec
//   448        18.43%    21194        37       19         0          0.48 sec
//   453        18.45%    21191         3        2         0          0.53 sec
