// | ------------------------------------------------------------------------------------------------------------------ |
// |                                                                                                                    |
// |          Current split capture setting:     Off (optimal)                                                          |
// |                                                                                                                    |
// |   Current clock off simulation setting:     Off (optimal)                                                          |
// | ------------------------------------------------------------------------------------------------------------------ |
//  ------------------------------------------------------------------------
//  Simulation performed for #gates = 12864  #faults = 25984
//  Run fault simulation without storing patterns.  pattern source = 539 external patterns
//  ------------------------------------------------------------------------
//  #patterns  test      #faults  #faults    # eff.    # test         process 
//  simulated  coverage  in list  detected   patterns  patterns       CPU time
//   64         14.24%    22285      3699       64         0          0.13 sec
//   128        16.13%    21793       492       58         0          0.20 sec
//   192        17.18%    21521       272       52         0          0.26 sec
//   256        17.67%    21392       129       39         0          0.32 sec
//   320        18.13%    21272       120       40         0          0.38 sec
//   384        18.35%    21217        55       29         0          0.44 sec
//   448        18.63%    21142        75       29         0          0.50 sec
//   512        18.83%    21092        50       24         0          0.55 sec
//   539        18.86%    21083         9        5         0          0.61 sec
