// | ------------------------------------------------------------------------------------------------------------------ |
// |                                                                                                                    |
// |          Current split capture setting:     Off (optimal)                                                          |
// |                                                                                                                    |
// |   Current clock off simulation setting:     Off (optimal)                                                          |
// | ------------------------------------------------------------------------------------------------------------------ |
//  ------------------------------------------------------------------------
//  Simulation performed for #gates = 12864  #faults = 25984
//  Run fault simulation without storing patterns.  pattern source = 410 external patterns
//  ------------------------------------------------------------------------
//  #patterns  test      #faults  #faults    # eff.    # test         process 
//  simulated  coverage  in list  detected   patterns  patterns       CPU time
//   64         12.66%    22694      3290       62         0          0.11 sec
//   128        13.82%    22392       302       49         0          0.18 sec
//   192        14.89%    22114       278       44         0          0.24 sec
//   256        15.81%    21877       237       44         0          0.30 sec
//   320        16.51%    21695       182       46         0          0.36 sec
//   384        17.03%    21559       136       38         0          0.42 sec
//   410        17.13%    21532        27        5         0          0.47 sec
