// | ------------------------------------------------------------------------------------------------------------------ |
// |                                                                                                                    |
// |          Current split capture setting:     Off (optimal)                                                          |
// |                                                                                                                    |
// |   Current clock off simulation setting:     Off (optimal)                                                          |
// | ------------------------------------------------------------------------------------------------------------------ |
//  ------------------------------------------------------------------------
//  Simulation performed for #gates = 12864  #faults = 25984
//  Run fault simulation without storing patterns.  pattern source = 505 external patterns
//  ------------------------------------------------------------------------
//  #patterns  test      #faults  #faults    # eff.    # test         process 
//  simulated  coverage  in list  detected   patterns  patterns       CPU time
//   64         14.66%    22175      3809       64         0          0.13 sec
//   128        16.49%    21699       476       55         0          0.19 sec
//   192        17.53%    21428       271       51         0          0.26 sec
//   256        18.18%    21259       169       47         0          0.31 sec
//   320        18.56%    21162        97       29         0          0.37 sec
//   384        18.87%    21081        81       31         0          0.43 sec
//   448        19.07%    21029        52       22         0          0.48 sec
//   505        19.19%    20997        32       15         0          0.54 sec
