// | ------------------------------------------------------------------------------------------------------------------ |
// |                                                                                                                    |
// |          Current split capture setting:     Off (optimal)                                                          |
// |                                                                                                                    |
// |   Current clock off simulation setting:     Off (optimal)                                                          |
// | ------------------------------------------------------------------------------------------------------------------ |
//  ------------------------------------------------------------------------
//  Simulation performed for #gates = 12864  #faults = 25984
//  Run fault simulation without storing patterns.  pattern source = 458 external patterns
//  ------------------------------------------------------------------------
//  #patterns  test      #faults  #faults    # eff.    # test         process 
//  simulated  coverage  in list  detected   patterns  patterns       CPU time
//   64         12.10%    22841      3143       63         0          0.11 sec
//   128        13.28%    22533       308       47         0          0.17 sec
//   192        13.90%    22373       160       36         0          0.23 sec
//   256        14.81%    22136       237       49         0          0.29 sec
//   320        15.52%    21951       185       42         0          0.35 sec
//   384        15.92%    21847       104       31         0          0.41 sec
//   448        16.11%    21798        49       18         0          0.46 sec
//   458        16.11%    21797         1        1         0          0.51 sec
