// | ------------------------------------------------------------------------------------------------------------------ |
// |                                                                                                                    |
// |          Current split capture setting:     Off (optimal)                                                          |
// |                                                                                                                    |
// |   Current clock off simulation setting:     Off (optimal)                                                          |
// | ------------------------------------------------------------------------------------------------------------------ |
//  ------------------------------------------------------------------------
//  Simulation performed for #gates = 12864  #faults = 25984
//  Run fault simulation without storing patterns.  pattern source = 546 external patterns
//  ------------------------------------------------------------------------
//  #patterns  test      #faults  #faults    # eff.    # test         process 
//  simulated  coverage  in list  detected   patterns  patterns       CPU time
//   64         15.76%    21888      4096       64         0          0.14 sec
//   128        17.20%    21514       374       58         0          0.20 sec
//   192        17.89%    21335       179       53         0          0.26 sec
//   256        18.29%    21232       103       35         0          0.32 sec
//   320        18.64%    21140        92       34         0          0.38 sec
//   384        18.95%    21059        81       32         0          0.44 sec
//   448        19.08%    21025        34       14         0          0.49 sec
//   512        19.19%    20998        27       14         0          0.55 sec
//   546        19.20%    20995         3        2         0          0.60 sec
