          Statistics Report          
           Stuck-at Faults           
-------------------------------------
Fault Classes              #faults   
                           (coll.)   
---------------------  --------------
  FU (full)                 9584     
  -------------------  --------------
  DS (det_simulation)   7004 (73.08%)
  UU (unused)             22 ( 0.23%)
  TI (tied)              374 ( 3.90%)
  BL (blocked)           603 ( 6.29%)
  RE (redundant)        1581 (16.50%)
-------------------------------------
Coverage                             
  -------------------                
  test_coverage              100.00% 
  fault_coverage              73.08% 
  atpg_effectiveness         100.00% 
-------------------------------------
#test_patterns                    92 
#simulated_patterns               94 
CPU_time (secs)                  2.6 
-------------------------------------

