          Statistics Report          
           Stuck-at Faults           
-------------------------------------
Fault Classes              #faults   
                           (coll.)   
---------------------  --------------
  FU (full)                 9584     
  -------------------  --------------
  DS (det_simulation)   7034 (73.39%)
  UU (unused)             22 ( 0.23%)
  TI (tied)              430 ( 4.49%)
  BL (blocked)           471 ( 4.91%)
  RE (redundant)        1627 (16.98%)
-------------------------------------
Coverage                             
  -------------------                
  test_coverage              100.00% 
  fault_coverage              73.39% 
  atpg_effectiveness         100.00% 
-------------------------------------
#test_patterns                    98 
#simulated_patterns              100 
CPU_time (secs)                  2.6 
-------------------------------------

