// | ------------------------------------------------------------------------------------------------------------------ |
// |                                                                                                                    |
// |          Current split capture setting:     Off (optimal)                                                          |
// |                                                                                                                    |
// |   Current clock off simulation setting:     Off (optimal)                                                          |
// | ------------------------------------------------------------------------------------------------------------------ |
//  ------------------------------------------------------------------------
//  Simulation performed for #gates = 20871  #faults = 57870
//  Run fault simulation without storing patterns.  pattern source = 273 external patterns
//  ------------------------------------------------------------------------
//  #patterns  test      #faults  #faults    # eff.    # test         process 
//  simulated  coverage  in list  detected   patterns  patterns       CPU time
//   64         86.36%     7893     49977       64         0          1.47 sec
//   128        88.19%     6833      1060       64         0          1.51 sec
//   192        88.74%     6514       319       60         0          1.53 sec
//   256        89.00%     6364       150       51         0          1.55 sec
//   273        89.06%     6332        32       13         0          1.56 sec
