// | ------------------------------------------------------------------------------------------------------------------ |
// |                                                                                                                    |
// |          Current split capture setting:     Off (optimal)                                                          |
// |                                                                                                                    |
// |   Current clock off simulation setting:     Off (optimal)                                                          |
// | ------------------------------------------------------------------------------------------------------------------ |
//  ------------------------------------------------------------------------
//  Simulation performed for #gates = 20871  #faults = 58028
//  Run fault simulation without storing patterns.  pattern source = 243 external patterns
//  ------------------------------------------------------------------------
//  #patterns  test      #faults  #faults    # eff.    # test         process 
//  simulated  coverage  in list  detected   patterns  patterns       CPU time
//   64         85.64%     8330     49698       64         0          1.45 sec
//   128        87.66%     7163      1167       64         0          1.49 sec
//   192        88.39%     6737       426       60         0          1.51 sec
//   243        88.69%     6563       174       45         0          1.53 sec
