// | ------------------------------------------------------------------------------------------------------------------ |
// |                                                                                                                    |
// |          Current split capture setting:     Off (optimal)                                                          |
// |                                                                                                                    |
// |   Current clock off simulation setting:     Off (optimal)                                                          |
// | ------------------------------------------------------------------------------------------------------------------ |
//  ------------------------------------------------------------------------
//  Simulation performed for #gates = 20871  #faults = 58842
//  Run fault simulation without storing patterns.  pattern source = 289 external patterns
//  ------------------------------------------------------------------------
//  #patterns  test      #faults  #faults    # eff.    # test         process 
//  simulated  coverage  in list  detected   patterns  patterns       CPU time
//   64         85.77%     8371     50471       64         0          1.64 sec
//   128        87.57%     7314      1057       64         0          1.67 sec
//   192        88.13%     6983       331       60         0          1.70 sec
//   256        88.44%     6801       182       51         0          1.72 sec
//   289        88.52%     6757        44       21         0          1.73 sec
