// | ------------------------------------------------------------------------------------------------------------------ |
// |                                                                                                                    |
// |          Current split capture setting:     Off (optimal)                                                          |
// |                                                                                                                    |
// |   Current clock off simulation setting:     Off (optimal)                                                          |
// | ------------------------------------------------------------------------------------------------------------------ |
//  ------------------------------------------------------------------------
//  Simulation performed for #gates = 20871  #faults = 58864
//  Run fault simulation without storing patterns.  pattern source = 247 external patterns
//  ------------------------------------------------------------------------
//  #patterns  test      #faults  #faults    # eff.    # test         process 
//  simulated  coverage  in list  detected   patterns  patterns       CPU time
//   64         86.17%     8138     50726       64         0          1.68 sec
//   128        88.04%     7042      1096       64         0          1.72 sec
//   192        88.69%     6659       383       62         0          1.74 sec
//   247        88.88%     6545       114       42         0          1.76 sec
