// | ------------------------------------------------------------------------------------------------------------------ |
// |                                                                                                                    |
// |          Current split capture setting:     Off (optimal)                                                          |
// |                                                                                                                    |
// |   Current clock off simulation setting:     Off (optimal)                                                          |
// | ------------------------------------------------------------------------------------------------------------------ |
//  ------------------------------------------------------------------------
//  Simulation performed for #gates = 20871  #faults = 58796
//  Run fault simulation without storing patterns.  pattern source = 260 external patterns
//  ------------------------------------------------------------------------
//  #patterns  test      #faults  #faults    # eff.    # test         process 
//  simulated  coverage  in list  detected   patterns  patterns       CPU time
//   64         85.72%     8399     50397       64         0          1.62 sec
//   128        87.73%     7214      1185       64         0          1.66 sec
//   192        88.44%     6797       417       61         0          1.69 sec
//   256        88.73%     6624       173       52         0          1.71 sec
//   260        88.74%     6622         2        1         0          1.72 sec
