// | ------------------------------------------------------------------------------------------------------------------ |
// |                                                                                                                    |
// |          Current split capture setting:     Off (optimal)                                                          |
// |                                                                                                                    |
// |   Current clock off simulation setting:     Off (optimal)                                                          |
// | ------------------------------------------------------------------------------------------------------------------ |
//  ------------------------------------------------------------------------
//  Simulation performed for #gates = 20871  #faults = 58839
//  Run fault simulation without storing patterns.  pattern source = 276 external patterns
//  ------------------------------------------------------------------------
//  #patterns  test      #faults  #faults    # eff.    # test         process 
//  simulated  coverage  in list  detected   patterns  patterns       CPU time
//   64         85.44%     8566     50273       64         0          1.66 sec
//   128        87.46%     7377      1189       64         0          1.70 sec
//   192        88.28%     6898       479       63         0          1.72 sec
//   256        88.58%     6719       179       46         0          1.74 sec
//   276        88.64%     6683        36       17         0          1.76 sec
