// | ------------------------------------------------------------------------------------------------------------------ |
// |                                                                                                                    |
// |          Current split capture setting:     Off (optimal)                                                          |
// |                                                                                                                    |
// |   Current clock off simulation setting:     Off (optimal)                                                          |
// | ------------------------------------------------------------------------------------------------------------------ |
//  ------------------------------------------------------------------------
//  Simulation performed for #gates = 20871  #faults = 58873
//  Run fault simulation without storing patterns.  pattern source = 264 external patterns
//  ------------------------------------------------------------------------
//  #patterns  test      #faults  #faults    # eff.    # test         process 
//  simulated  coverage  in list  detected   patterns  patterns       CPU time
//   64         86.15%     8153     50720       64         0          1.65 sec
//   128        87.97%     7080      1073       64         0          1.69 sec
//   192        88.60%     6710       370       63         0          1.71 sec
//   256        88.84%     6570       140       44         0          1.73 sec
//   264        88.86%     6556        14        5         0          1.74 sec
