// | ------------------------------------------------------------------------------------------------------------------ |
// |                                                                                                                    |
// |          Current split capture setting:     Off (optimal)                                                          |
// |                                                                                                                    |
// |   Current clock off simulation setting:     Off (optimal)                                                          |
// | ------------------------------------------------------------------------------------------------------------------ |
//  ------------------------------------------------------------------------
//  Simulation performed for #gates = 20871  #faults = 57975
//  Run fault simulation without storing patterns.  pattern source = 289 external patterns
//  ------------------------------------------------------------------------
//  #patterns  test      #faults  #faults    # eff.    # test         process 
//  simulated  coverage  in list  detected   patterns  patterns       CPU time
//   64         85.62%     8336     49639       64         0          1.45 sec
//   128        87.65%     7160      1176       64         0          1.49 sec
//   192        88.25%     6812       348       60         0          1.51 sec
//   256        88.48%     6677       135       44         0          1.53 sec
//   289        88.56%     6633        44       20         0          1.54 sec
