// | ------------------------------------------------------------------------------------------------------------------ |
// |                                                                                                                    |
// |          Current split capture setting:     Off (optimal)                                                          |
// |                                                                                                                    |
// |   Current clock off simulation setting:     Off (optimal)                                                          |
// | ------------------------------------------------------------------------------------------------------------------ |
//  ------------------------------------------------------------------------
//  Simulation performed for #gates = 20871  #faults = 58839
//  Run fault simulation without storing patterns.  pattern source = 273 external patterns
//  ------------------------------------------------------------------------
//  #patterns  test      #faults  #faults    # eff.    # test         process 
//  simulated  coverage  in list  detected   patterns  patterns       CPU time
//   64         85.84%     8329     50510       64         0          1.67 sec
//   128        87.78%     7190      1139       64         0          1.71 sec
//   192        88.36%     6847       343       57         0          1.73 sec
//   256        88.69%     6653       194       50         0          1.75 sec
//   273        88.75%     6622        31       11         0          1.77 sec
