// | ------------------------------------------------------------------------------------------------------------------ |
// |                                                                                                                    |
// |          Current split capture setting:     Off (optimal)                                                          |
// |                                                                                                                    |
// |   Current clock off simulation setting:     Off (optimal)                                                          |
// | ------------------------------------------------------------------------------------------------------------------ |
//  ------------------------------------------------------------------------
//  Simulation performed for #gates = 20871  #faults = 58686
//  Run fault simulation without storing patterns.  pattern source = 251 external patterns
//  ------------------------------------------------------------------------
//  #patterns  test      #faults  #faults    # eff.    # test         process 
//  simulated  coverage  in list  detected   patterns  patterns       CPU time
//   64         87.02%     7618     51068       64         0          1.69 sec
//   128        88.85%     6546      1072       64         0          1.72 sec
//   192        89.41%     6216       330       64         0          1.75 sec
//   251        89.61%     6096       120       58         0          1.76 sec
