// | ------------------------------------------------------------------------------------------------------------------ |
// |                                                                                                                    |
// |          Current split capture setting:     Off (optimal)                                                          |
// |                                                                                                                    |
// |   Current clock off simulation setting:     Off (optimal)                                                          |
// | ------------------------------------------------------------------------------------------------------------------ |
//  ------------------------------------------------------------------------
//  Simulation performed for #gates = 20871  #faults = 58132
//  Run fault simulation without storing patterns.  pattern source = 278 external patterns
//  ------------------------------------------------------------------------
//  #patterns  test      #faults  #faults    # eff.    # test         process 
//  simulated  coverage  in list  detected   patterns  patterns       CPU time
//   64         85.46%     8455     49677       64         0          1.50 sec
//   128        87.54%     7246      1209       64         0          1.54 sec
//   192        88.21%     6853       393       60         0          1.56 sec
//   256        88.51%     6681       172       44         0          1.58 sec
//   278        88.58%     6636        45       18         0          1.60 sec
