// | ------------------------------------------------------------------------------------------------------------------ |
// |                                                                                                                    |
// |          Current split capture setting:     Off (optimal)                                                          |
// |                                                                                                                    |
// |   Current clock off simulation setting:     Off (optimal)                                                          |
// | ------------------------------------------------------------------------------------------------------------------ |
//  ------------------------------------------------------------------------
//  Simulation performed for #gates = 20871  #faults = 58842
//  Run fault simulation without storing patterns.  pattern source = 270 external patterns
//  ------------------------------------------------------------------------
//  #patterns  test      #faults  #faults    # eff.    # test         process 
//  simulated  coverage  in list  detected   patterns  patterns       CPU time
//   64         85.89%     8300     50542       64         0          1.67 sec
//   128        87.76%     7204      1096       63         0          1.71 sec
//   192        88.26%     6910       294       59         0          1.73 sec
//   256        88.48%     6781       129       46         0          1.75 sec
//   270        88.52%     6756        25       10         0          1.77 sec
