// | ------------------------------------------------------------------------------------------------------------------ |
// |                                                                                                                    |
// |          Current split capture setting:     Off (optimal)                                                          |
// |                                                                                                                    |
// |   Current clock off simulation setting:     Off (optimal)                                                          |
// | ------------------------------------------------------------------------------------------------------------------ |
//  ------------------------------------------------------------------------
//  Simulation performed for #gates = 20871  #faults = 58013
//  Run fault simulation without storing patterns.  pattern source = 271 external patterns
//  ------------------------------------------------------------------------
//  #patterns  test      #faults  #faults    # eff.    # test         process 
//  simulated  coverage  in list  detected   patterns  patterns       CPU time
//   64         85.62%     8341     49672       64         0          1.47 sec
//   128        87.67%     7154      1187       64         0          1.51 sec
//   192        88.25%     6816       338       60         0          1.53 sec
//   256        88.55%     6644       172       49         0          1.55 sec
//   271        88.56%     6636         8        6         0          1.57 sec
