// | ------------------------------------------------------------------------------------------------------------------ |
// |                                                                                                                    |
// |          Current split capture setting:     Off (optimal)                                                          |
// |                                                                                                                    |
// |   Current clock off simulation setting:     Off (optimal)                                                          |
// | ------------------------------------------------------------------------------------------------------------------ |
//  ------------------------------------------------------------------------
//  Simulation performed for #gates = 20871  #faults = 58224
//  Run fault simulation without storing patterns.  pattern source = 264 external patterns
//  ------------------------------------------------------------------------
//  #patterns  test      #faults  #faults    # eff.    # test         process 
//  simulated  coverage  in list  detected   patterns  patterns       CPU time
//   64         85.42%     8489     49735       64         0          1.47 sec
//   128        87.66%     7185      1304       64         0          1.51 sec
//   192        88.30%     6815       370       62         0          1.53 sec
//   256        88.62%     6627       188       57         0          1.55 sec
//   264        88.63%     6620         7        4         0          1.57 sec
