// | ------------------------------------------------------------------------------------------------------------------ |
// |                                                                                                                    |
// |          Current split capture setting:     Off (optimal)                                                          |
// |                                                                                                                    |
// |   Current clock off simulation setting:     Off (optimal)                                                          |
// | ------------------------------------------------------------------------------------------------------------------ |
//  ------------------------------------------------------------------------
//  Simulation performed for #gates = 20871  #faults = 57979
//  Run fault simulation without storing patterns.  pattern source = 271 external patterns
//  ------------------------------------------------------------------------
//  #patterns  test      #faults  #faults    # eff.    # test         process 
//  simulated  coverage  in list  detected   patterns  patterns       CPU time
//   64         85.32%     8512     49467       64         0          1.47 sec
//   128        87.60%     7187      1325       64         0          1.51 sec
//   192        88.37%     6741       446       62         0          1.53 sec
//   256        88.76%     6518       223       55         0          1.55 sec
//   271        88.82%     6482        36       13         0          1.57 sec
