// | ------------------------------------------------------------------------------------------------------------------ |
// |                                                                                                                    |
// |          Current split capture setting:     Off (optimal)                                                          |
// |                                                                                                                    |
// |   Current clock off simulation setting:     Off (optimal)                                                          |
// | ------------------------------------------------------------------------------------------------------------------ |
//  ------------------------------------------------------------------------
//  Simulation performed for #gates = 20871  #faults = 58013
//  Run fault simulation without storing patterns.  pattern source = 289 external patterns
//  ------------------------------------------------------------------------
//  #patterns  test      #faults  #faults    # eff.    # test         process 
//  simulated  coverage  in list  detected   patterns  patterns       CPU time
//   64         85.43%     8455     49558       64         0          1.51 sec
//   128        87.54%     7230      1225       64         0          1.54 sec
//   192        88.21%     6841       389       62         0          1.57 sec
//   256        88.48%     6685       156       52         0          1.59 sec
//   289        88.60%     6616        69       26         0          1.60 sec
