// | ------------------------------------------------------------------------------------------------------------------ |
// |                                                                                                                    |
// |          Current split capture setting:     Off (optimal)                                                          |
// |                                                                                                                    |
// |   Current clock off simulation setting:     Off (optimal)                                                          |
// | ------------------------------------------------------------------------------------------------------------------ |
//  ------------------------------------------------------------------------
//  Simulation performed for #gates = 20871  #faults = 58096
//  Run fault simulation without storing patterns.  pattern source = 275 external patterns
//  ------------------------------------------------------------------------
//  #patterns  test      #faults  #faults    # eff.    # test         process 
//  simulated  coverage  in list  detected   patterns  patterns       CPU time
//   64         85.98%     8145     49951       64         0          1.54 sec
//   128        88.06%     6934      1211       64         0          1.58 sec
//   192        88.76%     6530       404       64         0          1.60 sec
//   256        89.06%     6357       173       53         0          1.62 sec
//   275        89.10%     6331        26       15         0          1.64 sec
