// | ------------------------------------------------------------------------------------------------------------------ |
// |                                                                                                                    |
// |          Current split capture setting:     Off (optimal)                                                          |
// |                                                                                                                    |
// |   Current clock off simulation setting:     Off (optimal)                                                          |
// | ------------------------------------------------------------------------------------------------------------------ |
//  ------------------------------------------------------------------------
//  Simulation performed for #gates = 20871  #faults = 58156
//  Run fault simulation without storing patterns.  pattern source = 283 external patterns
//  ------------------------------------------------------------------------
//  #patterns  test      #faults  #faults    # eff.    # test         process 
//  simulated  coverage  in list  detected   patterns  patterns       CPU time
//   64         86.08%     8094     50062       64         0          1.51 sec
//   128        88.05%     6947      1147       64         0          1.55 sec
//   192        88.76%     6535       412       59         0          1.57 sec
//   256        89.09%     6345       190       52         0          1.59 sec
//   283        89.19%     6286        59       21         0          1.61 sec
