// | ------------------------------------------------------------------------------------------------------------------ |
// |                                                                                                                    |
// |          Current split capture setting:     Off (optimal)                                                          |
// |                                                                                                                    |
// |   Current clock off simulation setting:     Off (optimal)                                                          |
// | ------------------------------------------------------------------------------------------------------------------ |
//  ------------------------------------------------------------------------
//  Simulation performed for #gates = 20871  #faults = 58028
//  Run fault simulation without storing patterns.  pattern source = 268 external patterns
//  ------------------------------------------------------------------------
//  #patterns  test      #faults  #faults    # eff.    # test         process 
//  simulated  coverage  in list  detected   patterns  patterns       CPU time
//   64         85.83%     8223     49805       64         0          1.47 sec
//   128        87.80%     7080      1143       64         0          1.50 sec
//   192        88.54%     6648       432       61         0          1.53 sec
//   256        88.82%     6488       160       54         0          1.55 sec
//   268        88.86%     6467        21        9         0          1.57 sec
