// | ------------------------------------------------------------------------------------------------------------------ |
// |                                                                                                                    |
// |          Current split capture setting:     Off (optimal)                                                          |
// |                                                                                                                    |
// |   Current clock off simulation setting:     Off (optimal)                                                          |
// | ------------------------------------------------------------------------------------------------------------------ |
//  ------------------------------------------------------------------------
//  Simulation performed for #gates = 20871  #faults = 58013
//  Run fault simulation without storing patterns.  pattern source = 286 external patterns
//  ------------------------------------------------------------------------
//  #patterns  test      #faults  #faults    # eff.    # test         process 
//  simulated  coverage  in list  detected   patterns  patterns       CPU time
//   64         85.48%     8422     49591       64         0          1.48 sec
//   128        87.57%     7213      1209       64         0          1.52 sec
//   192        88.22%     6836       377       61         0          1.54 sec
//   256        88.49%     6680       156       52         0          1.56 sec
//   286        88.58%     6624        56       20         0          1.58 sec
