// | ------------------------------------------------------------------------------------------------------------------ |
// |                                                                                                                    |
// |          Current split capture setting:     Off (optimal)                                                          |
// |                                                                                                                    |
// |   Current clock off simulation setting:     Off (optimal)                                                          |
// | ------------------------------------------------------------------------------------------------------------------ |
//  ------------------------------------------------------------------------
//  Simulation performed for #gates = 20871  #faults = 58801
//  Run fault simulation without storing patterns.  pattern source = 279 external patterns
//  ------------------------------------------------------------------------
//  #patterns  test      #faults  #faults    # eff.    # test         process 
//  simulated  coverage  in list  detected   patterns  patterns       CPU time
//   64         85.57%     8483     50318       64         0          1.68 sec
//   128        87.40%     7411      1072       64         0          1.73 sec
//   192        88.01%     7052       359       62         0          1.75 sec
//   256        88.36%     6845       207       52         0          1.77 sec
//   279        88.43%     6803        42       15         0          1.79 sec
