// | ------------------------------------------------------------------------------------------------------------------ |
// |                                                                                                                    |
// |          Current split capture setting:     Off (optimal)                                                          |
// |                                                                                                                    |
// |   Current clock off simulation setting:     Off (optimal)                                                          |
// | ------------------------------------------------------------------------------------------------------------------ |
//  ------------------------------------------------------------------------
//  Simulation performed for #gates = 20871  #faults = 58173
//  Run fault simulation without storing patterns.  pattern source = 272 external patterns
//  ------------------------------------------------------------------------
//  #patterns  test      #faults  #faults    # eff.    # test         process 
//  simulated  coverage  in list  detected   patterns  patterns       CPU time
//   64         85.76%     8285     49888       64         0          1.48 sec
//   128        87.99%     6984      1301       64         0          1.52 sec
//   192        88.76%     6539       445       63         0          1.54 sec
//   256        89.08%     6354       185       48         0          1.56 sec
//   272        89.15%     6310        44       13         0          1.57 sec
