// | ------------------------------------------------------------------------------------------------------------------ |
// |                                                                                                                    |
// |          Current split capture setting:     Off (optimal)                                                          |
// |                                                                                                                    |
// |   Current clock off simulation setting:     Off (optimal)                                                          |
// | ------------------------------------------------------------------------------------------------------------------ |
//  ------------------------------------------------------------------------
//  Simulation performed for #gates = 20871  #faults = 58218
//  Run fault simulation without storing patterns.  pattern source = 262 external patterns
//  ------------------------------------------------------------------------
//  #patterns  test      #faults  #faults    # eff.    # test         process 
//  simulated  coverage  in list  detected   patterns  patterns       CPU time
//   64         85.87%     8225     49993       64         0          1.44 sec
//   128        87.90%     7046      1179       64         0          1.48 sec
//   192        88.51%     6689       357       58         0          1.50 sec
//   256        88.81%     6516       173       50         0          1.52 sec
//   262        88.82%     6508         8        5         0          1.54 sec
