// | ------------------------------------------------------------------------------------------------------------------ |
// |                                                                                                                    |
// |          Current split capture setting:     Off (optimal)                                                          |
// |                                                                                                                    |
// |   Current clock off simulation setting:     Off (optimal)                                                          |
// | ------------------------------------------------------------------------------------------------------------------ |
//  ------------------------------------------------------------------------
//  Simulation performed for #gates = 20871  #faults = 58107
//  Run fault simulation without storing patterns.  pattern source = 279 external patterns
//  ------------------------------------------------------------------------
//  #patterns  test      #faults  #faults    # eff.    # test         process 
//  simulated  coverage  in list  detected   patterns  patterns       CPU time
//   64         86.00%     8131     49976       64         0          1.53 sec
//   128        88.27%     6812      1319       64         0          1.57 sec
//   192        88.98%     6401       411       63         0          1.59 sec
//   256        89.31%     6205       196       57         0          1.61 sec
//   279        89.38%     6165        40       16         0          1.63 sec
