// | ------------------------------------------------------------------------------------------------------------------ |
// |                                                                                                                    |
// |          Current split capture setting:     Off (optimal)                                                          |
// |                                                                                                                    |
// |   Current clock off simulation setting:     Off (optimal)                                                          |
// | ------------------------------------------------------------------------------------------------------------------ |
//  ------------------------------------------------------------------------
//  Simulation performed for #gates = 20871  #faults = 58677
//  Run fault simulation without storing patterns.  pattern source = 259 external patterns
//  ------------------------------------------------------------------------
//  #patterns  test      #faults  #faults    # eff.    # test         process 
//  simulated  coverage  in list  detected   patterns  patterns       CPU time
//   64         85.74%     8367     50310       64         0          1.61 sec
//   128        87.53%     7318      1049       64         0          1.65 sec
//   192        88.12%     6972       346       56         0          1.67 sec
//   256        88.40%     6806       166       51         0          1.69 sec
//   259        88.42%     6795        11        3         0          1.71 sec
