// | ------------------------------------------------------------------------------------------------------------------ |
// |                                                                                                                    |
// |          Current split capture setting:     Off (optimal)                                                          |
// |                                                                                                                    |
// |   Current clock off simulation setting:     Off (optimal)                                                          |
// | ------------------------------------------------------------------------------------------------------------------ |
//  ------------------------------------------------------------------------
//  Simulation performed for #gates = 20871  #faults = 58798
//  Run fault simulation without storing patterns.  pattern source = 266 external patterns
//  ------------------------------------------------------------------------
//  #patterns  test      #faults  #faults    # eff.    # test         process 
//  simulated  coverage  in list  detected   patterns  patterns       CPU time
//   64         85.08%     8774     50024       64         0          1.63 sec
//   128        87.31%     7459      1315       64         0          1.68 sec
//   192        88.04%     7033       426       64         0          1.70 sec
//   256        88.33%     6863       170       50         0          1.72 sec
//   266        88.38%     6834        29        8         0          1.74 sec
