// | ------------------------------------------------------------------------------------------------------------------ |
// |                                                                                                                    |
// |          Current split capture setting:     Off (optimal)                                                          |
// |                                                                                                                    |
// |   Current clock off simulation setting:     Off (optimal)                                                          |
// | ------------------------------------------------------------------------------------------------------------------ |
//  ------------------------------------------------------------------------
//  Simulation performed for #gates = 20871  #faults = 58305
//  Run fault simulation without storing patterns.  pattern source = 279 external patterns
//  ------------------------------------------------------------------------
//  #patterns  test      #faults  #faults    # eff.    # test         process 
//  simulated  coverage  in list  detected   patterns  patterns       CPU time
//   64         86.23%     8027     50278       64         0          1.50 sec
//   128        88.13%     6923      1104       64         0          1.54 sec
//   192        88.71%     6580       343       60         0          1.56 sec
//   256        88.97%     6430       150       45         0          1.58 sec
//   279        89.05%     6382        48       19         0          1.60 sec
