// | ------------------------------------------------------------------------------------------------------------------ |
// |                                                                                                                    |
// |          Current split capture setting:     Off (optimal)                                                          |
// |                                                                                                                    |
// |   Current clock off simulation setting:     Off (optimal)                                                          |
// | ------------------------------------------------------------------------------------------------------------------ |
//  ------------------------------------------------------------------------
//  Simulation performed for #gates = 20871  #faults = 58173
//  Run fault simulation without storing patterns.  pattern source = 262 external patterns
//  ------------------------------------------------------------------------
//  #patterns  test      #faults  #faults    # eff.    # test         process 
//  simulated  coverage  in list  detected   patterns  patterns       CPU time
//   64         85.89%     8208     49965       64         0          1.49 sec
//   128        88.02%     6968      1240       64         0          1.53 sec
//   192        88.72%     6564       404       63         0          1.55 sec
//   256        89.08%     6352       212       52         0          1.57 sec
//   262        89.11%     6337        15        5         0          1.58 sec
