// | ------------------------------------------------------------------------------------------------------------------ |
// |                                                                                                                    |
// |          Current split capture setting:     Off (optimal)                                                          |
// |                                                                                                                    |
// |   Current clock off simulation setting:     Off (optimal)                                                          |
// | ------------------------------------------------------------------------------------------------------------------ |
//  ------------------------------------------------------------------------
//  Simulation performed for #gates = 20871  #faults = 58132
//  Run fault simulation without storing patterns.  pattern source = 279 external patterns
//  ------------------------------------------------------------------------
//  #patterns  test      #faults  #faults    # eff.    # test         process 
//  simulated  coverage  in list  detected   patterns  patterns       CPU time
//   64         85.52%     8419     49713       64         0          1.48 sec
//   128        87.63%     7190      1229       64         0          1.52 sec
//   192        88.21%     6854       336       58         0          1.54 sec
//   256        88.45%     6713       141       50         0          1.56 sec
//   279        88.55%     6654        59       18         0          1.58 sec
