// | ------------------------------------------------------------------------------------------------------------------ |
// |                                                                                                                    |
// |          Current split capture setting:     Off (optimal)                                                          |
// |                                                                                                                    |
// |   Current clock off simulation setting:     Off (optimal)                                                          |
// | ------------------------------------------------------------------------------------------------------------------ |
//  ------------------------------------------------------------------------
//  Simulation performed for #gates = 20871  #faults = 58096
//  Run fault simulation without storing patterns.  pattern source = 266 external patterns
//  ------------------------------------------------------------------------
//  #patterns  test      #faults  #faults    # eff.    # test         process 
//  simulated  coverage  in list  detected   patterns  patterns       CPU time
//   64         86.17%     8032     50064       64         0          1.49 sec
//   128        88.17%     6872      1160       64         0          1.52 sec
//   192        88.85%     6477       395       64         0          1.54 sec
//   256        89.14%     6310       167       45         0          1.56 sec
//   266        89.15%     6302         8        7         0          1.58 sec
