// | ------------------------------------------------------------------------------------------------------------------ |
// |                                                                                                                    |
// |          Current split capture setting:     Off (optimal)                                                          |
// |                                                                                                                    |
// |   Current clock off simulation setting:     Off (optimal)                                                          |
// | ------------------------------------------------------------------------------------------------------------------ |
//  ------------------------------------------------------------------------
//  Simulation performed for #gates = 20871  #faults = 58796
//  Run fault simulation without storing patterns.  pattern source = 284 external patterns
//  ------------------------------------------------------------------------
//  #patterns  test      #faults  #faults    # eff.    # test         process 
//  simulated  coverage  in list  detected   patterns  patterns       CPU time
//   64         85.46%     8546     50250       64         0          1.62 sec
//   128        87.65%     7259      1287       64         0          1.66 sec
//   192        88.39%     6827       432       62         0          1.69 sec
//   256        88.69%     6649       178       52         0          1.70 sec
//   284        88.76%     6606        43       17         0          1.72 sec
