// | ------------------------------------------------------------------------------------------------------------------ |
// |                                                                                                                    |
// |          Current split capture setting:     Off (optimal)                                                          |
// |                                                                                                                    |
// |   Current clock off simulation setting:     Off (optimal)                                                          |
// | ------------------------------------------------------------------------------------------------------------------ |
//  ------------------------------------------------------------------------
//  Simulation performed for #gates = 20871  #faults = 57979
//  Run fault simulation without storing patterns.  pattern source = 277 external patterns
//  ------------------------------------------------------------------------
//  #patterns  test      #faults  #faults    # eff.    # test         process 
//  simulated  coverage  in list  detected   patterns  patterns       CPU time
//   64         85.64%     8323     49656       64         0          1.46 sec
//   128        87.93%     6997      1326       64         0          1.50 sec
//   192        88.52%     6654       343       64         0          1.52 sec
//   256        88.79%     6498       156       48         0          1.54 sec
//   277        88.85%     6466        32       16         0          1.56 sec
