// | ------------------------------------------------------------------------------------------------------------------ |
// |                                                                                                                    |
// |          Current split capture setting:     Off (optimal)                                                          |
// |                                                                                                                    |
// |   Current clock off simulation setting:     Off (optimal)                                                          |
// | ------------------------------------------------------------------------------------------------------------------ |
//  ------------------------------------------------------------------------
//  Simulation performed for #gates = 20871  #faults = 58152
//  Run fault simulation without storing patterns.  pattern source = 280 external patterns
//  ------------------------------------------------------------------------
//  #patterns  test      #faults  #faults    # eff.    # test         process 
//  simulated  coverage  in list  detected   patterns  patterns       CPU time
//   64         85.99%     8149     50003       64         0          1.50 sec
//   128        87.78%     7104      1045       64         0          1.53 sec
//   192        88.40%     6745       359       59         0          1.56 sec
//   256        88.62%     6616       129       44         0          1.57 sec
//   280        88.71%     6567        49       18         0          1.59 sec
