// | ------------------------------------------------------------------------------------------------------------------ |
// |                                                                                                                    |
// |          Current split capture setting:     Off (optimal)                                                          |
// |                                                                                                                    |
// |   Current clock off simulation setting:     Off (optimal)                                                          |
// | ------------------------------------------------------------------------------------------------------------------ |
//  ------------------------------------------------------------------------
//  Simulation performed for #gates = 20871  #faults = 57844
//  Run fault simulation without storing patterns.  pattern source = 277 external patterns
//  ------------------------------------------------------------------------
//  #patterns  test      #faults  #faults    # eff.    # test         process 
//  simulated  coverage  in list  detected   patterns  patterns       CPU time
//   64         85.40%     8443     49401       64         0          1.48 sec
//   128        87.64%     7148      1295       64         0          1.52 sec
//   192        88.28%     6781       367       60         0          1.55 sec
//   256        88.57%     6609       172       51         0          1.57 sec
//   277        88.63%     6574        35       12         0          1.59 sec
