// | ------------------------------------------------------------------------------------------------------------------ |
// |                                                                                                                    |
// |          Current split capture setting:     Off (optimal)                                                          |
// |                                                                                                                    |
// |   Current clock off simulation setting:     Off (optimal)                                                          |
// | ------------------------------------------------------------------------------------------------------------------ |
//  ------------------------------------------------------------------------
//  Simulation performed for #gates = 20871  #faults = 58068
//  Run fault simulation without storing patterns.  pattern source = 262 external patterns
//  ------------------------------------------------------------------------
//  #patterns  test      #faults  #faults    # eff.    # test         process 
//  simulated  coverage  in list  detected   patterns  patterns       CPU time
//   64         86.20%     8011     50057       64         0          1.52 sec
//   128        88.10%     6908      1103       64         0          1.56 sec
//   192        88.77%     6520       388       62         0          1.58 sec
//   256        89.05%     6358       162       54         0          1.60 sec
//   262        89.08%     6342        16        4         0          1.62 sec
