// | ------------------------------------------------------------------------------------------------------------------ |
// |                                                                                                                    |
// |          Current split capture setting:     Off (optimal)                                                          |
// |                                                                                                                    |
// |   Current clock off simulation setting:     Off (optimal)                                                          |
// | ------------------------------------------------------------------------------------------------------------------ |
//  ------------------------------------------------------------------------
//  Simulation performed for #gates = 20871  #faults = 58376
//  Run fault simulation without storing patterns.  pattern source = 266 external patterns
//  ------------------------------------------------------------------------
//  #patterns  test      #faults  #faults    # eff.    # test         process 
//  simulated  coverage  in list  detected   patterns  patterns       CPU time
//   64         86.27%     8013     50363       64         0          1.55 sec
//   128        88.14%     6926      1087       64         0          1.59 sec
//   192        88.85%     6509       417       61         0          1.61 sec
//   256        89.13%     6347       162       54         0          1.63 sec
//   266        89.14%     6338         9        6         0          1.64 sec
