// | ------------------------------------------------------------------------------------------------------------------ |
// |                                                                                                                    |
// |          Current split capture setting:     Off (optimal)                                                          |
// |                                                                                                                    |
// |   Current clock off simulation setting:     Off (optimal)                                                          |
// | ------------------------------------------------------------------------------------------------------------------ |
//  ------------------------------------------------------------------------
//  Simulation performed for #gates = 20871  #faults = 58224
//  Run fault simulation without storing patterns.  pattern source = 266 external patterns
//  ------------------------------------------------------------------------
//  #patterns  test      #faults  #faults    # eff.    # test         process 
//  simulated  coverage  in list  detected   patterns  patterns       CPU time
//   64         85.55%     8415     49809       64         0          1.47 sec
//   128        87.58%     7233      1182       64         0          1.51 sec
//   192        88.38%     6768       465       62         0          1.53 sec
//   256        88.65%     6609       159       54         0          1.55 sec
//   266        88.68%     6589        20       10         0          1.57 sec
