// | ------------------------------------------------------------------------------------------------------------------ |
// |                                                                                                                    |
// |          Current split capture setting:     Off (optimal)                                                          |
// |                                                                                                                    |
// |   Current clock off simulation setting:     Off (optimal)                                                          |
// | ------------------------------------------------------------------------------------------------------------------ |
//  ------------------------------------------------------------------------
//  Simulation performed for #gates = 20871  #faults = 58812
//  Run fault simulation without storing patterns.  pattern source = 254 external patterns
//  ------------------------------------------------------------------------
//  #patterns  test      #faults  #faults    # eff.    # test         process 
//  simulated  coverage  in list  detected   patterns  patterns       CPU time
//   64         86.07%     8195     50617       64         0          1.66 sec
//   128        88.11%     6991      1204       64         0          1.70 sec
//   192        88.75%     6615       376       61         0          1.72 sec
//   254        89.03%     6449       166       54         0          1.74 sec
