// | ------------------------------------------------------------------------------------------------------------------ |
// |                                                                                                                    |
// |          Current split capture setting:     Off (optimal)                                                          |
// |                                                                                                                    |
// |   Current clock off simulation setting:     Off (optimal)                                                          |
// | ------------------------------------------------------------------------------------------------------------------ |
//  ------------------------------------------------------------------------
//  Simulation performed for #gates = 20871  #faults = 58873
//  Run fault simulation without storing patterns.  pattern source = 280 external patterns
//  ------------------------------------------------------------------------
//  #patterns  test      #faults  #faults    # eff.    # test         process 
//  simulated  coverage  in list  detected   patterns  patterns       CPU time
//   64         85.69%     8426     50447       64         0          1.64 sec
//   128        87.78%     7197      1229       64         0          1.68 sec
//   192        88.44%     6805       392       61         0          1.71 sec
//   256        88.78%     6608       197       52         0          1.73 sec
//   280        88.86%     6556        52       21         0          1.75 sec
