// | ------------------------------------------------------------------------------------------------------------------ |
// |                                                                                                                    |
// |          Current split capture setting:     Off (optimal)                                                          |
// |                                                                                                                    |
// |   Current clock off simulation setting:     Off (optimal)                                                          |
// | ------------------------------------------------------------------------------------------------------------------ |
//  ------------------------------------------------------------------------
//  Simulation performed for #gates = 20871  #faults = 58305
//  Run fault simulation without storing patterns.  pattern source = 283 external patterns
//  ------------------------------------------------------------------------
//  #patterns  test      #faults  #faults    # eff.    # test         process 
//  simulated  coverage  in list  detected   patterns  patterns       CPU time
//   64         86.03%     8143     50162       64         0          1.50 sec
//   128        88.06%     6960      1183       64         0          1.53 sec
//   192        88.60%     6644       316       61         0          1.55 sec
//   256        88.91%     6464       180       56         0          1.57 sec
//   283        88.98%     6428        36       21         0          1.59 sec
