// | ------------------------------------------------------------------------------------------------------------------ |
// |                                                                                                                    |
// |          Current split capture setting:     Off (optimal)                                                          |
// |                                                                                                                    |
// |   Current clock off simulation setting:     Off (optimal)                                                          |
// | ------------------------------------------------------------------------------------------------------------------ |
//  ------------------------------------------------------------------------
//  Simulation performed for #gates = 20871  #faults = 57911
//  Run fault simulation without storing patterns.  pattern source = 279 external patterns
//  ------------------------------------------------------------------------
//  #patterns  test      #faults  #faults    # eff.    # test         process 
//  simulated  coverage  in list  detected   patterns  patterns       CPU time
//   64         85.18%     8582     49329       64         0          1.41 sec
//   128        87.32%     7344      1238       64         0          1.44 sec
//   192        87.95%     6976       368       60         0          1.47 sec
//   256        88.29%     6784       192       52         0          1.49 sec
//   279        88.38%     6731        53       18         0          1.51 sec
