// | ------------------------------------------------------------------------------------------------------------------ |
// |                                                                                                                    |
// |          Current split capture setting:     Off (optimal)                                                          |
// |                                                                                                                    |
// |   Current clock off simulation setting:     Off (optimal)                                                          |
// | ------------------------------------------------------------------------------------------------------------------ |
//  ------------------------------------------------------------------------
//  Simulation performed for #gates = 20871  #faults = 58798
//  Run fault simulation without storing patterns.  pattern source = 280 external patterns
//  ------------------------------------------------------------------------
//  #patterns  test      #faults  #faults    # eff.    # test         process 
//  simulated  coverage  in list  detected   patterns  patterns       CPU time
//   64         85.19%     8706     50092       64         0          1.66 sec
//   128        87.31%     7460      1246       64         0          1.70 sec
//   192        88.04%     7032       428       60         0          1.72 sec
//   256        88.29%     6887       145       47         0          1.74 sec
//   280        88.38%     6832        55       19         0          1.76 sec
