// | ------------------------------------------------------------------------------------------------------------------ |
// |                                                                                                                    |
// |          Current split capture setting:     Off (optimal)                                                          |
// |                                                                                                                    |
// |   Current clock off simulation setting:     Off (optimal)                                                          |
// | ------------------------------------------------------------------------------------------------------------------ |
//  ------------------------------------------------------------------------
//  Simulation performed for #gates = 20871  #faults = 58796
//  Run fault simulation without storing patterns.  pattern source = 247 external patterns
//  ------------------------------------------------------------------------
//  #patterns  test      #faults  #faults    # eff.    # test         process 
//  simulated  coverage  in list  detected   patterns  patterns       CPU time
//   64         85.66%     8432     50364       64         0          1.64 sec
//   128        87.81%     7169      1263       64         0          1.68 sec
//   192        88.55%     6733       436       62         0          1.70 sec
//   247        88.77%     6603       130       46         0          1.72 sec
