// | ------------------------------------------------------------------------------------------------------------------ |
// |                                                                                                                    |
// |          Current split capture setting:     Off (optimal)                                                          |
// |                                                                                                                    |
// |   Current clock off simulation setting:     Off (optimal)                                                          |
// | ------------------------------------------------------------------------------------------------------------------ |
//  ------------------------------------------------------------------------
//  Simulation performed for #gates = 20871  #faults = 58864
//  Run fault simulation without storing patterns.  pattern source = 283 external patterns
//  ------------------------------------------------------------------------
//  #patterns  test      #faults  #faults    # eff.    # test         process 
//  simulated  coverage  in list  detected   patterns  patterns       CPU time
//   64         86.22%     8111     50753       64         0          1.65 sec
//   128        88.09%     7011      1100       64         0          1.69 sec
//   192        88.64%     6686       325       61         0          1.71 sec
//   256        88.89%     6541       145       48         0          1.73 sec
//   283        88.96%     6501        40       17         0          1.75 sec
