// | ------------------------------------------------------------------------------------------------------------------ |
// |                                                                                                                    |
// |          Current split capture setting:     Off (optimal)                                                          |
// |                                                                                                                    |
// |   Current clock off simulation setting:     Off (optimal)                                                          |
// | ------------------------------------------------------------------------------------------------------------------ |
//  ------------------------------------------------------------------------
//  Simulation performed for #gates = 20871  #faults = 58603
//  Run fault simulation without storing patterns.  pattern source = 260 external patterns
//  ------------------------------------------------------------------------
//  #patterns  test      #faults  #faults    # eff.    # test         process 
//  simulated  coverage  in list  detected   patterns  patterns       CPU time
//   64         86.39%     7976     50627       64         0          1.63 sec
//   128        88.21%     6907      1069       64         0          1.66 sec
//   192        88.80%     6561       346       61         0          1.68 sec
//   256        89.08%     6397       164       49         0          1.70 sec
//   260        89.09%     6394         3        2         0          1.72 sec
