// | ------------------------------------------------------------------------------------------------------------------ |
// |                                                                                                                    |
// |          Current split capture setting:     Off (optimal)                                                          |
// |                                                                                                                    |
// |   Current clock off simulation setting:     Off (optimal)                                                          |
// | ------------------------------------------------------------------------------------------------------------------ |
//  ------------------------------------------------------------------------
//  Simulation performed for #gates = 20871  #faults = 57844
//  Run fault simulation without storing patterns.  pattern source = 251 external patterns
//  ------------------------------------------------------------------------
//  #patterns  test      #faults  #faults    # eff.    # test         process 
//  simulated  coverage  in list  detected   patterns  patterns       CPU time
//   64         85.67%     8288     49556       64         0          1.49 sec
//   128        87.76%     7079      1209       64         0          1.53 sec
//   192        88.39%     6713       366       62         0          1.55 sec
//   251        88.62%     6580       133       41         0          1.57 sec
