// | ------------------------------------------------------------------------------------------------------------------ |
// |                                                                                                                    |
// |          Current split capture setting:     Off (optimal)                                                          |
// |                                                                                                                    |
// |   Current clock off simulation setting:     Off (optimal)                                                          |
// | ------------------------------------------------------------------------------------------------------------------ |
//  ------------------------------------------------------------------------
//  Simulation performed for #gates = 20871  #faults = 58812
//  Run fault simulation without storing patterns.  pattern source = 291 external patterns
//  ------------------------------------------------------------------------
//  #patterns  test      #faults  #faults    # eff.    # test         process 
//  simulated  coverage  in list  detected   patterns  patterns       CPU time
//   64         86.02%     8223     50589       64         0          1.65 sec
//   128        87.96%     7082      1141       64         0          1.69 sec
//   192        88.61%     6700       382       60         0          1.72 sec
//   256        88.90%     6529       171       52         0          1.74 sec
//   291        88.98%     6481        48       20         0          1.76 sec
