// | ------------------------------------------------------------------------------------------------------------------ |
// |                                                                                                                    |
// |          Current split capture setting:     Off (optimal)                                                          |
// |                                                                                                                    |
// |   Current clock off simulation setting:     Off (optimal)                                                          |
// | ------------------------------------------------------------------------------------------------------------------ |
//  ------------------------------------------------------------------------
//  Simulation performed for #gates = 20871  #faults = 58903
//  Run fault simulation without storing patterns.  pattern source = 271 external patterns
//  ------------------------------------------------------------------------
//  #patterns  test      #faults  #faults    # eff.    # test         process 
//  simulated  coverage  in list  detected   patterns  patterns       CPU time
//   64         85.36%     8622     50281       64         0          1.58 sec
//   128        87.58%     7318      1304       64         0          1.62 sec
//   192        88.28%     6905       413       60         0          1.64 sec
//   256        88.60%     6714       191       59         0          1.66 sec
//   271        88.66%     6682        32       12         0          1.68 sec
