// | ------------------------------------------------------------------------------------------------------------------ |
// |                                                                                                                    |
// |          Current split capture setting:     Off (optimal)                                                          |
// |                                                                                                                    |
// |   Current clock off simulation setting:     Off (optimal)                                                          |
// | ------------------------------------------------------------------------------------------------------------------ |
//  ------------------------------------------------------------------------
//  Simulation performed for #gates = 20871  #faults = 57979
//  Run fault simulation without storing patterns.  pattern source = 273 external patterns
//  ------------------------------------------------------------------------
//  #patterns  test      #faults  #faults    # eff.    # test         process 
//  simulated  coverage  in list  detected   patterns  patterns       CPU time
//   64         85.67%     8306     49673       64         0          1.47 sec
//   128        87.78%     7085      1221       64         0          1.50 sec
//   192        88.40%     6724       361       61         0          1.53 sec
//   256        88.70%     6554       170       54         0          1.55 sec
//   273        88.75%     6521        33       12         0          1.56 sec
