// | ------------------------------------------------------------------------------------------------------------------ |
// |                                                                                                                    |
// |          Current split capture setting:     Off (optimal)                                                          |
// |                                                                                                                    |
// |   Current clock off simulation setting:     Off (optimal)                                                          |
// | ------------------------------------------------------------------------------------------------------------------ |
//  ------------------------------------------------------------------------
//  Simulation performed for #gates = 20871  #faults = 58932
//  Run fault simulation without storing patterns.  pattern source = 273 external patterns
//  ------------------------------------------------------------------------
//  #patterns  test      #faults  #faults    # eff.    # test         process 
//  simulated  coverage  in list  detected   patterns  patterns       CPU time
//   64         85.45%     8577     50355       64         0          1.63 sec
//   128        87.55%     7339      1238       64         0          1.67 sec
//   192        88.32%     6883       456       64         0          1.69 sec
//   256        88.67%     6676       207       54         0          1.71 sec
//   273        88.73%     6642        34       15         0          1.72 sec
