// | ------------------------------------------------------------------------------------------------------------------ |
// |                                                                                                                    |
// |          Current split capture setting:     Off (optimal)                                                          |
// |                                                                                                                    |
// |   Current clock off simulation setting:     Off (optimal)                                                          |
// | ------------------------------------------------------------------------------------------------------------------ |
//  ------------------------------------------------------------------------
//  Simulation performed for #gates = 20871  #faults = 58137
//  Run fault simulation without storing patterns.  pattern source = 251 external patterns
//  ------------------------------------------------------------------------
//  #patterns  test      #faults  #faults    # eff.    # test         process 
//  simulated  coverage  in list  detected   patterns  patterns       CPU time
//   64         85.44%     8462     49675       64         0          1.48 sec
//   128        87.53%     7250      1212       64         0          1.52 sec
//   192        88.35%     6771       479       61         0          1.55 sec
//   251        88.75%     6543       228       47         0          1.57 sec
