// | ------------------------------------------------------------------------------------------------------------------ |
// |                                                                                                                    |
// |          Current split capture setting:     Off (optimal)                                                          |
// |                                                                                                                    |
// |   Current clock off simulation setting:     Off (optimal)                                                          |
// | ------------------------------------------------------------------------------------------------------------------ |
//  ------------------------------------------------------------------------
//  Simulation performed for #gates = 20871  #faults = 58733
//  Run fault simulation without storing patterns.  pattern source = 273 external patterns
//  ------------------------------------------------------------------------
//  #patterns  test      #faults  #faults    # eff.    # test         process 
//  simulated  coverage  in list  detected   patterns  patterns       CPU time
//   64         85.98%     8234     50499       64         0          1.62 sec
//   128        87.85%     7134      1100       64         0          1.66 sec
//   192        88.55%     6722       412       61         0          1.68 sec
//   256        88.82%     6569       153       47         0          1.70 sec
//   273        88.86%     6542        27       10         0          1.72 sec
