// | ------------------------------------------------------------------------------------------------------------------ |
// |                                                                                                                    |
// |          Current split capture setting:     Off (optimal)                                                          |
// |                                                                                                                    |
// |   Current clock off simulation setting:     Off (optimal)                                                          |
// | ------------------------------------------------------------------------------------------------------------------ |
//  ------------------------------------------------------------------------
//  Simulation performed for #gates = 20871  #faults = 58767
//  Run fault simulation without storing patterns.  pattern source = 260 external patterns
//  ------------------------------------------------------------------------
//  #patterns  test      #faults  #faults    # eff.    # test         process 
//  simulated  coverage  in list  detected   patterns  patterns       CPU time
//   64         86.16%     8136     50631       64         0          1.67 sec
//   128        87.97%     7068      1068       64         0          1.70 sec
//   192        88.54%     6735       333       53         0          1.73 sec
//   256        88.77%     6601       134       45         0          1.74 sec
//   260        88.77%     6597         4        1         0          1.76 sec
