// | ------------------------------------------------------------------------------------------------------------------ |
// |                                                                                                                    |
// |          Current split capture setting:     Off (optimal)                                                          |
// |                                                                                                                    |
// |   Current clock off simulation setting:     Off (optimal)                                                          |
// | ------------------------------------------------------------------------------------------------------------------ |
//  ------------------------------------------------------------------------
//  Simulation performed for #gates = 20871  #faults = 57975
//  Run fault simulation without storing patterns.  pattern source = 280 external patterns
//  ------------------------------------------------------------------------
//  #patterns  test      #faults  #faults    # eff.    # test         process 
//  simulated  coverage  in list  detected   patterns  patterns       CPU time
//   64         85.70%     8291     49684       64         0          1.45 sec
//   128        87.55%     7217      1074       64         0          1.49 sec
//   192        88.24%     6818       399       59         0          1.51 sec
//   256        88.52%     6658       160       46         0          1.53 sec
//   280        88.57%     6628        30       16         0          1.54 sec
