// | ------------------------------------------------------------------------------------------------------------------ |
// |                                                                                                                    |
// |          Current split capture setting:     Off (optimal)                                                          |
// |                                                                                                                    |
// |   Current clock off simulation setting:     Off (optimal)                                                          |
// | ------------------------------------------------------------------------------------------------------------------ |
//  ------------------------------------------------------------------------
//  Simulation performed for #gates = 20871  #faults = 58223
//  Run fault simulation without storing patterns.  pattern source = 264 external patterns
//  ------------------------------------------------------------------------
//  #patterns  test      #faults  #faults    # eff.    # test         process 
//  simulated  coverage  in list  detected   patterns  patterns       CPU time
//   64         85.59%     8388     49835       64         0          1.46 sec
//   128        87.74%     7137      1251       63         0          1.49 sec
//   192        88.47%     6711       426       62         0          1.52 sec
//   256        88.81%     6518       193       52         0          1.54 sec
//   264        88.86%     6488        30        8         0          1.56 sec
