// | ------------------------------------------------------------------------------------------------------------------ |
// |                                                                                                                    |
// |          Current split capture setting:     Off (optimal)                                                          |
// |                                                                                                                    |
// |   Current clock off simulation setting:     Off (optimal)                                                          |
// | ------------------------------------------------------------------------------------------------------------------ |
//  ------------------------------------------------------------------------
//  Simulation performed for #gates = 20871  #faults = 57904
//  Run fault simulation without storing patterns.  pattern source = 279 external patterns
//  ------------------------------------------------------------------------
//  #patterns  test      #faults  #faults    # eff.    # test         process 
//  simulated  coverage  in list  detected   patterns  patterns       CPU time
//   64         86.35%     7902     50002       64         0          1.46 sec
//   128        88.39%     6725      1177       64         0          1.49 sec
//   192        89.05%     6338       387       63         0          1.52 sec
//   256        89.37%     6158       180       50         0          1.53 sec
//   279        89.47%     6100        58       19         0          1.55 sec
