// | ------------------------------------------------------------------------------------------------------------------ |
// |                                                                                                                    |
// |          Current split capture setting:     Off (optimal)                                                          |
// |                                                                                                                    |
// |   Current clock off simulation setting:     Off (optimal)                                                          |
// | ------------------------------------------------------------------------------------------------------------------ |
//  ------------------------------------------------------------------------
//  Simulation performed for #gates = 20871  #faults = 58376
//  Run fault simulation without storing patterns.  pattern source = 286 external patterns
//  ------------------------------------------------------------------------
//  #patterns  test      #faults  #faults    # eff.    # test         process 
//  simulated  coverage  in list  detected   patterns  patterns       CPU time
//   64         85.94%     8206     50170       64         0          1.56 sec
//   128        88.07%     6963      1243       64         0          1.59 sec
//   192        88.73%     6577       386       61         0          1.61 sec
//   256        89.06%     6389       188       53         0          1.63 sec
//   286        89.13%     6346        43       20         0          1.65 sec
