// | ------------------------------------------------------------------------------------------------------------------ |
// |                                                                                                                    |
// |          Current split capture setting:     Off (optimal)                                                          |
// |                                                                                                                    |
// |   Current clock off simulation setting:     Off (optimal)                                                          |
// | ------------------------------------------------------------------------------------------------------------------ |
//  ------------------------------------------------------------------------
//  Simulation performed for #gates = 20871  #faults = 58839
//  Run fault simulation without storing patterns.  pattern source = 279 external patterns
//  ------------------------------------------------------------------------
//  #patterns  test      #faults  #faults    # eff.    # test         process 
//  simulated  coverage  in list  detected   patterns  patterns       CPU time
//   64         85.93%     8278     50561       64         0          1.64 sec
//   128        87.74%     7214      1064       64         0          1.67 sec
//   192        88.40%     6827       387       62         0          1.70 sec
//   256        88.67%     6665       162       52         0          1.71 sec
//   279        88.78%     6604        61       17         0          1.73 sec
