// | ------------------------------------------------------------------------------------------------------------------ |
// |                                                                                                                    |
// |          Current split capture setting:     Off (optimal)                                                          |
// |                                                                                                                    |
// |   Current clock off simulation setting:     Off (optimal)                                                          |
// | ------------------------------------------------------------------------------------------------------------------ |
//  ------------------------------------------------------------------------
//  Simulation performed for #gates = 20871  #faults = 58743
//  Run fault simulation without storing patterns.  pattern source = 260 external patterns
//  ------------------------------------------------------------------------
//  #patterns  test      #faults  #faults    # eff.    # test         process 
//  simulated  coverage  in list  detected   patterns  patterns       CPU time
//   64         85.80%     8344     50399       64         0          1.63 sec
//   128        87.72%     7214      1130       64         0          1.67 sec
//   192        88.39%     6823       391       58         0          1.69 sec
//   256        88.69%     6642       181       48         0          1.71 sec
//   260        88.71%     6634         8        4         0          1.73 sec
