// | ------------------------------------------------------------------------------------------------------------------ |
// |                                                                                                                    |
// |          Current split capture setting:     Off (optimal)                                                          |
// |                                                                                                                    |
// |   Current clock off simulation setting:     Off (optimal)                                                          |
// | ------------------------------------------------------------------------------------------------------------------ |
//  ------------------------------------------------------------------------
//  Simulation performed for #gates = 20871  #faults = 58093
//  Run fault simulation without storing patterns.  pattern source = 262 external patterns
//  ------------------------------------------------------------------------
//  #patterns  test      #faults  #faults    # eff.    # test         process 
//  simulated  coverage  in list  detected   patterns  patterns       CPU time
//   64         85.99%     8138     49955       64         0          1.54 sec
//   128        87.81%     7084      1054       64         0          1.57 sec
//   192        88.42%     6726       358       60         0          1.60 sec
//   256        88.68%     6578       148       51         0          1.62 sec
//   262        88.69%     6568        10        4         0          1.63 sec
