// | ------------------------------------------------------------------------------------------------------------------ |
// |                                                                                                                    |
// |          Current split capture setting:     Off (optimal)                                                          |
// |                                                                                                                    |
// |   Current clock off simulation setting:     Off (optimal)                                                          |
// | ------------------------------------------------------------------------------------------------------------------ |
//  ------------------------------------------------------------------------
//  Simulation performed for #gates = 20871  #faults = 58017
//  Run fault simulation without storing patterns.  pattern source = 297 external patterns
//  ------------------------------------------------------------------------
//  #patterns  test      #faults  #faults    # eff.    # test         process 
//  simulated  coverage  in list  detected   patterns  patterns       CPU time
//   64         86.46%     7855     50162       64         0          1.45 sec
//   128        88.55%     6642      1213       64         0          1.49 sec
//   192        89.13%     6305       337       61         0          1.51 sec
//   256        89.39%     6158       147       48         0          1.53 sec
//   297        89.50%     6090        68       27         0          1.54 sec
