// | ------------------------------------------------------------------------------------------------------------------ |
// |                                                                                                                    |
// |          Current split capture setting:     Off (optimal)                                                          |
// |                                                                                                                    |
// |   Current clock off simulation setting:     Off (optimal)                                                          |
// | ------------------------------------------------------------------------------------------------------------------ |
//  ------------------------------------------------------------------------
//  Simulation performed for #gates = 20871  #faults = 59032
//  Run fault simulation without storing patterns.  pattern source = 297 external patterns
//  ------------------------------------------------------------------------
//  #patterns  test      #faults  #faults    # eff.    # test         process 
//  simulated  coverage  in list  detected   patterns  patterns       CPU time
//   64         85.62%     8487     50545       64         0          1.66 sec
//   128        87.44%     7414      1073       64         0          1.71 sec
//   192        88.15%     6995       419       63         0          1.73 sec
//   256        88.44%     6826       169       53         0          1.75 sec
//   297        88.61%     6726       100       28         0          1.77 sec
