// | ------------------------------------------------------------------------------------------------------------------ |
// |                                                                                                                    |
// |          Current split capture setting:     Off (optimal)                                                          |
// |                                                                                                                    |
// |   Current clock off simulation setting:     Off (optimal)                                                          |
// | ------------------------------------------------------------------------------------------------------------------ |
//  ------------------------------------------------------------------------
//  Simulation performed for #gates = 20871  #faults = 58881
//  Run fault simulation without storing patterns.  pattern source = 269 external patterns
//  ------------------------------------------------------------------------
//  #patterns  test      #faults  #faults    # eff.    # test         process 
//  simulated  coverage  in list  detected   patterns  patterns       CPU time
//   64         85.53%     8518     50363       64         0          1.67 sec
//   128        87.48%     7374      1144       64         0          1.71 sec
//   192        88.08%     7019       355       61         0          1.73 sec
//   256        88.38%     6840       179       57         0          1.75 sec
//   269        88.43%     6811        29       10         0          1.77 sec
