// | ------------------------------------------------------------------------------------------------------------------ |
// |                                                                                                                    |
// |          Current split capture setting:     Off (optimal)                                                          |
// |                                                                                                                    |
// |   Current clock off simulation setting:     Off (optimal)                                                          |
// | ------------------------------------------------------------------------------------------------------------------ |
//  ------------------------------------------------------------------------
//  Simulation performed for #gates = 20871  #faults = 57911
//  Run fault simulation without storing patterns.  pattern source = 279 external patterns
//  ------------------------------------------------------------------------
//  #patterns  test      #faults  #faults    # eff.    # test         process 
//  simulated  coverage  in list  detected   patterns  patterns       CPU time
//   64         85.50%     8398     49513       64         0          1.41 sec
//   128        87.29%     7361      1037       63         0          1.45 sec
//   192        87.95%     6979       382       63         0          1.48 sec
//   256        88.26%     6796       183       55         0          1.50 sec
//   279        88.34%     6752        44       16         0          1.51 sec
