// | ------------------------------------------------------------------------------------------------------------------ |
// |                                                                                                                    |
// |          Current split capture setting:     Off (optimal)                                                          |
// |                                                                                                                    |
// |   Current clock off simulation setting:     Off (optimal)                                                          |
// | ------------------------------------------------------------------------------------------------------------------ |
//  ------------------------------------------------------------------------
//  Simulation performed for #gates = 20871  #faults = 58153
//  Run fault simulation without storing patterns.  pattern source = 268 external patterns
//  ------------------------------------------------------------------------
//  #patterns  test      #faults  #faults    # eff.    # test         process 
//  simulated  coverage  in list  detected   patterns  patterns       CPU time
//   64         86.19%     8029     50124       64         0          1.51 sec
//   128        88.34%     6778      1251       64         0          1.54 sec
//   192        89.10%     6340       438       62         0          1.56 sec
//   256        89.43%     6146       194       53         0          1.58 sec
//   268        89.48%     6117        29        9         0          1.60 sec
