// | ------------------------------------------------------------------------------------------------------------------ |
// |                                                                                                                    |
// |          Current split capture setting:     Off (optimal)                                                          |
// |                                                                                                                    |
// |   Current clock off simulation setting:     Off (optimal)                                                          |
// | ------------------------------------------------------------------------------------------------------------------ |
//  ------------------------------------------------------------------------
//  Simulation performed for #gates = 20871  #faults = 58223
//  Run fault simulation without storing patterns.  pattern source = 258 external patterns
//  ------------------------------------------------------------------------
//  #patterns  test      #faults  #faults    # eff.    # test         process 
//  simulated  coverage  in list  detected   patterns  patterns       CPU time
//   64         85.89%     8216     50007       64         0          1.47 sec
//   128        88.05%     6956      1260       64         0          1.51 sec
//   192        88.65%     6609       347       58         0          1.53 sec
//   256        88.98%     6415       194       54         0          1.55 sec
//   258        88.99%     6412         3        2         0          1.56 sec
