// | ------------------------------------------------------------------------------------------------------------------ |
// |                                                                                                                    |
// |          Current split capture setting:     Off (optimal)                                                          |
// |                                                                                                                    |
// |   Current clock off simulation setting:     Off (optimal)                                                          |
// | ------------------------------------------------------------------------------------------------------------------ |
//  ------------------------------------------------------------------------
//  Simulation performed for #gates = 20871  #faults = 58889
//  Run fault simulation without storing patterns.  pattern source = 262 external patterns
//  ------------------------------------------------------------------------
//  #patterns  test      #faults  #faults    # eff.    # test         process 
//  simulated  coverage  in list  detected   patterns  patterns       CPU time
//   64         85.70%     8420     50469       64         0          1.60 sec
//   128        87.79%     7192      1228       64         0          1.64 sec
//   192        88.44%     6805       387       62         0          1.66 sec
//   256        88.79%     6601       204       57         0          1.68 sec
//   262        88.81%     6592         9        5         0          1.70 sec
