// | ------------------------------------------------------------------------------------------------------------------ |
// |                                                                                                                    |
// |          Current split capture setting:     Off (optimal)                                                          |
// |                                                                                                                    |
// |   Current clock off simulation setting:     Off (optimal)                                                          |
// | ------------------------------------------------------------------------------------------------------------------ |
//  ------------------------------------------------------------------------
//  Simulation performed for #gates = 20871  #faults = 58743
//  Run fault simulation without storing patterns.  pattern source = 255 external patterns
//  ------------------------------------------------------------------------
//  #patterns  test      #faults  #faults    # eff.    # test         process 
//  simulated  coverage  in list  detected   patterns  patterns       CPU time
//   64         86.07%     8180     50563       64         0          1.63 sec
//   128        88.00%     7049      1131       64         0          1.67 sec
//   192        88.55%     6724       325       58         0          1.69 sec
//   255        88.85%     6548       176       52         0          1.71 sec
