// | ------------------------------------------------------------------------------------------------------------------ |
// |                                                                                                                    |
// |          Current split capture setting:     Off (optimal)                                                          |
// |                                                                                                                    |
// |   Current clock off simulation setting:     Off (optimal)                                                          |
// | ------------------------------------------------------------------------------------------------------------------ |
//  ------------------------------------------------------------------------
//  Simulation performed for #gates = 20871  #faults = 58132
//  Run fault simulation without storing patterns.  pattern source = 283 external patterns
//  ------------------------------------------------------------------------
//  #patterns  test      #faults  #faults    # eff.    # test         process 
//  simulated  coverage  in list  detected   patterns  patterns       CPU time
//   64         85.28%     8559     49573       64         0          1.49 sec
//   128        87.52%     7255      1304       64         0          1.53 sec
//   192        88.22%     6850       405       61         0          1.55 sec
//   256        88.53%     6670       180       57         0          1.57 sec
//   283        88.58%     6637        33       19         0          1.59 sec
