// | ------------------------------------------------------------------------------------------------------------------ |
// |                                                                                                                    |
// |          Current split capture setting:     Off (optimal)                                                          |
// |                                                                                                                    |
// |   Current clock off simulation setting:     Off (optimal)                                                          |
// | ------------------------------------------------------------------------------------------------------------------ |
//  ------------------------------------------------------------------------
//  Simulation performed for #gates = 20871  #faults = 58889
//  Run fault simulation without storing patterns.  pattern source = 254 external patterns
//  ------------------------------------------------------------------------
//  #patterns  test      #faults  #faults    # eff.    # test         process 
//  simulated  coverage  in list  detected   patterns  patterns       CPU time
//   64         85.57%     8497     50392       64         0          1.64 sec
//   128        87.64%     7277      1220       64         0          1.68 sec
//   192        88.41%     6825       452       62         0          1.71 sec
//   254        88.71%     6649       176       52         0          1.73 sec
