// | ------------------------------------------------------------------------------------------------------------------ |
// |                                                                                                                    |
// |          Current split capture setting:     Off (optimal)                                                          |
// |                                                                                                                    |
// |   Current clock off simulation setting:     Off (optimal)                                                          |
// | ------------------------------------------------------------------------------------------------------------------ |
//  ------------------------------------------------------------------------
//  Simulation performed for #gates = 20871  #faults = 57990
//  Run fault simulation without storing patterns.  pattern source = 258 external patterns
//  ------------------------------------------------------------------------
//  #patterns  test      #faults  #faults    # eff.    # test         process 
//  simulated  coverage  in list  detected   patterns  patterns       CPU time
//   64         86.35%     7917     50073       64         0          1.48 sec
//   128        88.24%     6821      1096       64         0          1.51 sec
//   192        88.90%     6437       384       63         0          1.54 sec
//   256        89.27%     6220       217       54         0          1.56 sec
//   258        89.29%     6211         9        2         0          1.57 sec
