// | ------------------------------------------------------------------------------------------------------------------ |
// |                                                                                                                    |
// |          Current split capture setting:     Off (optimal)                                                          |
// |                                                                                                                    |
// |   Current clock off simulation setting:     Off (optimal)                                                          |
// | ------------------------------------------------------------------------------------------------------------------ |
//  ------------------------------------------------------------------------
//  Simulation performed for #gates = 20871  #faults = 58168
//  Run fault simulation without storing patterns.  pattern source = 280 external patterns
//  ------------------------------------------------------------------------
//  #patterns  test      #faults  #faults    # eff.    # test         process 
//  simulated  coverage  in list  detected   patterns  patterns       CPU time
//   64         85.40%     8494     49674       64         0          1.47 sec
//   128        87.56%     7234      1260       64         0          1.51 sec
//   192        88.24%     6843       391       62         0          1.53 sec
//   256        88.51%     6682       161       49         0          1.55 sec
//   280        88.61%     6625        57       19         0          1.56 sec
