// | ------------------------------------------------------------------------------------------------------------------ |
// |                                                                                                                    |
// |          Current split capture setting:     Off (optimal)                                                          |
// |                                                                                                                    |
// |   Current clock off simulation setting:     Off (optimal)                                                          |
// | ------------------------------------------------------------------------------------------------------------------ |
//  ------------------------------------------------------------------------
//  Simulation performed for #gates = 20871  #faults = 57773
//  Run fault simulation without storing patterns.  pattern source = 268 external patterns
//  ------------------------------------------------------------------------
//  #patterns  test      #faults  #faults    # eff.    # test         process 
//  simulated  coverage  in list  detected   patterns  patterns       CPU time
//   64         85.38%     8449     49324       64         0          1.47 sec
//   128        87.28%     7351      1098       64         0          1.50 sec
//   192        87.96%     6954       397       60         0          1.52 sec
//   256        88.27%     6778       176       51         0          1.54 sec
//   268        88.29%     6765        13        5         0          1.56 sec
