// | ------------------------------------------------------------------------------------------------------------------ |
// |                                                                                                                    |
// |          Current split capture setting:     Off (optimal)                                                          |
// |                                                                                                                    |
// |   Current clock off simulation setting:     Off (optimal)                                                          |
// | ------------------------------------------------------------------------------------------------------------------ |
//  ------------------------------------------------------------------------
//  Simulation performed for #gates = 20871  #faults = 58223
//  Run fault simulation without storing patterns.  pattern source = 261 external patterns
//  ------------------------------------------------------------------------
//  #patterns  test      #faults  #faults    # eff.    # test         process 
//  simulated  coverage  in list  detected   patterns  patterns       CPU time
//   64         85.98%     8165     50058       64         0          1.47 sec
//   128        88.01%     6983      1182       64         0          1.50 sec
//   192        88.66%     6603       380       61         0          1.52 sec
//   256        88.94%     6442       161       55         0          1.54 sec
//   261        88.95%     6436         6        4         0          1.56 sec
