// | ------------------------------------------------------------------------------------------------------------------ |
// |                                                                                                                    |
// |          Current split capture setting:     Off (optimal)                                                          |
// |                                                                                                                    |
// |   Current clock off simulation setting:     Off (optimal)                                                          |
// | ------------------------------------------------------------------------------------------------------------------ |
//  ------------------------------------------------------------------------
//  Simulation performed for #gates = 20871  #faults = 58218
//  Run fault simulation without storing patterns.  pattern source = 259 external patterns
//  ------------------------------------------------------------------------
//  #patterns  test      #faults  #faults    # eff.    # test         process 
//  simulated  coverage  in list  detected   patterns  patterns       CPU time
//   64         85.59%     8387     49831       64         0          1.45 sec
//   128        87.80%     7103      1284       64         0          1.48 sec
//   192        88.42%     6739       364       62         0          1.51 sec
//   256        88.74%     6557       182       53         0          1.53 sec
//   259        88.75%     6552         5        2         0          1.54 sec
