// | ------------------------------------------------------------------------------------------------------------------ |
// |                                                                                                                    |
// |          Current split capture setting:     Off (optimal)                                                          |
// |                                                                                                                    |
// |   Current clock off simulation setting:     Off (optimal)                                                          |
// | ------------------------------------------------------------------------------------------------------------------ |
//  ------------------------------------------------------------------------
//  Simulation performed for #gates = 20871  #faults = 58846
//  Run fault simulation without storing patterns.  pattern source = 243 external patterns
//  ------------------------------------------------------------------------
//  #patterns  test      #faults  #faults    # eff.    # test         process 
//  simulated  coverage  in list  detected   patterns  patterns       CPU time
//   64         85.21%     8703     50143       64         0          1.64 sec
//   128        87.26%     7499      1204       64         0          1.68 sec
//   192        87.87%     7139       360       59         0          1.70 sec
//   243        88.15%     6973       166       48         0          1.72 sec
