// | ------------------------------------------------------------------------------------------------------------------ |
// |                                                                                                                    |
// |          Current split capture setting:     Off (optimal)                                                          |
// |                                                                                                                    |
// |   Current clock off simulation setting:     Off (optimal)                                                          |
// | ------------------------------------------------------------------------------------------------------------------ |
//  ------------------------------------------------------------------------
//  Simulation performed for #gates = 20871  #faults = 58130
//  Run fault simulation without storing patterns.  pattern source = 264 external patterns
//  ------------------------------------------------------------------------
//  #patterns  test      #faults  #faults    # eff.    # test         process 
//  simulated  coverage  in list  detected   patterns  patterns       CPU time
//   64         85.62%     8360     49770       64         0          1.49 sec
//   128        87.74%     7127      1233       64         0          1.53 sec
//   192        88.45%     6712       415       63         0          1.55 sec
//   256        88.83%     6496       216       51         0          1.57 sec
//   264        88.85%     6479        17        6         0          1.59 sec
