// | ------------------------------------------------------------------------------------------------------------------ |
// |                                                                                                                    |
// |          Current split capture setting:     Off (optimal)                                                          |
// |                                                                                                                    |
// |   Current clock off simulation setting:     Off (optimal)                                                          |
// | ------------------------------------------------------------------------------------------------------------------ |
//  ------------------------------------------------------------------------
//  Simulation performed for #gates = 20871  #faults = 58767
//  Run fault simulation without storing patterns.  pattern source = 273 external patterns
//  ------------------------------------------------------------------------
//  #patterns  test      #faults  #faults    # eff.    # test         process 
//  simulated  coverage  in list  detected   patterns  patterns       CPU time
//   64         85.81%     8339     50428       64         0          1.67 sec
//   128        87.78%     7179      1160       64         0          1.70 sec
//   192        88.47%     6776       403       61         0          1.73 sec
//   256        88.77%     6601       175       52         0          1.74 sec
//   273        88.82%     6569        32       13         0          1.76 sec
