// | ------------------------------------------------------------------------------------------------------------------ |
// |                                                                                                                    |
// |          Current split capture setting:     Off (optimal)                                                          |
// |                                                                                                                    |
// |   Current clock off simulation setting:     Off (optimal)                                                          |
// | ------------------------------------------------------------------------------------------------------------------ |
//  ------------------------------------------------------------------------
//  Simulation performed for #gates = 20871  #faults = 58873
//  Run fault simulation without storing patterns.  pattern source = 279 external patterns
//  ------------------------------------------------------------------------
//  #patterns  test      #faults  #faults    # eff.    # test         process 
//  simulated  coverage  in list  detected   patterns  patterns       CPU time
//   64         85.95%     8274     50599       64         0          1.65 sec
//   128        87.88%     7137      1137       64         0          1.69 sec
//   192        88.50%     6769       368       61         0          1.71 sec
//   256        88.82%     6581       188       55         0          1.73 sec
//   279        88.88%     6546        35       16         0          1.75 sec
