// | ------------------------------------------------------------------------------------------------------------------ |
// |                                                                                                                    |
// |          Current split capture setting:     Off (optimal)                                                          |
// |                                                                                                                    |
// |   Current clock off simulation setting:     Off (optimal)                                                          |
// | ------------------------------------------------------------------------------------------------------------------ |
//  ------------------------------------------------------------------------
//  Simulation performed for #gates = 20871  #faults = 58861
//  Run fault simulation without storing patterns.  pattern source = 289 external patterns
//  ------------------------------------------------------------------------
//  #patterns  test      #faults  #faults    # eff.    # test         process 
//  simulated  coverage  in list  detected   patterns  patterns       CPU time
//   64         85.49%     8540     50321       64         0          1.64 sec
//   128        87.72%     7230      1310       64         0          1.68 sec
//   192        88.42%     6816       414       61         0          1.71 sec
//   256        88.72%     6639       177       53         0          1.73 sec
//   289        88.80%     6595        44       22         0          1.74 sec
