// | ------------------------------------------------------------------------------------------------------------------ |
// |                                                                                                                    |
// |          Current split capture setting:     Off (optimal)                                                          |
// |                                                                                                                    |
// |   Current clock off simulation setting:     Off (optimal)                                                          |
// | ------------------------------------------------------------------------------------------------------------------ |
//  ------------------------------------------------------------------------
//  Simulation performed for #gates = 20871  #faults = 58153
//  Run fault simulation without storing patterns.  pattern source = 283 external patterns
//  ------------------------------------------------------------------------
//  #patterns  test      #faults  #faults    # eff.    # test         process 
//  simulated  coverage  in list  detected   patterns  patterns       CPU time
//   64         86.20%     8027     50126       64         0          1.49 sec
//   128        88.44%     6723      1304       64         0          1.53 sec
//   192        89.16%     6302       421       61         0          1.55 sec
//   256        89.51%     6100       202       58         0          1.57 sec
//   283        89.64%     6027        73       24         0          1.58 sec
