// | ------------------------------------------------------------------------------------------------------------------ |
// |                                                                                                                    |
// |          Current split capture setting:     Off (optimal)                                                          |
// |                                                                                                                    |
// |   Current clock off simulation setting:     Off (optimal)                                                          |
// | ------------------------------------------------------------------------------------------------------------------ |
//  ------------------------------------------------------------------------
//  Simulation performed for #gates = 20871  #faults = 58699
//  Run fault simulation without storing patterns.  pattern source = 264 external patterns
//  ------------------------------------------------------------------------
//  #patterns  test      #faults  #faults    # eff.    # test         process 
//  simulated  coverage  in list  detected   patterns  patterns       CPU time
//   64         85.72%     8382     50317       64         0          1.60 sec
//   128        87.93%     7086      1296       64         0          1.63 sec
//   192        88.52%     6740       346       63         0          1.66 sec
//   256        88.77%     6589       151       52         0          1.67 sec
//   264        88.80%     6575        14        8         0          1.69 sec
