// | ------------------------------------------------------------------------------------------------------------------ |
// |                                                                                                                    |
// |          Current split capture setting:     Off (optimal)                                                          |
// |                                                                                                                    |
// |   Current clock off simulation setting:     Off (optimal)                                                          |
// | ------------------------------------------------------------------------------------------------------------------ |
//  ------------------------------------------------------------------------
//  Simulation performed for #gates = 20871  #faults = 58718
//  Run fault simulation without storing patterns.  pattern source = 263 external patterns
//  ------------------------------------------------------------------------
//  #patterns  test      #faults  #faults    # eff.    # test         process 
//  simulated  coverage  in list  detected   patterns  patterns       CPU time
//   64         86.12%     8151     50567       64         0          1.60 sec
//   128        88.09%     6993      1158       64         0          1.64 sec
//   192        88.74%     6614       379       60         0          1.66 sec
//   256        88.97%     6478       136       48         0          1.68 sec
//   263        89.00%     6461        17        7         0          1.70 sec
