// | ------------------------------------------------------------------------------------------------------------------ |
// |                                                                                                                    |
// |          Current split capture setting:     Off (optimal)                                                          |
// |                                                                                                                    |
// |   Current clock off simulation setting:     Off (optimal)                                                          |
// | ------------------------------------------------------------------------------------------------------------------ |
//  ------------------------------------------------------------------------
//  Simulation performed for #gates = 20871  #faults = 59032
//  Run fault simulation without storing patterns.  pattern source = 247 external patterns
//  ------------------------------------------------------------------------
//  #patterns  test      #faults  #faults    # eff.    # test         process 
//  simulated  coverage  in list  detected   patterns  patterns       CPU time
//   64         85.99%     8273     50759       64         0          1.67 sec
//   128        87.81%     7198      1075       64         0          1.71 sec
//   192        88.39%     6852       346       60         0          1.73 sec
//   247        88.61%     6721       131       40         0          1.75 sec
