// | ------------------------------------------------------------------------------------------------------------------ |
// |                                                                                                                    |
// |          Current split capture setting:     Off (optimal)                                                          |
// |                                                                                                                    |
// |   Current clock off simulation setting:     Off (optimal)                                                          |
// | ------------------------------------------------------------------------------------------------------------------ |
//  ------------------------------------------------------------------------
//  Simulation performed for #gates = 20871  #faults = 58903
//  Run fault simulation without storing patterns.  pattern source = 269 external patterns
//  ------------------------------------------------------------------------
//  #patterns  test      #faults  #faults    # eff.    # test         process 
//  simulated  coverage  in list  detected   patterns  patterns       CPU time
//   64         85.42%     8588     50315       64         0          1.59 sec
//   128        87.44%     7399      1189       64         0          1.63 sec
//   192        88.18%     6963       436       63         0          1.65 sec
//   256        88.47%     6793       170       56         0          1.67 sec
//   269        88.53%     6754        39       11         0          1.69 sec
