// | ------------------------------------------------------------------------------------------------------------------ |
// |                                                                                                                    |
// |          Current split capture setting:     Off (optimal)                                                          |
// |                                                                                                                    |
// |   Current clock off simulation setting:     Off (optimal)                                                          |
// | ------------------------------------------------------------------------------------------------------------------ |
//  ------------------------------------------------------------------------
//  Simulation performed for #gates = 20871  #faults = 57844
//  Run fault simulation without storing patterns.  pattern source = 271 external patterns
//  ------------------------------------------------------------------------
//  #patterns  test      #faults  #faults    # eff.    # test         process 
//  simulated  coverage  in list  detected   patterns  patterns       CPU time
//   64         85.65%     8302     49542       64         0          1.53 sec
//   128        87.74%     7090      1212       64         0          1.57 sec
//   192        88.37%     6727       363       59         0          1.59 sec
//   256        88.64%     6572       155       49         0          1.61 sec
//   271        88.69%     6542        30       10         0          1.63 sec
