// | ------------------------------------------------------------------------------------------------------------------ |
// |                                                                                                                    |
// |          Current split capture setting:     Off (optimal)                                                          |
// |                                                                                                                    |
// |   Current clock off simulation setting:     Off (optimal)                                                          |
// | ------------------------------------------------------------------------------------------------------------------ |
//  ------------------------------------------------------------------------
//  Simulation performed for #gates = 20871  #faults = 58603
//  Run fault simulation without storing patterns.  pattern source = 286 external patterns
//  ------------------------------------------------------------------------
//  #patterns  test      #faults  #faults    # eff.    # test         process 
//  simulated  coverage  in list  detected   patterns  patterns       CPU time
//   64         86.04%     8183     50420       64         0          1.59 sec
//   128        88.23%     6900      1283       64         0          1.63 sec
//   192        88.86%     6528       372       60         0          1.65 sec
//   256        89.14%     6365       163       54         0          1.67 sec
//   286        89.23%     6313        52       21         0          1.69 sec
