// | ------------------------------------------------------------------------------------------------------------------ |
// |                                                                                                                    |
// |          Current split capture setting:     Off (optimal)                                                          |
// |                                                                                                                    |
// |   Current clock off simulation setting:     Off (optimal)                                                          |
// | ------------------------------------------------------------------------------------------------------------------ |
//  ------------------------------------------------------------------------
//  Simulation performed for #gates = 20871  #faults = 57904
//  Run fault simulation without storing patterns.  pattern source = 243 external patterns
//  ------------------------------------------------------------------------
//  #patterns  test      #faults  #faults    # eff.    # test         process 
//  simulated  coverage  in list  detected   patterns  patterns       CPU time
//   64         86.25%     7959     49945       64         0          1.44 sec
//   128        88.41%     6713      1246       64         0          1.48 sec
//   192        89.04%     6345       368       62         0          1.50 sec
//   243        89.32%     6186       159       44         0          1.52 sec
