          Statistics Report          
           Stuck-at Faults           
-------------------------------------
Fault Classes              #faults   
                           (coll.)   
---------------------  --------------
  FU (full)                 3574     
  -------------------  --------------
  DS (det_simulation)   2957 (82.74%)
  TI (tied)               37 ( 1.04%)
  BL (blocked)            39 ( 1.09%)
  RE (redundant)         541 (15.14%)
-------------------------------------
Coverage                             
  -------------------                
  test_coverage              100.00% 
  fault_coverage              82.74% 
  atpg_effectiveness         100.00% 
-------------------------------------
#test_patterns                   124 
#simulated_patterns              126 
CPU_time (secs)                  1.9 
-------------------------------------

