// | ------------------------------------------------------------------------------------------------------------------ |
// |                                                                                                                    |
// |          Current split capture setting:     Off (optimal)                                                          |
// |                                                                                                                    |
// |   Current clock off simulation setting:     Off (optimal)                                                          |
// | ------------------------------------------------------------------------------------------------------------------ |
//  ------------------------------------------------------------------------
//  Simulation performed for #gates = 1112  #faults = 2577
//  Run fault simulation without storing patterns.  pattern source = 204 external patterns
//  ------------------------------------------------------------------------
//  #patterns  test      #faults  #faults    # eff.    # test         process 
//  simulated  coverage  in list  detected   patterns  patterns       CPU time
//   64         54.06%     1184      1393       55         0          0.01 sec
//   128        57.39%     1098        86       21         0          0.02 sec
//   192        60.15%     1027        71       20         0          0.02 sec
//   204        60.30%     1023         4        2         0          0.02 sec
