// | ------------------------------------------------------------------------------------------------------------------ |
// |                                                                                                                    |
// |          Current split capture setting:     Off (optimal)                                                          |
// |                                                                                                                    |
// |   Current clock off simulation setting:     Off (optimal)                                                          |
// | ------------------------------------------------------------------------------------------------------------------ |
//  ------------------------------------------------------------------------
//  Simulation performed for #gates = 15830  #faults = 32628
//  Run fault simulation without storing patterns.  pattern source = 164 external patterns
//  ------------------------------------------------------------------------
//  #patterns  test      #faults  #faults    # eff.    # test         process 
//  simulated  coverage  in list  detected   patterns  patterns       CPU time
//   64         70.57%     9601     23027       63         0          0.17 sec
//   128        74.66%     8268      1333       49         0          0.22 sec
//   164        75.87%     7874       394       30         0          0.25 sec
