// | ------------------------------------------------------------------------------------------------------------------ |
// |                                                                                                                    |
// |          Current split capture setting:     Off (optimal)                                                          |
// |                                                                                                                    |
// |   Current clock off simulation setting:     Off (optimal)                                                          |
// | ------------------------------------------------------------------------------------------------------------------ |
//  ------------------------------------------------------------------------
//  Simulation performed for #gates = 15830  #faults = 32646
//  Run fault simulation without storing patterns.  pattern source = 159 external patterns
//  ------------------------------------------------------------------------
//  #patterns  test      #faults  #faults    # eff.    # test         process 
//  simulated  coverage  in list  detected   patterns  patterns       CPU time
//   64         72.06%     9122     23524       64         0          0.17 sec
//   128        74.77%     8237       885       46         0          0.21 sec
//   159        75.81%     7897       340       26         0          0.25 sec
