//  command: set_current_design c3540
//  Warning: 1 case: Unused net in DFT library model
//  Note: Issue set_current_design with the -show_elaboration_warnings option to see more details about previous warnings
//  command: set_system_mode analysis
//  Flattening process completed,  design_cells=1039  leaf_cells=1039  library_primitives=1039  sim_gates=1112  PIs=50  POs=22  CPU time=0.00 sec.
//  ---------------------------------------------------------------------------
//  Begin circuit learning analyses.
//  --------------------------------
//  Learning completed, CPU time=0.01 sec.
//  ---------------------------------------------------------------------------
//  Begin scan chain identification process, memory elements = 0.
//  ---------------------------------------------------------------------------
//  Circuit has no memory elements.
//  command: add_faults -all
//  command: set_fault_mode collapsed
//  command: set_fault_type stuck
//  command: read_patterns /home/animesh/currentResearch/ISI/atpg_structural/code/dumpData/tessent/iscas85/c3540_synth/thirtyPercent/c3540_synth_thirtyPercent_32.spf
//  Reading STIL input file "/home/animesh/currentResearch/ISI/atpg_structural/code/dumpData/tessent/iscas85/c3540_synth/thirtyPercent/c3540_synth_thirtyPercent_32.spf"
//  command: simulate_patterns > /home/animesh/currentResearch/ISI/atpg_structural/code/dumpData/tessent/iscas85/c3540_synth/bin_2/simulateLogFile_c3540_synth_thirtyPercent_5_c3540_synth_thirtyPercent_32.atpg.result
//  command: exit 
