// | ------------------------------------------------------------------------------------------------------------------ |
// |                                                                                                                    |
// |          Current split capture setting:     Off (optimal)                                                          |
// |                                                                                                                    |
// |   Current clock off simulation setting:     Off (optimal)                                                          |
// | ------------------------------------------------------------------------------------------------------------------ |
//  ------------------------------------------------------------------------
//  Simulation performed for #gates = 20077  #faults = 34952
//  Run fault simulation without storing patterns.  pattern source = 246 external patterns
//  ------------------------------------------------------------------------
//  #patterns  test      #faults  #faults    # eff.    # test         process 
//  simulated  coverage  in list  detected   patterns  patterns       CPU time
//   64         50.92%    17153     17799       64         0          0.35 sec
//   128        54.65%    15851      1302       63         0          0.42 sec
//   192        56.60%    15169       682       58         0          0.49 sec
//   246        57.42%    14883       286       46         0          0.55 sec
