          Statistics Report          
           Stuck-at Faults           
-------------------------------------
Fault Classes              #faults   
                           (coll.)   
---------------------  --------------
  FU (full)                 1556     
  -------------------  --------------
  DS (det_simulation)    827 (53.15%)
  TI (tied)                8 ( 0.51%)
  RE (redundant)         721 (46.34%)
-------------------------------------
Coverage                             
  -------------------                
  test_coverage              100.00% 
  fault_coverage              53.15% 
  atpg_effectiveness         100.00% 
-------------------------------------
#test_patterns                    91 
#simulated_patterns              100 
CPU_time (secs)                  1.5 
-------------------------------------

