          Statistics Report          
           Stuck-at Faults           
-------------------------------------
Fault Classes              #faults   
                           (coll.)   
---------------------  --------------
  FU (full)                 1556     
  -------------------  --------------
  DS (det_simulation)    837 (53.79%)
  TI (tied)               26 ( 1.67%)
  BL (blocked)            23 ( 1.48%)
  RE (redundant)         670 (43.06%)
-------------------------------------
Coverage                             
  -------------------                
  test_coverage              100.00% 
  fault_coverage              53.79% 
  atpg_effectiveness         100.00% 
-------------------------------------
#test_patterns                    98 
#simulated_patterns              109 
CPU_time (secs)                  1.5 
-------------------------------------

