           Statistics Report          
            Stuck-at Faults           
--------------------------------------
Fault Classes               #faults   
                            (coll.)   
----------------------  --------------
  FU (full)                  59756    
  --------------------  --------------
  UO (unobserved)          26 ( 0.04%)
  DS (det_simulation)   50563 (84.62%)
  TI (tied)               984 ( 1.65%)
  BL (blocked)            662 ( 1.11%)
  RE (redundant)         7492 (12.54%)
  AU (atpg_untestable)     29 ( 0.05%)
--------------------------------------
Fault Sub-classes                     
  --------------------                
  UC+UO                               
    AAB  (atpg_abort)      26 ( 0.04%)
--------------------------------------
Coverage                              
  --------------------                
  test_coverage                99.89% 
  fault_coverage               84.62% 
  atpg_effectiveness           99.96% 
--------------------------------------
#test_patterns                    289 
#simulated_patterns               308 
CPU_time (secs)                  39.5 
--------------------------------------

