           Statistics Report          
            Stuck-at Faults           
--------------------------------------
Fault Classes               #faults   
                            (coll.)   
----------------------  --------------
  FU (full)                  59756    
  --------------------  --------------
  UO (unobserved)          19 ( 0.03%)
  DS (det_simulation)   50755 (84.94%)
  TI (tied)              1005 ( 1.68%)
  BL (blocked)            544 ( 0.91%)
  RE (redundant)         7424 (12.42%)
  AU (atpg_untestable)      9 ( 0.02%)
--------------------------------------
Fault Sub-classes                     
  --------------------                
  UC+UO                               
    AAB  (atpg_abort)      19 ( 0.03%)
--------------------------------------
Coverage                              
  --------------------                
  test_coverage                99.94% 
  fault_coverage               84.94% 
  atpg_effectiveness           99.97% 
--------------------------------------
#test_patterns                    290 
#simulated_patterns               304 
CPU_time (secs)                  35.4 
--------------------------------------

