// | ------------------------------------------------------------------------------------------------------------------ |
// |                                                                                                                    |
// |          Current split capture setting:     Off (optimal)                                                          |
// |                                                                                                                    |
// |   Current clock off simulation setting:     Off (optimal)                                                          |
// | ------------------------------------------------------------------------------------------------------------------ |
//  ------------------------------------------------------------------------
//  Simulation performed for #gates = 4839  #faults = 13491
//  Run fault simulation without storing patterns.  pattern source = 228 external patterns
//  ------------------------------------------------------------------------
//  #patterns  test      #faults  #faults    # eff.    # test         process 
//  simulated  coverage  in list  detected   patterns  patterns       CPU time
//   64         63.49%     4925      8566       63         0          0.43 sec
//   128        66.17%     4564       361       40         0          0.45 sec
//   192        66.98%     4455       109       28         0          0.46 sec
//   228        67.42%     4396        59       17         0          0.47 sec
