// | ------------------------------------------------------------------------------------------------------------------ |
// |                                                                                                                    |
// |          Current split capture setting:     Off (optimal)                                                          |
// |                                                                                                                    |
// |   Current clock off simulation setting:     Off (optimal)                                                          |
// | ------------------------------------------------------------------------------------------------------------------ |
//  ------------------------------------------------------------------------
//  Simulation performed for #gates = 4839  #faults = 13642
//  Run fault simulation without storing patterns.  pattern source = 231 external patterns
//  ------------------------------------------------------------------------
//  #patterns  test      #faults  #faults    # eff.    # test         process 
//  simulated  coverage  in list  detected   patterns  patterns       CPU time
//   64         58.67%     5638      8004       59         0          0.39 sec
//   128        61.21%     5292       346       34         0          0.41 sec
//   192        62.31%     5141       151       25         0          0.42 sec
//   231        62.75%     5081        60       13         0          0.44 sec
