// | ------------------------------------------------------------------------------------------------------------------ |
// |                                                                                                                    |
// |          Current split capture setting:     Off (optimal)                                                          |
// |                                                                                                                    |
// |   Current clock off simulation setting:     Off (optimal)                                                          |
// | ------------------------------------------------------------------------------------------------------------------ |
//  ------------------------------------------------------------------------
//  Simulation performed for #gates = 4839  #faults = 13545
//  Run fault simulation without storing patterns.  pattern source = 209 external patterns
//  ------------------------------------------------------------------------
//  #patterns  test      #faults  #faults    # eff.    # test         process 
//  simulated  coverage  in list  detected   patterns  patterns       CPU time
//   64         66.30%     4565      8980       64         0          0.50 sec
//   128        69.56%     4123       442       49         0          0.52 sec
//   192        70.18%     4039        84       26         0          0.53 sec
//   209        70.35%     4016        23        6         0          0.54 sec
