// | ------------------------------------------------------------------------------------------------------------------ |
// |                                                                                                                    |
// |          Current split capture setting:     Off (optimal)                                                          |
// |                                                                                                                    |
// |   Current clock off simulation setting:     Off (optimal)                                                          |
// | ------------------------------------------------------------------------------------------------------------------ |
//  ------------------------------------------------------------------------
//  Simulation performed for #gates = 4839  #faults = 12394
//  Run fault simulation without storing patterns.  pattern source = 228 external patterns
//  ------------------------------------------------------------------------
//  #patterns  test      #faults  #faults    # eff.    # test         process 
//  simulated  coverage  in list  detected   patterns  patterns       CPU time
//   64         69.90%     3731      8663       62         0          0.44 sec
//   128        73.12%     3331       400       42         0          0.45 sec
//   192        74.57%     3152       179       29         0          0.47 sec
//   228        75.51%     3035       117       21         0          0.48 sec
