// | ------------------------------------------------------------------------------------------------------------------ |
// |                                                                                                                    |
// |          Current split capture setting:     Off (optimal)                                                          |
// |                                                                                                                    |
// |   Current clock off simulation setting:     Off (optimal)                                                          |
// | ------------------------------------------------------------------------------------------------------------------ |
//  ------------------------------------------------------------------------
//  Simulation performed for #gates = 4839  #faults = 13393
//  Run fault simulation without storing patterns.  pattern source = 205 external patterns
//  ------------------------------------------------------------------------
//  #patterns  test      #faults  #faults    # eff.    # test         process 
//  simulated  coverage  in list  detected   patterns  patterns       CPU time
//   64         62.67%     5000      8393       63         0          0.42 sec
//   128        66.30%     4514       486       50         0          0.44 sec
//   192        67.45%     4360       154       32         0          0.46 sec
//   205        67.95%     4293        67        8         0          0.46 sec
