// | ------------------------------------------------------------------------------------------------------------------ |
// |                                                                                                                    |
// |          Current split capture setting:     Off (optimal)                                                          |
// |                                                                                                                    |
// |   Current clock off simulation setting:     Off (optimal)                                                          |
// | ------------------------------------------------------------------------------------------------------------------ |
//  ------------------------------------------------------------------------
//  Simulation performed for #gates = 4839  #faults = 13491
//  Run fault simulation without storing patterns.  pattern source = 221 external patterns
//  ------------------------------------------------------------------------
//  #patterns  test      #faults  #faults    # eff.    # test         process 
//  simulated  coverage  in list  detected   patterns  patterns       CPU time
//   64         62.70%     5032      8459       63         0          0.40 sec
//   128        65.69%     4629       403       45         0          0.42 sec
//   192        67.00%     4452       177       35         0          0.43 sec
//   221        67.36%     4404        48       11         0          0.44 sec
