// | ------------------------------------------------------------------------------------------------------------------ |
// |                                                                                                                    |
// |          Current split capture setting:     Off (optimal)                                                          |
// |                                                                                                                    |
// |   Current clock off simulation setting:     Off (optimal)                                                          |
// | ------------------------------------------------------------------------------------------------------------------ |
//  ------------------------------------------------------------------------
//  Simulation performed for #gates = 4839  #faults = 13411
//  Run fault simulation without storing patterns.  pattern source = 228 external patterns
//  ------------------------------------------------------------------------
//  #patterns  test      #faults  #faults    # eff.    # test         process 
//  simulated  coverage  in list  detected   patterns  patterns       CPU time
//   64         60.14%     5346      8065       62         0          0.37 sec
//   128        63.02%     4959       387       34         0          0.40 sec
//   192        64.57%     4751       208       31         0          0.41 sec
//   228        64.75%     4727        24        7         0          0.42 sec
