// | ------------------------------------------------------------------------------------------------------------------ |
// |                                                                                                                    |
// |          Current split capture setting:     Off (optimal)                                                          |
// |                                                                                                                    |
// |   Current clock off simulation setting:     Off (optimal)                                                          |
// | ------------------------------------------------------------------------------------------------------------------ |
//  ------------------------------------------------------------------------
//  Simulation performed for #gates = 4839  #faults = 13597
//  Run fault simulation without storing patterns.  pattern source = 231 external patterns
//  ------------------------------------------------------------------------
//  #patterns  test      #faults  #faults    # eff.    # test         process 
//  simulated  coverage  in list  detected   patterns  patterns       CPU time
//   64         62.95%     5038      8559       63         0          0.43 sec
//   128        66.73%     4524       514       51         0          0.46 sec
//   192        68.04%     4345       179       33         0          0.47 sec
//   231        68.79%     4244       101       15         0          0.49 sec
