// | ------------------------------------------------------------------------------------------------------------------ |
// |                                                                                                                    |
// |          Current split capture setting:     Off (optimal)                                                          |
// |                                                                                                                    |
// |   Current clock off simulation setting:     Off (optimal)                                                          |
// | ------------------------------------------------------------------------------------------------------------------ |
//  ------------------------------------------------------------------------
//  Simulation performed for #gates = 4839  #faults = 13588
//  Run fault simulation without storing patterns.  pattern source = 214 external patterns
//  ------------------------------------------------------------------------
//  #patterns  test      #faults  #faults    # eff.    # test         process 
//  simulated  coverage  in list  detected   patterns  patterns       CPU time
//   64         67.02%     4482      9106       63         0          0.49 sec
//   128        69.02%     4209       273       40         0          0.51 sec
//   192        70.16%     4054       155       26         0          0.52 sec
//   214        70.48%     4011        43        5         0          0.53 sec
