// | ------------------------------------------------------------------------------------------------------------------ |
// |                                                                                                                    |
// |          Current split capture setting:     Off (optimal)                                                          |
// |                                                                                                                    |
// |   Current clock off simulation setting:     Off (optimal)                                                          |
// | ------------------------------------------------------------------------------------------------------------------ |
//  ------------------------------------------------------------------------
//  Simulation performed for #gates = 4839  #faults = 13543
//  Run fault simulation without storing patterns.  pattern source = 197 external patterns
//  ------------------------------------------------------------------------
//  #patterns  test      #faults  #faults    # eff.    # test         process 
//  simulated  coverage  in list  detected   patterns  patterns       CPU time
//   64         61.46%     5220      8323       63         0          0.40 sec
//   128        64.58%     4797       423       44         0          0.42 sec
//   192        65.39%     4687       110       27         0          0.43 sec
//   197        65.84%     4626        61        4         0          0.44 sec
