// | ------------------------------------------------------------------------------------------------------------------ |
// |                                                                                                                    |
// |          Current split capture setting:     Off (optimal)                                                          |
// |                                                                                                                    |
// |   Current clock off simulation setting:     Off (optimal)                                                          |
// | ------------------------------------------------------------------------------------------------------------------ |
//  ------------------------------------------------------------------------
//  Simulation performed for #gates = 4839  #faults = 13457
//  Run fault simulation without storing patterns.  pattern source = 209 external patterns
//  ------------------------------------------------------------------------
//  #patterns  test      #faults  #faults    # eff.    # test         process 
//  simulated  coverage  in list  detected   patterns  patterns       CPU time
//   64         64.11%     4830      8627       59         0          0.43 sec
//   128        66.18%     4551       279       47         0          0.45 sec
//   192        67.09%     4429       122       25         0          0.46 sec
//   209        67.28%     4403        26        8         0          0.47 sec
