// | ------------------------------------------------------------------------------------------------------------------ |
// |                                                                                                                    |
// |          Current split capture setting:     Off (optimal)                                                          |
// |                                                                                                                    |
// |   Current clock off simulation setting:     Off (optimal)                                                          |
// | ------------------------------------------------------------------------------------------------------------------ |
//  ------------------------------------------------------------------------
//  Simulation performed for #gates = 4839  #faults = 13619
//  Run fault simulation without storing patterns.  pattern source = 208 external patterns
//  ------------------------------------------------------------------------
//  #patterns  test      #faults  #faults    # eff.    # test         process 
//  simulated  coverage  in list  detected   patterns  patterns       CPU time
//   64         63.59%     4958      8661       64         0          0.43 sec
//   128        66.60%     4549       409       39         0          0.45 sec
//   192        67.95%     4365       184       27         0          0.47 sec
//   208        68.05%     4351        14        3         0          0.48 sec
