           Statistics Report          
            Stuck-at Faults           
--------------------------------------
Fault Classes               #faults   
                            (coll.)   
----------------------  --------------
  FU (full)                  15054    
  --------------------  --------------
  UO (unobserved)           3 ( 0.02%)
  DS (det_simulation)    7552 (50.17%)
  UU (unused)               4 ( 0.03%)
  TI (tied)               528 ( 3.51%)
  BL (blocked)           1349 ( 8.96%)
  RE (redundant)         5610 (37.27%)
  AU (atpg_untestable)      8 ( 0.05%)
--------------------------------------
Fault Sub-classes                     
  --------------------                
  UC+UO                               
    AAB  (atpg_abort)       3 ( 0.02%)
--------------------------------------
Coverage                              
  --------------------                
  test_coverage                99.85% 
  fault_coverage               50.17% 
  atpg_effectiveness           99.98% 
--------------------------------------
#test_patterns                    178 
#simulated_patterns               204 
CPU_time (secs)                   8.2 
--------------------------------------

