// | ------------------------------------------------------------------------------------------------------------------ |
// |                                                                                                                    |
// |          Current split capture setting:     Off (optimal)                                                          |
// |                                                                                                                    |
// |   Current clock off simulation setting:     Off (optimal)                                                          |
// | ------------------------------------------------------------------------------------------------------------------ |
//  ------------------------------------------------------------------------
//  Simulation performed for #gates = 12864  #faults = 25984
//  Run fault simulation without storing patterns.  pattern source = 758 external patterns
//  ------------------------------------------------------------------------
//  #patterns  test      #faults  #faults    # eff.    # test         process 
//  simulated  coverage  in list  detected   patterns  patterns       CPU time
//   64         16.20%    21774      4210       63         0          0.14 sec
//   128        17.98%    21313       461       57         0          0.20 sec
//   192        18.71%    21123       190       47         0          0.26 sec
//   256        19.25%    20982       141       44         0          0.32 sec
//   320        19.59%    20894        88       34         0          0.38 sec
//   384        19.83%    20832        62       27         0          0.43 sec
//   448        20.05%    20775        57       24         0          0.49 sec
//   512        20.20%    20734        41       20         0          0.54 sec
//   576        20.30%    20708        26       13         0          0.60 sec
//   640        20.39%    20685        23       11         0          0.65 sec
//   704        20.51%    20654        31       13         0          0.71 sec
//   758        20.58%    20637        17        8         0          0.76 sec
