// | ------------------------------------------------------------------------------------------------------------------ |
// |                                                                                                                    |
// |          Current split capture setting:     Off (optimal)                                                          |
// |                                                                                                                    |
// |   Current clock off simulation setting:     Off (optimal)                                                          |
// | ------------------------------------------------------------------------------------------------------------------ |
//  ------------------------------------------------------------------------
//  Simulation performed for #gates = 12864  #faults = 25984
//  Run fault simulation without storing patterns.  pattern source = 656 external patterns
//  ------------------------------------------------------------------------
//  #patterns  test      #faults  #faults    # eff.    # test         process 
//  simulated  coverage  in list  detected   patterns  patterns       CPU time
//   64         15.04%    22076      3908       63         0          0.13 sec
//   128        16.60%    21671       405       58         0          0.19 sec
//   192        17.32%    21484       187       48         0          0.25 sec
//   256        17.87%    21341       143       43         0          0.31 sec
//   320        18.19%    21258        83       37         0          0.37 sec
//   384        18.56%    21161        97       35         0          0.42 sec
//   448        18.83%    21091        70       33         0          0.48 sec
//   512        19.03%    21039        52       25         0          0.54 sec
//   576        19.20%    20996        43       23         0          0.59 sec
//   640        19.30%    20969        27       15         0          0.65 sec
//   656        19.32%    20963         6        4         0          0.70 sec
