// | ------------------------------------------------------------------------------------------------------------------ |
// |                                                                                                                    |
// |          Current split capture setting:     Off (optimal)                                                          |
// |                                                                                                                    |
// |   Current clock off simulation setting:     Off (optimal)                                                          |
// | ------------------------------------------------------------------------------------------------------------------ |
//  ------------------------------------------------------------------------
//  Simulation performed for #gates = 12864  #faults = 25984
//  Run fault simulation without storing patterns.  pattern source = 762 external patterns
//  ------------------------------------------------------------------------
//  #patterns  test      #faults  #faults    # eff.    # test         process 
//  simulated  coverage  in list  detected   patterns  patterns       CPU time
//   64         15.88%    21859      4125       64         0          0.13 sec
//   128        17.40%    21464       395       55         0          0.20 sec
//   192        18.09%    21284       180       45         0          0.26 sec
//   256        18.57%    21159       125       39         0          0.32 sec
//   320        18.95%    21061        98       35         0          0.37 sec
//   384        19.24%    20985        76       27         0          0.43 sec
//   448        19.45%    20929        56       27         0          0.49 sec
//   512        19.76%    20849        80       33         0          0.54 sec
//   576        19.94%    20804        45       25         0          0.60 sec
//   640        20.08%    20766        38       20         0          0.65 sec
//   704        20.19%    20737        29       16         0          0.70 sec
//   762        20.35%    20696        41       17         0          0.76 sec
