// | ------------------------------------------------------------------------------------------------------------------ |
// |                                                                                                                    |
// |          Current split capture setting:     Off (optimal)                                                          |
// |                                                                                                                    |
// |   Current clock off simulation setting:     Off (optimal)                                                          |
// | ------------------------------------------------------------------------------------------------------------------ |
//  ------------------------------------------------------------------------
//  Simulation performed for #gates = 12864  #faults = 25984
//  Run fault simulation without storing patterns.  pattern source = 727 external patterns
//  ------------------------------------------------------------------------
//  #patterns  test      #faults  #faults    # eff.    # test         process 
//  simulated  coverage  in list  detected   patterns  patterns       CPU time
//   64         15.49%    21959      4025       64         0          0.13 sec
//   128        17.28%    21494       465       62         0          0.20 sec
//   192        18.18%    21259       235       48         0          0.26 sec
//   256        18.70%    21125       134       38         0          0.31 sec
//   320        19.03%    21038        87       33         0          0.37 sec
//   384        19.31%    20967        71       33         0          0.43 sec
//   448        19.58%    20896        71       31         0          0.48 sec
//   512        19.70%    20864        32       23         0          0.54 sec
//   576        19.90%    20814        50       19         0          0.60 sec
//   640        19.99%    20789        25       13         0          0.65 sec
//   704        20.10%    20761        28       16         0          0.70 sec
//   727        20.14%    20751        10        5         0          0.76 sec
