// | ------------------------------------------------------------------------------------------------------------------ |
// |                                                                                                                    |
// |          Current split capture setting:     Off (optimal)                                                          |
// |                                                                                                                    |
// |   Current clock off simulation setting:     Off (optimal)                                                          |
// | ------------------------------------------------------------------------------------------------------------------ |
//  ------------------------------------------------------------------------
//  Simulation performed for #gates = 12864  #faults = 25984
//  Run fault simulation without storing patterns.  pattern source = 804 external patterns
//  ------------------------------------------------------------------------
//  #patterns  test      #faults  #faults    # eff.    # test         process 
//  simulated  coverage  in list  detected   patterns  patterns       CPU time
//   64         14.12%    22316      3668       64         0          0.12 sec
//   128        16.09%    21803       513       60         0          0.18 sec
//   192        16.90%    21593       210       52         0          0.24 sec
//   256        17.46%    21448       145       44         0          0.30 sec
//   320        17.86%    21343       105       33         0          0.35 sec
//   384        18.07%    21288        55       26         0          0.41 sec
//   448        18.38%    21209        79       24         0          0.47 sec
//   512        18.56%    21162        47       21         0          0.52 sec
//   576        18.78%    21103        59       26         0          0.57 sec
//   640        18.92%    21069        34       17         0          0.63 sec
//   704        19.05%    21035        34       11         0          0.68 sec
//   768        19.11%    21019        16       12         0          0.73 sec
//   804        19.13%    21014         5        3         0          0.78 sec
