// | ------------------------------------------------------------------------------------------------------------------ |
// |                                                                                                                    |
// |          Current split capture setting:     Off (optimal)                                                          |
// |                                                                                                                    |
// |   Current clock off simulation setting:     Off (optimal)                                                          |
// | ------------------------------------------------------------------------------------------------------------------ |
//  ------------------------------------------------------------------------
//  Simulation performed for #gates = 12864  #faults = 25984
//  Run fault simulation without storing patterns.  pattern source = 770 external patterns
//  ------------------------------------------------------------------------
//  #patterns  test      #faults  #faults    # eff.    # test         process 
//  simulated  coverage  in list  detected   patterns  patterns       CPU time
//   64         12.94%    22621      3363       63         0          0.11 sec
//   128        14.56%    22201       420       54         0          0.17 sec
//   192        15.33%    22001       200       49         0          0.23 sec
//   256        15.73%    21898       103       35         0          0.29 sec
//   320        16.08%    21806        92       36         0          0.35 sec
//   384        16.35%    21736        70       28         0          0.40 sec
//   448        16.67%    21653        83       30         0          0.46 sec
//   512        16.81%    21616        37       15         0          0.52 sec
//   576        16.96%    21576        40       20         0          0.57 sec
//   640        17.11%    21538        38       17         0          0.63 sec
//   704        17.27%    21496        42       17         0          0.68 sec
//   768        17.35%    21477        19        9         0          0.74 sec
//   770        17.35%    21475         2        1         0          0.78 sec
