// | ------------------------------------------------------------------------------------------------------------------ |
// |                                                                                                                    |
// |          Current split capture setting:     Off (optimal)                                                          |
// |                                                                                                                    |
// |   Current clock off simulation setting:     Off (optimal)                                                          |
// | ------------------------------------------------------------------------------------------------------------------ |
//  ------------------------------------------------------------------------
//  Simulation performed for #gates = 12864  #faults = 25984
//  Run fault simulation without storing patterns.  pattern source = 824 external patterns
//  ------------------------------------------------------------------------
//  #patterns  test      #faults  #faults    # eff.    # test         process 
//  simulated  coverage  in list  detected   patterns  patterns       CPU time
//   64         15.32%    22003      3981       64         0          0.13 sec
//   128        17.24%    21505       498       55         0          0.19 sec
//   192        17.99%    21309       196       51         0          0.25 sec
//   256        18.67%    21132       177       48         0          0.31 sec
//   320        19.15%    21007       125       40         0          0.37 sec
//   384        19.47%    20926        81       34         0          0.42 sec
//   448        19.72%    20859        67       27         0          0.48 sec
//   512        19.88%    20818        41       22         0          0.53 sec
//   576        20.02%    20782        36       24         0          0.59 sec
//   640        20.18%    20741        41       17         0          0.64 sec
//   704        20.37%    20692        49       26         0          0.69 sec
//   768        20.44%    20674        18       12         0          0.75 sec
//   824        20.50%    20657        17        9         0          0.80 sec
