// | ------------------------------------------------------------------------------------------------------------------ |
// |                                                                                                                    |
// |          Current split capture setting:     Off (optimal)                                                          |
// |                                                                                                                    |
// |   Current clock off simulation setting:     Off (optimal)                                                          |
// | ------------------------------------------------------------------------------------------------------------------ |
//  ------------------------------------------------------------------------
//  Simulation performed for #gates = 12864  #faults = 25984
//  Run fault simulation without storing patterns.  pattern source = 727 external patterns
//  ------------------------------------------------------------------------
//  #patterns  test      #faults  #faults    # eff.    # test         process 
//  simulated  coverage  in list  detected   patterns  patterns       CPU time
//   64         13.91%    22370      3614       63         0          0.11 sec
//   128        15.27%    22016       354       52         0          0.17 sec
//   192        16.04%    21817       199       42         0          0.23 sec
//   256        16.68%    21649       168       39         0          0.29 sec
//   320        17.15%    21527       122       34         0          0.35 sec
//   384        17.45%    21450        77       30         0          0.40 sec
//   448        17.83%    21352        98       26         0          0.46 sec
//   512        18.12%    21275        77       32         0          0.51 sec
//   576        18.38%    21208        67       27         0          0.56 sec
//   640        18.64%    21141        67       25         0          0.62 sec
//   704        18.77%    21106        35       17         0          0.67 sec
//   727        18.79%    21102         4        3         0          0.72 sec
