// | ------------------------------------------------------------------------------------------------------------------ |
// |                                                                                                                    |
// |          Current split capture setting:     Off (optimal)                                                          |
// |                                                                                                                    |
// |   Current clock off simulation setting:     Off (optimal)                                                          |
// | ------------------------------------------------------------------------------------------------------------------ |
//  ------------------------------------------------------------------------
//  Simulation performed for #gates = 12864  #faults = 25984
//  Run fault simulation without storing patterns.  pattern source = 629 external patterns
//  ------------------------------------------------------------------------
//  #patterns  test      #faults  #faults    # eff.    # test         process 
//  simulated  coverage  in list  detected   patterns  patterns       CPU time
//   64         14.32%    22263      3721       64         0          0.12 sec
//   128        15.93%    21846       417       58         0          0.18 sec
//   192        16.56%    21682       164       42         0          0.24 sec
//   256        17.00%    21566       116       43         0          0.30 sec
//   320        17.35%    21476        90       31         0          0.36 sec
//   384        17.65%    21397        79       29         0          0.41 sec
//   448        17.90%    21334        63       23         0          0.47 sec
//   512        18.17%    21263        71       26         0          0.52 sec
//   576        18.37%    21210        53       25         0          0.58 sec
//   629        18.50%    21178        32       15         0          0.63 sec
