// | ------------------------------------------------------------------------------------------------------------------ |
// |                                                                                                                    |
// |          Current split capture setting:     Off (optimal)                                                          |
// |                                                                                                                    |
// |   Current clock off simulation setting:     Off (optimal)                                                          |
// | ------------------------------------------------------------------------------------------------------------------ |
//  ------------------------------------------------------------------------
//  Simulation performed for #gates = 12864  #faults = 25984
//  Run fault simulation without storing patterns.  pattern source = 672 external patterns
//  ------------------------------------------------------------------------
//  #patterns  test      #faults  #faults    # eff.    # test         process 
//  simulated  coverage  in list  detected   patterns  patterns       CPU time
//   64         15.08%    22066      3918       64         0          0.13 sec
//   128        16.68%    21650       416       56         0          0.19 sec
//   192        17.46%    21446       204       47         0          0.26 sec
//   256        17.98%    21311       135       42         0          0.32 sec
//   320        18.41%    21201       110       36         0          0.37 sec
//   384        18.63%    21144        57       29         0          0.43 sec
//   448        18.89%    21075        69       27         0          0.49 sec
//   512        19.12%    21016        59       30         0          0.54 sec
//   576        19.23%    20987        29       18         0          0.60 sec
//   640        19.42%    20938        49       27         0          0.66 sec
//   672        19.49%    20921        17        7         0          0.71 sec
