// | ------------------------------------------------------------------------------------------------------------------ |
// |                                                                                                                    |
// |          Current split capture setting:     Off (optimal)                                                          |
// |                                                                                                                    |
// |   Current clock off simulation setting:     Off (optimal)                                                          |
// | ------------------------------------------------------------------------------------------------------------------ |
//  ------------------------------------------------------------------------
//  Simulation performed for #gates = 12864  #faults = 25984
//  Run fault simulation without storing patterns.  pattern source = 764 external patterns
//  ------------------------------------------------------------------------
//  #patterns  test      #faults  #faults    # eff.    # test         process 
//  simulated  coverage  in list  detected   patterns  patterns       CPU time
//   64         12.97%    22614      3370       63         0          0.11 sec
//   128        14.66%    22176       438       57         0          0.18 sec
//   192        15.44%    21971       205       45         0          0.24 sec
//   256        16.18%    21780       191       43         0          0.29 sec
//   320        16.63%    21662       118       31         0          0.35 sec
//   384        16.98%    21571        91       31         0          0.41 sec
//   448        17.19%    21518        53       27         0          0.46 sec
//   512        17.39%    21465        53       24         0          0.52 sec
//   576        17.54%    21427        38       18         0          0.57 sec
//   640        17.76%    21369        58       22         0          0.63 sec
//   704        17.94%    21322        47       22         0          0.68 sec
//   764        18.11%    21278        44       18         0          0.74 sec
