// | ------------------------------------------------------------------------------------------------------------------ |
// |                                                                                                                    |
// |          Current split capture setting:     Off (optimal)                                                          |
// |                                                                                                                    |
// |   Current clock off simulation setting:     Off (optimal)                                                          |
// | ------------------------------------------------------------------------------------------------------------------ |
//  ------------------------------------------------------------------------
//  Simulation performed for #gates = 12864  #faults = 25984
//  Run fault simulation without storing patterns.  pattern source = 824 external patterns
//  ------------------------------------------------------------------------
//  #patterns  test      #faults  #faults    # eff.    # test         process 
//  simulated  coverage  in list  detected   patterns  patterns       CPU time
//   64         14.67%    22171      3813       64         0          0.13 sec
//   128        16.39%    21724       447       56         0          0.20 sec
//   192        17.09%    21544       180       44         0          0.26 sec
//   256        17.63%    21402       142       40         0          0.32 sec
//   320        18.04%    21296       106       38         0          0.38 sec
//   384        18.32%    21225        71       35         0          0.43 sec
//   448        18.50%    21178        47       26         0          0.49 sec
//   512        18.70%    21126        52       22         0          0.55 sec
//   576        18.90%    21072        54       28         0          0.61 sec
//   640        19.08%    21025        47       23         0          0.66 sec
//   704        19.26%    20979        46       23         0          0.72 sec
//   768        19.42%    20938        41       18         0          0.77 sec
//   824        19.53%    20909        29       15         0          0.83 sec
