// | ------------------------------------------------------------------------------------------------------------------ |
// |                                                                                                                    |
// |          Current split capture setting:     Off (optimal)                                                          |
// |                                                                                                                    |
// |   Current clock off simulation setting:     Off (optimal)                                                          |
// | ------------------------------------------------------------------------------------------------------------------ |
//  ------------------------------------------------------------------------
//  Simulation performed for #gates = 12864  #faults = 25984
//  Run fault simulation without storing patterns.  pattern source = 610 external patterns
//  ------------------------------------------------------------------------
//  #patterns  test      #faults  #faults    # eff.    # test         process 
//  simulated  coverage  in list  detected   patterns  patterns       CPU time
//   64         12.84%    22647      3337       64         0          0.11 sec
//   128        14.42%    22236       411       55         0          0.17 sec
//   192        15.45%    21969       267       50         0          0.23 sec
//   256        16.00%    21827       142       39         0          0.29 sec
//   320        16.32%    21743        84       27         0          0.35 sec
//   384        16.65%    21658        85       23         0          0.40 sec
//   448        17.01%    21565        93       28         0          0.46 sec
//   512        17.22%    21509        56       25         0          0.51 sec
//   576        17.40%    21463        46       20         0          0.57 sec
//   610        17.43%    21454         9        7         0          0.62 sec
