// | ------------------------------------------------------------------------------------------------------------------ |
// |                                                                                                                    |
// |          Current split capture setting:     Off (optimal)                                                          |
// |                                                                                                                    |
// |   Current clock off simulation setting:     Off (optimal)                                                          |
// | ------------------------------------------------------------------------------------------------------------------ |
//  ------------------------------------------------------------------------
//  Simulation performed for #gates = 12864  #faults = 25984
//  Run fault simulation without storing patterns.  pattern source = 727 external patterns
//  ------------------------------------------------------------------------
//  #patterns  test      #faults  #faults    # eff.    # test         process 
//  simulated  coverage  in list  detected   patterns  patterns       CPU time
//   64         15.24%    22023      3961       64         0          0.13 sec
//   128        16.79%    21621       402       56         0          0.19 sec
//   192        17.61%    21407       214       48         0          0.26 sec
//   256        18.10%    21280       127       38         0          0.31 sec
//   320        18.67%    21132       148       45         0          0.37 sec
//   384        18.95%    21059        73       27         0          0.43 sec
//   448        19.15%    21009        50       23         0          0.48 sec
//   512        19.35%    20957        52       20         0          0.54 sec
//   576        19.54%    20907        50       26         0          0.59 sec
//   640        19.75%    20852        55       21         0          0.65 sec
//   704        19.85%    20827        25       14         0          0.70 sec
//   727        19.87%    20821         6        4         0          0.75 sec
