// | ------------------------------------------------------------------------------------------------------------------ |
// |                                                                                                                    |
// |          Current split capture setting:     Off (optimal)                                                          |
// |                                                                                                                    |
// |   Current clock off simulation setting:     Off (optimal)                                                          |
// | ------------------------------------------------------------------------------------------------------------------ |
//  ------------------------------------------------------------------------
//  Simulation performed for #gates = 12864  #faults = 25984
//  Run fault simulation without storing patterns.  pattern source = 819 external patterns
//  ------------------------------------------------------------------------
//  #patterns  test      #faults  #faults    # eff.    # test         process 
//  simulated  coverage  in list  detected   patterns  patterns       CPU time
//   64         14.41%    22241      3743       64         0          0.12 sec
//   128        16.07%    21808       433       54         0          0.18 sec
//   192        16.78%    21625       183       48         0          0.24 sec
//   256        17.43%    21454       171       45         0          0.30 sec
//   320        17.81%    21356        98       35         0          0.35 sec
//   384        18.09%    21284        72       32         0          0.41 sec
//   448        18.48%    21183       101       29         0          0.47 sec
//   512        18.67%    21132        51       27         0          0.52 sec
//   576        18.84%    21089        43       20         0          0.58 sec
//   640        18.98%    21053        36       21         0          0.63 sec
//   704        19.08%    21026        27       14         0          0.69 sec
//   768        19.15%    21009        17        9         0          0.74 sec
//   819        19.18%    20999        10        6         0          0.79 sec
