// | ------------------------------------------------------------------------------------------------------------------ |
// |                                                                                                                    |
// |          Current split capture setting:     Off (optimal)                                                          |
// |                                                                                                                    |
// |   Current clock off simulation setting:     Off (optimal)                                                          |
// | ------------------------------------------------------------------------------------------------------------------ |
//  ------------------------------------------------------------------------
//  Simulation performed for #gates = 12864  #faults = 25984
//  Run fault simulation without storing patterns.  pattern source = 749 external patterns
//  ------------------------------------------------------------------------
//  #patterns  test      #faults  #faults    # eff.    # test         process 
//  simulated  coverage  in list  detected   patterns  patterns       CPU time
//   64         13.32%    22522      3462       63         0          0.11 sec
//   128        14.62%    22184       338       47         0          0.18 sec
//   192        15.39%    21985       199       46         0          0.24 sec
//   256        16.04%    21817       168       38         0          0.30 sec
//   320        16.57%    21679       138       38         0          0.36 sec
//   384        16.88%    21598        81       26         0          0.41 sec
//   448        17.24%    21505        93       27         0          0.47 sec
//   512        17.53%    21430        75       28         0          0.53 sec
//   576        17.68%    21389        41       24         0          0.58 sec
//   640        17.91%    21329        60       19         0          0.64 sec
//   704        18.06%    21291        38       18         0          0.69 sec
//   749        18.16%    21266        25       12         0          0.74 sec
