// | ------------------------------------------------------------------------------------------------------------------ |
// |                                                                                                                    |
// |          Current split capture setting:     Off (optimal)                                                          |
// |                                                                                                                    |
// |   Current clock off simulation setting:     Off (optimal)                                                          |
// | ------------------------------------------------------------------------------------------------------------------ |
//  ------------------------------------------------------------------------
//  Simulation performed for #gates = 12864  #faults = 25984
//  Run fault simulation without storing patterns.  pattern source = 658 external patterns
//  ------------------------------------------------------------------------
//  #patterns  test      #faults  #faults    # eff.    # test         process 
//  simulated  coverage  in list  detected   patterns  patterns       CPU time
//   64         14.41%    22239      3745       64         0          0.12 sec
//   128        15.94%    21843       396       54         0          0.19 sec
//   192        16.80%    21619       224       49         0          0.25 sec
//   256        17.31%    21485       134       45         0          0.31 sec
//   320        17.70%    21386        99       34         0          0.37 sec
//   384        17.94%    21322        64       32         0          0.43 sec
//   448        18.15%    21268        54       21         0          0.48 sec
//   512        18.40%    21202        66       23         0          0.54 sec
//   576        18.60%    21151        51       19         0          0.60 sec
//   640        18.78%    21103        48       18         0          0.65 sec
//   658        18.80%    21100         3        3         0          0.70 sec
