// | ------------------------------------------------------------------------------------------------------------------ |
// |                                                                                                                    |
// |          Current split capture setting:     Off (optimal)                                                          |
// |                                                                                                                    |
// |   Current clock off simulation setting:     Off (optimal)                                                          |
// | ------------------------------------------------------------------------------------------------------------------ |
//  ------------------------------------------------------------------------
//  Simulation performed for #gates = 12864  #faults = 25984
//  Run fault simulation without storing patterns.  pattern source = 662 external patterns
//  ------------------------------------------------------------------------
//  #patterns  test      #faults  #faults    # eff.    # test         process 
//  simulated  coverage  in list  detected   patterns  patterns       CPU time
//   64         12.87%    22639      3345       64         0          0.11 sec
//   128        14.51%    22214       425       54         0          0.17 sec
//   192        15.23%    22026       188       43         0          0.23 sec
//   256        15.66%    21915       111       40         0          0.29 sec
//   320        15.94%    21843        72       25         0          0.35 sec
//   384        16.15%    21787        56       26         0          0.41 sec
//   448        16.46%    21707        80       26         0          0.47 sec
//   512        16.59%    21672        35       20         0          0.52 sec
//   576        16.83%    21610        62       19         0          0.58 sec
//   640        16.98%    21571        39       18         0          0.64 sec
//   662        17.05%    21553        18        9         0          0.69 sec
