// | ------------------------------------------------------------------------------------------------------------------ |
// |                                                                                                                    |
// |          Current split capture setting:     Off (optimal)                                                          |
// |                                                                                                                    |
// |   Current clock off simulation setting:     Off (optimal)                                                          |
// | ------------------------------------------------------------------------------------------------------------------ |
//  ------------------------------------------------------------------------
//  Simulation performed for #gates = 12864  #faults = 25984
//  Run fault simulation without storing patterns.  pattern source = 749 external patterns
//  ------------------------------------------------------------------------
//  #patterns  test      #faults  #faults    # eff.    # test         process 
//  simulated  coverage  in list  detected   patterns  patterns       CPU time
//   64         14.92%    22106      3878       64         0          0.13 sec
//   128        16.61%    21667       439       62         0          0.20 sec
//   192        17.29%    21492       175       42         0          0.26 sec
//   256        17.68%    21390       102       36         0          0.32 sec
//   320        18.09%    21283       107       33         0          0.38 sec
//   384        18.32%    21224        59       28         0          0.44 sec
//   448        18.55%    21163        61       23         0          0.49 sec
//   512        18.72%    21121        42       17         0          0.55 sec
//   576        18.98%    21051        70       23         0          0.61 sec
//   640        19.07%    21029        22       13         0          0.66 sec
//   704        19.18%    21001        28       15         0          0.72 sec
//   749        19.23%    20986        15       12         0          0.77 sec
