// | ------------------------------------------------------------------------------------------------------------------ |
// |                                                                                                                    |
// |          Current split capture setting:     Off (optimal)                                                          |
// |                                                                                                                    |
// |   Current clock off simulation setting:     Off (optimal)                                                          |
// | ------------------------------------------------------------------------------------------------------------------ |
//  ------------------------------------------------------------------------
//  Simulation performed for #gates = 12864  #faults = 25984
//  Run fault simulation without storing patterns.  pattern source = 596 external patterns
//  ------------------------------------------------------------------------
//  #patterns  test      #faults  #faults    # eff.    # test         process 
//  simulated  coverage  in list  detected   patterns  patterns       CPU time
//   64         15.04%    22076      3908       64         0          0.13 sec
//   128        17.22%    21509       567       58         0          0.20 sec
//   192        18.12%    21276       233       54         0          0.26 sec
//   256        18.81%    21096       180       45         0          0.32 sec
//   320        19.21%    20993       103       38         0          0.38 sec
//   384        19.49%    20919        74       26         0          0.43 sec
//   448        19.69%    20868        51       27         0          0.49 sec
//   512        19.87%    20821        47       23         0          0.54 sec
//   576        20.00%    20786        35       20         0          0.60 sec
//   596        20.02%    20783         3        3         0          0.65 sec
