// | ------------------------------------------------------------------------------------------------------------------ |
// |                                                                                                                    |
// |          Current split capture setting:     Off (optimal)                                                          |
// |                                                                                                                    |
// |   Current clock off simulation setting:     Off (optimal)                                                          |
// | ------------------------------------------------------------------------------------------------------------------ |
//  ------------------------------------------------------------------------
//  Simulation performed for #gates = 12864  #faults = 25984
//  Run fault simulation without storing patterns.  pattern source = 779 external patterns
//  ------------------------------------------------------------------------
//  #patterns  test      #faults  #faults    # eff.    # test         process 
//  simulated  coverage  in list  detected   patterns  patterns       CPU time
//   64         13.19%    22558      3426       64         0          0.11 sec
//   128        14.57%    22199       359       52         0          0.17 sec
//   192        15.39%    21984       215       47         0          0.24 sec
//   256        16.08%    21806       178       41         0          0.29 sec
//   320        16.49%    21700       106       31         0          0.35 sec
//   384        16.74%    21635        65       26         0          0.41 sec
//   448        16.97%    21575        60       26         0          0.47 sec
//   512        17.16%    21524        51       20         0          0.52 sec
//   576        17.35%    21477        47       20         0          0.58 sec
//   640        17.60%    21410        67       28         0          0.63 sec
//   704        17.71%    21382        28       14         0          0.69 sec
//   768        17.76%    21370        12        8         0          0.74 sec
//   779        17.77%    21367         3        3         0          0.79 sec
