// | ------------------------------------------------------------------------------------------------------------------ |
// |                                                                                                                    |
// |          Current split capture setting:     Off (optimal)                                                          |
// |                                                                                                                    |
// |   Current clock off simulation setting:     Off (optimal)                                                          |
// | ------------------------------------------------------------------------------------------------------------------ |
//  ------------------------------------------------------------------------
//  Simulation performed for #gates = 12864  #faults = 25984
//  Run fault simulation without storing patterns.  pattern source = 684 external patterns
//  ------------------------------------------------------------------------
//  #patterns  test      #faults  #faults    # eff.    # test         process 
//  simulated  coverage  in list  detected   patterns  patterns       CPU time
//   64         14.87%    22121      3863       62         0          0.13 sec
//   128        16.63%    21663       458       58         0          0.20 sec
//   192        17.51%    21434       229       52         0          0.26 sec
//   256        18.11%    21279       155       42         0          0.32 sec
//   320        18.47%    21186        93       35         0          0.38 sec
//   384        19.01%    21044       142       43         0          0.44 sec
//   448        19.32%    20964        80       30         0          0.49 sec
//   512        19.52%    20912        52       20         0          0.55 sec
//   576        19.68%    20871        41       20         0          0.60 sec
//   640        19.77%    20847        24       11         0          0.66 sec
//   684        19.85%    20826        21       15         0          0.71 sec
