// | ------------------------------------------------------------------------------------------------------------------ |
// |                                                                                                                    |
// |          Current split capture setting:     Off (optimal)                                                          |
// |                                                                                                                    |
// |   Current clock off simulation setting:     Off (optimal)                                                          |
// | ------------------------------------------------------------------------------------------------------------------ |
//  ------------------------------------------------------------------------
//  Simulation performed for #gates = 12864  #faults = 25984
//  Run fault simulation without storing patterns.  pattern source = 629 external patterns
//  ------------------------------------------------------------------------
//  #patterns  test      #faults  #faults    # eff.    # test         process 
//  simulated  coverage  in list  detected   patterns  patterns       CPU time
//   64         15.49%    21958      4026       64         0          0.13 sec
//   128        17.19%    21517       441       60         0          0.20 sec
//   192        18.03%    21298       219       49         0          0.26 sec
//   256        18.52%    21171       127       38         0          0.32 sec
//   320        18.95%    21059       112       38         0          0.37 sec
//   384        19.24%    20984        75       28         0          0.43 sec
//   448        19.45%    20929        55       28         0          0.49 sec
//   512        19.66%    20875        54       27         0          0.54 sec
//   576        19.76%    20849        26       15         0          0.60 sec
//   629        19.89%    20817        32       15         0          0.66 sec
