// | ------------------------------------------------------------------------------------------------------------------ |
// |                                                                                                                    |
// |          Current split capture setting:     Off (optimal)                                                          |
// |                                                                                                                    |
// |   Current clock off simulation setting:     Off (optimal)                                                          |
// | ------------------------------------------------------------------------------------------------------------------ |
//  ------------------------------------------------------------------------
//  Simulation performed for #gates = 12864  #faults = 25984
//  Run fault simulation without storing patterns.  pattern source = 662 external patterns
//  ------------------------------------------------------------------------
//  #patterns  test      #faults  #faults    # eff.    # test         process 
//  simulated  coverage  in list  detected   patterns  patterns       CPU time
//   64         14.69%    22167      3817       64         0          0.12 sec
//   128        16.61%    21667       500       58         0          0.18 sec
//   192        17.36%    21473       194       49         0          0.24 sec
//   256        17.81%    21357       116       47         0          0.30 sec
//   320        18.15%    21267        90       32         0          0.36 sec
//   384        18.42%    21197        70       24         0          0.41 sec
//   448        18.58%    21157        40       19         0          0.47 sec
//   512        18.72%    21120        37       19         0          0.52 sec
//   576        18.83%    21090        30       20         0          0.58 sec
//   640        18.90%    21072        18       11         0          0.63 sec
//   662        18.97%    21056        16        5         0          0.68 sec
