// | ------------------------------------------------------------------------------------------------------------------ |
// |                                                                                                                    |
// |          Current split capture setting:     Off (optimal)                                                          |
// |                                                                                                                    |
// |   Current clock off simulation setting:     Off (optimal)                                                          |
// | ------------------------------------------------------------------------------------------------------------------ |
//  ------------------------------------------------------------------------
//  Simulation performed for #gates = 12864  #faults = 25984
//  Run fault simulation without storing patterns.  pattern source = 621 external patterns
//  ------------------------------------------------------------------------
//  #patterns  test      #faults  #faults    # eff.    # test         process 
//  simulated  coverage  in list  detected   patterns  patterns       CPU time
//   64         12.87%    22639      3345       63         0          0.11 sec
//   128        14.60%    22190       449       56         0          0.17 sec
//   192        15.52%    21950       240       48         0          0.23 sec
//   256        16.44%    21713       237       45         0          0.29 sec
//   320        16.77%    21627        86       32         0          0.35 sec
//   384        17.22%    21509       118       31         0          0.40 sec
//   448        17.59%    21413        96       27         0          0.46 sec
//   512        17.81%    21355        58       26         0          0.51 sec
//   576        18.08%    21286        69       23         0          0.57 sec
//   621        18.24%    21244        42       17         0          0.62 sec
