// | ------------------------------------------------------------------------------------------------------------------ |
// |                                                                                                                    |
// |          Current split capture setting:     Off (optimal)                                                          |
// |                                                                                                                    |
// |   Current clock off simulation setting:     Off (optimal)                                                          |
// | ------------------------------------------------------------------------------------------------------------------ |
//  ------------------------------------------------------------------------
//  Simulation performed for #gates = 12864  #faults = 25984
//  Run fault simulation without storing patterns.  pattern source = 629 external patterns
//  ------------------------------------------------------------------------
//  #patterns  test      #faults  #faults    # eff.    # test         process 
//  simulated  coverage  in list  detected   patterns  patterns       CPU time
//   64         14.25%    22280      3704       64         0          0.12 sec
//   128        15.69%    21907       373       54         0          0.18 sec
//   192        16.54%    21685       222       49         0          0.24 sec
//   256        17.06%    21551       134       40         0          0.30 sec
//   320        17.35%    21477        74       26         0          0.36 sec
//   384        17.66%    21394        83       29         0          0.42 sec
//   448        17.79%    21362        32       15         0          0.47 sec
//   512        17.99%    21309        53       26         0          0.53 sec
//   576        18.25%    21243        66       20         0          0.59 sec
//   629        18.36%    21213        30       17         0          0.64 sec
