// | ------------------------------------------------------------------------------------------------------------------ |
// |                                                                                                                    |
// |          Current split capture setting:     Off (optimal)                                                          |
// |                                                                                                                    |
// |   Current clock off simulation setting:     Off (optimal)                                                          |
// | ------------------------------------------------------------------------------------------------------------------ |
//  ------------------------------------------------------------------------
//  Simulation performed for #gates = 12864  #faults = 25984
//  Run fault simulation without storing patterns.  pattern source = 658 external patterns
//  ------------------------------------------------------------------------
//  #patterns  test      #faults  #faults    # eff.    # test         process 
//  simulated  coverage  in list  detected   patterns  patterns       CPU time
//   64         13.34%    22517      3467       62         0          0.11 sec
//   128        14.61%    22187       330       55         0          0.18 sec
//   192        15.56%    21940       247       51         0          0.24 sec
//   256        16.07%    21809       131       43         0          0.30 sec
//   320        16.72%    21640       169       39         0          0.36 sec
//   384        17.03%    21558        82       28         0          0.41 sec
//   448        17.35%    21475        83       29         0          0.47 sec
//   512        17.56%    21421        54       23         0          0.52 sec
//   576        17.81%    21357        64       27         0          0.58 sec
//   640        18.00%    21306        51       23         0          0.63 sec
//   658        18.05%    21293        13        5         0          0.68 sec
