// | ------------------------------------------------------------------------------------------------------------------ |
// |                                                                                                                    |
// |          Current split capture setting:     Off (optimal)                                                          |
// |                                                                                                                    |
// |   Current clock off simulation setting:     Off (optimal)                                                          |
// | ------------------------------------------------------------------------------------------------------------------ |
//  ------------------------------------------------------------------------
//  Simulation performed for #gates = 12864  #faults = 25984
//  Run fault simulation without storing patterns.  pattern source = 657 external patterns
//  ------------------------------------------------------------------------
//  #patterns  test      #faults  #faults    # eff.    # test         process 
//  simulated  coverage  in list  detected   patterns  patterns       CPU time
//   64         15.46%    21966      4018       64         0          0.13 sec
//   128        17.07%    21548       418       58         0          0.19 sec
//   192        17.94%    21322       226       46         0          0.25 sec
//   256        18.50%    21178       144       49         0          0.31 sec
//   320        18.76%    21109        69       35         0          0.37 sec
//   384        18.99%    21049        60       30         0          0.43 sec
//   448        19.20%    20996        53       20         0          0.48 sec
//   512        19.37%    20950        46       23         0          0.54 sec
//   576        19.52%    20913        37       24         0          0.59 sec
//   640        19.63%    20883        30       14         0          0.65 sec
//   657        19.65%    20877         6        3         0          0.70 sec
