// | ------------------------------------------------------------------------------------------------------------------ |
// |                                                                                                                    |
// |          Current split capture setting:     Off (optimal)                                                          |
// |                                                                                                                    |
// |   Current clock off simulation setting:     Off (optimal)                                                          |
// | ------------------------------------------------------------------------------------------------------------------ |
//  ------------------------------------------------------------------------
//  Simulation performed for #gates = 12864  #faults = 25984
//  Run fault simulation without storing patterns.  pattern source = 662 external patterns
//  ------------------------------------------------------------------------
//  #patterns  test      #faults  #faults    # eff.    # test         process 
//  simulated  coverage  in list  detected   patterns  patterns       CPU time
//   64         14.97%    22095      3889       64         0          0.12 sec
//   128        16.65%    21658       437       58         0          0.19 sec
//   192        17.32%    21483       175       54         0          0.24 sec
//   256        17.78%    21363       120       43         0          0.30 sec
//   320        18.06%    21291        72       29         0          0.36 sec
//   384        18.30%    21230        61       25         0          0.42 sec
//   448        18.50%    21178        52       23         0          0.47 sec
//   512        18.73%    21116        62       19         0          0.53 sec
//   576        19.00%    21048        68       28         0          0.58 sec
//   640        19.11%    21018        30       15         0          0.63 sec
//   662        19.16%    21006        12        6         0          0.68 sec
