// | ------------------------------------------------------------------------------------------------------------------ |
// |                                                                                                                    |
// |          Current split capture setting:     Off (optimal)                                                          |
// |                                                                                                                    |
// |   Current clock off simulation setting:     Off (optimal)                                                          |
// | ------------------------------------------------------------------------------------------------------------------ |
//  ------------------------------------------------------------------------
//  Simulation performed for #gates = 12864  #faults = 25984
//  Run fault simulation without storing patterns.  pattern source = 727 external patterns
//  ------------------------------------------------------------------------
//  #patterns  test      #faults  #faults    # eff.    # test         process 
//  simulated  coverage  in list  detected   patterns  patterns       CPU time
//   64         14.12%    22314      3670       64         0          0.12 sec
//   128        15.63%    21922       392       57         0          0.19 sec
//   192        16.54%    21687       235       50         0          0.25 sec
//   256        17.13%    21532       155       42         0          0.31 sec
//   320        17.51%    21435        97       34         0          0.37 sec
//   384        17.80%    21359        76       28         0          0.42 sec
//   448        18.17%    21264        95       29         0          0.48 sec
//   512        18.41%    21201        63       23         0          0.54 sec
//   576        18.67%    21132        69       29         0          0.59 sec
//   640        18.88%    21079        53       19         0          0.65 sec
//   704        18.95%    21059        20       10         0          0.70 sec
//   727        18.98%    21051         8        3         0          0.75 sec
