// | ------------------------------------------------------------------------------------------------------------------ |
// |                                                                                                                    |
// |          Current split capture setting:     Off (optimal)                                                          |
// |                                                                                                                    |
// |   Current clock off simulation setting:     Off (optimal)                                                          |
// | ------------------------------------------------------------------------------------------------------------------ |
//  ------------------------------------------------------------------------
//  Simulation performed for #gates = 12864  #faults = 25984
//  Run fault simulation without storing patterns.  pattern source = 695 external patterns
//  ------------------------------------------------------------------------
//  #patterns  test      #faults  #faults    # eff.    # test         process 
//  simulated  coverage  in list  detected   patterns  patterns       CPU time
//   64         12.98%    22612      3372       63         0          0.11 sec
//   128        14.69%    22167       445       52         0          0.17 sec
//   192        15.57%    21938       229       47         0          0.23 sec
//   256        16.11%    21799       139       41         0          0.29 sec
//   320        16.62%    21666       133       34         0          0.35 sec
//   384        16.97%    21574        92       37         0          0.40 sec
//   448        17.21%    21511        63       28         0          0.46 sec
//   512        17.41%    21460        51       19         0          0.51 sec
//   576        17.63%    21403        57       28         0          0.57 sec
//   640        17.81%    21357        46       16         0          0.62 sec
//   695        17.90%    21332        25       11         0          0.67 sec
