// | ------------------------------------------------------------------------------------------------------------------ |
// |                                                                                                                    |
// |          Current split capture setting:     Off (optimal)                                                          |
// |                                                                                                                    |
// |   Current clock off simulation setting:     Off (optimal)                                                          |
// | ------------------------------------------------------------------------------------------------------------------ |
//  ------------------------------------------------------------------------
//  Simulation performed for #gates = 12864  #faults = 25984
//  Run fault simulation without storing patterns.  pattern source = 621 external patterns
//  ------------------------------------------------------------------------
//  #patterns  test      #faults  #faults    # eff.    # test         process 
//  simulated  coverage  in list  detected   patterns  patterns       CPU time
//   64         15.02%    22082      3902       64         0          0.13 sec
//   128        16.84%    21609       473       57         0          0.20 sec
//   192        17.50%    21436       173       52         0          0.26 sec
//   256        18.00%    21306       130       37         0          0.32 sec
//   320        18.48%    21181       125       34         0          0.38 sec
//   384        18.78%    21103        78       30         0          0.44 sec
//   448        19.05%    21034        69       31         0          0.50 sec
//   512        19.16%    21005        29       20         0          0.55 sec
//   576        19.30%    20968        37       19         0          0.61 sec
//   621        19.47%    20925        43       19         0          0.67 sec
