// | ------------------------------------------------------------------------------------------------------------------ |
// |                                                                                                                    |
// |          Current split capture setting:     Off (optimal)                                                          |
// |                                                                                                                    |
// |   Current clock off simulation setting:     Off (optimal)                                                          |
// | ------------------------------------------------------------------------------------------------------------------ |
//  ------------------------------------------------------------------------
//  Simulation performed for #gates = 12864  #faults = 25984
//  Run fault simulation without storing patterns.  pattern source = 758 external patterns
//  ------------------------------------------------------------------------
//  #patterns  test      #faults  #faults    # eff.    # test         process 
//  simulated  coverage  in list  detected   patterns  patterns       CPU time
//   64         19.20%    20994      4990       64         0          0.15 sec
//   128        22.65%    20098       896       64         0          0.21 sec
//   192        24.61%    19589       509       64         0          0.27 sec
//   256        25.97%    19235       354       64         0          0.32 sec
//   320        27.08%    18948       287       64         0          0.37 sec
//   384        28.00%    18709       239       64         0          0.43 sec
//   448        28.74%    18517       192       64         0          0.48 sec
//   512        29.36%    18355       162       64         0          0.53 sec
//   576        29.87%    18222       133       64         0          0.58 sec
//   640        30.31%    18108       114       64         0          0.63 sec
//   704        30.68%    18011        97       64         0          0.67 sec
//   758        31.02%    17923        88       54         0          0.72 sec
