// | ------------------------------------------------------------------------------------------------------------------ |
// |                                                                                                                    |
// |          Current split capture setting:     Off (optimal)                                                          |
// |                                                                                                                    |
// |   Current clock off simulation setting:     Off (optimal)                                                          |
// | ------------------------------------------------------------------------------------------------------------------ |
//  ------------------------------------------------------------------------
//  Simulation performed for #gates = 12864  #faults = 25984
//  Run fault simulation without storing patterns.  pattern source = 720 external patterns
//  ------------------------------------------------------------------------
//  #patterns  test      #faults  #faults    # eff.    # test         process 
//  simulated  coverage  in list  detected   patterns  patterns       CPU time
//   64         15.27%    22015      3969       63         0          0.13 sec
//   128        17.05%    21555       460       60         0          0.19 sec
//   192        17.96%    21316       239       49         0          0.25 sec
//   256        18.45%    21191       125       43         0          0.31 sec
//   320        18.81%    21096        95       37         0          0.37 sec
//   384        19.06%    21032        64       31         0          0.43 sec
//   448        19.26%    20979        53       31         0          0.48 sec
//   512        19.44%    20933        46       21         0          0.54 sec
//   576        19.64%    20882        51       22         0          0.59 sec
//   640        19.80%    20839        43       17         0          0.65 sec
//   704        19.94%    20802        37       16         0          0.70 sec
//   720        20.00%    20787        15        5         0          0.75 sec
