// | ------------------------------------------------------------------------------------------------------------------ |
// |                                                                                                                    |
// |          Current split capture setting:     Off (optimal)                                                          |
// |                                                                                                                    |
// |   Current clock off simulation setting:     Off (optimal)                                                          |
// | ------------------------------------------------------------------------------------------------------------------ |
//  ------------------------------------------------------------------------
//  Simulation performed for #gates = 12864  #faults = 25984
//  Run fault simulation without storing patterns.  pattern source = 621 external patterns
//  ------------------------------------------------------------------------
//  #patterns  test      #faults  #faults    # eff.    # test         process 
//  simulated  coverage  in list  detected   patterns  patterns       CPU time
//   64         15.47%    21965      4019       64         0          0.13 sec
//   128        17.48%    21443       522       58         0          0.20 sec
//   192        18.15%    21268       175       49         0          0.26 sec
//   256        18.75%    21113       155       44         0          0.32 sec
//   320        19.00%    21048        65       28         0          0.38 sec
//   384        19.24%    20985        63       33         0          0.44 sec
//   448        19.50%    20918        67       19         0          0.50 sec
//   512        19.66%    20875        43       18         0          0.55 sec
//   576        19.79%    20841        34       21         0          0.61 sec
//   621        19.88%    20819        22       11         0          0.66 sec
