// | ------------------------------------------------------------------------------------------------------------------ |
// |                                                                                                                    |
// |          Current split capture setting:     Off (optimal)                                                          |
// |                                                                                                                    |
// |   Current clock off simulation setting:     Off (optimal)                                                          |
// | ------------------------------------------------------------------------------------------------------------------ |
//  ------------------------------------------------------------------------
//  Simulation performed for #gates = 12864  #faults = 25984
//  Run fault simulation without storing patterns.  pattern source = 658 external patterns
//  ------------------------------------------------------------------------
//  #patterns  test      #faults  #faults    # eff.    # test         process 
//  simulated  coverage  in list  detected   patterns  patterns       CPU time
//   64         19.80%    20838      5146       64         0          0.15 sec
//   128        23.39%    19907       931       64         0          0.21 sec
//   192        25.42%    19378       529       64         0          0.27 sec
//   256        26.89%    18997       381       64         0          0.32 sec
//   320        27.97%    18716       281       64         0          0.37 sec
//   384        28.88%    18480       236       64         0          0.42 sec
//   448        29.64%    18282       198       64         0          0.47 sec
//   512        30.23%    18129       153       64         0          0.52 sec
//   576        30.73%    18000       129       64         0          0.57 sec
//   640        31.13%    17895       105       64         0          0.62 sec
//   658        31.22%    17871        24       18         0          0.66 sec
