// | ------------------------------------------------------------------------------------------------------------------ |
// |                                                                                                                    |
// |          Current split capture setting:     Off (optimal)                                                          |
// |                                                                                                                    |
// |   Current clock off simulation setting:     Off (optimal)                                                          |
// | ------------------------------------------------------------------------------------------------------------------ |
//  ------------------------------------------------------------------------
//  Simulation performed for #gates = 12864  #faults = 25984
//  Run fault simulation without storing patterns.  pattern source = 757 external patterns
//  ------------------------------------------------------------------------
//  #patterns  test      #faults  #faults    # eff.    # test         process 
//  simulated  coverage  in list  detected   patterns  patterns       CPU time
//   64         15.42%    21978      4006       64         0          0.13 sec
//   128        17.08%    21545       433       59         0          0.20 sec
//   192        17.91%    21330       215       52         0          0.26 sec
//   256        18.42%    21199       131       38         0          0.32 sec
//   320        18.87%    21082       117       35         0          0.38 sec
//   384        19.25%    20981       101       35         0          0.44 sec
//   448        19.52%    20911        70       30         0          0.49 sec
//   512        19.64%    20881        30       16         0          0.55 sec
//   576        19.89%    20816        65       24         0          0.60 sec
//   640        19.95%    20800        16       13         0          0.66 sec
//   704        20.05%    20775        25        9         0          0.71 sec
//   757        20.13%    20753        22       10         0          0.77 sec
