// | ------------------------------------------------------------------------------------------------------------------ |
// |                                                                                                                    |
// |          Current split capture setting:     Off (optimal)                                                          |
// |                                                                                                                    |
// |   Current clock off simulation setting:     Off (optimal)                                                          |
// | ------------------------------------------------------------------------------------------------------------------ |
//  ------------------------------------------------------------------------
//  Simulation performed for #gates = 12864  #faults = 25984
//  Run fault simulation without storing patterns.  pattern source = 641 external patterns
//  ------------------------------------------------------------------------
//  #patterns  test      #faults  #faults    # eff.    # test         process 
//  simulated  coverage  in list  detected   patterns  patterns       CPU time
//   64         13.02%    22600      3384       64         0          0.11 sec
//   128        14.71%    22162       438       55         0          0.17 sec
//   192        15.43%    21975       187       45         0          0.23 sec
//   256        15.96%    21836       139       39         0          0.29 sec
//   320        16.40%    21723       113       32         0          0.35 sec
//   384        16.76%    21628        95       36         0          0.40 sec
//   448        17.08%    21546        82       31         0          0.46 sec
//   512        17.28%    21494        52       26         0          0.51 sec
//   576        17.49%    21439        55       21         0          0.57 sec
//   640        17.67%    21393        46       19         0          0.62 sec
