// | ------------------------------------------------------------------------------------------------------------------ |
// |                                                                                                                    |
// |          Current split capture setting:     Off (optimal)                                                          |
// |                                                                                                                    |
// |   Current clock off simulation setting:     Off (optimal)                                                          |
// | ------------------------------------------------------------------------------------------------------------------ |
//  ------------------------------------------------------------------------
//  Simulation performed for #gates = 20871  #faults = 58923
//  Run fault simulation without storing patterns.  pattern source = 198 external patterns
//  ------------------------------------------------------------------------
//  #patterns  test      #faults  #faults    # eff.    # test         process 
//  simulated  coverage  in list  detected   patterns  patterns       CPU time
//   64         94.20%     3417     55506       64         0          1.86 sec
//   128        95.29%     2775       642       60         0          1.88 sec
//   192        95.58%     2603       172       50         0          1.89 sec
//   198        95.59%     2598         5        4         0          1.90 sec
