// | ------------------------------------------------------------------------------------------------------------------ |
// |                                                                                                                    |
// |          Current split capture setting:     Off (optimal)                                                          |
// |                                                                                                                    |
// |   Current clock off simulation setting:     Off (optimal)                                                          |
// | ------------------------------------------------------------------------------------------------------------------ |
//  ------------------------------------------------------------------------
//  Simulation performed for #gates = 20871  #faults = 59384
//  Run fault simulation without storing patterns.  pattern source = 195 external patterns
//  ------------------------------------------------------------------------
//  #patterns  test      #faults  #faults    # eff.    # test         process 
//  simulated  coverage  in list  detected   patterns  patterns       CPU time
//   64         94.05%     3534     55850       64         0          2.04 sec
//   128        94.99%     2975       559       60         0          2.06 sec
//   192        95.18%     2862       113       41         0          2.07 sec
//   195        95.18%     2861         1        1         0          2.08 sec
