// | ------------------------------------------------------------------------------------------------------------------ |
// |                                                                                                                    |
// |          Current split capture setting:     Off (optimal)                                                          |
// |                                                                                                                    |
// |   Current clock off simulation setting:     Off (optimal)                                                          |
// | ------------------------------------------------------------------------------------------------------------------ |
//  ------------------------------------------------------------------------
//  Simulation performed for #gates = 20077  #faults = 45783
//  Run fault simulation without storing patterns.  pattern source = 313 external patterns
//  ------------------------------------------------------------------------
//  #patterns  test      #faults  #faults    # eff.    # test         process 
//  simulated  coverage  in list  detected   patterns  patterns       CPU time
//   64         50.54%    22646     23137       64         0          0.51 sec
//   128        54.72%    20732      1914       64         0          0.61 sec
//   192        56.56%    19886       846       61         0          0.70 sec
//   256        57.44%    19487       399       53         0          0.78 sec
//   313        58.08%    19192       295       45         0          0.85 sec
