// | ------------------------------------------------------------------------------------------------------------------ |
// |                                                                                                                    |
// |          Current split capture setting:     Off (optimal)                                                          |
// |                                                                                                                    |
// |   Current clock off simulation setting:     Off (optimal)                                                          |
// | ------------------------------------------------------------------------------------------------------------------ |
//  ------------------------------------------------------------------------
//  Simulation performed for #gates = 20077  #faults = 41675
//  Run fault simulation without storing patterns.  pattern source = 339 external patterns
//  ------------------------------------------------------------------------
//  #patterns  test      #faults  #faults    # eff.    # test         process 
//  simulated  coverage  in list  detected   patterns  patterns       CPU time
//   64         60.50%    16463     25212       64         0          0.49 sec
//   128        64.96%    14602      1861       64         0          0.57 sec
//   192        67.29%    13632       970       61         0          0.63 sec
//   256        68.90%    12959       673       59         0          0.69 sec
//   320        69.91%    12538       421       53         0          0.75 sec
//   339        70.12%    12453        85       15         0          0.79 sec
