// | ------------------------------------------------------------------------------------------------------------------ |
// |                                                                                                                    |
// |          Current split capture setting:     Off (optimal)                                                          |
// |                                                                                                                    |
// |   Current clock off simulation setting:     Off (optimal)                                                          |
// | ------------------------------------------------------------------------------------------------------------------ |
//  ------------------------------------------------------------------------
//  Simulation performed for #gates = 20077  #faults = 44889
//  Run fault simulation without storing patterns.  pattern source = 346 external patterns
//  ------------------------------------------------------------------------
//  #patterns  test      #faults  #faults    # eff.    # test         process 
//  simulated  coverage  in list  detected   patterns  patterns       CPU time
//   64         66.27%    15141     29748       64         0          0.62 sec
//   128        73.58%    11861      3280       64         0          0.70 sec
//   192        75.97%    10786      1075       64         0          0.76 sec
//   256        77.05%    10301       485       64         0          0.80 sec
//   320        77.51%    10096       205       64         0          0.85 sec
//   346        77.60%    10055        41       26         0          0.88 sec
