// | ------------------------------------------------------------------------------------------------------------------ |
// |                                                                                                                    |
// |          Current split capture setting:     Off (optimal)                                                          |
// |                                                                                                                    |
// |   Current clock off simulation setting:     Off (optimal)                                                          |
// | ------------------------------------------------------------------------------------------------------------------ |
//  ------------------------------------------------------------------------
//  Simulation performed for #gates = 20077  #faults = 44191
//  Run fault simulation without storing patterns.  pattern source = 306 external patterns
//  ------------------------------------------------------------------------
//  #patterns  test      #faults  #faults    # eff.    # test         process 
//  simulated  coverage  in list  detected   patterns  patterns       CPU time
//   64         55.95%    19468     24723       64         0          0.54 sec
//   128        60.53%    17441      2027       64         0          0.64 sec
//   192        62.80%    16441      1000       62         0          0.71 sec
//   256        64.32%    15767       674       60         0          0.79 sec
//   306        65.16%    15394       373       43         0          0.85 sec
