// | ------------------------------------------------------------------------------------------------------------------ |
// |                                                                                                                    |
// |          Current split capture setting:     Off (optimal)                                                          |
// |                                                                                                                    |
// |   Current clock off simulation setting:     Off (optimal)                                                          |
// | ------------------------------------------------------------------------------------------------------------------ |
//  ------------------------------------------------------------------------
//  Simulation performed for #gates = 20077  #faults = 42037
//  Run fault simulation without storing patterns.  pattern source = 329 external patterns
//  ------------------------------------------------------------------------
//  #patterns  test      #faults  #faults    # eff.    # test         process 
//  simulated  coverage  in list  detected   patterns  patterns       CPU time
//   64         51.47%    20400     21637       64         0          0.44 sec
//   128        54.65%    19065      1335       64         0          0.53 sec
//   192        56.87%    18132       933       58         0          0.61 sec
//   256        58.40%    17489       643       52         0          0.69 sec
//   320        59.42%    17059       430       55         0          0.76 sec
//   329        59.51%    17021        38        8         0          0.82 sec
