// | ------------------------------------------------------------------------------------------------------------------ |
// |                                                                                                                    |
// |          Current split capture setting:     Off (optimal)                                                          |
// |                                                                                                                    |
// |   Current clock off simulation setting:     Off (optimal)                                                          |
// | ------------------------------------------------------------------------------------------------------------------ |
//  ------------------------------------------------------------------------
//  Simulation performed for #gates = 20077  #faults = 44191
//  Run fault simulation without storing patterns.  pattern source = 347 external patterns
//  ------------------------------------------------------------------------
//  #patterns  test      #faults  #faults    # eff.    # test         process 
//  simulated  coverage  in list  detected   patterns  patterns       CPU time
//   64         46.72%    23544     20647       64         0          0.44 sec
//   128        50.46%    21893      1651       62         0          0.55 sec
//   192        52.91%    20808      1085       56         0          0.65 sec
//   256        55.39%    19714      1094       52         0          0.73 sec
//   320        56.89%    19049       665       51         0          0.81 sec
//   347        57.97%    18574       475       23         0          0.88 sec
