// | ------------------------------------------------------------------------------------------------------------------ |
// |                                                                                                                    |
// |          Current split capture setting:     Off (optimal)                                                          |
// |                                                                                                                    |
// |   Current clock off simulation setting:     Off (optimal)                                                          |
// | ------------------------------------------------------------------------------------------------------------------ |
//  ------------------------------------------------------------------------
//  Simulation performed for #gates = 20077  #faults = 44360
//  Run fault simulation without storing patterns.  pattern source = 316 external patterns
//  ------------------------------------------------------------------------
//  #patterns  test      #faults  #faults    # eff.    # test         process 
//  simulated  coverage  in list  detected   patterns  patterns       CPU time
//   64         47.90%    23112     21248       64         0          0.46 sec
//   128        52.20%    21202      1910       64         0          0.56 sec
//   192        54.51%    20180      1022       56         0          0.65 sec
//   256        55.47%    19755       425       51         0          0.74 sec
//   316        57.10%    19029       726       48         0          0.82 sec
