// | ------------------------------------------------------------------------------------------------------------------ |
// |                                                                                                                    |
// |          Current split capture setting:     Off (optimal)                                                          |
// |                                                                                                                    |
// |   Current clock off simulation setting:     Off (optimal)                                                          |
// | ------------------------------------------------------------------------------------------------------------------ |
//  ------------------------------------------------------------------------
//  Simulation performed for #gates = 20077  #faults = 44856
//  Run fault simulation without storing patterns.  pattern source = 305 external patterns
//  ------------------------------------------------------------------------
//  #patterns  test      #faults  #faults    # eff.    # test         process 
//  simulated  coverage  in list  detected   patterns  patterns       CPU time
//   64         47.32%    23628     21228       64         0          0.45 sec
//   128        51.76%    21637      1991       64         0          0.54 sec
//   192        53.59%    20817       820       58         0          0.63 sec
//   256        54.98%    20196       621       57         0          0.71 sec
//   305        56.10%    19693       503       43         0          0.79 sec
