// | ------------------------------------------------------------------------------------------------------------------ |
// |                                                                                                                    |
// |          Current split capture setting:     Off (optimal)                                                          |
// |                                                                                                                    |
// |   Current clock off simulation setting:     Off (optimal)                                                          |
// | ------------------------------------------------------------------------------------------------------------------ |
//  ------------------------------------------------------------------------
//  Simulation performed for #gates = 20077  #faults = 43655
//  Run fault simulation without storing patterns.  pattern source = 302 external patterns
//  ------------------------------------------------------------------------
//  #patterns  test      #faults  #faults    # eff.    # test         process 
//  simulated  coverage  in list  detected   patterns  patterns       CPU time
//   64         44.34%    24299     19356       64         0          0.41 sec
//   128        47.48%    22929      1370       62         0          0.52 sec
//   192        49.29%    22138       791       53         0          0.61 sec
//   256        51.52%    21163       975       57         0          0.70 sec
//   302        53.08%    20485       678       40         0          0.78 sec
