// | ------------------------------------------------------------------------------------------------------------------ |
// |                                                                                                                    |
// |          Current split capture setting:     Off (optimal)                                                          |
// |                                                                                                                    |
// |   Current clock off simulation setting:     Off (optimal)                                                          |
// | ------------------------------------------------------------------------------------------------------------------ |
//  ------------------------------------------------------------------------
//  Simulation performed for #gates = 20077  #faults = 44552
//  Run fault simulation without storing patterns.  pattern source = 339 external patterns
//  ------------------------------------------------------------------------
//  #patterns  test      #faults  #faults    # eff.    # test         process 
//  simulated  coverage  in list  detected   patterns  patterns       CPU time
//   64         55.82%    19684     24868       64         0          0.53 sec
//   128        60.23%    17720      1964       63         0          0.63 sec
//   192        63.05%    16464      1256       62         0          0.71 sec
//   256        64.68%    15737       727       60         0          0.78 sec
//   320        65.58%    15336       401       58         0          0.85 sec
//   339        66.01%    15145       191       17         0          0.90 sec
