// | ------------------------------------------------------------------------------------------------------------------ |
// |                                                                                                                    |
// |          Current split capture setting:     Off (optimal)                                                          |
// |                                                                                                                    |
// |   Current clock off simulation setting:     Off (optimal)                                                          |
// | ------------------------------------------------------------------------------------------------------------------ |
//  ------------------------------------------------------------------------
//  Simulation performed for #gates = 20077  #faults = 43655
//  Run fault simulation without storing patterns.  pattern source = 368 external patterns
//  ------------------------------------------------------------------------
//  #patterns  test      #faults  #faults    # eff.    # test         process 
//  simulated  coverage  in list  detected   patterns  patterns       CPU time
//   64         44.88%    24061     19594       64         0          0.41 sec
//   128        48.61%    22433      1628       60         0          0.51 sec
//   192        50.42%    21645       788       61         0          0.60 sec
//   256        51.58%    21137       508       49         0          0.69 sec
//   320        52.73%    20634       503       47         0          0.77 sec
//   368        54.12%    20027       607       34         0          0.85 sec
