// | ------------------------------------------------------------------------------------------------------------------ |
// |                                                                                                                    |
// |          Current split capture setting:     Off (optimal)                                                          |
// |                                                                                                                    |
// |   Current clock off simulation setting:     Off (optimal)                                                          |
// | ------------------------------------------------------------------------------------------------------------------ |
//  ------------------------------------------------------------------------
//  Simulation performed for #gates = 20077  #faults = 44972
//  Run fault simulation without storing patterns.  pattern source = 339 external patterns
//  ------------------------------------------------------------------------
//  #patterns  test      #faults  #faults    # eff.    # test         process 
//  simulated  coverage  in list  detected   patterns  patterns       CPU time
//   64         54.15%    20619     24353       64         0          0.51 sec
//   128        60.01%    17984      2635       64         0          0.60 sec
//   192        62.21%    16996       988       61         0          0.68 sec
//   256        64.29%    16061       935       60         0          0.75 sec
//   320        65.64%    15452       609       62         0          0.81 sec
//   339        65.97%    15304       148       15         0          0.87 sec
