// | ------------------------------------------------------------------------------------------------------------------ |
// |                                                                                                                    |
// |          Current split capture setting:     Off (optimal)                                                          |
// |                                                                                                                    |
// |   Current clock off simulation setting:     Off (optimal)                                                          |
// | ------------------------------------------------------------------------------------------------------------------ |
//  ------------------------------------------------------------------------
//  Simulation performed for #gates = 20077  #faults = 42658
//  Run fault simulation without storing patterns.  pattern source = 351 external patterns
//  ------------------------------------------------------------------------
//  #patterns  test      #faults  #faults    # eff.    # test         process 
//  simulated  coverage  in list  detected   patterns  patterns       CPU time
//   64         54.52%    19401     23257       64         0          0.49 sec
//   128        60.05%    17040      2361       64         0          0.59 sec
//   192        62.92%    15817      1223       63         0          0.66 sec
//   256        64.64%    15085       732       63         0          0.73 sec
//   320        65.61%    14669       416       49         0          0.79 sec
//   351        65.90%    14547       122       25         0          0.85 sec
