// | ------------------------------------------------------------------------------------------------------------------ |
// |                                                                                                                    |
// |          Current split capture setting:     Off (optimal)                                                          |
// |                                                                                                                    |
// |   Current clock off simulation setting:     Off (optimal)                                                          |
// | ------------------------------------------------------------------------------------------------------------------ |
//  ------------------------------------------------------------------------
//  Simulation performed for #gates = 20077  #faults = 44552
//  Run fault simulation without storing patterns.  pattern source = 317 external patterns
//  ------------------------------------------------------------------------
//  #patterns  test      #faults  #faults    # eff.    # test         process 
//  simulated  coverage  in list  detected   patterns  patterns       CPU time
//   64         56.40%    19426     25126       64         0          0.53 sec
//   128        60.36%    17660      1766       64         0          0.63 sec
//   192        62.86%    16548      1112       60         0          0.71 sec
//   256        64.91%    15635       913       61         0          0.78 sec
//   317        65.69%    15288       347       48         0          0.84 sec
