// | ------------------------------------------------------------------------------------------------------------------ |
// |                                                                                                                    |
// |          Current split capture setting:     Off (optimal)                                                          |
// |                                                                                                                    |
// |   Current clock off simulation setting:     Off (optimal)                                                          |
// | ------------------------------------------------------------------------------------------------------------------ |
//  ------------------------------------------------------------------------
//  Simulation performed for #gates = 20077  #faults = 44081
//  Run fault simulation without storing patterns.  pattern source = 329 external patterns
//  ------------------------------------------------------------------------
//  #patterns  test      #faults  #faults    # eff.    # test         process 
//  simulated  coverage  in list  detected   patterns  patterns       CPU time
//   64         55.47%    19630     24451       64         0          0.51 sec
//   128        61.58%    16935      2695       64         0          0.59 sec
//   192        64.02%    15860      1075       62         0          0.67 sec
//   256        66.03%    14973       887       62         0          0.73 sec
//   320        66.95%    14570       403       58         0          0.79 sec
//   329        66.99%    14550        20        6         0          0.84 sec
