// | ------------------------------------------------------------------------------------------------------------------ |
// |                                                                                                                    |
// |          Current split capture setting:     Off (optimal)                                                          |
// |                                                                                                                    |
// |   Current clock off simulation setting:     Off (optimal)                                                          |
// | ------------------------------------------------------------------------------------------------------------------ |
//  ------------------------------------------------------------------------
//  Simulation performed for #gates = 20077  #faults = 44360
//  Run fault simulation without storing patterns.  pattern source = 318 external patterns
//  ------------------------------------------------------------------------
//  #patterns  test      #faults  #faults    # eff.    # test         process 
//  simulated  coverage  in list  detected   patterns  patterns       CPU time
//   64         46.96%    23527     20833       64         0          0.44 sec
//   128        50.76%    21841      1686       64         0          0.55 sec
//   192        52.45%    21094       747       58         0          0.64 sec
//   256        55.39%    19787      1307       53         0          0.73 sec
//   318        57.00%    19077       710       52         0          0.82 sec
