// | ------------------------------------------------------------------------------------------------------------------ |
// |                                                                                                                    |
// |          Current split capture setting:     Off (optimal)                                                          |
// |                                                                                                                    |
// |   Current clock off simulation setting:     Off (optimal)                                                          |
// | ------------------------------------------------------------------------------------------------------------------ |
//  ------------------------------------------------------------------------
//  Simulation performed for #gates = 20077  #faults = 43945
//  Run fault simulation without storing patterns.  pattern source = 368 external patterns
//  ------------------------------------------------------------------------
//  #patterns  test      #faults  #faults    # eff.    # test         process 
//  simulated  coverage  in list  detected   patterns  patterns       CPU time
//   64         45.15%    24102     19843       64         0          0.43 sec
//   128        48.10%    22809      1293       61         0          0.53 sec
//   192        51.12%    21481      1328       57         0          0.63 sec
//   256        52.49%    20879       602       45         0          0.72 sec
//   320        54.07%    20185       694       46         0          0.80 sec
//   368        56.85%    18964      1221       32         0          0.88 sec
