// | ------------------------------------------------------------------------------------------------------------------ |
// |                                                                                                                    |
// |          Current split capture setting:     Off (optimal)                                                          |
// |                                                                                                                    |
// |   Current clock off simulation setting:     Off (optimal)                                                          |
// | ------------------------------------------------------------------------------------------------------------------ |
//  ------------------------------------------------------------------------
//  Simulation performed for #gates = 20077  #faults = 44856
//  Run fault simulation without storing patterns.  pattern source = 350 external patterns
//  ------------------------------------------------------------------------
//  #patterns  test      #faults  #faults    # eff.    # test         process 
//  simulated  coverage  in list  detected   patterns  patterns       CPU time
//   64         49.40%    22697     22159       64         0          0.46 sec
//   128        52.52%    21299      1398       63         0          0.55 sec
//   192        54.74%    20303       996       56         0          0.63 sec
//   256        55.89%    19788       515       54         0          0.71 sec
//   320        57.10%    19244       544       58         0          0.79 sec
//   350        57.83%    18916       328       26         0          0.86 sec
