// | ------------------------------------------------------------------------------------------------------------------ |
// |                                                                                                                    |
// |          Current split capture setting:     Off (optimal)                                                          |
// |                                                                                                                    |
// |   Current clock off simulation setting:     Off (optimal)                                                          |
// | ------------------------------------------------------------------------------------------------------------------ |
//  ------------------------------------------------------------------------
//  Simulation performed for #gates = 20077  #faults = 45857
//  Run fault simulation without storing patterns.  pattern source = 317 external patterns
//  ------------------------------------------------------------------------
//  #patterns  test      #faults  #faults    # eff.    # test         process 
//  simulated  coverage  in list  detected   patterns  patterns       CPU time
//   64         47.61%    24026     21831       64         0          0.47 sec
//   128        51.49%    22247      1779       62         0          0.58 sec
//   192        53.00%    21553       694       62         0          0.67 sec
//   256        54.69%    20779       774       52         0          0.75 sec
//   317        55.59%    20365       414       50         0          0.84 sec
