// | ------------------------------------------------------------------------------------------------------------------ |
// |                                                                                                                    |
// |          Current split capture setting:     Off (optimal)                                                          |
// |                                                                                                                    |
// |   Current clock off simulation setting:     Off (optimal)                                                          |
// | ------------------------------------------------------------------------------------------------------------------ |
//  ------------------------------------------------------------------------
//  Simulation performed for #gates = 20077  #faults = 44565
//  Run fault simulation without storing patterns.  pattern source = 340 external patterns
//  ------------------------------------------------------------------------
//  #patterns  test      #faults  #faults    # eff.    # test         process 
//  simulated  coverage  in list  detected   patterns  patterns       CPU time
//   64         54.72%    20181     24384       64         0          0.54 sec
//   128        59.55%    18027      2154       64         0          0.64 sec
//   192        61.56%    17130       897       60         0          0.73 sec
//   256        63.59%    16227       903       63         0          0.80 sec
//   320        64.60%    15777       450       49         0          0.87 sec
//   340        64.72%    15721        56       17         0          0.93 sec
