// | ------------------------------------------------------------------------------------------------------------------ |
// |                                                                                                                    |
// |          Current split capture setting:     Off (optimal)                                                          |
// |                                                                                                                    |
// |   Current clock off simulation setting:     Off (optimal)                                                          |
// | ------------------------------------------------------------------------------------------------------------------ |
//  ------------------------------------------------------------------------
//  Simulation performed for #gates = 20077  #faults = 44325
//  Run fault simulation without storing patterns.  pattern source = 358 external patterns
//  ------------------------------------------------------------------------
//  #patterns  test      #faults  #faults    # eff.    # test         process 
//  simulated  coverage  in list  detected   patterns  patterns       CPU time
//   64         51.11%    21669     22656       64         0          0.47 sec
//   128        55.01%    19942      1727       64         0          0.57 sec
//   192        56.87%    19118       824       62         0          0.65 sec
//   256        58.80%    18264       854       58         0          0.73 sec
//   320        59.59%    17912       352       53         0          0.80 sec
//   358        59.98%    17739       173       31         0          0.88 sec
