// | ------------------------------------------------------------------------------------------------------------------ |
// |                                                                                                                    |
// |          Current split capture setting:     Off (optimal)                                                          |
// |                                                                                                                    |
// |   Current clock off simulation setting:     Off (optimal)                                                          |
// | ------------------------------------------------------------------------------------------------------------------ |
//  ------------------------------------------------------------------------
//  Simulation performed for #gates = 20077  #faults = 41193
//  Run fault simulation without storing patterns.  pattern source = 378 external patterns
//  ------------------------------------------------------------------------
//  #patterns  test      #faults  #faults    # eff.    # test         process 
//  simulated  coverage  in list  detected   patterns  patterns       CPU time
//   64         49.95%    20618     20575       64         0          0.41 sec
//   128        53.00%    19359      1259       58         0          0.50 sec
//   192        54.83%    18605       754       56         0          0.58 sec
//   256        55.97%    18138       467       47         0          0.66 sec
//   320        57.95%    17323       815       49         0          0.73 sec
//   378        59.90%    16518       805       42         0          0.80 sec
