// | ------------------------------------------------------------------------------------------------------------------ |
// |                                                                                                                    |
// |          Current split capture setting:     Off (optimal)                                                          |
// |                                                                                                                    |
// |   Current clock off simulation setting:     Off (optimal)                                                          |
// | ------------------------------------------------------------------------------------------------------------------ |
//  ------------------------------------------------------------------------
//  Simulation performed for #gates = 20077  #faults = 43602
//  Run fault simulation without storing patterns.  pattern source = 332 external patterns
//  ------------------------------------------------------------------------
//  #patterns  test      #faults  #faults    # eff.    # test         process 
//  simulated  coverage  in list  detected   patterns  patterns       CPU time
//   64         56.79%    18839     24763       64         0          0.49 sec
//   128        60.99%    17011      1828       64         0          0.58 sec
//   192        63.34%    15986      1025       60         0          0.65 sec
//   256        64.34%    15547       439       57         0          0.72 sec
//   320        65.33%    15118       429       53         0          0.78 sec
//   332        65.48%    15052        66       10         0          0.83 sec
