// | ------------------------------------------------------------------------------------------------------------------ |
// |                                                                                                                    |
// |          Current split capture setting:     Off (optimal)                                                          |
// |                                                                                                                    |
// |   Current clock off simulation setting:     Off (optimal)                                                          |
// | ------------------------------------------------------------------------------------------------------------------ |
//  ------------------------------------------------------------------------
//  Simulation performed for #gates = 20077  #faults = 43945
//  Run fault simulation without storing patterns.  pattern source = 318 external patterns
//  ------------------------------------------------------------------------
//  #patterns  test      #faults  #faults    # eff.    # test         process 
//  simulated  coverage  in list  detected   patterns  patterns       CPU time
//   64         44.84%    24238     19707       64         0          0.43 sec
//   128        48.79%    22506      1732       62         0          0.54 sec
//   192        50.96%    21551       955       57         0          0.64 sec
//   256        53.03%    20642       909       55         0          0.73 sec
//   318        54.46%    20011       631       47         0          0.81 sec
