// | ------------------------------------------------------------------------------------------------------------------ |
// |                                                                                                                    |
// |          Current split capture setting:     Off (optimal)                                                          |
// |                                                                                                                    |
// |   Current clock off simulation setting:     Off (optimal)                                                          |
// | ------------------------------------------------------------------------------------------------------------------ |
//  ------------------------------------------------------------------------
//  Simulation performed for #gates = 20077  #faults = 43246
//  Run fault simulation without storing patterns.  pattern source = 307 external patterns
//  ------------------------------------------------------------------------
//  #patterns  test      #faults  #faults    # eff.    # test         process 
//  simulated  coverage  in list  detected   patterns  patterns       CPU time
//   64         43.74%    24332     18914       64         0          0.42 sec
//   128        48.26%    22376      1956       62         0          0.53 sec
//   192        51.20%    21102      1274       59         0          0.62 sec
//   256        52.45%    20563       539       48         0          0.71 sec
//   307        53.66%    20040       523       38         0          0.80 sec
