// | ------------------------------------------------------------------------------------------------------------------ |
// |                                                                                                                    |
// |          Current split capture setting:     Off (optimal)                                                          |
// |                                                                                                                    |
// |   Current clock off simulation setting:     Off (optimal)                                                          |
// | ------------------------------------------------------------------------------------------------------------------ |
//  ------------------------------------------------------------------------
//  Simulation performed for #gates = 20077  #faults = 42860
//  Run fault simulation without storing patterns.  pattern source = 335 external patterns
//  ------------------------------------------------------------------------
//  #patterns  test      #faults  #faults    # eff.    # test         process 
//  simulated  coverage  in list  detected   patterns  patterns       CPU time
//   64         54.71%    19410     23450       64         0          0.52 sec
//   128        59.47%    17371      2039       63         0          0.61 sec
//   192        61.30%    16585       786       63         0          0.68 sec
//   256        62.69%    15990       595       57         0          0.75 sec
//   320        63.52%    15636       354       52         0          0.82 sec
//   335        63.71%    15554        82       13         0          0.87 sec
