// | ------------------------------------------------------------------------------------------------------------------ |
// |                                                                                                                    |
// |          Current split capture setting:     Off (optimal)                                                          |
// |                                                                                                                    |
// |   Current clock off simulation setting:     Off (optimal)                                                          |
// | ------------------------------------------------------------------------------------------------------------------ |
//  ------------------------------------------------------------------------
//  Simulation performed for #gates = 20077  #faults = 44902
//  Run fault simulation without storing patterns.  pattern source = 315 external patterns
//  ------------------------------------------------------------------------
//  #patterns  test      #faults  #faults    # eff.    # test         process 
//  simulated  coverage  in list  detected   patterns  patterns       CPU time
//   64         58.15%    18793     26109       64         0          0.57 sec
//   128        62.80%    16703      2090       64         0          0.66 sec
//   192        65.44%    15518      1185       61         0          0.74 sec
//   256        66.83%    14895       623       60         0          0.80 sec
//   315        67.52%    14585       310       50         0          0.86 sec
