// | ------------------------------------------------------------------------------------------------------------------ |
// |                                                                                                                    |
// |          Current split capture setting:     Off (optimal)                                                          |
// |                                                                                                                    |
// |   Current clock off simulation setting:     Off (optimal)                                                          |
// | ------------------------------------------------------------------------------------------------------------------ |
//  ------------------------------------------------------------------------
//  Simulation performed for #gates = 20077  #faults = 44552
//  Run fault simulation without storing patterns.  pattern source = 332 external patterns
//  ------------------------------------------------------------------------
//  #patterns  test      #faults  #faults    # eff.    # test         process 
//  simulated  coverage  in list  detected   patterns  patterns       CPU time
//   64         55.74%    19719     24833       64         0          0.55 sec
//   128        60.11%    17772      1947       63         0          0.64 sec
//   192        62.47%    16721      1051       61         0          0.73 sec
//   256        63.85%    16104       617       59         0          0.80 sec
//   320        64.71%    15724       380       47         0          0.87 sec
//   332        64.94%    15619       105       11         0          0.92 sec
