// | ------------------------------------------------------------------------------------------------------------------ |
// |                                                                                                                    |
// |          Current split capture setting:     Off (optimal)                                                          |
// |                                                                                                                    |
// |   Current clock off simulation setting:     Off (optimal)                                                          |
// | ------------------------------------------------------------------------------------------------------------------ |
//  ------------------------------------------------------------------------
//  Simulation performed for #gates = 20077  #faults = 44191
//  Run fault simulation without storing patterns.  pattern source = 372 external patterns
//  ------------------------------------------------------------------------
//  #patterns  test      #faults  #faults    # eff.    # test         process 
//  simulated  coverage  in list  detected   patterns  patterns       CPU time
//   64         66.67%    14729     29462       64         0          0.62 sec
//   128        73.78%    11588      3141       64         0          0.70 sec
//   192        76.27%    10486      1102       64         0          0.75 sec
//   256        77.43%     9973       513       64         0          0.80 sec
//   320        77.89%     9770       203       64         0          0.84 sec
//   372        78.06%     9696        74       52         0          0.88 sec
