// | ------------------------------------------------------------------------------------------------------------------ |
// |                                                                                                                    |
// |          Current split capture setting:     Off (optimal)                                                          |
// |                                                                                                                    |
// |   Current clock off simulation setting:     Off (optimal)                                                          |
// | ------------------------------------------------------------------------------------------------------------------ |
//  ------------------------------------------------------------------------
//  Simulation performed for #gates = 20077  #faults = 44480
//  Run fault simulation without storing patterns.  pattern source = 345 external patterns
//  ------------------------------------------------------------------------
//  #patterns  test      #faults  #faults    # eff.    # test         process 
//  simulated  coverage  in list  detected   patterns  patterns       CPU time
//   64         51.64%    21512     22968       64         0          0.51 sec
//   128        56.51%    19343      2169       64         0          0.61 sec
//   192        58.62%    18406       937       62         0          0.69 sec
//   256        60.06%    17767       639       60         0          0.77 sec
//   320        61.23%    17246       521       55         0          0.84 sec
//   345        61.69%    17039       207       19         0          0.91 sec
