// | ------------------------------------------------------------------------------------------------------------------ |
// |                                                                                                                    |
// |          Current split capture setting:     Off (optimal)                                                          |
// |                                                                                                                    |
// |   Current clock off simulation setting:     Off (optimal)                                                          |
// | ------------------------------------------------------------------------------------------------------------------ |
//  ------------------------------------------------------------------------
//  Simulation performed for #gates = 20077  #faults = 42819
//  Run fault simulation without storing patterns.  pattern source = 289 external patterns
//  ------------------------------------------------------------------------
//  #patterns  test      #faults  #faults    # eff.    # test         process 
//  simulated  coverage  in list  detected   patterns  patterns       CPU time
//   64         54.50%    19483     23336       64         0          0.49 sec
//   128        60.17%    17054      2429       62         0          0.59 sec
//   192        62.83%    15915      1139       60         0          0.66 sec
//   256        65.13%    14931       984       59         0          0.73 sec
//   289        65.95%    14582       349       27         0          0.79 sec
