// | ------------------------------------------------------------------------------------------------------------------ |
// |                                                                                                                    |
// |          Current split capture setting:     Off (optimal)                                                          |
// |                                                                                                                    |
// |   Current clock off simulation setting:     Off (optimal)                                                          |
// | ------------------------------------------------------------------------------------------------------------------ |
//  ------------------------------------------------------------------------
//  Simulation performed for #gates = 20077  #faults = 41675
//  Run fault simulation without storing patterns.  pattern source = 331 external patterns
//  ------------------------------------------------------------------------
//  #patterns  test      #faults  #faults    # eff.    # test         process 
//  simulated  coverage  in list  detected   patterns  patterns       CPU time
//   64         50.40%    20671     21004       64         0          0.40 sec
//   128        54.47%    18973      1698       64         0          0.49 sec
//   192        55.71%    18459       514       50         0          0.57 sec
//   256        58.16%    17437      1022       54         0          0.66 sec
//   320        60.63%    16408      1029       52         0          0.73 sec
//   331        61.02%    16245       163       11         0          0.79 sec
