// | ------------------------------------------------------------------------------------------------------------------ |
// |                                                                                                                    |
// |          Current split capture setting:     Off (optimal)                                                          |
// |                                                                                                                    |
// |   Current clock off simulation setting:     Off (optimal)                                                          |
// | ------------------------------------------------------------------------------------------------------------------ |
//  ------------------------------------------------------------------------
//  Simulation performed for #gates = 20077  #faults = 44902
//  Run fault simulation without storing patterns.  pattern source = 351 external patterns
//  ------------------------------------------------------------------------
//  #patterns  test      #faults  #faults    # eff.    # test         process 
//  simulated  coverage  in list  detected   patterns  patterns       CPU time
//   64         47.37%    23634     21268       64         0          0.48 sec
//   128        50.66%    22155      1479       61         0          0.58 sec
//   192        53.02%    21093      1062       55         0          0.68 sec
//   256        54.43%    20463       630       52         0          0.77 sec
//   320        56.89%    19359      1104       58         0          0.85 sec
//   351        57.68%    19002       357       20         0          0.93 sec
