// | ------------------------------------------------------------------------------------------------------------------ |
// |                                                                                                                    |
// |          Current split capture setting:     Off (optimal)                                                          |
// |                                                                                                                    |
// |   Current clock off simulation setting:     Off (optimal)                                                          |
// | ------------------------------------------------------------------------------------------------------------------ |
//  ------------------------------------------------------------------------
//  Simulation performed for #gates = 20077  #faults = 44610
//  Run fault simulation without storing patterns.  pattern source = 313 external patterns
//  ------------------------------------------------------------------------
//  #patterns  test      #faults  #faults    # eff.    # test         process 
//  simulated  coverage  in list  detected   patterns  patterns       CPU time
//   64         53.23%    20866     23744       64         0          0.51 sec
//   128        58.68%    18435      2431       63         0          0.61 sec
//   192        60.66%    17549       886       62         0          0.69 sec
//   256        61.88%    17004       545       58         0          0.76 sec
//   313        62.65%    16663       341       48         0          0.82 sec
