// | ------------------------------------------------------------------------------------------------------------------ |
// |                                                                                                                    |
// |          Current split capture setting:     Off (optimal)                                                          |
// |                                                                                                                    |
// |   Current clock off simulation setting:     Off (optimal)                                                          |
// | ------------------------------------------------------------------------------------------------------------------ |
//  ------------------------------------------------------------------------
//  Simulation performed for #gates = 20077  #faults = 42860
//  Run fault simulation without storing patterns.  pattern source = 317 external patterns
//  ------------------------------------------------------------------------
//  #patterns  test      #faults  #faults    # eff.    # test         process 
//  simulated  coverage  in list  detected   patterns  patterns       CPU time
//   64         46.33%    23001     19859       64         0          0.44 sec
//   128        50.04%    21412      1589       60         0          0.53 sec
//   192        53.12%    20091      1321       58         0          0.62 sec
//   256        54.27%    19602       489       49         0          0.70 sec
//   317        55.93%    18890       712       47         0          0.78 sec
