// | ------------------------------------------------------------------------------------------------------------------ |
// |                                                                                                                    |
// |          Current split capture setting:     Off (optimal)                                                          |
// |                                                                                                                    |
// |   Current clock off simulation setting:     Off (optimal)                                                          |
// | ------------------------------------------------------------------------------------------------------------------ |
//  ------------------------------------------------------------------------
//  Simulation performed for #gates = 20077  #faults = 44856
//  Run fault simulation without storing patterns.  pattern source = 318 external patterns
//  ------------------------------------------------------------------------
//  #patterns  test      #faults  #faults    # eff.    # test         process 
//  simulated  coverage  in list  detected   patterns  patterns       CPU time
//   64         47.88%    23380     21476       64         0          0.45 sec
//   128        52.33%    21385      1995       64         0          0.55 sec
//   192        54.77%    20290      1095       60         0          0.64 sec
//   256        55.96%    19754       536       55         0          0.72 sec
//   318        56.84%    19361       393       47         0          0.79 sec
