// | ------------------------------------------------------------------------------------------------------------------ |
// |                                                                                                                    |
// |          Current split capture setting:     Off (optimal)                                                          |
// |                                                                                                                    |
// |   Current clock off simulation setting:     Off (optimal)                                                          |
// | ------------------------------------------------------------------------------------------------------------------ |
//  ------------------------------------------------------------------------
//  Simulation performed for #gates = 20077  #faults = 44191
//  Run fault simulation without storing patterns.  pattern source = 351 external patterns
//  ------------------------------------------------------------------------
//  #patterns  test      #faults  #faults    # eff.    # test         process 
//  simulated  coverage  in list  detected   patterns  patterns       CPU time
//   64         57.21%    18908     25283       64         0          0.53 sec
//   128        62.46%    16590      2318       64         0          0.62 sec
//   192        65.02%    15459      1131       62         0          0.70 sec
//   256        67.06%    14556       903       60         0          0.77 sec
//   320        68.09%    14102       454       57         0          0.83 sec
//   351        68.44%    13947       155       28         0          0.89 sec
