// | ------------------------------------------------------------------------------------------------------------------ |
// |                                                                                                                    |
// |          Current split capture setting:     Off (optimal)                                                          |
// |                                                                                                                    |
// |   Current clock off simulation setting:     Off (optimal)                                                          |
// | ------------------------------------------------------------------------------------------------------------------ |
//  ------------------------------------------------------------------------
//  Simulation performed for #gates = 20077  #faults = 45857
//  Run fault simulation without storing patterns.  pattern source = 331 external patterns
//  ------------------------------------------------------------------------
//  #patterns  test      #faults  #faults    # eff.    # test         process 
//  simulated  coverage  in list  detected   patterns  patterns       CPU time
//   64         46.53%    24519     21338       64         0          0.49 sec
//   128        50.02%    22920      1599       64         0          0.60 sec
//   192        51.80%    22104       816       60         0          0.70 sec
//   256        53.35%    21391       713       57         0          0.79 sec
//   320        54.83%    20715       676       55         0          0.88 sec
//   331        55.15%    20568       147       11         0          0.95 sec
