// | ------------------------------------------------------------------------------------------------------------------ |
// |                                                                                                                    |
// |          Current split capture setting:     Off (optimal)                                                          |
// |                                                                                                                    |
// |   Current clock off simulation setting:     Off (optimal)                                                          |
// | ------------------------------------------------------------------------------------------------------------------ |
//  ------------------------------------------------------------------------
//  Simulation performed for #gates = 20077  #faults = 43289
//  Run fault simulation without storing patterns.  pattern source = 351 external patterns
//  ------------------------------------------------------------------------
//  #patterns  test      #faults  #faults    # eff.    # test         process 
//  simulated  coverage  in list  detected   patterns  patterns       CPU time
//   64         54.43%    19727     23562       64         0          0.52 sec
//   128        61.42%    16700      3027       64         0          0.61 sec
//   192        64.50%    15366      1334       62         0          0.69 sec
//   256        66.70%    14414       952       60         0          0.76 sec
//   320        67.69%    13986       428       56         0          0.82 sec
//   351        68.14%    13794       192       26         0          0.87 sec
