// | ------------------------------------------------------------------------------------------------------------------ |
// |                                                                                                                    |
// |          Current split capture setting:     Off (optimal)                                                          |
// |                                                                                                                    |
// |   Current clock off simulation setting:     Off (optimal)                                                          |
// | ------------------------------------------------------------------------------------------------------------------ |
//  ------------------------------------------------------------------------
//  Simulation performed for #gates = 20077  #faults = 43655
//  Run fault simulation without storing patterns.  pattern source = 323 external patterns
//  ------------------------------------------------------------------------
//  #patterns  test      #faults  #faults    # eff.    # test         process 
//  simulated  coverage  in list  detected   patterns  patterns       CPU time
//   64         44.55%    24208     19447       64         0          0.42 sec
//   128        48.99%    22267      1941       61         0          0.52 sec
//   192        50.57%    21578       689       58         0          0.61 sec
//   256        51.96%    20973       605       49         0          0.70 sec
//   320        54.52%    19854      1119       47         0          0.80 sec
//   323        54.54%    19847         7        1         0          0.87 sec
