// | ------------------------------------------------------------------------------------------------------------------ |
// |                                                                                                                    |
// |          Current split capture setting:     Off (optimal)                                                          |
// |                                                                                                                    |
// |   Current clock off simulation setting:     Off (optimal)                                                          |
// | ------------------------------------------------------------------------------------------------------------------ |
//  ------------------------------------------------------------------------
//  Simulation performed for #gates = 20077  #faults = 44565
//  Run fault simulation without storing patterns.  pattern source = 297 external patterns
//  ------------------------------------------------------------------------
//  #patterns  test      #faults  #faults    # eff.    # test         process 
//  simulated  coverage  in list  detected   patterns  patterns       CPU time
//   64         44.73%    24629     19936       64         0          0.43 sec
//   128        49.08%    22692      1937       60         0          0.55 sec
//   192        50.64%    21996       696       54         0          0.65 sec
//   256        52.39%    21219       777       50         0          0.74 sec
//   297        53.64%    20660       559       32         0          0.83 sec
