// | ------------------------------------------------------------------------------------------------------------------ |
// |                                                                                                                    |
// |          Current split capture setting:     Off (optimal)                                                          |
// |                                                                                                                    |
// |   Current clock off simulation setting:     Off (optimal)                                                          |
// | ------------------------------------------------------------------------------------------------------------------ |
//  ------------------------------------------------------------------------
//  Simulation performed for #gates = 20077  #faults = 43945
//  Run fault simulation without storing patterns.  pattern source = 316 external patterns
//  ------------------------------------------------------------------------
//  #patterns  test      #faults  #faults    # eff.    # test         process 
//  simulated  coverage  in list  detected   patterns  patterns       CPU time
//   64         44.45%    24412     19533       64         0          0.43 sec
//   128        48.49%    22635      1777       62         0          0.54 sec
//   192        51.27%    21414      1221       57         0          0.64 sec
//   256        52.82%    20735       679       52         0          0.73 sec
//   316        55.44%    19580      1155       43         0          0.81 sec
