// | ------------------------------------------------------------------------------------------------------------------ |
// |                                                                                                                    |
// |          Current split capture setting:     Off (optimal)                                                          |
// |                                                                                                                    |
// |   Current clock off simulation setting:     Off (optimal)                                                          |
// | ------------------------------------------------------------------------------------------------------------------ |
//  ------------------------------------------------------------------------
//  Simulation performed for #gates = 20077  #faults = 44360
//  Run fault simulation without storing patterns.  pattern source = 321 external patterns
//  ------------------------------------------------------------------------
//  #patterns  test      #faults  #faults    # eff.    # test         process 
//  simulated  coverage  in list  detected   patterns  patterns       CPU time
//   64         46.65%    23668     20692       64         0          0.44 sec
//   128        50.25%    22067      1601       64         0          0.55 sec
//   192        52.31%    21157       910       58         0          0.64 sec
//   256        53.51%    20625       532       54         0          0.73 sec
//   320        54.62%    20132       493       46         0          0.82 sec
//   321        54.62%    20129         3        1         0          0.89 sec
