// | ------------------------------------------------------------------------------------------------------------------ |
// |                                                                                                                    |
// |          Current split capture setting:     Off (optimal)                                                          |
// |                                                                                                                    |
// |   Current clock off simulation setting:     Off (optimal)                                                          |
// | ------------------------------------------------------------------------------------------------------------------ |
//  ------------------------------------------------------------------------
//  Simulation performed for #gates = 20077  #faults = 42453
//  Run fault simulation without storing patterns.  pattern source = 323 external patterns
//  ------------------------------------------------------------------------
//  #patterns  test      #faults  #faults    # eff.    # test         process 
//  simulated  coverage  in list  detected   patterns  patterns       CPU time
//   64         48.01%    22070     20383       64         0          0.44 sec
//   128        52.70%    20081      1989       63         0          0.54 sec
//   192        54.64%    19257       824       57         0          0.63 sec
//   256        56.29%    18558       699       54         0          0.71 sec
//   320        58.34%    17688       870       54         0          0.79 sec
//   323        58.35%    17681         7        2         0          0.85 sec
