// | ------------------------------------------------------------------------------------------------------------------ |
// |                                                                                                                    |
// |          Current split capture setting:     Off (optimal)                                                          |
// |                                                                                                                    |
// |   Current clock off simulation setting:     Off (optimal)                                                          |
// | ------------------------------------------------------------------------------------------------------------------ |
//  ------------------------------------------------------------------------
//  Simulation performed for #gates = 20077  #faults = 44972
//  Run fault simulation without storing patterns.  pattern source = 307 external patterns
//  ------------------------------------------------------------------------
//  #patterns  test      #faults  #faults    # eff.    # test         process 
//  simulated  coverage  in list  detected   patterns  patterns       CPU time
//   64         40.96%    26550     18422       64         0          0.42 sec
//   128        44.50%    24958      1592       61         0          0.54 sec
//   192        46.46%    24078       880       59         0          0.64 sec
//   256        49.28%    22810      1268       51         0          0.74 sec
//   307        51.18%    21957       853       43         0          0.83 sec
