// | ------------------------------------------------------------------------------------------------------------------ |
// |                                                                                                                    |
// |          Current split capture setting:     Off (optimal)                                                          |
// |                                                                                                                    |
// |   Current clock off simulation setting:     Off (optimal)                                                          |
// | ------------------------------------------------------------------------------------------------------------------ |
//  ------------------------------------------------------------------------
//  Simulation performed for #gates = 20077  #faults = 41834
//  Run fault simulation without storing patterns.  pattern source = 315 external patterns
//  ------------------------------------------------------------------------
//  #patterns  test      #faults  #faults    # eff.    # test         process 
//  simulated  coverage  in list  detected   patterns  patterns       CPU time
//   64         58.14%    17510     24324       64         0          0.53 sec
//   128        63.54%    15253      2257       63         0          0.60 sec
//   192        65.41%    14469       784       62         0          0.67 sec
//   256        66.37%    14069       400       56         0          0.73 sec
//   315        67.59%    13557       512       45         0          0.78 sec
