// | ------------------------------------------------------------------------------------------------------------------ |
// |                                                                                                                    |
// |          Current split capture setting:     Off (optimal)                                                          |
// |                                                                                                                    |
// |   Current clock off simulation setting:     Off (optimal)                                                          |
// | ------------------------------------------------------------------------------------------------------------------ |
//  ------------------------------------------------------------------------
//  Simulation performed for #gates = 20077  #faults = 44972
//  Run fault simulation without storing patterns.  pattern source = 350 external patterns
//  ------------------------------------------------------------------------
//  #patterns  test      #faults  #faults    # eff.    # test         process 
//  simulated  coverage  in list  detected   patterns  patterns       CPU time
//   64         51.85%    21652     23320       64         0          0.49 sec
//   128        58.34%    18734      2918       63         0          0.60 sec
//   192        60.91%    17578      1156       60         0          0.68 sec
//   256        62.45%    16888       690       60         0          0.75 sec
//   320        63.40%    16460       428       56         0          0.82 sec
//   350        63.85%    16257       203       22         0          0.88 sec
