// | ------------------------------------------------------------------------------------------------------------------ |
// |                                                                                                                    |
// |          Current split capture setting:     Off (optimal)                                                          |
// |                                                                                                                    |
// |   Current clock off simulation setting:     Off (optimal)                                                          |
// | ------------------------------------------------------------------------------------------------------------------ |
//  ------------------------------------------------------------------------
//  Simulation performed for #gates = 20077  #faults = 44779
//  Run fault simulation without storing patterns.  pattern source = 317 external patterns
//  ------------------------------------------------------------------------
//  #patterns  test      #faults  #faults    # eff.    # test         process 
//  simulated  coverage  in list  detected   patterns  patterns       CPU time
//   64         48.43%    23091     21688       64         0          0.47 sec
//   128        52.46%    21289      1802       63         0          0.57 sec
//   192        54.44%    20400       889       61         0          0.66 sec
//   256        55.54%    19910       490       58         0          0.74 sec
//   317        56.49%    19484       426       46         0          0.82 sec
