// | ------------------------------------------------------------------------------------------------------------------ |
// |                                                                                                                    |
// |          Current split capture setting:     Off (optimal)                                                          |
// |                                                                                                                    |
// |   Current clock off simulation setting:     Off (optimal)                                                          |
// | ------------------------------------------------------------------------------------------------------------------ |
//  ------------------------------------------------------------------------
//  Simulation performed for #gates = 20077  #faults = 45537
//  Run fault simulation without storing patterns.  pattern source = 317 external patterns
//  ------------------------------------------------------------------------
//  #patterns  test      #faults  #faults    # eff.    # test         process 
//  simulated  coverage  in list  detected   patterns  patterns       CPU time
//   64         52.54%    21613     23924       64         0          0.54 sec
//   128        58.29%    18993      2620       64         0          0.65 sec
//   192        60.77%    17865      1128       62         0          0.73 sec
//   256        61.90%    17350       515       60         0          0.81 sec
//   317        62.78%    16949       401       47         0          0.88 sec
