// | ------------------------------------------------------------------------------------------------------------------ |
// |                                                                                                                    |
// |          Current split capture setting:     Off (optimal)                                                          |
// |                                                                                                                    |
// |   Current clock off simulation setting:     Off (optimal)                                                          |
// | ------------------------------------------------------------------------------------------------------------------ |
//  ------------------------------------------------------------------------
//  Simulation performed for #gates = 20077  #faults = 44842
//  Run fault simulation without storing patterns.  pattern source = 372 external patterns
//  ------------------------------------------------------------------------
//  #patterns  test      #faults  #faults    # eff.    # test         process 
//  simulated  coverage  in list  detected   patterns  patterns       CPU time
//   64         52.38%    21353     23489       64         0          0.53 sec
//   128        56.36%    19571      1782       63         0          0.63 sec
//   192        58.08%    18800       771       61         0          0.71 sec
//   256        59.96%    17953       847       61         0          0.79 sec
//   320        60.95%    17510       443       48         0          0.87 sec
//   372        61.44%    17292       218       33         0          0.94 sec
