// | ------------------------------------------------------------------------------------------------------------------ |
// |                                                                                                                    |
// |          Current split capture setting:     Off (optimal)                                                          |
// |                                                                                                                    |
// |   Current clock off simulation setting:     Off (optimal)                                                          |
// | ------------------------------------------------------------------------------------------------------------------ |
//  ------------------------------------------------------------------------
//  Simulation performed for #gates = 20077  #faults = 44403
//  Run fault simulation without storing patterns.  pattern source = 332 external patterns
//  ------------------------------------------------------------------------
//  #patterns  test      #faults  #faults    # eff.    # test         process 
//  simulated  coverage  in list  detected   patterns  patterns       CPU time
//   64         48.80%    22733     21670       64         0          0.50 sec
//   128        53.74%    20541      2192       64         0          0.61 sec
//   192        55.98%    19544       997       63         0          0.70 sec
//   256        57.43%    18902       642       60         0          0.78 sec
//   320        58.08%    18615       287       50         0          0.86 sec
//   332        58.14%    18588        27        7         0          0.93 sec
