// | ------------------------------------------------------------------------------------------------------------------ |
// |                                                                                                                    |
// |          Current split capture setting:     Off (optimal)                                                          |
// |                                                                                                                    |
// |   Current clock off simulation setting:     Off (optimal)                                                          |
// | ------------------------------------------------------------------------------------------------------------------ |
//  ------------------------------------------------------------------------
//  Simulation performed for #gates = 20077  #faults = 45725
//  Run fault simulation without storing patterns.  pattern source = 347 external patterns
//  ------------------------------------------------------------------------
//  #patterns  test      #faults  #faults    # eff.    # test         process 
//  simulated  coverage  in list  detected   patterns  patterns       CPU time
//   64         44.51%    25371     20354       64         0          0.44 sec
//   128        47.58%    23968      1403       60         0          0.55 sec
//   192        49.93%    22895      1073       60         0          0.66 sec
//   256        51.65%    22108       787       56         0          0.75 sec
//   320        53.26%    21372       736       53         0          0.84 sec
//   347        53.99%    21038       334       24         0          0.93 sec
