// | ------------------------------------------------------------------------------------------------------------------ |
// |                                                                                                                    |
// |          Current split capture setting:     Off (optimal)                                                          |
// |                                                                                                                    |
// |   Current clock off simulation setting:     Off (optimal)                                                          |
// | ------------------------------------------------------------------------------------------------------------------ |
//  ------------------------------------------------------------------------
//  Simulation performed for #gates = 20077  #faults = 45184
//  Run fault simulation without storing patterns.  pattern source = 319 external patterns
//  ------------------------------------------------------------------------
//  #patterns  test      #faults  #faults    # eff.    # test         process 
//  simulated  coverage  in list  detected   patterns  patterns       CPU time
//   64         41.62%    26377     18807       64         0          0.42 sec
//   128        44.61%    25026      1351       62         0          0.54 sec
//   192        46.33%    24250       776       59         0          0.64 sec
//   256        47.89%    23545       705       50         0          0.74 sec
//   319        49.88%    22648       897       49         0          0.84 sec
