// | ------------------------------------------------------------------------------------------------------------------ |
// |                                                                                                                    |
// |          Current split capture setting:     Off (optimal)                                                          |
// |                                                                                                                    |
// |   Current clock off simulation setting:     Off (optimal)                                                          |
// | ------------------------------------------------------------------------------------------------------------------ |
//  ------------------------------------------------------------------------
//  Simulation performed for #gates = 20077  #faults = 40648
//  Run fault simulation without storing patterns.  pattern source = 315 external patterns
//  ------------------------------------------------------------------------
//  #patterns  test      #faults  #faults    # eff.    # test         process 
//  simulated  coverage  in list  detected   patterns  patterns       CPU time
//   64         49.72%    20438     20210       64         0          0.42 sec
//   128        53.04%    19087      1351       63         0          0.51 sec
//   192        54.62%    18446       641       54         0          0.59 sec
//   256        55.80%    17965       481       59         0          0.67 sec
//   315        57.00%    17479       486       49         0          0.75 sec
