// | ------------------------------------------------------------------------------------------------------------------ |
// |                                                                                                                    |
// |          Current split capture setting:     Off (optimal)                                                          |
// |                                                                                                                    |
// |   Current clock off simulation setting:     Off (optimal)                                                          |
// | ------------------------------------------------------------------------------------------------------------------ |
//  ------------------------------------------------------------------------
//  Simulation performed for #gates = 20077  #faults = 45184
//  Run fault simulation without storing patterns.  pattern source = 347 external patterns
//  ------------------------------------------------------------------------
//  #patterns  test      #faults  #faults    # eff.    # test         process 
//  simulated  coverage  in list  detected   patterns  patterns       CPU time
//   64         42.94%    25781     19403       64         0          0.43 sec
//   128        45.06%    24822       959       62         0          0.54 sec
//   192        46.54%    24154       668       57         0          0.64 sec
//   256        47.39%    23770       384       53         0          0.74 sec
//   320        48.90%    23088       682       44         0          0.84 sec
//   347        49.50%    22820       268       18         0          0.93 sec
