// | ------------------------------------------------------------------------------------------------------------------ |
// |                                                                                                                    |
// |          Current split capture setting:     Off (optimal)                                                          |
// |                                                                                                                    |
// |   Current clock off simulation setting:     Off (optimal)                                                          |
// | ------------------------------------------------------------------------------------------------------------------ |
//  ------------------------------------------------------------------------
//  Simulation performed for #gates = 20077  #faults = 44310
//  Run fault simulation without storing patterns.  pattern source = 328 external patterns
//  ------------------------------------------------------------------------
//  #patterns  test      #faults  #faults    # eff.    # test         process 
//  simulated  coverage  in list  detected   patterns  patterns       CPU time
//   64         53.82%    20462     23848       64         0          0.51 sec
//   128        60.01%    17721      2741       64         0          0.61 sec
//   192        63.25%    16284      1437       62         0          0.69 sec
//   256        65.27%    15391       893       58         0          0.76 sec
//   320        66.66%    14775       616       57         0          0.82 sec
//   328        66.78%    14719        56        8         0          0.87 sec
