// | ------------------------------------------------------------------------------------------------------------------ |
// |                                                                                                                    |
// |          Current split capture setting:     Off (optimal)                                                          |
// |                                                                                                                    |
// |   Current clock off simulation setting:     Off (optimal)                                                          |
// | ------------------------------------------------------------------------------------------------------------------ |
//  ------------------------------------------------------------------------
//  Simulation performed for #gates = 20077  #faults = 42803
//  Run fault simulation without storing patterns.  pattern source = 317 external patterns
//  ------------------------------------------------------------------------
//  #patterns  test      #faults  #faults    # eff.    # test         process 
//  simulated  coverage  in list  detected   patterns  patterns       CPU time
//   64         52.57%    20303     22500       64         0          0.42 sec
//   128        57.14%    18344      1959       63         0          0.51 sec
//   192        59.47%    17348       996       59         0          0.58 sec
//   256        61.35%    16542       806       50         0          0.65 sec
//   317        62.91%    15877       665       48         0          0.72 sec
