// | ------------------------------------------------------------------------------------------------------------------ |
// |                                                                                                                    |
// |          Current split capture setting:     Off (optimal)                                                          |
// |                                                                                                                    |
// |   Current clock off simulation setting:     Off (optimal)                                                          |
// | ------------------------------------------------------------------------------------------------------------------ |
//  ------------------------------------------------------------------------
//  Simulation performed for #gates = 20077  #faults = 44779
//  Run fault simulation without storing patterns.  pattern source = 372 external patterns
//  ------------------------------------------------------------------------
//  #patterns  test      #faults  #faults    # eff.    # test         process 
//  simulated  coverage  in list  detected   patterns  patterns       CPU time
//   64         49.02%    22830     21949       64         0          0.49 sec
//   128        54.52%    20365      2465       64         0          0.59 sec
//   192        56.47%    19493       872       60         0          0.68 sec
//   256        57.93%    18840       653       55         0          0.76 sec
//   320        58.52%    18573       267       48         0          0.83 sec
//   372        59.14%    18296       277       35         0          0.90 sec
