// | ------------------------------------------------------------------------------------------------------------------ |
// |                                                                                                                    |
// |          Current split capture setting:     Off (optimal)                                                          |
// |                                                                                                                    |
// |   Current clock off simulation setting:     Off (optimal)                                                          |
// | ------------------------------------------------------------------------------------------------------------------ |
//  ------------------------------------------------------------------------
//  Simulation performed for #gates = 20077  #faults = 42825
//  Run fault simulation without storing patterns.  pattern source = 324 external patterns
//  ------------------------------------------------------------------------
//  #patterns  test      #faults  #faults    # eff.    # test         process 
//  simulated  coverage  in list  detected   patterns  patterns       CPU time
//   64         54.43%    19517     23308       64         0          0.53 sec
//   128        59.12%    17509      2008       63         0          0.62 sec
//   192        61.52%    16478      1031       62         0          0.69 sec
//   256        62.97%    15859       619       58         0          0.76 sec
//   320        63.54%    15614       245       49         0          0.82 sec
//   324        63.59%    15592        22        3         0          0.87 sec
