// | ------------------------------------------------------------------------------------------------------------------ |
// |                                                                                                                    |
// |          Current split capture setting:     Off (optimal)                                                          |
// |                                                                                                                    |
// |   Current clock off simulation setting:     Off (optimal)                                                          |
// | ------------------------------------------------------------------------------------------------------------------ |
//  ------------------------------------------------------------------------
//  Simulation performed for #gates = 20077  #faults = 44325
//  Run fault simulation without storing patterns.  pattern source = 346 external patterns
//  ------------------------------------------------------------------------
//  #patterns  test      #faults  #faults    # eff.    # test         process 
//  simulated  coverage  in list  detected   patterns  patterns       CPU time
//   64         51.73%    21394     22931       64         0          0.47 sec
//   128        55.40%    19768      1626       64         0          0.57 sec
//   192        57.01%    19054       714       60         0          0.65 sec
//   256        58.53%    18383       671       56         0          0.73 sec
//   320        59.44%    17977       406       47         0          0.81 sec
//   346        59.94%    17756       221       22         0          0.88 sec
