// | ------------------------------------------------------------------------------------------------------------------ |
// |                                                                                                                    |
// |          Current split capture setting:     Off (optimal)                                                          |
// |                                                                                                                    |
// |   Current clock off simulation setting:     Off (optimal)                                                          |
// | ------------------------------------------------------------------------------------------------------------------ |
//  ------------------------------------------------------------------------
//  Simulation performed for #gates = 20077  #faults = 39846
//  Run fault simulation without storing patterns.  pattern source = 230 external patterns
//  ------------------------------------------------------------------------
//  #patterns  test      #faults  #faults    # eff.    # test         process 
//  simulated  coverage  in list  detected   patterns  patterns       CPU time
//   64         42.69%    22837     17009       64         0          0.34 sec
//   128        45.67%    21648      1189       62         0          0.43 sec
//   192        47.57%    20893       755       61         0          0.52 sec
//   230        48.32%    20592       301       32         0          0.60 sec
