// | ------------------------------------------------------------------------------------------------------------------ |
// |                                                                                                                    |
// |          Current split capture setting:     Off (optimal)                                                          |
// |                                                                                                                    |
// |   Current clock off simulation setting:     Off (optimal)                                                          |
// | ------------------------------------------------------------------------------------------------------------------ |
//  ------------------------------------------------------------------------
//  Simulation performed for #gates = 20077  #faults = 37546
//  Run fault simulation without storing patterns.  pattern source = 203 external patterns
//  ------------------------------------------------------------------------
//  #patterns  test      #faults  #faults    # eff.    # test         process 
//  simulated  coverage  in list  detected   patterns  patterns       CPU time
//   64         39.42%    22744     14802       64         0          0.30 sec
//   128        42.18%    21710      1034       59         0          0.40 sec
//   192        44.45%    20857       853       55         0          0.49 sec
//   203        44.55%    20819        38        6         0          0.56 sec
