// | ------------------------------------------------------------------------------------------------------------------ |
// |                                                                                                                    |
// |          Current split capture setting:     Off (optimal)                                                          |
// |                                                                                                                    |
// |   Current clock off simulation setting:     Off (optimal)                                                          |
// | ------------------------------------------------------------------------------------------------------------------ |
//  ------------------------------------------------------------------------
//  Simulation performed for #gates = 20077  #faults = 36198
//  Run fault simulation without storing patterns.  pattern source = 213 external patterns
//  ------------------------------------------------------------------------
//  #patterns  test      #faults  #faults    # eff.    # test         process 
//  simulated  coverage  in list  detected   patterns  patterns       CPU time
//   64         46.30%    19440     16758       64         0          0.32 sec
//   128        49.27%    18365      1075       62         0          0.40 sec
//   192        51.26%    17644       721       55         0          0.48 sec
//   213        51.60%    17521       123       17         0          0.55 sec
