// | ------------------------------------------------------------------------------------------------------------------ |
// |                                                                                                                    |
// |          Current split capture setting:     Off (optimal)                                                          |
// |                                                                                                                    |
// |   Current clock off simulation setting:     Off (optimal)                                                          |
// | ------------------------------------------------------------------------------------------------------------------ |
//  ------------------------------------------------------------------------
//  Simulation performed for #gates = 20077  #faults = 36783
//  Run fault simulation without storing patterns.  pattern source = 241 external patterns
//  ------------------------------------------------------------------------
//  #patterns  test      #faults  #faults    # eff.    # test         process 
//  simulated  coverage  in list  detected   patterns  patterns       CPU time
//   64         45.04%    20216     16567       64         0          0.31 sec
//   128        48.37%    18991      1225       61         0          0.40 sec
//   192        49.90%    18430       561       54         0          0.48 sec
//   241        51.07%    17997       433       40         0          0.55 sec
