// | ------------------------------------------------------------------------------------------------------------------ |
// |                                                                                                                    |
// |          Current split capture setting:     Off (optimal)                                                          |
// |                                                                                                                    |
// |   Current clock off simulation setting:     Off (optimal)                                                          |
// | ------------------------------------------------------------------------------------------------------------------ |
//  ------------------------------------------------------------------------
//  Simulation performed for #gates = 20077  #faults = 35595
//  Run fault simulation without storing patterns.  pattern source = 258 external patterns
//  ------------------------------------------------------------------------
//  #patterns  test      #faults  #faults    # eff.    # test         process 
//  simulated  coverage  in list  detected   patterns  patterns       CPU time
//   64         47.28%    18767     16828       64         0          0.34 sec
//   128        49.75%    17887       880       61         0          0.42 sec
//   192        51.47%    17275       612       59         0          0.49 sec
//   256        53.17%    16668       607       54         0          0.56 sec
//   258        53.23%    16647        21        2         0          0.61 sec
