// | ------------------------------------------------------------------------------------------------------------------ |
// |                                                                                                                    |
// |          Current split capture setting:     Off (optimal)                                                          |
// |                                                                                                                    |
// |   Current clock off simulation setting:     Off (optimal)                                                          |
// | ------------------------------------------------------------------------------------------------------------------ |
//  ------------------------------------------------------------------------
//  Simulation performed for #gates = 20077  #faults = 35533
//  Run fault simulation without storing patterns.  pattern source = 249 external patterns
//  ------------------------------------------------------------------------
//  #patterns  test      #faults  #faults    # eff.    # test         process 
//  simulated  coverage  in list  detected   patterns  patterns       CPU time
//   64         52.31%    16944     18589       64         0          0.37 sec
//   128        56.14%    15584      1360       62         0          0.44 sec
//   192        57.72%    15024       560       63         0          0.51 sec
//   249        58.60%    14709       315       47         0          0.56 sec
