// | ------------------------------------------------------------------------------------------------------------------ |
// |                                                                                                                    |
// |          Current split capture setting:     Off (optimal)                                                          |
// |                                                                                                                    |
// |   Current clock off simulation setting:     Off (optimal)                                                          |
// | ------------------------------------------------------------------------------------------------------------------ |
//  ------------------------------------------------------------------------
//  Simulation performed for #gates = 20077  #faults = 33546
//  Run fault simulation without storing patterns.  pattern source = 244 external patterns
//  ------------------------------------------------------------------------
//  #patterns  test      #faults  #faults    # eff.    # test         process 
//  simulated  coverage  in list  detected   patterns  patterns       CPU time
//   64         45.67%    18226     15320       64         0          0.29 sec
//   128        48.09%    17413       813       62         0          0.37 sec
//   192        50.21%    16704       709       55         0          0.44 sec
//   244        52.32%    15994       710       40         0          0.51 sec
