// | ------------------------------------------------------------------------------------------------------------------ |
// |                                                                                                                    |
// |          Current split capture setting:     Off (optimal)                                                          |
// |                                                                                                                    |
// |   Current clock off simulation setting:     Off (optimal)                                                          |
// | ------------------------------------------------------------------------------------------------------------------ |
//  ------------------------------------------------------------------------
//  Simulation performed for #gates = 20077  #faults = 37792
//  Run fault simulation without storing patterns.  pattern source = 224 external patterns
//  ------------------------------------------------------------------------
//  #patterns  test      #faults  #faults    # eff.    # test         process 
//  simulated  coverage  in list  detected   patterns  patterns       CPU time
//   64         44.19%    21091     16701       64         0          0.32 sec
//   128        46.93%    20055      1036       62         0          0.40 sec
//   192        49.18%    19207       848       55         0          0.48 sec
//   224        49.65%    19027       180       22         0          0.55 sec
