// | ------------------------------------------------------------------------------------------------------------------ |
// |                                                                                                                    |
// |          Current split capture setting:     Off (optimal)                                                          |
// |                                                                                                                    |
// |   Current clock off simulation setting:     Off (optimal)                                                          |
// | ------------------------------------------------------------------------------------------------------------------ |
//  ------------------------------------------------------------------------
//  Simulation performed for #gates = 20077  #faults = 35533
//  Run fault simulation without storing patterns.  pattern source = 226 external patterns
//  ------------------------------------------------------------------------
//  #patterns  test      #faults  #faults    # eff.    # test         process 
//  simulated  coverage  in list  detected   patterns  patterns       CPU time
//   64         51.75%    17146     18387       64         0          0.37 sec
//   128        55.75%    15725      1421       64         0          0.44 sec
//   192        57.33%    15161       564       58         0          0.51 sec
//   226        58.08%    14895       266       32         0          0.57 sec
