// | ------------------------------------------------------------------------------------------------------------------ |
// |                                                                                                                    |
// |          Current split capture setting:     Off (optimal)                                                          |
// |                                                                                                                    |
// |   Current clock off simulation setting:     Off (optimal)                                                          |
// | ------------------------------------------------------------------------------------------------------------------ |
//  ------------------------------------------------------------------------
//  Simulation performed for #gates = 20077  #faults = 36783
//  Run fault simulation without storing patterns.  pattern source = 211 external patterns
//  ------------------------------------------------------------------------
//  #patterns  test      #faults  #faults    # eff.    # test         process 
//  simulated  coverage  in list  detected   patterns  patterns       CPU time
//   64         44.72%    20335     16448       64         0          0.32 sec
//   128        48.08%    19098      1237       62         0          0.41 sec
//   192        50.39%    18247       851       58         0          0.48 sec
//   211        50.69%    18137       110       15         0          0.55 sec
