// | ------------------------------------------------------------------------------------------------------------------ |
// |                                                                                                                    |
// |          Current split capture setting:     Off (optimal)                                                          |
// |                                                                                                                    |
// |   Current clock off simulation setting:     Off (optimal)                                                          |
// | ------------------------------------------------------------------------------------------------------------------ |
//  ------------------------------------------------------------------------
//  Simulation performed for #gates = 20077  #faults = 34577
//  Run fault simulation without storing patterns.  pattern source = 240 external patterns
//  ------------------------------------------------------------------------
//  #patterns  test      #faults  #faults    # eff.    # test         process 
//  simulated  coverage  in list  detected   patterns  patterns       CPU time
//   64         50.50%    17115     17462       64         0          0.32 sec
//   128        53.67%    16019      1096       61         0          0.39 sec
//   192        55.19%    15495       524       53         0          0.46 sec
//   240        55.89%    15252       243       42         0          0.52 sec
