// | ------------------------------------------------------------------------------------------------------------------ |
// |                                                                                                                    |
// |          Current split capture setting:     Off (optimal)                                                          |
// |                                                                                                                    |
// |   Current clock off simulation setting:     Off (optimal)                                                          |
// | ------------------------------------------------------------------------------------------------------------------ |
//  ------------------------------------------------------------------------
//  Simulation performed for #gates = 20077  #faults = 34912
//  Run fault simulation without storing patterns.  pattern source = 215 external patterns
//  ------------------------------------------------------------------------
//  #patterns  test      #faults  #faults    # eff.    # test         process 
//  simulated  coverage  in list  detected   patterns  patterns       CPU time
//   64         44.89%    19240     15672       64         0          0.28 sec
//   128        48.69%    17913      1327       59         0          0.37 sec
//   192        50.16%    17401       512       50         0          0.44 sec
//   215        50.73%    17201       200       18         0          0.51 sec
