// | ------------------------------------------------------------------------------------------------------------------ |
// |                                                                                                                    |
// |          Current split capture setting:     Off (optimal)                                                          |
// |                                                                                                                    |
// |   Current clock off simulation setting:     Off (optimal)                                                          |
// | ------------------------------------------------------------------------------------------------------------------ |
//  ------------------------------------------------------------------------
//  Simulation performed for #gates = 20077  #faults = 34852
//  Run fault simulation without storing patterns.  pattern source = 203 external patterns
//  ------------------------------------------------------------------------
//  #patterns  test      #faults  #faults    # eff.    # test         process 
//  simulated  coverage  in list  detected   patterns  patterns       CPU time
//   64         50.77%    17156     17696       64         0          0.32 sec
//   128        54.51%    15855      1301       61         0          0.40 sec
//   192        56.32%    15224       631       62         0          0.47 sec
//   203        56.46%    15176        48        9         0          0.52 sec
