// | ------------------------------------------------------------------------------------------------------------------ |
// |                                                                                                                    |
// |          Current split capture setting:     Off (optimal)                                                          |
// |                                                                                                                    |
// |   Current clock off simulation setting:     Off (optimal)                                                          |
// | ------------------------------------------------------------------------------------------------------------------ |
//  ------------------------------------------------------------------------
//  Simulation performed for #gates = 20077  #faults = 35738
//  Run fault simulation without storing patterns.  pattern source = 235 external patterns
//  ------------------------------------------------------------------------
//  #patterns  test      #faults  #faults    # eff.    # test         process 
//  simulated  coverage  in list  detected   patterns  patterns       CPU time
//   64         44.08%    19984     15754       64         0          0.27 sec
//   128        46.91%    18975      1009       62         0          0.35 sec
//   192        48.37%    18451       524       52         0          0.42 sec
//   235        49.21%    18150       301       32         0          0.50 sec
