// | ------------------------------------------------------------------------------------------------------------------ |
// |                                                                                                                    |
// |          Current split capture setting:     Off (optimal)                                                          |
// |                                                                                                                    |
// |   Current clock off simulation setting:     Off (optimal)                                                          |
// | ------------------------------------------------------------------------------------------------------------------ |
//  ------------------------------------------------------------------------
//  Simulation performed for #gates = 20077  #faults = 35656
//  Run fault simulation without storing patterns.  pattern source = 212 external patterns
//  ------------------------------------------------------------------------
//  #patterns  test      #faults  #faults    # eff.    # test         process 
//  simulated  coverage  in list  detected   patterns  patterns       CPU time
//   64         48.61%    18323     17333       64         0          0.33 sec
//   128        51.97%    17126      1197       61         0          0.40 sec
//   192        53.97%    16414       712       58         0          0.48 sec
//   212        54.24%    16316        98       18         0          0.54 sec
