// | ------------------------------------------------------------------------------------------------------------------ |
// |                                                                                                                    |
// |          Current split capture setting:     Off (optimal)                                                          |
// |                                                                                                                    |
// |   Current clock off simulation setting:     Off (optimal)                                                          |
// | ------------------------------------------------------------------------------------------------------------------ |
//  ------------------------------------------------------------------------
//  Simulation performed for #gates = 20077  #faults = 35738
//  Run fault simulation without storing patterns.  pattern source = 225 external patterns
//  ------------------------------------------------------------------------
//  #patterns  test      #faults  #faults    # eff.    # test         process 
//  simulated  coverage  in list  detected   patterns  patterns       CPU time
//   64         47.76%    18668     17070       64         0          0.34 sec
//   128        51.27%    17414      1254       62         0          0.42 sec
//   192        52.89%    16837       577       58         0          0.49 sec
//   225        53.47%    16629       208       32         0          0.55 sec
