// | ------------------------------------------------------------------------------------------------------------------ |
// |                                                                                                                    |
// |          Current split capture setting:     Off (optimal)                                                          |
// |                                                                                                                    |
// |   Current clock off simulation setting:     Off (optimal)                                                          |
// | ------------------------------------------------------------------------------------------------------------------ |
//  ------------------------------------------------------------------------
//  Simulation performed for #gates = 20077  #faults = 33932
//  Run fault simulation without storing patterns.  pattern source = 202 external patterns
//  ------------------------------------------------------------------------
//  #patterns  test      #faults  #faults    # eff.    # test         process 
//  simulated  coverage  in list  detected   patterns  patterns       CPU time
//   64         46.61%    18115     15817       64         0          0.29 sec
//   128        50.03%    16955      1160       60         0          0.36 sec
//   192        53.17%    15892      1063       60         0          0.43 sec
//   202        53.50%    15779       113        9         0          0.49 sec
