// | ------------------------------------------------------------------------------------------------------------------ |
// |                                                                                                                    |
// |          Current split capture setting:     Off (optimal)                                                          |
// |                                                                                                                    |
// |   Current clock off simulation setting:     Off (optimal)                                                          |
// | ------------------------------------------------------------------------------------------------------------------ |
//  ------------------------------------------------------------------------
//  Simulation performed for #gates = 20077  #faults = 33491
//  Run fault simulation without storing patterns.  pattern source = 237 external patterns
//  ------------------------------------------------------------------------
//  #patterns  test      #faults  #faults    # eff.    # test         process 
//  simulated  coverage  in list  detected   patterns  patterns       CPU time
//   64         48.64%    17201     16290       64         0          0.30 sec
//   128        52.31%    15971      1230       61         0          0.38 sec
//   192        54.22%    15333       638       56         0          0.44 sec
//   237        54.74%    15158       175       33         0          0.50 sec
