// | ------------------------------------------------------------------------------------------------------------------ |
// |                                                                                                                    |
// |          Current split capture setting:     Off (optimal)                                                          |
// |                                                                                                                    |
// |   Current clock off simulation setting:     Off (optimal)                                                          |
// | ------------------------------------------------------------------------------------------------------------------ |
//  ------------------------------------------------------------------------
//  Simulation performed for #gates = 20077  #faults = 36198
//  Run fault simulation without storing patterns.  pattern source = 213 external patterns
//  ------------------------------------------------------------------------
//  #patterns  test      #faults  #faults    # eff.    # test         process 
//  simulated  coverage  in list  detected   patterns  patterns       CPU time
//   64         49.24%    18373     17825       64         0          0.37 sec
//   128        53.66%    16773      1600       63         0          0.45 sec
//   192        55.48%    16117       656       60         0          0.52 sec
//   213        55.74%    16021        96       18         0          0.58 sec
