// | ------------------------------------------------------------------------------------------------------------------ |
// |                                                                                                                    |
// |          Current split capture setting:     Off (optimal)                                                          |
// |                                                                                                                    |
// |   Current clock off simulation setting:     Off (optimal)                                                          |
// | ------------------------------------------------------------------------------------------------------------------ |
//  ------------------------------------------------------------------------
//  Simulation performed for #gates = 20077  #faults = 39882
//  Run fault simulation without storing patterns.  pattern source = 229 external patterns
//  ------------------------------------------------------------------------
//  #patterns  test      #faults  #faults    # eff.    # test         process 
//  simulated  coverage  in list  detected   patterns  patterns       CPU time
//   64         42.63%    22880     17002       64         0          0.36 sec
//   128        45.24%    21839      1041       61         0          0.45 sec
//   192        46.84%    21200       639       55         0          0.54 sec
//   229        47.32%    21010       190       30         0          0.62 sec
