// | ------------------------------------------------------------------------------------------------------------------ |
// |                                                                                                                    |
// |          Current split capture setting:     Off (optimal)                                                          |
// |                                                                                                                    |
// |   Current clock off simulation setting:     Off (optimal)                                                          |
// | ------------------------------------------------------------------------------------------------------------------ |
//  ------------------------------------------------------------------------
//  Simulation performed for #gates = 20077  #faults = 38103
//  Run fault simulation without storing patterns.  pattern source = 222 external patterns
//  ------------------------------------------------------------------------
//  #patterns  test      #faults  #faults    # eff.    # test         process 
//  simulated  coverage  in list  detected   patterns  patterns       CPU time
//   64         45.16%    20895     17208       64         0          0.32 sec
//   128        47.61%    19964       931       60         0          0.40 sec
//   192        49.07%    19404       560       55         0          0.47 sec
//   222        49.41%    19278       126       24         0          0.54 sec
