// | ------------------------------------------------------------------------------------------------------------------ |
// |                                                                                                                    |
// |          Current split capture setting:     Off (optimal)                                                          |
// |                                                                                                                    |
// |   Current clock off simulation setting:     Off (optimal)                                                          |
// | ------------------------------------------------------------------------------------------------------------------ |
//  ------------------------------------------------------------------------
//  Simulation performed for #gates = 20077  #faults = 33546
//  Run fault simulation without storing patterns.  pattern source = 223 external patterns
//  ------------------------------------------------------------------------
//  #patterns  test      #faults  #faults    # eff.    # test         process 
//  simulated  coverage  in list  detected   patterns  patterns       CPU time
//   64         51.03%    16429     17117       64         0          0.33 sec
//   128        54.45%    15281      1148       60         0          0.41 sec
//   192        56.04%    14746       535       56         0          0.47 sec
//   223        56.54%    14580       166       23         0          0.53 sec
