// | ------------------------------------------------------------------------------------------------------------------ |
// |                                                                                                                    |
// |          Current split capture setting:     Off (optimal)                                                          |
// |                                                                                                                    |
// |   Current clock off simulation setting:     Off (optimal)                                                          |
// | ------------------------------------------------------------------------------------------------------------------ |
//  ------------------------------------------------------------------------
//  Simulation performed for #gates = 20077  #faults = 34905
//  Run fault simulation without storing patterns.  pattern source = 216 external patterns
//  ------------------------------------------------------------------------
//  #patterns  test      #faults  #faults    # eff.    # test         process 
//  simulated  coverage  in list  detected   patterns  patterns       CPU time
//   64         43.62%    19678     15227       64         0          0.27 sec
//   128        46.22%    18772       906       62         0          0.35 sec
//   192        47.95%    18169       603       44         0          0.43 sec
//   216        48.51%    17972       197       19         0          0.49 sec
