// | ------------------------------------------------------------------------------------------------------------------ |
// |                                                                                                                    |
// |          Current split capture setting:     Off (optimal)                                                          |
// |                                                                                                                    |
// |   Current clock off simulation setting:     Off (optimal)                                                          |
// | ------------------------------------------------------------------------------------------------------------------ |
//  ------------------------------------------------------------------------
//  Simulation performed for #gates = 20077  #faults = 34852
//  Run fault simulation without storing patterns.  pattern source = 216 external patterns
//  ------------------------------------------------------------------------
//  #patterns  test      #faults  #faults    # eff.    # test         process 
//  simulated  coverage  in list  detected   patterns  patterns       CPU time
//   64         49.80%    17496     17356       64         0          0.31 sec
//   128        53.27%    16288      1208       61         0          0.39 sec
//   192        55.10%    15650       638       59         0          0.46 sec
//   216        55.60%    15476       174       20         0          0.52 sec
