// | ------------------------------------------------------------------------------------------------------------------ |
// |                                                                                                                    |
// |          Current split capture setting:     Off (optimal)                                                          |
// |                                                                                                                    |
// |   Current clock off simulation setting:     Off (optimal)                                                          |
// | ------------------------------------------------------------------------------------------------------------------ |
//  ------------------------------------------------------------------------
//  Simulation performed for #gates = 20077  #faults = 36168
//  Run fault simulation without storing patterns.  pattern source = 212 external patterns
//  ------------------------------------------------------------------------
//  #patterns  test      #faults  #faults    # eff.    # test         process 
//  simulated  coverage  in list  detected   patterns  patterns       CPU time
//   64         46.82%    19234     16934       64         0          0.35 sec
//   128        50.48%    17912      1322       63         0          0.43 sec
//   192        52.63%    17132       780       61         0          0.51 sec
//   212        52.96%    17013       119       18         0          0.57 sec
