// | ------------------------------------------------------------------------------------------------------------------ |
// |                                                                                                                    |
// |          Current split capture setting:     Off (optimal)                                                          |
// |                                                                                                                    |
// |   Current clock off simulation setting:     Off (optimal)                                                          |
// | ------------------------------------------------------------------------------------------------------------------ |
//  ------------------------------------------------------------------------
//  Simulation performed for #gates = 20077  #faults = 31999
//  Run fault simulation without storing patterns.  pattern source = 249 external patterns
//  ------------------------------------------------------------------------
//  #patterns  test      #faults  #faults    # eff.    # test         process 
//  simulated  coverage  in list  detected   patterns  patterns       CPU time
//   64         55.44%    14259     17740       64         0          0.33 sec
//   128        58.73%    13206      1053       60         0          0.39 sec
//   192        60.31%    12702       504       56         0          0.45 sec
//   249        61.39%    12354       348       45         0          0.50 sec
