// | ------------------------------------------------------------------------------------------------------------------ |
// |                                                                                                                    |
// |          Current split capture setting:     Off (optimal)                                                          |
// |                                                                                                                    |
// |   Current clock off simulation setting:     Off (optimal)                                                          |
// | ------------------------------------------------------------------------------------------------------------------ |
//  ------------------------------------------------------------------------
//  Simulation performed for #gates = 20077  #faults = 31999
//  Run fault simulation without storing patterns.  pattern source = 218 external patterns
//  ------------------------------------------------------------------------
//  #patterns  test      #faults  #faults    # eff.    # test         process 
//  simulated  coverage  in list  detected   patterns  patterns       CPU time
//   64         54.30%    14624     17375       64         0          0.32 sec
//   128        58.02%    13432      1192       64         0          0.38 sec
//   192        59.58%    12934       498       56         0          0.44 sec
//   218        59.92%    12825       109       21         0          0.48 sec
