// | ------------------------------------------------------------------------------------------------------------------ |
// |                                                                                                                    |
// |          Current split capture setting:     Off (optimal)                                                          |
// |                                                                                                                    |
// |   Current clock off simulation setting:     Off (optimal)                                                          |
// | ------------------------------------------------------------------------------------------------------------------ |
//  ------------------------------------------------------------------------
//  Simulation performed for #gates = 20077  #faults = 39846
//  Run fault simulation without storing patterns.  pattern source = 199 external patterns
//  ------------------------------------------------------------------------
//  #patterns  test      #faults  #faults    # eff.    # test         process 
//  simulated  coverage  in list  detected   patterns  patterns       CPU time
//   64         42.76%    22806     17040       64         0          0.33 sec
//   128        45.37%    21766      1040       63         0          0.42 sec
//   192        47.39%    20962       804       57         0          0.51 sec
//   199        47.55%    20899        63        7         0          0.58 sec
