// | ------------------------------------------------------------------------------------------------------------------ |
// |                                                                                                                    |
// |          Current split capture setting:     Off (optimal)                                                          |
// |                                                                                                                    |
// |   Current clock off simulation setting:     Off (optimal)                                                          |
// | ------------------------------------------------------------------------------------------------------------------ |
//  ------------------------------------------------------------------------
//  Simulation performed for #gates = 20077  #faults = 37201
//  Run fault simulation without storing patterns.  pattern source = 267 external patterns
//  ------------------------------------------------------------------------
//  #patterns  test      #faults  #faults    # eff.    # test         process 
//  simulated  coverage  in list  detected   patterns  patterns       CPU time
//   64         47.93%    19370     17831       64         0          0.35 sec
//   128        51.46%    18057      1313       63         0          0.43 sec
//   192        52.86%    17535       522       60         0          0.50 sec
//   256        53.75%    17204       331       49         0          0.57 sec
//   267        53.89%    17155        49        9         0          0.63 sec
