// | ------------------------------------------------------------------------------------------------------------------ |
// |                                                                                                                    |
// |          Current split capture setting:     Off (optimal)                                                          |
// |                                                                                                                    |
// |   Current clock off simulation setting:     Off (optimal)                                                          |
// | ------------------------------------------------------------------------------------------------------------------ |
//  ------------------------------------------------------------------------
//  Simulation performed for #gates = 20077  #faults = 35081
//  Run fault simulation without storing patterns.  pattern source = 215 external patterns
//  ------------------------------------------------------------------------
//  #patterns  test      #faults  #faults    # eff.    # test         process 
//  simulated  coverage  in list  detected   patterns  patterns       CPU time
//   64         51.63%    16967     18114       64         0          0.31 sec
//   128        55.44%    15632      1335       63         0          0.38 sec
//   192        57.45%    14927       705       58         0          0.44 sec
//   215        58.11%    14697       230       20         0          0.49 sec
