// | ------------------------------------------------------------------------------------------------------------------ |
// |                                                                                                                    |
// |          Current split capture setting:     Off (optimal)                                                          |
// |                                                                                                                    |
// |   Current clock off simulation setting:     Off (optimal)                                                          |
// | ------------------------------------------------------------------------------------------------------------------ |
//  ------------------------------------------------------------------------
//  Simulation performed for #gates = 20077  #faults = 34905
//  Run fault simulation without storing patterns.  pattern source = 204 external patterns
//  ------------------------------------------------------------------------
//  #patterns  test      #faults  #faults    # eff.    # test         process 
//  simulated  coverage  in list  detected   patterns  patterns       CPU time
//   64         44.51%    19369     15536       64         0          0.29 sec
//   128        47.92%    18180      1189       64         0          0.37 sec
//   192        48.97%    17811       369       48         0          0.44 sec
//   204        49.18%    17739        72        7         0          0.50 sec
