// | ------------------------------------------------------------------------------------------------------------------ |
// |                                                                                                                    |
// |          Current split capture setting:     Off (optimal)                                                          |
// |                                                                                                                    |
// |   Current clock off simulation setting:     Off (optimal)                                                          |
// | ------------------------------------------------------------------------------------------------------------------ |
//  ------------------------------------------------------------------------
//  Simulation performed for #gates = 20077  #faults = 33432
//  Run fault simulation without storing patterns.  pattern source = 217 external patterns
//  ------------------------------------------------------------------------
//  #patterns  test      #faults  #faults    # eff.    # test         process 
//  simulated  coverage  in list  detected   patterns  patterns       CPU time
//   64         46.73%    17808     15624       64         0          0.30 sec
//   128        50.66%    16494      1314       59         0          0.37 sec
//   192        52.30%    15948       546       53         0          0.44 sec
//   217        52.95%    15731       217       22         0          0.50 sec
