// | ------------------------------------------------------------------------------------------------------------------ |
// |                                                                                                                    |
// |          Current split capture setting:     Off (optimal)                                                          |
// |                                                                                                                    |
// |   Current clock off simulation setting:     Off (optimal)                                                          |
// | ------------------------------------------------------------------------------------------------------------------ |
//  ------------------------------------------------------------------------
//  Simulation performed for #gates = 20077  #faults = 37201
//  Run fault simulation without storing patterns.  pattern source = 246 external patterns
//  ------------------------------------------------------------------------
//  #patterns  test      #faults  #faults    # eff.    # test         process 
//  simulated  coverage  in list  detected   patterns  patterns       CPU time
//   64         48.03%    19332     17869       64         0          0.35 sec
//   128        51.09%    18194      1138       63         0          0.43 sec
//   192        52.74%    17580       614       59         0          0.51 sec
//   246        53.42%    17329       251       43         0          0.57 sec
