// | ------------------------------------------------------------------------------------------------------------------ |
// |                                                                                                                    |
// |          Current split capture setting:     Off (optimal)                                                          |
// |                                                                                                                    |
// |   Current clock off simulation setting:     Off (optimal)                                                          |
// | ------------------------------------------------------------------------------------------------------------------ |
//  ------------------------------------------------------------------------
//  Simulation performed for #gates = 20077  #faults = 39055
//  Run fault simulation without storing patterns.  pattern source = 248 external patterns
//  ------------------------------------------------------------------------
//  #patterns  test      #faults  #faults    # eff.    # test         process 
//  simulated  coverage  in list  detected   patterns  patterns       CPU time
//   64         41.08%    23013     16042       64         0          0.32 sec
//   128        43.59%    22032       981       59         0          0.41 sec
//   192        45.07%    21454       578       54         0          0.50 sec
//   248        46.55%    20873       581       46         0          0.57 sec
