// | ------------------------------------------------------------------------------------------------------------------ |
// |                                                                                                                    |
// |          Current split capture setting:     Off (optimal)                                                          |
// |                                                                                                                    |
// |   Current clock off simulation setting:     Off (optimal)                                                          |
// | ------------------------------------------------------------------------------------------------------------------ |
//  ------------------------------------------------------------------------
//  Simulation performed for #gates = 20077  #faults = 35081
//  Run fault simulation without storing patterns.  pattern source = 240 external patterns
//  ------------------------------------------------------------------------
//  #patterns  test      #faults  #faults    # eff.    # test         process 
//  simulated  coverage  in list  detected   patterns  patterns       CPU time
//   64         51.67%    16954     18127       64         0          0.31 sec
//   128        54.90%    15821      1133       63         0          0.39 sec
//   192        57.25%    14998       823       58         0          0.45 sec
//   240        58.57%    14533       465       45         0          0.51 sec
