// | ------------------------------------------------------------------------------------------------------------------ |
// |                                                                                                                    |
// |          Current split capture setting:     Off (optimal)                                                          |
// |                                                                                                                    |
// |   Current clock off simulation setting:     Off (optimal)                                                          |
// | ------------------------------------------------------------------------------------------------------------------ |
//  ------------------------------------------------------------------------
//  Simulation performed for #gates = 20077  #faults = 38489
//  Run fault simulation without storing patterns.  pattern source = 215 external patterns
//  ------------------------------------------------------------------------
//  #patterns  test      #faults  #faults    # eff.    # test         process 
//  simulated  coverage  in list  detected   patterns  patterns       CPU time
//   64         41.83%    22389     16100       64         0          0.32 sec
//   128        45.17%    21102      1287       60         0          0.41 sec
//   192        47.57%    20181       921       59         0          0.49 sec
//   215        48.05%    19996       185       21         0          0.57 sec
