// | ------------------------------------------------------------------------------------------------------------------ |
// |                                                                                                                    |
// |          Current split capture setting:     Off (optimal)                                                          |
// |                                                                                                                    |
// |   Current clock off simulation setting:     Off (optimal)                                                          |
// | ------------------------------------------------------------------------------------------------------------------ |
//  ------------------------------------------------------------------------
//  Simulation performed for #gates = 20077  #faults = 40284
//  Run fault simulation without storing patterns.  pattern source = 225 external patterns
//  ------------------------------------------------------------------------
//  #patterns  test      #faults  #faults    # eff.    # test         process 
//  simulated  coverage  in list  detected   patterns  patterns       CPU time
//   64         41.40%    23606     16678       64         0          0.32 sec
//   128        45.04%    22142      1464       62         0          0.42 sec
//   192        46.75%    21453       689       59         0          0.51 sec
//   225        47.33%    21216       237       29         0          0.59 sec
