// | ------------------------------------------------------------------------------------------------------------------ |
// |                                                                                                                    |
// |          Current split capture setting:     Off (optimal)                                                          |
// |                                                                                                                    |
// |   Current clock off simulation setting:     Off (optimal)                                                          |
// | ------------------------------------------------------------------------------------------------------------------ |
//  ------------------------------------------------------------------------
//  Simulation performed for #gates = 20077  #faults = 36168
//  Run fault simulation without storing patterns.  pattern source = 199 external patterns
//  ------------------------------------------------------------------------
//  #patterns  test      #faults  #faults    # eff.    # test         process 
//  simulated  coverage  in list  detected   patterns  patterns       CPU time
//   64         46.43%    19377     16791       64         0          0.33 sec
//   128        50.43%    17927      1450       61         0          0.42 sec
//   192        52.23%    17279       648       59         0          0.49 sec
//   199        52.29%    17255        24        4         0          0.55 sec
