// | ------------------------------------------------------------------------------------------------------------------ |
// |                                                                                                                    |
// |          Current split capture setting:     Off (optimal)                                                          |
// |                                                                                                                    |
// |   Current clock off simulation setting:     Off (optimal)                                                          |
// | ------------------------------------------------------------------------------------------------------------------ |
//  ------------------------------------------------------------------------
//  Simulation performed for #gates = 20077  #faults = 35259
//  Run fault simulation without storing patterns.  pattern source = 223 external patterns
//  ------------------------------------------------------------------------
//  #patterns  test      #faults  #faults    # eff.    # test         process 
//  simulated  coverage  in list  detected   patterns  patterns       CPU time
//   64         46.16%    18984     16275       64         0          0.31 sec
//   128        49.18%    17918      1066       61         0          0.39 sec
//   192        50.78%    17355       563       55         0          0.47 sec
//   223        51.24%    17191       164       26         0          0.53 sec
