// | ------------------------------------------------------------------------------------------------------------------ |
// |                                                                                                                    |
// |          Current split capture setting:     Off (optimal)                                                          |
// |                                                                                                                    |
// |   Current clock off simulation setting:     Off (optimal)                                                          |
// | ------------------------------------------------------------------------------------------------------------------ |
//  ------------------------------------------------------------------------
//  Simulation performed for #gates = 20077  #faults = 33119
//  Run fault simulation without storing patterns.  pattern source = 223 external patterns
//  ------------------------------------------------------------------------
//  #patterns  test      #faults  #faults    # eff.    # test         process 
//  simulated  coverage  in list  detected   patterns  patterns       CPU time
//   64         51.35%    16112     17007       64         0          0.29 sec
//   128        55.36%    14783      1329       61         0          0.36 sec
//   192        57.59%    14047       736       54         0          0.42 sec
//   223        58.42%    13772       275       28         0          0.47 sec
