// | ------------------------------------------------------------------------------------------------------------------ |
// |                                                                                                                    |
// |          Current split capture setting:     Off (optimal)                                                          |
// |                                                                                                                    |
// |   Current clock off simulation setting:     Off (optimal)                                                          |
// | ------------------------------------------------------------------------------------------------------------------ |
//  ------------------------------------------------------------------------
//  Simulation performed for #gates = 20077  #faults = 37201
//  Run fault simulation without storing patterns.  pattern source = 229 external patterns
//  ------------------------------------------------------------------------
//  #patterns  test      #faults  #faults    # eff.    # test         process 
//  simulated  coverage  in list  detected   patterns  patterns       CPU time
//   64         46.49%    19906     17295       64         0          0.32 sec
//   128        50.04%    18586      1320       63         0          0.41 sec
//   192        51.55%    18025       561       58         0          0.48 sec
//   229        52.04%    17842       183       30         0          0.56 sec
