// | ------------------------------------------------------------------------------------------------------------------ |
// |                                                                                                                    |
// |          Current split capture setting:     Off (optimal)                                                          |
// |                                                                                                                    |
// |   Current clock off simulation setting:     Off (optimal)                                                          |
// | ------------------------------------------------------------------------------------------------------------------ |
//  ------------------------------------------------------------------------
//  Simulation performed for #gates = 20077  #faults = 34846
//  Run fault simulation without storing patterns.  pattern source = 230 external patterns
//  ------------------------------------------------------------------------
//  #patterns  test      #faults  #faults    # eff.    # test         process 
//  simulated  coverage  in list  detected   patterns  patterns       CPU time
//   64         41.44%    20406     14440       64         0          0.26 sec
//   128        44.19%    19448       958       59         0          0.35 sec
//   192        45.43%    19015       433       50         0          0.42 sec
//   230        45.78%    18895       120       24         0          0.49 sec
