// | ------------------------------------------------------------------------------------------------------------------ |
// |                                                                                                                    |
// |          Current split capture setting:     Off (optimal)                                                          |
// |                                                                                                                    |
// |   Current clock off simulation setting:     Off (optimal)                                                          |
// | ------------------------------------------------------------------------------------------------------------------ |
//  ------------------------------------------------------------------------
//  Simulation performed for #gates = 20077  #faults = 33383
//  Run fault simulation without storing patterns.  pattern source = 220 external patterns
//  ------------------------------------------------------------------------
//  #patterns  test      #faults  #faults    # eff.    # test         process 
//  simulated  coverage  in list  detected   patterns  patterns       CPU time
//   64         53.31%    15585     17798       64         0          0.35 sec
//   128        56.74%    14443      1142       63         0          0.42 sec
//   192        58.88%    13726       717       59         0          0.48 sec
//   220        59.40%    13555       171       23         0          0.53 sec
