// | ------------------------------------------------------------------------------------------------------------------ |
// |                                                                                                                    |
// |          Current split capture setting:     Off (optimal)                                                          |
// |                                                                                                                    |
// |   Current clock off simulation setting:     Off (optimal)                                                          |
// | ------------------------------------------------------------------------------------------------------------------ |
//  ------------------------------------------------------------------------
//  Simulation performed for #gates = 20077  #faults = 36396
//  Run fault simulation without storing patterns.  pattern source = 244 external patterns
//  ------------------------------------------------------------------------
//  #patterns  test      #faults  #faults    # eff.    # test         process 
//  simulated  coverage  in list  detected   patterns  patterns       CPU time
//   64         42.88%    20791     15605       64         0          0.29 sec
//   128        45.64%    19785      1006       56         0          0.37 sec
//   192        46.99%    19295       490       54         0          0.45 sec
//   244        47.57%    19083       212       39         0          0.51 sec
