// | ------------------------------------------------------------------------------------------------------------------ |
// |                                                                                                                    |
// |          Current split capture setting:     Off (optimal)                                                          |
// |                                                                                                                    |
// |   Current clock off simulation setting:     Off (optimal)                                                          |
// | ------------------------------------------------------------------------------------------------------------------ |
//  ------------------------------------------------------------------------
//  Simulation performed for #gates = 20077  #faults = 35273
//  Run fault simulation without storing patterns.  pattern source = 223 external patterns
//  ------------------------------------------------------------------------
//  #patterns  test      #faults  #faults    # eff.    # test         process 
//  simulated  coverage  in list  detected   patterns  patterns       CPU time
//   64         44.08%    19725     15548       64         0          0.29 sec
//   128        46.84%    18750       975       61         0          0.37 sec
//   192        48.56%    18145       605       61         0          0.45 sec
//   223        49.14%    17939       206       25         0          0.51 sec
