// | ------------------------------------------------------------------------------------------------------------------ |
// |                                                                                                                    |
// |          Current split capture setting:     Off (optimal)                                                          |
// |                                                                                                                    |
// |   Current clock off simulation setting:     Off (optimal)                                                          |
// | ------------------------------------------------------------------------------------------------------------------ |
//  ------------------------------------------------------------------------
//  Simulation performed for #gates = 20077  #faults = 36396
//  Run fault simulation without storing patterns.  pattern source = 210 external patterns
//  ------------------------------------------------------------------------
//  #patterns  test      #faults  #faults    # eff.    # test         process 
//  simulated  coverage  in list  detected   patterns  patterns       CPU time
//   64         42.19%    21041     15355       63         0          0.29 sec
//   128        44.69%    20130       911       59         0          0.37 sec
//   192        46.62%    19429       701       47         0          0.45 sec
//   210        46.90%    19327       102       14         0          0.52 sec
