// | ------------------------------------------------------------------------------------------------------------------ |
// |                                                                                                                    |
// |          Current split capture setting:     Off (optimal)                                                          |
// |                                                                                                                    |
// |   Current clock off simulation setting:     Off (optimal)                                                          |
// | ------------------------------------------------------------------------------------------------------------------ |
//  ------------------------------------------------------------------------
//  Simulation performed for #gates = 20077  #faults = 35145
//  Run fault simulation without storing patterns.  pattern source = 255 external patterns
//  ------------------------------------------------------------------------
//  #patterns  test      #faults  #faults    # eff.    # test         process 
//  simulated  coverage  in list  detected   patterns  patterns       CPU time
//   64         45.72%    19076     16069       64         0          0.32 sec
//   128        48.81%    17990      1086       63         0          0.40 sec
//   192        49.96%    17585       405       55         0          0.47 sec
//   255        51.49%    17048       537       47         0          0.54 sec
