// | ------------------------------------------------------------------------------------------------------------------ |
// |                                                                                                                    |
// |          Current split capture setting:     Off (optimal)                                                          |
// |                                                                                                                    |
// |   Current clock off simulation setting:     Off (optimal)                                                          |
// | ------------------------------------------------------------------------------------------------------------------ |
//  ------------------------------------------------------------------------
//  Simulation performed for #gates = 20077  #faults = 32580
//  Run fault simulation without storing patterns.  pattern source = 195 external patterns
//  ------------------------------------------------------------------------
//  #patterns  test      #faults  #faults    # eff.    # test         process 
//  simulated  coverage  in list  detected   patterns  patterns       CPU time
//   64         58.25%    13603     18977       64         0          0.35 sec
//   128        62.34%    12270      1333       64         0          0.41 sec
//   192        63.10%    12021       249       64         0          0.46 sec
//   195        63.12%    12017         4        3         0          0.50 sec
