// | ------------------------------------------------------------------------------------------------------------------ |
// |                                                                                                                    |
// |          Current split capture setting:     Off (optimal)                                                          |
// |                                                                                                                    |
// |   Current clock off simulation setting:     Off (optimal)                                                          |
// | ------------------------------------------------------------------------------------------------------------------ |
//  ------------------------------------------------------------------------
//  Simulation performed for #gates = 20077  #faults = 30933
//  Run fault simulation without storing patterns.  pattern source = 222 external patterns
//  ------------------------------------------------------------------------
//  #patterns  test      #faults  #faults    # eff.    # test         process 
//  simulated  coverage  in list  detected   patterns  patterns       CPU time
//   64         51.02%    15152     15781       64         0          0.25 sec
//   128        54.44%    14092      1060       60         0          0.32 sec
//   192        56.05%    13594       498       50         0          0.37 sec
//   222        58.41%    12865       729       26         0          0.43 sec
