// | ------------------------------------------------------------------------------------------------------------------ |
// |                                                                                                                    |
// |          Current split capture setting:     Off (optimal)                                                          |
// |                                                                                                                    |
// |   Current clock off simulation setting:     Off (optimal)                                                          |
// | ------------------------------------------------------------------------------------------------------------------ |
//  ------------------------------------------------------------------------
//  Simulation performed for #gates = 20077  #faults = 31999
//  Run fault simulation without storing patterns.  pattern source = 220 external patterns
//  ------------------------------------------------------------------------
//  #patterns  test      #faults  #faults    # eff.    # test         process 
//  simulated  coverage  in list  detected   patterns  patterns       CPU time
//   64         55.41%    14268     17731       64         0          0.33 sec
//   128        58.66%    13228      1040       64         0          0.40 sec
//   192        60.54%    12628       600       58         0          0.45 sec
//   220        60.93%    12503       125       22         0          0.50 sec
