// | ------------------------------------------------------------------------------------------------------------------ |
// |                                                                                                                    |
// |          Current split capture setting:     Off (optimal)                                                          |
// |                                                                                                                    |
// |   Current clock off simulation setting:     Off (optimal)                                                          |
// | ------------------------------------------------------------------------------------------------------------------ |
//  ------------------------------------------------------------------------
//  Simulation performed for #gates = 20077  #faults = 36826
//  Run fault simulation without storing patterns.  pattern source = 203 external patterns
//  ------------------------------------------------------------------------
//  #patterns  test      #faults  #faults    # eff.    # test         process 
//  simulated  coverage  in list  detected   patterns  patterns       CPU time
//   64         47.87%    19196     17630       64         0          0.34 sec
//   128        50.90%    18083      1113       63         0          0.42 sec
//   192        52.42%    17521       562       55         0          0.49 sec
//   203        52.84%    17366       155       10         0          0.55 sec
