// | ------------------------------------------------------------------------------------------------------------------ |
// |                                                                                                                    |
// |          Current split capture setting:     Off (optimal)                                                          |
// |                                                                                                                    |
// |   Current clock off simulation setting:     Off (optimal)                                                          |
// | ------------------------------------------------------------------------------------------------------------------ |
//  ------------------------------------------------------------------------
//  Simulation performed for #gates = 20077  #faults = 33932
//  Run fault simulation without storing patterns.  pattern source = 209 external patterns
//  ------------------------------------------------------------------------
//  #patterns  test      #faults  #faults    # eff.    # test         process 
//  simulated  coverage  in list  detected   patterns  patterns       CPU time
//   64         50.32%    16858     17074       64         0          0.32 sec
//   128        54.16%    15553      1305       61         0          0.40 sec
//   192        55.85%    14982       571       56         0          0.46 sec
//   209        56.29%    14832       150       14         0          0.52 sec
