// | ------------------------------------------------------------------------------------------------------------------ |
// |                                                                                                                    |
// |          Current split capture setting:     Off (optimal)                                                          |
// |                                                                                                                    |
// |   Current clock off simulation setting:     Off (optimal)                                                          |
// | ------------------------------------------------------------------------------------------------------------------ |
//  ------------------------------------------------------------------------
//  Simulation performed for #gates = 20077  #faults = 36826
//  Run fault simulation without storing patterns.  pattern source = 235 external patterns
//  ------------------------------------------------------------------------
//  #patterns  test      #faults  #faults    # eff.    # test         process 
//  simulated  coverage  in list  detected   patterns  patterns       CPU time
//   64         48.57%    18940     17886       64         0          0.34 sec
//   128        51.77%    17762      1178       63         0          0.42 sec
//   192        53.26%    17214       548       61         0          0.49 sec
//   235        54.09%    16907       307       34         0          0.56 sec
