// | ------------------------------------------------------------------------------------------------------------------ |
// |                                                                                                                    |
// |          Current split capture setting:     Off (optimal)                                                          |
// |                                                                                                                    |
// |   Current clock off simulation setting:     Off (optimal)                                                          |
// | ------------------------------------------------------------------------------------------------------------------ |
//  ------------------------------------------------------------------------
//  Simulation performed for #gates = 20077  #faults = 38103
//  Run fault simulation without storing patterns.  pattern source = 240 external patterns
//  ------------------------------------------------------------------------
//  #patterns  test      #faults  #faults    # eff.    # test         process 
//  simulated  coverage  in list  detected   patterns  patterns       CPU time
//   64         47.44%    20026     18077       64         0          0.35 sec
//   128        50.48%    18867      1159       62         0          0.43 sec
//   192        52.07%    18261       606       57         0          0.50 sec
//   240        52.68%    18032       229       34         0          0.57 sec
