// | ------------------------------------------------------------------------------------------------------------------ |
// |                                                                                                                    |
// |          Current split capture setting:     Off (optimal)                                                          |
// |                                                                                                                    |
// |   Current clock off simulation setting:     Off (optimal)                                                          |
// | ------------------------------------------------------------------------------------------------------------------ |
//  ------------------------------------------------------------------------
//  Simulation performed for #gates = 20077  #faults = 37792
//  Run fault simulation without storing patterns.  pattern source = 218 external patterns
//  ------------------------------------------------------------------------
//  #patterns  test      #faults  #faults    # eff.    # test         process 
//  simulated  coverage  in list  detected   patterns  patterns       CPU time
//   64         44.79%    20864     16928       64         0          0.32 sec
//   128        47.35%    19896       968       61         0          0.40 sec
//   192        48.85%    19329       567       51         0          0.48 sec
//   218        49.14%    19221       108       22         0          0.55 sec
