// | ------------------------------------------------------------------------------------------------------------------ |
// |                                                                                                                    |
// |          Current split capture setting:     Off (optimal)                                                          |
// |                                                                                                                    |
// |   Current clock off simulation setting:     Off (optimal)                                                          |
// | ------------------------------------------------------------------------------------------------------------------ |
//  ------------------------------------------------------------------------
//  Simulation performed for #gates = 20077  #faults = 33546
//  Run fault simulation without storing patterns.  pattern source = 215 external patterns
//  ------------------------------------------------------------------------
//  #patterns  test      #faults  #faults    # eff.    # test         process 
//  simulated  coverage  in list  detected   patterns  patterns       CPU time
//   64         48.63%    17232     16314       64         0          0.31 sec
//   128        52.38%    15974      1258       61         0          0.39 sec
//   192        54.81%    15161       813       59         0          0.46 sec
//   215        55.32%    14988       173       17         0          0.52 sec
