// | ------------------------------------------------------------------------------------------------------------------ |
// |                                                                                                                    |
// |          Current split capture setting:     Off (optimal)                                                          |
// |                                                                                                                    |
// |   Current clock off simulation setting:     Off (optimal)                                                          |
// | ------------------------------------------------------------------------------------------------------------------ |
//  ------------------------------------------------------------------------
//  Simulation performed for #gates = 20077  #faults = 40284
//  Run fault simulation without storing patterns.  pattern source = 224 external patterns
//  ------------------------------------------------------------------------
//  #patterns  test      #faults  #faults    # eff.    # test         process 
//  simulated  coverage  in list  detected   patterns  patterns       CPU time
//   64         44.53%    22347     17937       64         0          0.37 sec
//   128        47.85%    21007      1340       64         0          0.46 sec
//   192        49.23%    20451       556       57         0          0.54 sec
//   224        49.82%    20213       238       28         0          0.61 sec
