// | ------------------------------------------------------------------------------------------------------------------ |
// |                                                                                                                    |
// |          Current split capture setting:     Off (optimal)                                                          |
// |                                                                                                                    |
// |   Current clock off simulation setting:     Off (optimal)                                                          |
// | ------------------------------------------------------------------------------------------------------------------ |
//  ------------------------------------------------------------------------
//  Simulation performed for #gates = 20077  #faults = 36198
//  Run fault simulation without storing patterns.  pattern source = 199 external patterns
//  ------------------------------------------------------------------------
//  #patterns  test      #faults  #faults    # eff.    # test         process 
//  simulated  coverage  in list  detected   patterns  patterns       CPU time
//   64         47.96%    18838     17360       64         0          0.33 sec
//   128        51.26%    17642      1196       60         0          0.41 sec
//   192        53.18%    16949       693       55         0          0.48 sec
//   199        53.33%    16894        55        6         0          0.54 sec
