// | ------------------------------------------------------------------------------------------------------------------ |
// |                                                                                                                    |
// |          Current split capture setting:     Off (optimal)                                                          |
// |                                                                                                                    |
// |   Current clock off simulation setting:     Off (optimal)                                                          |
// | ------------------------------------------------------------------------------------------------------------------ |
//  ------------------------------------------------------------------------
//  Simulation performed for #gates = 20077  #faults = 35533
//  Run fault simulation without storing patterns.  pattern source = 222 external patterns
//  ------------------------------------------------------------------------
//  #patterns  test      #faults  #faults    # eff.    # test         process 
//  simulated  coverage  in list  detected   patterns  patterns       CPU time
//   64         49.98%    17775     17758       64         0          0.32 sec
//   128        53.05%    16683      1092       60         0          0.40 sec
//   192        54.83%    16050       633       58         0          0.46 sec
//   222        55.71%    15738       312       28         0          0.52 sec
