// | ------------------------------------------------------------------------------------------------------------------ |
// |                                                                                                                    |
// |          Current split capture setting:     Off (optimal)                                                          |
// |                                                                                                                    |
// |   Current clock off simulation setting:     Off (optimal)                                                          |
// | ------------------------------------------------------------------------------------------------------------------ |
//  ------------------------------------------------------------------------
//  Simulation performed for #gates = 20077  #faults = 33383
//  Run fault simulation without storing patterns.  pattern source = 216 external patterns
//  ------------------------------------------------------------------------
//  #patterns  test      #faults  #faults    # eff.    # test         process 
//  simulated  coverage  in list  detected   patterns  patterns       CPU time
//   64         52.69%    15794     17589       64         0          0.32 sec
//   128        55.87%    14732      1062       61         0          0.39 sec
//   192        57.25%    14270       462       51         0          0.44 sec
//   216        57.72%    14113       157       20         0          0.50 sec
