// | ------------------------------------------------------------------------------------------------------------------ |
// |                                                                                                                    |
// |          Current split capture setting:     Off (optimal)                                                          |
// |                                                                                                                    |
// |   Current clock off simulation setting:     Off (optimal)                                                          |
// | ------------------------------------------------------------------------------------------------------------------ |
//  ------------------------------------------------------------------------
//  Simulation performed for #gates = 20077  #faults = 37201
//  Run fault simulation without storing patterns.  pattern source = 248 external patterns
//  ------------------------------------------------------------------------
//  #patterns  test      #faults  #faults    # eff.    # test         process 
//  simulated  coverage  in list  detected   patterns  patterns       CPU time
//   64         48.02%    19336     17865       64         0          0.36 sec
//   128        51.86%    17910      1426       64         0          0.44 sec
//   192        53.24%    17397       513       58         0          0.52 sec
//   248        54.14%    17059       338       51         0          0.59 sec
