// | ------------------------------------------------------------------------------------------------------------------ |
// |                                                                                                                    |
// |          Current split capture setting:     Off (optimal)                                                          |
// |                                                                                                                    |
// |   Current clock off simulation setting:     Off (optimal)                                                          |
// | ------------------------------------------------------------------------------------------------------------------ |
//  ------------------------------------------------------------------------
//  Simulation performed for #gates = 20077  #faults = 34314
//  Run fault simulation without storing patterns.  pattern source = 220 external patterns
//  ------------------------------------------------------------------------
//  #patterns  test      #faults  #faults    # eff.    # test         process 
//  simulated  coverage  in list  detected   patterns  patterns       CPU time
//   64         49.35%    17380     16934       64         0          0.31 sec
//   128        53.55%    15938      1442       64         0          0.39 sec
//   192        55.65%    15218       720       60         0          0.45 sec
//   220        56.38%    14969       249       25         0          0.51 sec
