// | ------------------------------------------------------------------------------------------------------------------ |
// |                                                                                                                    |
// |          Current split capture setting:     Off (optimal)                                                          |
// |                                                                                                                    |
// |   Current clock off simulation setting:     Off (optimal)                                                          |
// | ------------------------------------------------------------------------------------------------------------------ |
//  ------------------------------------------------------------------------
//  Simulation performed for #gates = 20077  #faults = 36582
//  Run fault simulation without storing patterns.  pattern source = 197 external patterns
//  ------------------------------------------------------------------------
//  #patterns  test      #faults  #faults    # eff.    # test         process 
//  simulated  coverage  in list  detected   patterns  patterns       CPU time
//   64         42.73%    20951     15631       64         0          0.30 sec
//   128        45.81%    19824      1127       63         0          0.38 sec
//   192        47.09%    19357       467       54         0          0.46 sec
//   197        47.20%    19316        41        5         0          0.53 sec
