// | ------------------------------------------------------------------------------------------------------------------ |
// |                                                                                                                    |
// |          Current split capture setting:     Off (optimal)                                                          |
// |                                                                                                                    |
// |   Current clock off simulation setting:     Off (optimal)                                                          |
// | ------------------------------------------------------------------------------------------------------------------ |
//  ------------------------------------------------------------------------
//  Simulation performed for #gates = 20077  #faults = 34014
//  Run fault simulation without storing patterns.  pattern source = 219 external patterns
//  ------------------------------------------------------------------------
//  #patterns  test      #faults  #faults    # eff.    # test         process 
//  simulated  coverage  in list  detected   patterns  patterns       CPU time
//   64         45.85%    18419     15595       64         0          0.29 sec
//   128        48.76%    17429       990       62         0          0.36 sec
//   192        50.52%    16830       599       57         0          0.44 sec
//   219        51.11%    16631       199       24         0          0.50 sec
