// | ------------------------------------------------------------------------------------------------------------------ |
// |                                                                                                                    |
// |          Current split capture setting:     Off (optimal)                                                          |
// |                                                                                                                    |
// |   Current clock off simulation setting:     Off (optimal)                                                          |
// | ------------------------------------------------------------------------------------------------------------------ |
//  ------------------------------------------------------------------------
//  Simulation performed for #gates = 20077  #faults = 34094
//  Run fault simulation without storing patterns.  pattern source = 215 external patterns
//  ------------------------------------------------------------------------
//  #patterns  test      #faults  #faults    # eff.    # test         process 
//  simulated  coverage  in list  detected   patterns  patterns       CPU time
//   64         48.81%    17452     16642       64         0          0.31 sec
//   128        52.44%    16215      1237       62         0          0.39 sec
//   192        55.05%    15324       891       58         0          0.46 sec
//   215        55.58%    15144       180       21         0          0.52 sec
