// | ------------------------------------------------------------------------------------------------------------------ |
// |                                                                                                                    |
// |          Current split capture setting:     Off (optimal)                                                          |
// |                                                                                                                    |
// |   Current clock off simulation setting:     Off (optimal)                                                          |
// | ------------------------------------------------------------------------------------------------------------------ |
//  ------------------------------------------------------------------------
//  Simulation performed for #gates = 20077  #faults = 39846
//  Run fault simulation without storing patterns.  pattern source = 237 external patterns
//  ------------------------------------------------------------------------
//  #patterns  test      #faults  #faults    # eff.    # test         process 
//  simulated  coverage  in list  detected   patterns  patterns       CPU time
//   64         41.69%    23235     16611       64         0          0.32 sec
//   128        44.84%    21980      1255       62         0          0.42 sec
//   192        46.91%    21155       825       58         0          0.51 sec
//   237        47.75%    20818       337       38         0          0.59 sec
