//  command: set_current_design c1908
//  Warning: 1 case: Unused net in DFT library model
//  Note: Issue set_current_design with the -show_elaboration_warnings option to see more details about previous warnings
//  command: set_system_mode analysis
//  Flattening process completed,  design_cells=294  leaf_cells=294  library_primitives=294  sim_gates=352  PIs=33  POs=25  CPU time=0.00 sec.
//  ---------------------------------------------------------------------------
//  Begin circuit learning analyses.
//  --------------------------------
//  Learning completed, CPU time=0.00 sec.
//  ---------------------------------------------------------------------------
//  Begin scan chain identification process, memory elements = 0.
//  ---------------------------------------------------------------------------
//  Circuit has no memory elements.
//  command: add_faults -all
//  command: set_fault_mode collapsed
//  command: set_fault_type stuck
//  command: read_patterns /home/animesh/currentResearch/ISI/atpg_structural/code/dumpData/tessent/iscas85/c1908_synth/fiftyPercent/c1908_synth_fiftyPercent_5.spf
//  Reading STIL input file "/home/animesh/currentResearch/ISI/atpg_structural/code/dumpData/tessent/iscas85/c1908_synth/fiftyPercent/c1908_synth_fiftyPercent_5.spf"
//  command: simulate_patterns > /home/animesh/currentResearch/ISI/atpg_structural/code/dumpData/tessent/iscas85/c1908_synth/bin_2/simulateLogFile_c1908_synth_fiftyPercent_20_c1908_synth_fiftyPercent_5.atpg.result
//  command: exit 
