// | ------------------------------------------------------------------------------------------------------------------ |
// |                                                                                                                    |
// |          Current split capture setting:     Off (optimal)                                                          |
// |                                                                                                                    |
// |   Current clock off simulation setting:     Off (optimal)                                                          |
// | ------------------------------------------------------------------------------------------------------------------ |
//  ------------------------------------------------------------------------
//  Simulation performed for #gates = 6497  #faults = 12200
//  Run fault simulation without storing patterns.  pattern source = 196 external patterns
//  ------------------------------------------------------------------------
//  #patterns  test      #faults  #faults    # eff.    # test         process 
//  simulated  coverage  in list  detected   patterns  patterns       CPU time
//   64         37.80%     7588      4612       58         0          0.07 sec
//   128        39.52%     7379       209       26         0          0.09 sec
//   192        40.68%     7237       142       28         0          0.11 sec
//   196        40.71%     7233         4        1         0          0.13 sec
