// | ------------------------------------------------------------------------------------------------------------------ |
// |                                                                                                                    |
// |          Current split capture setting:     Off (optimal)                                                          |
// |                                                                                                                    |
// |   Current clock off simulation setting:     Off (optimal)                                                          |
// | ------------------------------------------------------------------------------------------------------------------ |
//  ------------------------------------------------------------------------
//  Simulation performed for #gates = 6497  #faults = 12839
//  Run fault simulation without storing patterns.  pattern source = 151 external patterns
//  ------------------------------------------------------------------------
//  #patterns  test      #faults  #faults    # eff.    # test         process 
//  simulated  coverage  in list  detected   patterns  patterns       CPU time
//   64         37.40%     8037      4802       60         0          0.09 sec
//   128        41.97%     7450       587       49         0          0.11 sec
//   151        42.46%     7387        63       16         0          0.13 sec
