// | ------------------------------------------------------------------------------------------------------------------ |
// |                                                                                                                    |
// |          Current split capture setting:     Off (optimal)                                                          |
// |                                                                                                                    |
// |   Current clock off simulation setting:     Off (optimal)                                                          |
// | ------------------------------------------------------------------------------------------------------------------ |
//  ------------------------------------------------------------------------
//  Simulation performed for #gates = 6497  #faults = 9841
//  Run fault simulation without storing patterns.  pattern source = 196 external patterns
//  ------------------------------------------------------------------------
//  #patterns  test      #faults  #faults    # eff.    # test         process 
//  simulated  coverage  in list  detected   patterns  patterns       CPU time
//   64         50.83%     4839      5002       62         0          0.08 sec
//   128        53.66%     4560       279       42         0          0.10 sec
//   192        55.30%     4399       161       33         0          0.11 sec
//   196        55.32%     4397         2        1         0          0.12 sec
