// | ------------------------------------------------------------------------------------------------------------------ |
// |                                                                                                                    |
// |          Current split capture setting:     Off (optimal)                                                          |
// |                                                                                                                    |
// |   Current clock off simulation setting:     Off (optimal)                                                          |
// | ------------------------------------------------------------------------------------------------------------------ |
//  ------------------------------------------------------------------------
//  Simulation performed for #gates = 6497  #faults = 12114
//  Run fault simulation without storing patterns.  pattern source = 151 external patterns
//  ------------------------------------------------------------------------
//  #patterns  test      #faults  #faults    # eff.    # test         process 
//  simulated  coverage  in list  detected   patterns  patterns       CPU time
//   64         37.54%     7567      4547       61         0          0.08 sec
//   128        39.79%     7294       273       46         0          0.10 sec
//   151        40.42%     7217        77       15         0          0.12 sec
