// | ------------------------------------------------------------------------------------------------------------------ |
// |                                                                                                                    |
// |          Current split capture setting:     Off (optimal)                                                          |
// |                                                                                                                    |
// |   Current clock off simulation setting:     Off (optimal)                                                          |
// | ------------------------------------------------------------------------------------------------------------------ |
//  ------------------------------------------------------------------------
//  Simulation performed for #gates = 6497  #faults = 11933
//  Run fault simulation without storing patterns.  pattern source = 219 external patterns
//  ------------------------------------------------------------------------
//  #patterns  test      #faults  #faults    # eff.    # test         process 
//  simulated  coverage  in list  detected   patterns  patterns       CPU time
//   64         43.79%     6707      5226       63         0          0.09 sec
//   128        48.43%     6154       553       49         0          0.12 sec
//   192        50.16%     5947       207       37         0          0.13 sec
//   219        50.36%     5923        24        8         0          0.15 sec
