          Statistics Report          
           Stuck-at Faults           
-------------------------------------
Fault Classes              #faults   
                           (coll.)   
---------------------  --------------
  FU (full)                 2586     
  -------------------  --------------
  DS (det_simulation)   1198 (46.33%)
  TI (tied)              150 ( 5.80%)
  BL (blocked)           295 (11.41%)
  RE (redundant)         943 (36.47%)
-------------------------------------
Coverage                             
  -------------------                
  test_coverage              100.00% 
  fault_coverage              46.33% 
  atpg_effectiveness         100.00% 
-------------------------------------
#test_patterns                    94 
#simulated_patterns              132 
CPU_time (secs)                  2.0 
-------------------------------------

