          Statistics Report          
           Stuck-at Faults           
-------------------------------------
Fault Classes              #faults   
                           (coll.)   
---------------------  --------------
  FU (full)                 2586     
  -------------------  --------------
  DS (det_simulation)   1497 (57.89%)
  TI (tied)              149 ( 5.76%)
  BL (blocked)           269 (10.40%)
  RE (redundant)         671 (25.95%)
-------------------------------------
Coverage                             
  -------------------                
  test_coverage              100.00% 
  fault_coverage              57.89% 
  atpg_effectiveness         100.00% 
-------------------------------------
#test_patterns                   143 
#simulated_patterns              179 
CPU_time (secs)                  2.0 
-------------------------------------

