          Statistics Report          
           Stuck-at Faults           
-------------------------------------
Fault Classes              #faults   
                           (coll.)   
---------------------  --------------
  FU (full)                 25984    
  -------------------  --------------
  DS (det_simulation)   9975 (38.39%)
  RE (redundant)       16009 (61.61%)
-------------------------------------
Coverage                             
  -------------------                
  test_coverage              100.00% 
  fault_coverage              38.39% 
  atpg_effectiveness         100.00% 
-------------------------------------
#test_patterns                  1151 
#simulated_patterns             1286 
CPU_time (secs)                  4.3 
-------------------------------------

