// | ------------------------------------------------------------------------------------------------------------------ |
// |                                                                                                                    |
// |          Current split capture setting:     Off (optimal)                                                          |
// |                                                                                                                    |
// |   Current clock off simulation setting:     Off (optimal)                                                          |
// | ------------------------------------------------------------------------------------------------------------------ |
//  ------------------------------------------------------------------------
//  Simulation performed for #gates = 12864  #faults = 25984
//  Run fault simulation without storing patterns.  pattern source = 941 external patterns
//  ------------------------------------------------------------------------
//  #patterns  test      #faults  #faults    # eff.    # test         process 
//  simulated  coverage  in list  detected   patterns  patterns       CPU time
//   64         14.82%    22133      3851       64         0          0.13 sec
//   128        16.64%    21661       472       57         0          0.19 sec
//   192        17.56%    21420       241       51         0          0.25 sec
//   256        18.19%    21258       162       38         0          0.31 sec
//   320        18.47%    21186        72       26         0          0.37 sec
//   384        18.68%    21130        56       29         0          0.43 sec
//   448        18.90%    21073        57       26         0          0.49 sec
//   512        19.07%    21029        44       19         0          0.55 sec
//   576        19.23%    20987        42       19         0          0.60 sec
//   640        19.38%    20949        38       17         0          0.66 sec
//   704        19.50%    20917        32       15         0          0.72 sec
//   768        19.64%    20882        35       22         0          0.77 sec
//   832        19.70%    20865        17        8         0          0.83 sec
//   896        19.76%    20849        16        7         0          0.89 sec
//   941        19.87%    20822        27        9         0          0.94 sec
