// | ------------------------------------------------------------------------------------------------------------------ |
// |                                                                                                                    |
// |          Current split capture setting:     Off (optimal)                                                          |
// |                                                                                                                    |
// |   Current clock off simulation setting:     Off (optimal)                                                          |
// | ------------------------------------------------------------------------------------------------------------------ |
//  ------------------------------------------------------------------------
//  Simulation performed for #gates = 12864  #faults = 25984
//  Run fault simulation without storing patterns.  pattern source = 915 external patterns
//  ------------------------------------------------------------------------
//  #patterns  test      #faults  #faults    # eff.    # test         process 
//  simulated  coverage  in list  detected   patterns  patterns       CPU time
//   64         16.41%    21721      4263       64         0          0.14 sec
//   128        18.35%    21215       506       60         0          0.21 sec
//   192        19.07%    21030       185       51         0          0.27 sec
//   256        19.60%    20890       140       46         0          0.33 sec
//   320        19.85%    20825        65       29         0          0.39 sec
//   384        20.10%    20761        64       26         0          0.45 sec
//   448        20.39%    20687        74       34         0          0.51 sec
//   512        20.52%    20653        34       16         0          0.57 sec
//   576        20.62%    20625        28       14         0          0.62 sec
//   640        20.75%    20592        33       18         0          0.68 sec
//   704        20.89%    20555        37       18         0          0.73 sec
//   768        21.00%    20527        28       13         0          0.79 sec
//   832        21.13%    20493        34       18         0          0.84 sec
//   896        21.19%    20478        15        7         0          0.90 sec
//   915        21.22%    20470         8        4         0          0.95 sec
