// | ------------------------------------------------------------------------------------------------------------------ |
// |                                                                                                                    |
// |          Current split capture setting:     Off (optimal)                                                          |
// |                                                                                                                    |
// |   Current clock off simulation setting:     Off (optimal)                                                          |
// | ------------------------------------------------------------------------------------------------------------------ |
//  ------------------------------------------------------------------------
//  Simulation performed for #gates = 12864  #faults = 25984
//  Run fault simulation without storing patterns.  pattern source = 1019 external patterns
//  ------------------------------------------------------------------------
//  #patterns  test      #faults  #faults    # eff.    # test         process 
//  simulated  coverage  in list  detected   patterns  patterns       CPU time
//   64         13.65%    22438      3546       62         0          0.12 sec
//   128        15.43%    21974       464       52         0          0.19 sec
//   192        16.11%    21797       177       45         0          0.25 sec
//   256        16.77%    21626       171       35         0          0.31 sec
//   320        17.23%    21506       120       38         0          0.37 sec
//   384        17.65%    21398       108       28         0          0.43 sec
//   448        17.94%    21323        75       27         0          0.49 sec
//   512        18.37%    21210       113       31         0          0.55 sec
//   576        18.71%    21122        88       34         0          0.60 sec
//   640        18.95%    21059        63       24         0          0.66 sec
//   704        19.11%    21018        41       14         0          0.72 sec
//   768        19.24%    20984        34       17         0          0.77 sec
//   832        19.45%    20930        54       17         0          0.83 sec
//   896        19.53%    20909        21        9         0          0.88 sec
//   960        19.63%    20883        26       15         0          0.94 sec
//   1019       19.71%    20862        21        5         0          0.99 sec
