// | ------------------------------------------------------------------------------------------------------------------ |
// |                                                                                                                    |
// |          Current split capture setting:     Off (optimal)                                                          |
// |                                                                                                                    |
// |   Current clock off simulation setting:     Off (optimal)                                                          |
// | ------------------------------------------------------------------------------------------------------------------ |
//  ------------------------------------------------------------------------
//  Simulation performed for #gates = 12864  #faults = 25984
//  Run fault simulation without storing patterns.  pattern source = 679 external patterns
//  ------------------------------------------------------------------------
//  #patterns  test      #faults  #faults    # eff.    # test         process 
//  simulated  coverage  in list  detected   patterns  patterns       CPU time
//   64         14.94%    22101      3883       63         0          0.13 sec
//   128        16.73%    21637       464       56         0          0.19 sec
//   192        17.76%    21370       267       49         0          0.25 sec
//   256        18.20%    21254       116       44         0          0.31 sec
//   320        18.48%    21181        73       31         0          0.37 sec
//   384        18.75%    21113        68       27         0          0.43 sec
//   448        18.91%    21070        43       25         0          0.48 sec
//   512        19.01%    21045        25       15         0          0.54 sec
//   576        19.08%    21026        19       12         0          0.59 sec
//   640        19.20%    20996        30       14         0          0.65 sec
//   679        19.23%    20986        10        8         0          0.70 sec
