// | ------------------------------------------------------------------------------------------------------------------ |
// |                                                                                                                    |
// |          Current split capture setting:     Off (optimal)                                                          |
// |                                                                                                                    |
// |   Current clock off simulation setting:     Off (optimal)                                                          |
// | ------------------------------------------------------------------------------------------------------------------ |
//  ------------------------------------------------------------------------
//  Simulation performed for #gates = 12864  #faults = 25984
//  Run fault simulation without storing patterns.  pattern source = 1517 external patterns
//  ------------------------------------------------------------------------
//  #patterns  test      #faults  #faults    # eff.    # test         process 
//  simulated  coverage  in list  detected   patterns  patterns       CPU time
//   64         15.18%    22040      3944       64         0          0.13 sec
//   128        17.39%    21465       575       62         0          0.20 sec
//   192        18.30%    21230       235       54         0          0.26 sec
//   256        19.00%    21048       182       46         0          0.32 sec
//   320        19.45%    20929       119       41         0          0.38 sec
//   384        19.70%    20866        63       29         0          0.43 sec
//   448        19.91%    20810        56       25         0          0.49 sec
//   512        20.14%    20751        59       25         0          0.55 sec
//   576        20.33%    20701        50       20         0          0.60 sec
//   640        20.47%    20665        36       18         0          0.66 sec
//   704        20.55%    20644        21       12         0          0.71 sec
//   768        20.71%    20604        40       13         0          0.76 sec
//   832        20.77%    20588        16       12         0          0.82 sec
//   896        20.83%    20572        16       12         0          0.87 sec
//   960        20.95%    20540        32       15         0          0.93 sec
//   1024       21.03%    20520        20       12         0          0.98 sec
//   1088       21.10%    20502        18        9         0          1.04 sec
//   1152       21.19%    20477        25       16         0          1.09 sec
//   1216       21.23%    20468         9        5         0          1.15 sec
//   1280       21.31%    20448        20       11         0          1.20 sec
//   1344       21.34%    20439         9        7         0          1.26 sec
//   1408       21.43%    20416        23       10         0          1.31 sec
//   1472       21.48%    20403        13        7         0          1.36 sec
//   1517       21.50%    20398         5        4         0          1.41 sec
