// | ------------------------------------------------------------------------------------------------------------------ |
// |                                                                                                                    |
// |          Current split capture setting:     Off (optimal)                                                          |
// |                                                                                                                    |
// |   Current clock off simulation setting:     Off (optimal)                                                          |
// | ------------------------------------------------------------------------------------------------------------------ |
//  ------------------------------------------------------------------------
//  Simulation performed for #gates = 12864  #faults = 25984
//  Run fault simulation without storing patterns.  pattern source = 824 external patterns
//  ------------------------------------------------------------------------
//  #patterns  test      #faults  #faults    # eff.    # test         process 
//  simulated  coverage  in list  detected   patterns  patterns       CPU time
//   64         13.85%    22385      3599       64         0          0.12 sec
//   128        15.41%    21980       405       52         0          0.19 sec
//   192        16.10%    21801       179       48         0          0.25 sec
//   256        16.71%    21642       159       39         0          0.32 sec
//   320        17.18%    21520       122       35         0          0.38 sec
//   384        17.62%    21405       115       42         0          0.44 sec
//   448        17.96%    21317        88       26         0          0.49 sec
//   512        18.26%    21240        77       28         0          0.55 sec
//   576        18.38%    21208        32       17         0          0.61 sec
//   640        18.51%    21175        33       17         0          0.66 sec
//   704        18.71%    21122        53       24         0          0.72 sec
//   768        18.86%    21084        38       18         0          0.78 sec
//   824        19.05%    21034        50       16         0          0.83 sec
