// | ------------------------------------------------------------------------------------------------------------------ |
// |                                                                                                                    |
// |          Current split capture setting:     Off (optimal)                                                          |
// |                                                                                                                    |
// |   Current clock off simulation setting:     Off (optimal)                                                          |
// | ------------------------------------------------------------------------------------------------------------------ |
//  ------------------------------------------------------------------------
//  Simulation performed for #gates = 12864  #faults = 25984
//  Run fault simulation without storing patterns.  pattern source = 747 external patterns
//  ------------------------------------------------------------------------
//  #patterns  test      #faults  #faults    # eff.    # test         process 
//  simulated  coverage  in list  detected   patterns  patterns       CPU time
//   64         11.95%    22880      3104       62         0          0.10 sec
//   128        13.27%    22536       344       48         0          0.17 sec
//   192        14.02%    22340       196       37         0          0.23 sec
//   256        14.69%    22168       172       42         0          0.29 sec
//   320        15.16%    22045       123       36         0          0.35 sec
//   384        15.65%    21918       127       40         0          0.41 sec
//   448        16.00%    21827        91       26         0          0.46 sec
//   512        16.32%    21743        84       25         0          0.52 sec
//   576        16.56%    21682        61       26         0          0.58 sec
//   640        16.76%    21628        54       20         0          0.63 sec
//   704        16.95%    21579        49       19         0          0.69 sec
//   747        17.03%    21560        19       11         0          0.74 sec
