// | ------------------------------------------------------------------------------------------------------------------ |
// |                                                                                                                    |
// |          Current split capture setting:     Off (optimal)                                                          |
// |                                                                                                                    |
// |   Current clock off simulation setting:     Off (optimal)                                                          |
// | ------------------------------------------------------------------------------------------------------------------ |
//  ------------------------------------------------------------------------
//  Simulation performed for #gates = 12864  #faults = 25984
//  Run fault simulation without storing patterns.  pattern source = 892 external patterns
//  ------------------------------------------------------------------------
//  #patterns  test      #faults  #faults    # eff.    # test         process 
//  simulated  coverage  in list  detected   patterns  patterns       CPU time
//   64         15.13%    22053      3931       64         0          0.13 sec
//   128        16.91%    21590       463       61         0          0.20 sec
//   192        17.63%    21404       186       46         0          0.26 sec
//   256        18.14%    21271       133       33         0          0.32 sec
//   320        18.45%    21189        82       31         0          0.38 sec
//   384        18.74%    21114        75       27         0          0.43 sec
//   448        18.95%    21060        54       25         0          0.49 sec
//   512        19.12%    21015        45       20         0          0.55 sec
//   576        19.40%    20942        73       26         0          0.60 sec
//   640        19.47%    20924        18       11         0          0.66 sec
//   704        19.60%    20890        34       14         0          0.71 sec
//   768        19.67%    20872        18        9         0          0.76 sec
//   832        19.86%    20823        49       24         0          0.82 sec
//   892        19.98%    20793        30       15         0          0.87 sec
