// | ------------------------------------------------------------------------------------------------------------------ |
// |                                                                                                                    |
// |          Current split capture setting:     Off (optimal)                                                          |
// |                                                                                                                    |
// |   Current clock off simulation setting:     Off (optimal)                                                          |
// | ------------------------------------------------------------------------------------------------------------------ |
//  ------------------------------------------------------------------------
//  Simulation performed for #gates = 12864  #faults = 25984
//  Run fault simulation without storing patterns.  pattern source = 720 external patterns
//  ------------------------------------------------------------------------
//  #patterns  test      #faults  #faults    # eff.    # test         process 
//  simulated  coverage  in list  detected   patterns  patterns       CPU time
//   64         14.01%    22344      3640       64         0          0.11 sec
//   128        15.46%    21967       377       55         0          0.18 sec
//   192        16.06%    21811       156       41         0          0.24 sec
//   256        16.57%    21678       133       37         0          0.30 sec
//   320        16.90%    21592        86       34         0          0.36 sec
//   384        17.09%    21543        49       21         0          0.41 sec
//   448        17.34%    21478        65       31         0          0.47 sec
//   512        17.58%    21415        63       22         0          0.52 sec
//   576        17.73%    21378        37       21         0          0.58 sec
//   640        17.87%    21341        37       17         0          0.63 sec
//   704        17.98%    21311        30       15         0          0.69 sec
//   720        17.99%    21309         2        1         0          0.74 sec
