// | ------------------------------------------------------------------------------------------------------------------ |
// |                                                                                                                    |
// |          Current split capture setting:     Off (optimal)                                                          |
// |                                                                                                                    |
// |   Current clock off simulation setting:     Off (optimal)                                                          |
// | ------------------------------------------------------------------------------------------------------------------ |
//  ------------------------------------------------------------------------
//  Simulation performed for #gates = 12864  #faults = 25984
//  Run fault simulation without storing patterns.  pattern source = 1006 external patterns
//  ------------------------------------------------------------------------
//  #patterns  test      #faults  #faults    # eff.    # test         process 
//  simulated  coverage  in list  detected   patterns  patterns       CPU time
//   64         13.33%    22520      3464       63         0          0.12 sec
//   128        14.70%    22164       356       59         0          0.18 sec
//   192        15.52%    21951       213       48         0          0.25 sec
//   256        16.09%    21803       148       43         0          0.31 sec
//   320        16.63%    21664       139       44         0          0.37 sec
//   384        16.93%    21586        78       30         0          0.43 sec
//   448        17.20%    21514        72       27         0          0.49 sec
//   512        17.47%    21444        70       27         0          0.54 sec
//   576        17.65%    21397        47       20         0          0.60 sec
//   640        17.91%    21331        66       23         0          0.65 sec
//   704        18.03%    21299        32       17         0          0.71 sec
//   768        18.17%    21263        36       17         0          0.77 sec
//   832        18.31%    21226        37       20         0          0.82 sec
//   896        18.41%    21200        26       12         0          0.88 sec
//   960        18.47%    21184        16        7         0          0.93 sec
//   1006       18.49%    21180         4        3         0          0.99 sec
