// | ------------------------------------------------------------------------------------------------------------------ |
// |                                                                                                                    |
// |          Current split capture setting:     Off (optimal)                                                          |
// |                                                                                                                    |
// |   Current clock off simulation setting:     Off (optimal)                                                          |
// | ------------------------------------------------------------------------------------------------------------------ |
//  ------------------------------------------------------------------------
//  Simulation performed for #gates = 12864  #faults = 25984
//  Run fault simulation without storing patterns.  pattern source = 757 external patterns
//  ------------------------------------------------------------------------
//  #patterns  test      #faults  #faults    # eff.    # test         process 
//  simulated  coverage  in list  detected   patterns  patterns       CPU time
//   64         14.93%    22104      3880       63         0          0.14 sec
//   128        17.12%    21535       569       60         0          0.21 sec
//   192        18.07%    21288       247       57         0          0.27 sec
//   256        18.65%    21139       149       46         0          0.33 sec
//   320        19.06%    21031       108       37         0          0.39 sec
//   384        19.35%    20957        74       36         0          0.45 sec
//   448        19.62%    20885        72       31         0          0.51 sec
//   512        19.78%    20844        41       19         0          0.56 sec
//   576        19.94%    20802        42       22         0          0.62 sec
//   640        20.07%    20770        32       18         0          0.68 sec
//   704        20.19%    20737        33       18         0          0.73 sec
//   757        20.26%    20720        17        8         0          0.79 sec
