// | ------------------------------------------------------------------------------------------------------------------ |
// |                                                                                                                    |
// |          Current split capture setting:     Off (optimal)                                                          |
// |                                                                                                                    |
// |   Current clock off simulation setting:     Off (optimal)                                                          |
// | ------------------------------------------------------------------------------------------------------------------ |
//  ------------------------------------------------------------------------
//  Simulation performed for #gates = 12864  #faults = 25984
//  Run fault simulation without storing patterns.  pattern source = 895 external patterns
//  ------------------------------------------------------------------------
//  #patterns  test      #faults  #faults    # eff.    # test         process 
//  simulated  coverage  in list  detected   patterns  patterns       CPU time
//   64         14.67%    22172      3812       63         0          0.13 sec
//   128        16.54%    21685       487       58         0          0.20 sec
//   192        17.51%    21435       250       59         0          0.26 sec
//   256        18.05%    21294       141       45         0          0.32 sec
//   320        18.42%    21197        97       32         0          0.38 sec
//   384        18.75%    21111        86       32         0          0.44 sec
//   448        18.98%    21051        60       21         0          0.50 sec
//   512        19.21%    20992        59       21         0          0.56 sec
//   576        19.36%    20954        38       18         0          0.62 sec
//   640        19.58%    20897        57       25         0          0.67 sec
//   704        19.70%    20866        31       17         0          0.73 sec
//   768        19.79%    20843        23       13         0          0.79 sec
//   832        19.86%    20824        19       12         0          0.84 sec
//   895        19.92%    20809        15       11         0          0.90 sec
