// | ------------------------------------------------------------------------------------------------------------------ |
// |                                                                                                                    |
// |          Current split capture setting:     Off (optimal)                                                          |
// |                                                                                                                    |
// |   Current clock off simulation setting:     Off (optimal)                                                          |
// | ------------------------------------------------------------------------------------------------------------------ |
//  ------------------------------------------------------------------------
//  Simulation performed for #gates = 12864  #faults = 25984
//  Run fault simulation without storing patterns.  pattern source = 857 external patterns
//  ------------------------------------------------------------------------
//  #patterns  test      #faults  #faults    # eff.    # test         process 
//  simulated  coverage  in list  detected   patterns  patterns       CPU time
//   64         15.75%    21892      4092       64         0          0.12 sec
//   128        17.33%    21480       412       61         0          0.19 sec
//   192        18.13%    21274       206       52         0          0.25 sec
//   256        18.62%    21147       127       39         0          0.31 sec
//   320        18.99%    21050        97       32         0          0.36 sec
//   384        19.36%    20953        97       35         0          0.42 sec
//   448        19.57%    20900        53       23         0          0.47 sec
//   512        19.72%    20859        41       18         0          0.53 sec
//   576        19.86%    20824        35       17         0          0.58 sec
//   640        20.00%    20787        37       22         0          0.64 sec
//   704        20.11%    20758        29       19         0          0.69 sec
//   768        20.22%    20730        28       15         0          0.74 sec
//   832        20.29%    20711        19        7         0          0.80 sec
//   857        20.32%    20704         7        3         0          0.85 sec
