// | ------------------------------------------------------------------------------------------------------------------ |
// |                                                                                                                    |
// |          Current split capture setting:     Off (optimal)                                                          |
// |                                                                                                                    |
// |   Current clock off simulation setting:     Off (optimal)                                                          |
// | ------------------------------------------------------------------------------------------------------------------ |
//  ------------------------------------------------------------------------
//  Simulation performed for #gates = 12864  #faults = 25984
//  Run fault simulation without storing patterns.  pattern source = 895 external patterns
//  ------------------------------------------------------------------------
//  #patterns  test      #faults  #faults    # eff.    # test         process 
//  simulated  coverage  in list  detected   patterns  patterns       CPU time
//   64         14.95%    22099      3885       64         0          0.13 sec
//   128        16.86%    21602       497       57         0          0.20 sec
//   192        17.66%    21395       207       44         0          0.26 sec
//   256        18.33%    21222       173       48         0          0.32 sec
//   320        18.69%    21128        94       37         0          0.38 sec
//   384        18.93%    21066        62       27         0          0.44 sec
//   448        19.14%    21011        55       26         0          0.49 sec
//   512        19.31%    20966        45       21         0          0.55 sec
//   576        19.55%    20905        61       22         0          0.61 sec
//   640        19.62%    20887        18       15         0          0.67 sec
//   704        19.75%    20852        35       17         0          0.72 sec
//   768        19.82%    20834        18       10         0          0.78 sec
//   832        19.93%    20806        28       13         0          0.84 sec
//   895        20.00%    20786        20       11         0          0.89 sec
