// | ------------------------------------------------------------------------------------------------------------------ |
// |                                                                                                                    |
// |          Current split capture setting:     Off (optimal)                                                          |
// |                                                                                                                    |
// |   Current clock off simulation setting:     Off (optimal)                                                          |
// | ------------------------------------------------------------------------------------------------------------------ |
//  ------------------------------------------------------------------------
//  Simulation performed for #gates = 12864  #faults = 25984
//  Run fault simulation without storing patterns.  pattern source = 820 external patterns
//  ------------------------------------------------------------------------
//  #patterns  test      #faults  #faults    # eff.    # test         process 
//  simulated  coverage  in list  detected   patterns  patterns       CPU time
//   64         14.57%    22199      3785       64         0          0.13 sec
//   128        16.51%    21694       505       59         0          0.20 sec
//   192        17.48%    21441       253       56         0          0.27 sec
//   256        18.14%    21271       170       44         0          0.33 sec
//   320        18.62%    21146       125       43         0          0.39 sec
//   384        19.02%    21043       103       31         0          0.45 sec
//   448        19.25%    20981        62       28         0          0.51 sec
//   512        19.48%    20923        58       26         0          0.56 sec
//   576        19.61%    20888        35       18         0          0.62 sec
//   640        19.76%    20849        39       18         0          0.68 sec
//   704        19.94%    20803        46       20         0          0.73 sec
//   768        20.05%    20774        29       13         0          0.79 sec
//   820        20.17%    20744        30       11         0          0.85 sec
