// | ------------------------------------------------------------------------------------------------------------------ |
// |                                                                                                                    |
// |          Current split capture setting:     Off (optimal)                                                          |
// |                                                                                                                    |
// |   Current clock off simulation setting:     Off (optimal)                                                          |
// | ------------------------------------------------------------------------------------------------------------------ |
//  ------------------------------------------------------------------------
//  Simulation performed for #gates = 12864  #faults = 25984
//  Run fault simulation without storing patterns.  pattern source = 614 external patterns
//  ------------------------------------------------------------------------
//  #patterns  test      #faults  #faults    # eff.    # test         process 
//  simulated  coverage  in list  detected   patterns  patterns       CPU time
//   64         15.11%    22058      3926       64         0          0.13 sec
//   128        17.05%    21555       503       60         0          0.19 sec
//   192        17.88%    21338       217       46         0          0.25 sec
//   256        18.37%    21212       126       45         0          0.31 sec
//   320        18.68%    21131        81       32         0          0.37 sec
//   384        18.89%    21076        55       24         0          0.43 sec
//   448        19.16%    21005        71       30         0          0.49 sec
//   512        19.35%    20957        48       26         0          0.54 sec
//   576        19.47%    20924        33       17         0          0.60 sec
//   614        19.50%    20918         6        6         0          0.65 sec
