// | ------------------------------------------------------------------------------------------------------------------ |
// |                                                                                                                    |
// |          Current split capture setting:     Off (optimal)                                                          |
// |                                                                                                                    |
// |   Current clock off simulation setting:     Off (optimal)                                                          |
// | ------------------------------------------------------------------------------------------------------------------ |
//  ------------------------------------------------------------------------
//  Simulation performed for #gates = 12864  #faults = 25984
//  Run fault simulation without storing patterns.  pattern source = 607 external patterns
//  ------------------------------------------------------------------------
//  #patterns  test      #faults  #faults    # eff.    # test         process 
//  simulated  coverage  in list  detected   patterns  patterns       CPU time
//   64         15.08%    22065      3919       63         0          0.13 sec
//   128        16.73%    21636       429       54         0          0.20 sec
//   192        17.60%    21411       225       49         0          0.26 sec
//   256        18.09%    21283       128       41         0          0.32 sec
//   320        18.48%    21183       100       39         0          0.38 sec
//   384        18.68%    21129        54       31         0          0.44 sec
//   448        18.91%    21071        58       28         0          0.49 sec
//   512        19.02%    21042        29       21         0          0.55 sec
//   576        19.11%    21018        24       13         0          0.61 sec
//   607        19.13%    21013         5        5         0          0.66 sec
