// | ------------------------------------------------------------------------------------------------------------------ |
// |                                                                                                                    |
// |          Current split capture setting:     Off (optimal)                                                          |
// |                                                                                                                    |
// |   Current clock off simulation setting:     Off (optimal)                                                          |
// | ------------------------------------------------------------------------------------------------------------------ |
//  ------------------------------------------------------------------------
//  Simulation performed for #gates = 12864  #faults = 25984
//  Run fault simulation without storing patterns.  pattern source = 596 external patterns
//  ------------------------------------------------------------------------
//  #patterns  test      #faults  #faults    # eff.    # test         process 
//  simulated  coverage  in list  detected   patterns  patterns       CPU time
//   64         20.41%    20680      5304       64         0          0.14 sec
//   128        24.05%    19734       946       64         0          0.20 sec
//   192        26.01%    19226       508       64         0          0.26 sec
//   256        27.34%    18881       345       64         0          0.31 sec
//   320        28.31%    18629       252       64         0          0.36 sec
//   384        29.11%    18420       209       64         0          0.40 sec
//   448        29.81%    18238       182       64         0          0.45 sec
//   512        30.33%    18103       135       64         0          0.50 sec
//   576        30.75%    17995       108       64         0          0.55 sec
//   596        30.83%    17974        21       20         0          0.59 sec
