// | ------------------------------------------------------------------------------------------------------------------ |
// |                                                                                                                    |
// |          Current split capture setting:     Off (optimal)                                                          |
// |                                                                                                                    |
// |   Current clock off simulation setting:     Off (optimal)                                                          |
// | ------------------------------------------------------------------------------------------------------------------ |
//  ------------------------------------------------------------------------
//  Simulation performed for #gates = 12864  #faults = 25984
//  Run fault simulation without storing patterns.  pattern source = 928 external patterns
//  ------------------------------------------------------------------------
//  #patterns  test      #faults  #faults    # eff.    # test         process 
//  simulated  coverage  in list  detected   patterns  patterns       CPU time
//   64         14.74%    22154      3830       64         0          0.12 sec
//   128        16.41%    21719       435       56         0          0.19 sec
//   192        17.24%    21505       214       51         0          0.25 sec
//   256        17.75%    21371       134       45         0          0.31 sec
//   320        18.18%    21259       112       39         0          0.37 sec
//   384        18.53%    21169        90       31         0          0.42 sec
//   448        18.79%    21102        67       29         0          0.48 sec
//   512        18.97%    21054        48       24         0          0.53 sec
//   576        19.07%    21028        26       15         0          0.59 sec
//   640        19.29%    20971        57       23         0          0.64 sec
//   704        19.44%    20933        38       20         0          0.70 sec
//   768        19.55%    20903        30       19         0          0.75 sec
//   832        19.65%    20879        24       15         0          0.80 sec
//   896        19.74%    20856        23       10         0          0.86 sec
//   928        19.74%    20855         1        1         0          0.91 sec
