// | ------------------------------------------------------------------------------------------------------------------ |
// |                                                                                                                    |
// |          Current split capture setting:     Off (optimal)                                                          |
// |                                                                                                                    |
// |   Current clock off simulation setting:     Off (optimal)                                                          |
// | ------------------------------------------------------------------------------------------------------------------ |
//  ------------------------------------------------------------------------
//  Simulation performed for #gates = 12864  #faults = 25984
//  Run fault simulation without storing patterns.  pattern source = 836 external patterns
//  ------------------------------------------------------------------------
//  #patterns  test      #faults  #faults    # eff.    # test         process 
//  simulated  coverage  in list  detected   patterns  patterns       CPU time
//   64         15.84%    21867      4117       64         0          0.13 sec
//   128        17.66%    21396       471       57         0          0.20 sec
//   192        18.48%    21181       215       51         0          0.26 sec
//   256        19.03%    21039       142       48         0          0.32 sec
//   320        19.37%    20951        88       37         0          0.38 sec
//   384        19.62%    20885        66       29         0          0.44 sec
//   448        19.89%    20817        68       25         0          0.50 sec
//   512        20.05%    20773        44       22         0          0.56 sec
//   576        20.16%    20745        28       16         0          0.61 sec
//   640        20.29%    20711        34       17         0          0.67 sec
//   704        20.37%    20690        21       11         0          0.73 sec
//   768        20.59%    20635        55       19         0          0.78 sec
//   832        20.65%    20618        17       12         0          0.84 sec
