// | ------------------------------------------------------------------------------------------------------------------ |
// |                                                                                                                    |
// |          Current split capture setting:     Off (optimal)                                                          |
// |                                                                                                                    |
// |   Current clock off simulation setting:     Off (optimal)                                                          |
// | ------------------------------------------------------------------------------------------------------------------ |
//  ------------------------------------------------------------------------
//  Simulation performed for #gates = 12864  #faults = 25984
//  Run fault simulation without storing patterns.  pattern source = 931 external patterns
//  ------------------------------------------------------------------------
//  #patterns  test      #faults  #faults    # eff.    # test         process 
//  simulated  coverage  in list  detected   patterns  patterns       CPU time
//   64         14.67%    22172      3812       63         0          0.13 sec
//   128        16.85%    21606       566       60         0          0.20 sec
//   192        17.65%    21399       207       46         0          0.26 sec
//   256        18.19%    21258       141       43         0          0.33 sec
//   320        18.68%    21131       127       39         0          0.39 sec
//   384        19.03%    21039        92       36         0          0.45 sec
//   448        19.18%    21000        39       19         0          0.50 sec
//   512        19.43%    20936        64       26         0          0.56 sec
//   576        19.52%    20912        24       13         0          0.62 sec
//   640        19.64%    20882        30       22         0          0.68 sec
//   704        19.74%    20855        27       14         0          0.73 sec
//   768        19.80%    20838        17       11         0          0.79 sec
//   832        19.86%    20823        15       10         0          0.85 sec
//   896        19.93%    20806        17        9         0          0.90 sec
//   931        19.94%    20804         2        1         0          0.95 sec
