// | ------------------------------------------------------------------------------------------------------------------ |
// |                                                                                                                    |
// |          Current split capture setting:     Off (optimal)                                                          |
// |                                                                                                                    |
// |   Current clock off simulation setting:     Off (optimal)                                                          |
// | ------------------------------------------------------------------------------------------------------------------ |
//  ------------------------------------------------------------------------
//  Simulation performed for #gates = 12864  #faults = 25984
//  Run fault simulation without storing patterns.  pattern source = 727 external patterns
//  ------------------------------------------------------------------------
//  #patterns  test      #faults  #faults    # eff.    # test         process 
//  simulated  coverage  in list  detected   patterns  patterns       CPU time
//   64         15.67%    21913      4071       64         0          0.13 sec
//   128        17.56%    21422       491       61         0          0.20 sec
//   192        18.41%    21201       221       48         0          0.26 sec
//   256        18.86%    21084       117       38         0          0.32 sec
//   320        19.25%    20983       101       31         0          0.37 sec
//   384        19.47%    20924        59       31         0          0.43 sec
//   448        19.69%    20867        57       27         0          0.49 sec
//   512        19.92%    20807        60       26         0          0.54 sec
//   576        20.19%    20737        70       26         0          0.60 sec
//   640        20.32%    20705        32       11         0          0.65 sec
//   704        20.47%    20665        40       18         0          0.71 sec
//   727        20.53%    20650        15        5         0          0.76 sec
