// | ------------------------------------------------------------------------------------------------------------------ |
// |                                                                                                                    |
// |          Current split capture setting:     Off (optimal)                                                          |
// |                                                                                                                    |
// |   Current clock off simulation setting:     Off (optimal)                                                          |
// | ------------------------------------------------------------------------------------------------------------------ |
//  ------------------------------------------------------------------------
//  Simulation performed for #gates = 12864  #faults = 25984
//  Run fault simulation without storing patterns.  pattern source = 1056 external patterns
//  ------------------------------------------------------------------------
//  #patterns  test      #faults  #faults    # eff.    # test         process 
//  simulated  coverage  in list  detected   patterns  patterns       CPU time
//   64         14.92%    22106      3878       64         0          0.13 sec
//   128        16.59%    21672       434       57         0          0.20 sec
//   192        17.61%    21408       264       52         0          0.27 sec
//   256        18.05%    21295       113       40         0          0.33 sec
//   320        18.50%    21176       119       39         0          0.39 sec
//   384        18.73%    21116        60       30         0          0.45 sec
//   448        19.01%    21045        71       26         0          0.50 sec
//   512        19.22%    20989        56       24         0          0.56 sec
//   576        19.39%    20945        44       21         0          0.62 sec
//   640        19.53%    20909        36       15         0          0.67 sec
//   704        19.64%    20882        27       15         0          0.73 sec
//   768        19.67%    20873         9        7         0          0.79 sec
//   832        19.80%    20840        33       17         0          0.84 sec
//   896        19.85%    20825        15       10         0          0.90 sec
//   960        19.97%    20794        31       12         0          0.95 sec
//   1024       20.04%    20776        18        9         0          1.01 sec
//   1056       20.07%    20769         7        4         0          1.06 sec
