// | ------------------------------------------------------------------------------------------------------------------ |
// |                                                                                                                    |
// |          Current split capture setting:     Off (optimal)                                                          |
// |                                                                                                                    |
// |   Current clock off simulation setting:     Off (optimal)                                                          |
// | ------------------------------------------------------------------------------------------------------------------ |
//  ------------------------------------------------------------------------
//  Simulation performed for #gates = 12864  #faults = 25984
//  Run fault simulation without storing patterns.  pattern source = 727 external patterns
//  ------------------------------------------------------------------------
//  #patterns  test      #faults  #faults    # eff.    # test         process 
//  simulated  coverage  in list  detected   patterns  patterns       CPU time
//   64         19.47%    20924      5060       64         0          0.15 sec
//   128        23.11%    19978       946       64         0          0.21 sec
//   192        24.94%    19503       475       64         0          0.27 sec
//   256        26.20%    19176       327       64         0          0.32 sec
//   320        27.19%    18920       256       64         0          0.37 sec
//   384        27.89%    18738       182       64         0          0.42 sec
//   448        28.45%    18592       146       64         0          0.47 sec
//   512        29.01%    18446       146       64         0          0.52 sec
//   576        29.45%    18331       115       64         0          0.57 sec
//   640        29.91%    18212       119       64         0          0.62 sec
//   704        30.32%    18106       106       64         0          0.67 sec
//   727        30.45%    18072        34       23         0          0.71 sec
