// | ------------------------------------------------------------------------------------------------------------------ |
// |                                                                                                                    |
// |          Current split capture setting:     Off (optimal)                                                          |
// |                                                                                                                    |
// |   Current clock off simulation setting:     Off (optimal)                                                          |
// | ------------------------------------------------------------------------------------------------------------------ |
//  ------------------------------------------------------------------------
//  Simulation performed for #gates = 12864  #faults = 25984
//  Run fault simulation without storing patterns.  pattern source = 708 external patterns
//  ------------------------------------------------------------------------
//  #patterns  test      #faults  #faults    # eff.    # test         process 
//  simulated  coverage  in list  detected   patterns  patterns       CPU time
//   64         14.37%    22249      3735       64         0          0.12 sec
//   128        15.88%    21858       391       55         0          0.18 sec
//   192        16.81%    21615       243       48         0          0.24 sec
//   256        17.25%    21503       112       40         0          0.30 sec
//   320        17.63%    21402       101       36         0          0.36 sec
//   384        17.93%    21325        77       35         0          0.41 sec
//   448        18.14%    21271        54       24         0          0.47 sec
//   512        18.35%    21215        56       19         0          0.52 sec
//   576        18.52%    21171        44       22         0          0.58 sec
//   640        18.61%    21148        23       14         0          0.63 sec
//   704        18.70%    21126        22       11         0          0.68 sec
//   708        18.71%    21123         3        2         0          0.73 sec
