// | ------------------------------------------------------------------------------------------------------------------ |
// |                                                                                                                    |
// |          Current split capture setting:     Off (optimal)                                                          |
// |                                                                                                                    |
// |   Current clock off simulation setting:     Off (optimal)                                                          |
// | ------------------------------------------------------------------------------------------------------------------ |
//  ------------------------------------------------------------------------
//  Simulation performed for #gates = 12864  #faults = 25984
//  Run fault simulation without storing patterns.  pattern source = 1019 external patterns
//  ------------------------------------------------------------------------
//  #patterns  test      #faults  #faults    # eff.    # test         process 
//  simulated  coverage  in list  detected   patterns  patterns       CPU time
//   64         15.61%    21928      4056       63         0          0.14 sec
//   128        17.52%    21432       496       61         0          0.21 sec
//   192        18.41%    21201       231       51         0          0.27 sec
//   256        18.80%    21099       102       38         0          0.33 sec
//   320        19.00%    21048        51       26         0          0.39 sec
//   384        19.24%    20984        64       24         0          0.45 sec
//   448        19.49%    20921        63       27         0          0.50 sec
//   512        19.69%    20868        53       21         0          0.56 sec
//   576        19.80%    20839        29       17         0          0.62 sec
//   640        19.91%    20810        29       15         0          0.67 sec
//   704        20.00%    20788        22       13         0          0.73 sec
//   768        20.09%    20764        24       15         0          0.78 sec
//   832        20.19%    20739        25       18         0          0.84 sec
//   896        20.30%    20709        30       14         0          0.89 sec
//   960        20.37%    20691        18        9         0          0.95 sec
//   1019       20.38%    20689         2        2         0          1.00 sec
