// | ------------------------------------------------------------------------------------------------------------------ |
// |                                                                                                                    |
// |          Current split capture setting:     Off (optimal)                                                          |
// |                                                                                                                    |
// |   Current clock off simulation setting:     Off (optimal)                                                          |
// | ------------------------------------------------------------------------------------------------------------------ |
//  ------------------------------------------------------------------------
//  Simulation performed for #gates = 12864  #faults = 25984
//  Run fault simulation without storing patterns.  pattern source = 747 external patterns
//  ------------------------------------------------------------------------
//  #patterns  test      #faults  #faults    # eff.    # test         process 
//  simulated  coverage  in list  detected   patterns  patterns       CPU time
//   64         14.15%    22306      3678       63         0          0.13 sec
//   128        15.94%    21842       464       52         0          0.19 sec
//   192        16.62%    21666       176       49         0          0.26 sec
//   256        17.24%    21504       162       43         0          0.32 sec
//   320        17.75%    21372       132       38         0          0.38 sec
//   384        18.23%    21247       125       43         0          0.44 sec
//   448        18.56%    21162        85       26         0          0.50 sec
//   512        18.80%    21099        63       27         0          0.56 sec
//   576        19.14%    21010        89       29         0          0.62 sec
//   640        19.31%    20967        43       20         0          0.67 sec
//   704        19.47%    20926        41       20         0          0.73 sec
//   747        19.55%    20903        23       11         0          0.78 sec
