// | ------------------------------------------------------------------------------------------------------------------ |
// |                                                                                                                    |
// |          Current split capture setting:     Off (optimal)                                                          |
// |                                                                                                                    |
// |   Current clock off simulation setting:     Off (optimal)                                                          |
// | ------------------------------------------------------------------------------------------------------------------ |
//  ------------------------------------------------------------------------
//  Simulation performed for #gates = 12864  #faults = 25984
//  Run fault simulation without storing patterns.  pattern source = 1158 external patterns
//  ------------------------------------------------------------------------
//  #patterns  test      #faults  #faults    # eff.    # test         process 
//  simulated  coverage  in list  detected   patterns  patterns       CPU time
//   64         14.60%    22190      3794       64         0          0.12 sec
//   128        16.23%    21767       423       57         0          0.19 sec
//   192        17.21%    21511       256       56         0          0.25 sec
//   256        17.75%    21373       138       43         0          0.31 sec
//   320        18.07%    21289        84       29         0          0.37 sec
//   384        18.28%    21233        56       33         0          0.43 sec
//   448        18.46%    21188        45       19         0          0.48 sec
//   512        18.67%    21132        56       27         0          0.54 sec
//   576        18.82%    21094        38       17         0          0.60 sec
//   640        18.94%    21063        31       18         0          0.65 sec
//   704        19.09%    21024        39       18         0          0.71 sec
//   768        19.13%    21013        11        5         0          0.77 sec
//   832        19.20%    20995        18       11         0          0.82 sec
//   896        19.30%    20970        25       16         0          0.88 sec
//   960        19.32%    20964         6        4         0          0.93 sec
//   1024       19.42%    20938        26       12         0          0.99 sec
//   1088       19.44%    20932         6        5         0          1.04 sec
//   1152       19.48%    20922        10        5         0          1.09 sec
