// | ------------------------------------------------------------------------------------------------------------------ |
// |                                                                                                                    |
// |          Current split capture setting:     Off (optimal)                                                          |
// |                                                                                                                    |
// |   Current clock off simulation setting:     Off (optimal)                                                          |
// | ------------------------------------------------------------------------------------------------------------------ |
//  ------------------------------------------------------------------------
//  Simulation performed for #gates = 12864  #faults = 25984
//  Run fault simulation without storing patterns.  pattern source = 684 external patterns
//  ------------------------------------------------------------------------
//  #patterns  test      #faults  #faults    # eff.    # test         process 
//  simulated  coverage  in list  detected   patterns  patterns       CPU time
//   64         15.10%    22061      3923       64         0          0.13 sec
//   128        16.99%    21569       492       59         0          0.20 sec
//   192        17.88%    21337       232       49         0          0.27 sec
//   256        18.34%    21219       118       35         0          0.33 sec
//   320        18.75%    21112       107       34         0          0.39 sec
//   384        19.01%    21044        68       30         0          0.45 sec
//   448        19.24%    20984        60       31         0          0.50 sec
//   512        19.54%    20908        76       29         0          0.56 sec
//   576        19.79%    20841        67       25         0          0.62 sec
//   640        19.92%    20807        34       18         0          0.68 sec
//   684        19.99%    20790        17        8         0          0.73 sec
