// | ------------------------------------------------------------------------------------------------------------------ |
// |                                                                                                                    |
// |          Current split capture setting:     Off (optimal)                                                          |
// |                                                                                                                    |
// |   Current clock off simulation setting:     Off (optimal)                                                          |
// | ------------------------------------------------------------------------------------------------------------------ |
//  ------------------------------------------------------------------------
//  Simulation performed for #gates = 12864  #faults = 25984
//  Run fault simulation without storing patterns.  pattern source = 854 external patterns
//  ------------------------------------------------------------------------
//  #patterns  test      #faults  #faults    # eff.    # test         process 
//  simulated  coverage  in list  detected   patterns  patterns       CPU time
//   64         11.70%    22943      3041       62         0          0.10 sec
//   128        13.30%    22529       414       51         0          0.17 sec
//   192        13.99%    22350       179       39         0          0.23 sec
//   256        14.59%    22194       156       37         0          0.29 sec
//   320        15.13%    22053       141       34         0          0.35 sec
//   384        15.40%    21983        70       24         0          0.41 sec
//   448        15.82%    21874       109       29         0          0.46 sec
//   512        16.01%    21824        50       17         0          0.52 sec
//   576        16.20%    21774        50       19         0          0.58 sec
//   640        16.53%    21689        85       29         0          0.63 sec
//   704        16.84%    21608        81       26         0          0.69 sec
//   768        17.02%    21562        46       20         0          0.75 sec
//   832        17.12%    21536        26       12         0          0.80 sec
//   854        17.18%    21521        15        5         0          0.85 sec
