// | ------------------------------------------------------------------------------------------------------------------ |
// |                                                                                                                    |
// |          Current split capture setting:     Off (optimal)                                                          |
// |                                                                                                                    |
// |   Current clock off simulation setting:     Off (optimal)                                                          |
// | ------------------------------------------------------------------------------------------------------------------ |
//  ------------------------------------------------------------------------
//  Simulation performed for #gates = 12864  #faults = 25984
//  Run fault simulation without storing patterns.  pattern source = 749 external patterns
//  ------------------------------------------------------------------------
//  #patterns  test      #faults  #faults    # eff.    # test         process 
//  simulated  coverage  in list  detected   patterns  patterns       CPU time
//   64         16.24%    21764      4220       64         0          0.14 sec
//   128        17.93%    21324       440       59         0          0.20 sec
//   192        18.64%    21140       184       46         0          0.27 sec
//   256        18.96%    21057        83       33         0          0.32 sec
//   320        19.29%    20971        86       33         0          0.38 sec
//   384        19.48%    20922        49       24         0          0.44 sec
//   448        19.67%    20873        49       25         0          0.50 sec
//   512        19.79%    20841        32       17         0          0.56 sec
//   576        20.04%    20778        63       29         0          0.61 sec
//   640        20.26%    20720        58       23         0          0.67 sec
//   704        20.40%    20684        36       19         0          0.73 sec
//   749        20.48%    20662        22        9         0          0.78 sec
