// | ------------------------------------------------------------------------------------------------------------------ |
// |                                                                                                                    |
// |          Current split capture setting:     Off (optimal)                                                          |
// |                                                                                                                    |
// |   Current clock off simulation setting:     Off (optimal)                                                          |
// | ------------------------------------------------------------------------------------------------------------------ |
//  ------------------------------------------------------------------------
//  Simulation performed for #gates = 12864  #faults = 25984
//  Run fault simulation without storing patterns.  pattern source = 920 external patterns
//  ------------------------------------------------------------------------
//  #patterns  test      #faults  #faults    # eff.    # test         process 
//  simulated  coverage  in list  detected   patterns  patterns       CPU time
//   64         14.84%    22128      3856       64         0          0.13 sec
//   128        16.45%    21709       419       59         0          0.19 sec
//   192        17.33%    21482       227       54         0          0.25 sec
//   256        17.80%    21360       122       32         0          0.31 sec
//   320        18.19%    21257       103       36         0          0.37 sec
//   384        18.53%    21170        87       29         0          0.43 sec
//   448        18.73%    21116        54       21         0          0.48 sec
//   512        18.94%    21062        54       26         0          0.54 sec
//   576        19.15%    21008        54       22         0          0.59 sec
//   640        19.31%    20966        42       23         0          0.65 sec
//   704        19.42%    20938        28       11         0          0.70 sec
//   768        19.49%    20919        19       11         0          0.76 sec
//   832        19.56%    20901        18       12         0          0.81 sec
//   896        19.62%    20887        14       10         0          0.86 sec
//   920        19.64%    20881         6        3         0          0.92 sec
