// | ------------------------------------------------------------------------------------------------------------------ |
// |                                                                                                                    |
// |          Current split capture setting:     Off (optimal)                                                          |
// |                                                                                                                    |
// |   Current clock off simulation setting:     Off (optimal)                                                          |
// | ------------------------------------------------------------------------------------------------------------------ |
//  ------------------------------------------------------------------------
//  Simulation performed for #gates = 12864  #faults = 25984
//  Run fault simulation without storing patterns.  pattern source = 916 external patterns
//  ------------------------------------------------------------------------
//  #patterns  test      #faults  #faults    # eff.    # test         process 
//  simulated  coverage  in list  detected   patterns  patterns       CPU time
//   64         15.46%    21966      4018       63         0          0.14 sec
//   128        17.36%    21473       493       59         0          0.20 sec
//   192        18.21%    21252       221       53         0          0.26 sec
//   256        18.92%    21068       184       49         0          0.32 sec
//   320        19.32%    20964       104       39         0          0.38 sec
//   384        19.69%    20869        95       37         0          0.44 sec
//   448        19.94%    20804        65       32         0          0.49 sec
//   512        20.12%    20755        49       27         0          0.55 sec
//   576        20.20%    20734        21       12         0          0.60 sec
//   640        20.30%    20709        25       14         0          0.66 sec
//   704        20.46%    20667        42       22         0          0.71 sec
//   768        20.62%    20627        40       22         0          0.77 sec
//   832        20.73%    20598        29       13         0          0.82 sec
//   896        20.79%    20581        17       10         0          0.87 sec
//   916        20.80%    20579         2        2         0          0.92 sec
