// | ------------------------------------------------------------------------------------------------------------------ |
// |                                                                                                                    |
// |          Current split capture setting:     Off (optimal)                                                          |
// |                                                                                                                    |
// |   Current clock off simulation setting:     Off (optimal)                                                          |
// | ------------------------------------------------------------------------------------------------------------------ |
//  ------------------------------------------------------------------------
//  Simulation performed for #gates = 12864  #faults = 25984
//  Run fault simulation without storing patterns.  pattern source = 720 external patterns
//  ------------------------------------------------------------------------
//  #patterns  test      #faults  #faults    # eff.    # test         process 
//  simulated  coverage  in list  detected   patterns  patterns       CPU time
//   64         13.87%    22379      3605       64         0          0.12 sec
//   128        15.60%    21930       449       59         0          0.19 sec
//   192        16.20%    21774       156       40         0          0.25 sec
//   256        16.80%    21618       156       43         0          0.31 sec
//   320        17.13%    21533        85       36         0          0.37 sec
//   384        17.49%    21439        94       28         0          0.43 sec
//   448        17.71%    21381        58       22         0          0.48 sec
//   512        17.88%    21338        43       21         0          0.54 sec
//   576        18.17%    21263        75       21         0          0.60 sec
//   640        18.32%    21223        40       18         0          0.65 sec
//   704        18.42%    21198        25       11         0          0.71 sec
//   720        18.43%    21196         2        1         0          0.76 sec
