// | ------------------------------------------------------------------------------------------------------------------ |
// |                                                                                                                    |
// |          Current split capture setting:     Off (optimal)                                                          |
// |                                                                                                                    |
// |   Current clock off simulation setting:     Off (optimal)                                                          |
// | ------------------------------------------------------------------------------------------------------------------ |
//  ------------------------------------------------------------------------
//  Simulation performed for #gates = 12864  #faults = 25984
//  Run fault simulation without storing patterns.  pattern source = 706 external patterns
//  ------------------------------------------------------------------------
//  #patterns  test      #faults  #faults    # eff.    # test         process 
//  simulated  coverage  in list  detected   patterns  patterns       CPU time
//   64         13.99%    22350      3634       63         0          0.12 sec
//   128        15.75%    21891       459       56         0          0.19 sec
//   192        16.29%    21750       141       41         0          0.25 sec
//   256        16.73%    21638       112       37         0          0.31 sec
//   320        17.06%    21551        87       37         0          0.37 sec
//   384        17.46%    21448       103       35         0          0.43 sec
//   448        17.86%    21342       106       34         0          0.48 sec
//   512        18.16%    21266        76       30         0          0.54 sec
//   576        18.42%    21197        69       26         0          0.60 sec
//   640        18.56%    21161        36       17         0          0.65 sec
//   704        18.71%    21123        38       18         0          0.71 sec
