// | ------------------------------------------------------------------------------------------------------------------ |
// |                                                                                                                    |
// |          Current split capture setting:     Off (optimal)                                                          |
// |                                                                                                                    |
// |   Current clock off simulation setting:     Off (optimal)                                                          |
// | ------------------------------------------------------------------------------------------------------------------ |
//  ------------------------------------------------------------------------
//  Simulation performed for #gates = 12864  #faults = 25984
//  Run fault simulation without storing patterns.  pattern source = 621 external patterns
//  ------------------------------------------------------------------------
//  #patterns  test      #faults  #faults    # eff.    # test         process 
//  simulated  coverage  in list  detected   patterns  patterns       CPU time
//   64         12.18%    22819      3165       62         0          0.11 sec
//   128        13.62%    22444       375       50         0          0.18 sec
//   192        14.35%    22254       190       40         0          0.25 sec
//   256        15.11%    22058       196       38         0          0.31 sec
//   320        15.52%    21950       108       36         0          0.37 sec
//   384        16.02%    21821       129       33         0          0.44 sec
//   448        16.41%    21721       100       30         0          0.50 sec
//   512        16.81%    21616       105       30         0          0.56 sec
//   576        17.05%    21553        63       19         0          0.62 sec
//   621        17.24%    21505        48       18         0          0.68 sec
