// | ------------------------------------------------------------------------------------------------------------------ |
// |                                                                                                                    |
// |          Current split capture setting:     Off (optimal)                                                          |
// |                                                                                                                    |
// |   Current clock off simulation setting:     Off (optimal)                                                          |
// | ------------------------------------------------------------------------------------------------------------------ |
//  ------------------------------------------------------------------------
//  Simulation performed for #gates = 12864  #faults = 25984
//  Run fault simulation without storing patterns.  pattern source = 757 external patterns
//  ------------------------------------------------------------------------
//  #patterns  test      #faults  #faults    # eff.    # test         process 
//  simulated  coverage  in list  detected   patterns  patterns       CPU time
//   64         14.12%    22316      3668       64         0          0.13 sec
//   128        15.99%    21828       488       57         0          0.20 sec
//   192        16.94%    21582       246       50         0          0.26 sec
//   256        17.61%    21408       174       47         0          0.32 sec
//   320        18.05%    21293       115       40         0          0.38 sec
//   384        18.41%    21201        92       29         0          0.44 sec
//   448        18.66%    21136        65       28         0          0.50 sec
//   512        18.93%    21066        70       34         0          0.55 sec
//   576        19.17%    21002        64       31         0          0.61 sec
//   640        19.36%    20953        49       20         0          0.66 sec
//   704        19.48%    20923        30       17         0          0.72 sec
//   757        19.56%    20902        21        9         0          0.77 sec
