// | ------------------------------------------------------------------------------------------------------------------ |
// |                                                                                                                    |
// |          Current split capture setting:     Off (optimal)                                                          |
// |                                                                                                                    |
// |   Current clock off simulation setting:     Off (optimal)                                                          |
// | ------------------------------------------------------------------------------------------------------------------ |
//  ------------------------------------------------------------------------
//  Simulation performed for #gates = 12864  #faults = 25984
//  Run fault simulation without storing patterns.  pattern source = 804 external patterns
//  ------------------------------------------------------------------------
//  #patterns  test      #faults  #faults    # eff.    # test         process 
//  simulated  coverage  in list  detected   patterns  patterns       CPU time
//   64         14.14%    22310      3674       64         0          0.12 sec
//   128        15.83%    21871       439       58         0          0.19 sec
//   192        16.74%    21634       237       50         0          0.25 sec
//   256        17.45%    21451       183       44         0          0.31 sec
//   320        17.92%    21328       123       36         0          0.37 sec
//   384        18.08%    21287        41       19         0          0.43 sec
//   448        18.32%    21225        62       27         0          0.48 sec
//   512        18.54%    21167        58       21         0          0.54 sec
//   576        18.90%    21074        93       28         0          0.60 sec
//   640        19.17%    21004        70       28         0          0.65 sec
//   704        19.31%    20967        37       20         0          0.71 sec
//   768        19.41%    20941        26       15         0          0.77 sec
//   804        19.46%    20928        13       10         0          0.82 sec
