// | ------------------------------------------------------------------------------------------------------------------ |
// |                                                                                                                    |
// |          Current split capture setting:     Off (optimal)                                                          |
// |                                                                                                                    |
// |   Current clock off simulation setting:     Off (optimal)                                                          |
// | ------------------------------------------------------------------------------------------------------------------ |
//  ------------------------------------------------------------------------
//  Simulation performed for #gates = 12864  #faults = 25984
//  Run fault simulation without storing patterns.  pattern source = 783 external patterns
//  ------------------------------------------------------------------------
//  #patterns  test      #faults  #faults    # eff.    # test         process 
//  simulated  coverage  in list  detected   patterns  patterns       CPU time
//   64         14.29%    22271      3713       64         0          0.12 sec
//   128        15.76%    21889       382       60         0          0.19 sec
//   192        16.57%    21678       211       54         0          0.25 sec
//   256        17.21%    21513       165       45         0          0.31 sec
//   320        17.58%    21415        98       35         0          0.37 sec
//   384        17.89%    21336        79       32         0          0.43 sec
//   448        18.12%    21276        60       21         0          0.49 sec
//   512        18.37%    21210        66       22         0          0.54 sec
//   576        18.60%    21150        60       21         0          0.60 sec
//   640        18.80%    21098        52       18         0          0.66 sec
//   704        19.01%    21044        54       17         0          0.72 sec
//   768        19.09%    21023        21       14         0          0.77 sec
//   783        19.14%    21010        13        7         0          0.82 sec
