// | ------------------------------------------------------------------------------------------------------------------ |
// |                                                                                                                    |
// |          Current split capture setting:     Off (optimal)                                                          |
// |                                                                                                                    |
// |   Current clock off simulation setting:     Off (optimal)                                                          |
// | ------------------------------------------------------------------------------------------------------------------ |
//  ------------------------------------------------------------------------
//  Simulation performed for #gates = 12864  #faults = 25984
//  Run fault simulation without storing patterns.  pattern source = 804 external patterns
//  ------------------------------------------------------------------------
//  #patterns  test      #faults  #faults    # eff.    # test         process 
//  simulated  coverage  in list  detected   patterns  patterns       CPU time
//   64         14.46%    22226      3758       64         0          0.13 sec
//   128        16.18%    21780       446       56         0          0.19 sec
//   192        17.14%    21531       249       57         0          0.25 sec
//   256        17.66%    21394       137       42         0          0.31 sec
//   320        18.01%    21304        90       28         0          0.37 sec
//   384        18.33%    21222        82       30         0          0.43 sec
//   448        18.57%    21158        64       24         0          0.49 sec
//   512        18.78%    21104        54       21         0          0.54 sec
//   576        19.01%    21044        60       22         0          0.60 sec
//   640        19.16%    21005        39       23         0          0.66 sec
//   704        19.32%    20964        41       21         0          0.71 sec
//   768        19.40%    20944        20        8         0          0.77 sec
//   804        19.43%    20935         9        6         0          0.82 sec
