// | ------------------------------------------------------------------------------------------------------------------ |
// |                                                                                                                    |
// |          Current split capture setting:     Off (optimal)                                                          |
// |                                                                                                                    |
// |   Current clock off simulation setting:     Off (optimal)                                                          |
// | ------------------------------------------------------------------------------------------------------------------ |
//  ------------------------------------------------------------------------
//  Simulation performed for #gates = 12864  #faults = 25984
//  Run fault simulation without storing patterns.  pattern source = 758 external patterns
//  ------------------------------------------------------------------------
//  #patterns  test      #faults  #faults    # eff.    # test         process 
//  simulated  coverage  in list  detected   patterns  patterns       CPU time
//   64         14.33%    22261      3723       63         0          0.13 sec
//   128        15.83%    21872       389       51         0          0.20 sec
//   192        16.52%    21691       181       47         0          0.26 sec
//   256        17.09%    21544       147       44         0          0.33 sec
//   320        17.48%    21443       101       37         0          0.39 sec
//   384        17.90%    21334       109       34         0          0.45 sec
//   448        18.04%    21297        37       23         0          0.51 sec
//   512        18.22%    21249        48       20         0          0.57 sec
//   576        18.41%    21200        49       24         0          0.63 sec
//   640        18.68%    21131        69       23         0          0.69 sec
//   704        18.88%    21077        54       21         0          0.75 sec
//   758        19.01%    21044        33       20         0          0.80 sec
