// | ------------------------------------------------------------------------------------------------------------------ |
// |                                                                                                                    |
// |          Current split capture setting:     Off (optimal)                                                          |
// |                                                                                                                    |
// |   Current clock off simulation setting:     Off (optimal)                                                          |
// | ------------------------------------------------------------------------------------------------------------------ |
//  ------------------------------------------------------------------------
//  Simulation performed for #gates = 12864  #faults = 25984
//  Run fault simulation without storing patterns.  pattern source = 931 external patterns
//  ------------------------------------------------------------------------
//  #patterns  test      #faults  #faults    # eff.    # test         process 
//  simulated  coverage  in list  detected   patterns  patterns       CPU time
//   64         13.94%    22361      3623       64         0          0.12 sec
//   128        15.73%    21898       463       59         0          0.19 sec
//   192        16.62%    21666       232       50         0          0.25 sec
//   256        17.15%    21528       138       41         0          0.31 sec
//   320        17.54%    21427       101       33         0          0.37 sec
//   384        17.83%    21352        75       26         0          0.43 sec
//   448        18.00%    21307        45       24         0          0.48 sec
//   512        18.12%    21276        31       15         0          0.54 sec
//   576        18.28%    21235        41       21         0          0.60 sec
//   640        18.38%    21207        28       18         0          0.65 sec
//   704        18.48%    21183        24       15         0          0.71 sec
//   768        18.57%    21158        25       14         0          0.77 sec
//   832        18.62%    21145        13        8         0          0.82 sec
//   896        18.70%    21126        19       10         0          0.88 sec
//   931        18.74%    21115        11        4         0          0.93 sec
