// | ------------------------------------------------------------------------------------------------------------------ |
// |                                                                                                                    |
// |          Current split capture setting:     Off (optimal)                                                          |
// |                                                                                                                    |
// |   Current clock off simulation setting:     Off (optimal)                                                          |
// | ------------------------------------------------------------------------------------------------------------------ |
//  ------------------------------------------------------------------------
//  Simulation performed for #gates = 12864  #faults = 25984
//  Run fault simulation without storing patterns.  pattern source = 1056 external patterns
//  ------------------------------------------------------------------------
//  #patterns  test      #faults  #faults    # eff.    # test         process 
//  simulated  coverage  in list  detected   patterns  patterns       CPU time
//   64         14.20%    22295      3689       64         0          0.12 sec
//   128        15.94%    21841       454       59         0          0.19 sec
//   192        16.75%    21631       210       49         0          0.25 sec
//   256        17.21%    21513       118       38         0          0.31 sec
//   320        17.64%    21400       113       37         0          0.36 sec
//   384        18.06%    21291       109       31         0          0.42 sec
//   448        18.30%    21228        63       31         0          0.48 sec
//   512        18.50%    21178        50       24         0          0.53 sec
//   576        18.68%    21131        47       23         0          0.59 sec
//   640        18.83%    21092        39       19         0          0.64 sec
//   704        18.95%    21061        31       19         0          0.70 sec
//   768        18.99%    21050        11        6         0          0.75 sec
//   832        19.07%    21029        21       12         0          0.81 sec
//   896        19.13%    21013        16        6         0          0.86 sec
//   960        19.18%    21000        13        9         0          0.92 sec
//   1024       19.22%    20991         9        6         0          0.97 sec
//   1056       19.26%    20980        11        4         0          1.02 sec
