// | ------------------------------------------------------------------------------------------------------------------ |
// |                                                                                                                    |
// |          Current split capture setting:     Off (optimal)                                                          |
// |                                                                                                                    |
// |   Current clock off simulation setting:     Off (optimal)                                                          |
// | ------------------------------------------------------------------------------------------------------------------ |
//  ------------------------------------------------------------------------
//  Simulation performed for #gates = 12864  #faults = 25984
//  Run fault simulation without storing patterns.  pattern source = 919 external patterns
//  ------------------------------------------------------------------------
//  #patterns  test      #faults  #faults    # eff.    # test         process 
//  simulated  coverage  in list  detected   patterns  patterns       CPU time
//   64         15.18%    22040      3944       64         0          0.13 sec
//   128        17.15%    21529       511       58         0          0.20 sec
//   192        17.98%    21312       217       49         0          0.26 sec
//   256        18.53%    21169       143       46         0          0.32 sec
//   320        18.90%    21074        95       39         0          0.38 sec
//   384        19.22%    20989        85       34         0          0.44 sec
//   448        19.49%    20921        68       25         0          0.49 sec
//   512        19.77%    20848        73       30         0          0.55 sec
//   576        19.92%    20808        40       20         0          0.60 sec
//   640        20.10%    20760        48       23         0          0.66 sec
//   704        20.29%    20711        49       21         0          0.71 sec
//   768        20.40%    20682        29       17         0          0.77 sec
//   832        20.50%    20656        26       14         0          0.82 sec
//   896        20.55%    20645        11        9         0          0.88 sec
//   919        20.55%    20643         2        1         0          0.93 sec
