// | ------------------------------------------------------------------------------------------------------------------ |
// |                                                                                                                    |
// |          Current split capture setting:     Off (optimal)                                                          |
// |                                                                                                                    |
// |   Current clock off simulation setting:     Off (optimal)                                                          |
// | ------------------------------------------------------------------------------------------------------------------ |
//  ------------------------------------------------------------------------
//  Simulation performed for #gates = 12864  #faults = 25984
//  Run fault simulation without storing patterns.  pattern source = 809 external patterns
//  ------------------------------------------------------------------------
//  #patterns  test      #faults  #faults    # eff.    # test         process 
//  simulated  coverage  in list  detected   patterns  patterns       CPU time
//   64         12.68%    22690      3294       60         0          0.12 sec
//   128        14.17%    22302       388       56         0          0.18 sec
//   192        14.93%    22104       198       42         0          0.25 sec
//   256        15.50%    21957       147       43         0          0.31 sec
//   320        15.85%    21865        92       29         0          0.37 sec
//   384        16.26%    21760       105       33         0          0.43 sec
//   448        16.52%    21692        68       23         0          0.49 sec
//   512        16.73%    21638        54       26         0          0.55 sec
//   576        16.89%    21595        43       20         0          0.61 sec
//   640        17.09%    21543        52       18         0          0.67 sec
//   704        17.29%    21492        51       20         0          0.73 sec
//   768        17.43%    21456        36       15         0          0.79 sec
//   809        17.55%    21424        32       11         0          0.85 sec
