// | ------------------------------------------------------------------------------------------------------------------ |
// |                                                                                                                    |
// |          Current split capture setting:     Off (optimal)                                                          |
// |                                                                                                                    |
// |   Current clock off simulation setting:     Off (optimal)                                                          |
// | ------------------------------------------------------------------------------------------------------------------ |
//  ------------------------------------------------------------------------
//  Simulation performed for #gates = 12864  #faults = 25984
//  Run fault simulation without storing patterns.  pattern source = 720 external patterns
//  ------------------------------------------------------------------------
//  #patterns  test      #faults  #faults    # eff.    # test         process 
//  simulated  coverage  in list  detected   patterns  patterns       CPU time
//   64         13.12%    22574      3410       63         0          0.11 sec
//   128        14.79%    22142       432       52         0          0.17 sec
//   192        15.45%    21969       173       38         0          0.23 sec
//   256        15.96%    21837       132       40         0          0.29 sec
//   320        16.35%    21736       101       31         0          0.35 sec
//   384        16.63%    21664        72       21         0          0.41 sec
//   448        16.86%    21604        60       23         0          0.46 sec
//   512        17.02%    21562        42       20         0          0.52 sec
//   576        17.18%    21521        41       23         0          0.57 sec
//   640        17.32%    21484        37       15         0          0.63 sec
//   704        17.41%    21459        25       11         0          0.68 sec
//   720        17.43%    21454         5        4         0          0.73 sec
