// | ------------------------------------------------------------------------------------------------------------------ |
// |                                                                                                                    |
// |          Current split capture setting:     Off (optimal)                                                          |
// |                                                                                                                    |
// |   Current clock off simulation setting:     Off (optimal)                                                          |
// | ------------------------------------------------------------------------------------------------------------------ |
//  ------------------------------------------------------------------------
//  Simulation performed for #gates = 12864  #faults = 25984
//  Run fault simulation without storing patterns.  pattern source = 672 external patterns
//  ------------------------------------------------------------------------
//  #patterns  test      #faults  #faults    # eff.    # test         process 
//  simulated  coverage  in list  detected   patterns  patterns       CPU time
//   64         14.62%    22184      3800       64         0          0.13 sec
//   128        16.43%    21715       469       55         0          0.19 sec
//   192        17.26%    21498       217       50         0          0.26 sec
//   256        17.87%    21340       158       50         0          0.31 sec
//   320        18.23%    21246        94       31         0          0.37 sec
//   384        18.48%    21181        65       28         0          0.43 sec
//   448        18.70%    21126        55       28         0          0.49 sec
//   512        18.90%    21072        54       21         0          0.54 sec
//   576        19.07%    21028        44       24         0          0.60 sec
//   640        19.19%    20997        31       17         0          0.65 sec
//   672        19.25%    20982        15       10         0          0.70 sec
