// | ------------------------------------------------------------------------------------------------------------------ |
// |                                                                                                                    |
// |          Current split capture setting:     Off (optimal)                                                          |
// |                                                                                                                    |
// |   Current clock off simulation setting:     Off (optimal)                                                          |
// | ------------------------------------------------------------------------------------------------------------------ |
//  ------------------------------------------------------------------------
//  Simulation performed for #gates = 12864  #faults = 25984
//  Run fault simulation without storing patterns.  pattern source = 764 external patterns
//  ------------------------------------------------------------------------
//  #patterns  test      #faults  #faults    # eff.    # test         process 
//  simulated  coverage  in list  detected   patterns  patterns       CPU time
//   64         14.33%    22260      3724       64         0          0.12 sec
//   128        16.29%    21750       510       58         0          0.19 sec
//   192        17.30%    21489       261       55         0          0.25 sec
//   256        17.87%    21340       149       43         0          0.31 sec
//   320        18.28%    21235       105       37         0          0.37 sec
//   384        18.59%    21153        82       25         0          0.43 sec
//   448        18.89%    21076        77       28         0          0.48 sec
//   512        19.10%    21020        56       20         0          0.54 sec
//   576        19.32%    20964        56       26         0          0.59 sec
//   640        19.52%    20911        53       18         0          0.65 sec
//   704        19.70%    20864        47       22         0          0.70 sec
//   764        19.79%    20841        23       12         0          0.75 sec
