// | ------------------------------------------------------------------------------------------------------------------ |
// |                                                                                                                    |
// |          Current split capture setting:     Off (optimal)                                                          |
// |                                                                                                                    |
// |   Current clock off simulation setting:     Off (optimal)                                                          |
// | ------------------------------------------------------------------------------------------------------------------ |
//  ------------------------------------------------------------------------
//  Simulation performed for #gates = 12864  #faults = 25984
//  Run fault simulation without storing patterns.  pattern source = 607 external patterns
//  ------------------------------------------------------------------------
//  #patterns  test      #faults  #faults    # eff.    # test         process 
//  simulated  coverage  in list  detected   patterns  patterns       CPU time
//   64         13.04%    22596      3388       63         0          0.11 sec
//   128        14.30%    22267       329       53         0          0.18 sec
//   192        15.10%    22061       206       47         0          0.24 sec
//   256        15.64%    21919       142       37         0          0.30 sec
//   320        15.93%    21845        74       26         0          0.36 sec
//   384        16.24%    21764        81       33         0          0.42 sec
//   448        16.52%    21691        73       23         0          0.47 sec
//   512        16.77%    21626        65       30         0          0.53 sec
//   576        17.00%    21567        59       17         0          0.59 sec
//   607        17.03%    21558         9        6         0          0.64 sec
