// | ------------------------------------------------------------------------------------------------------------------ |
// |                                                                                                                    |
// |          Current split capture setting:     Off (optimal)                                                          |
// |                                                                                                                    |
// |   Current clock off simulation setting:     Off (optimal)                                                          |
// | ------------------------------------------------------------------------------------------------------------------ |
//  ------------------------------------------------------------------------
//  Simulation performed for #gates = 12864  #faults = 25984
//  Run fault simulation without storing patterns.  pattern source = 668 external patterns
//  ------------------------------------------------------------------------
//  #patterns  test      #faults  #faults    # eff.    # test         process 
//  simulated  coverage  in list  detected   patterns  patterns       CPU time
//   64         15.87%    21860      4124       64         0          0.14 sec
//   128        17.64%    21401       459       60         0          0.21 sec
//   192        18.39%    21206       195       47         0          0.28 sec
//   256        18.90%    21074       132       46         0          0.34 sec
//   320        19.17%    21004        70       28         0          0.40 sec
//   384        19.40%    20944        60       27         0          0.46 sec
//   448        19.57%    20899        45       21         0          0.52 sec
//   512        19.77%    20846        53       24         0          0.58 sec
//   576        19.89%    20817        29       14         0          0.63 sec
//   640        19.97%    20794        23       15         0          0.69 sec
//   668        20.03%    20780        14        6         0          0.74 sec
