// | ------------------------------------------------------------------------------------------------------------------ |
// |                                                                                                                    |
// |          Current split capture setting:     Off (optimal)                                                          |
// |                                                                                                                    |
// |   Current clock off simulation setting:     Off (optimal)                                                          |
// | ------------------------------------------------------------------------------------------------------------------ |
//  ------------------------------------------------------------------------
//  Simulation performed for #gates = 12864  #faults = 25984
//  Run fault simulation without storing patterns.  pattern source = 1056 external patterns
//  ------------------------------------------------------------------------
//  #patterns  test      #faults  #faults    # eff.    # test         process 
//  simulated  coverage  in list  detected   patterns  patterns       CPU time
//   64         15.47%    21963      4021       64         0          0.13 sec
//   128        17.11%    21539       424       59         0          0.19 sec
//   192        17.77%    21367       172       49         0          0.25 sec
//   256        18.33%    21221       146       42         0          0.31 sec
//   320        18.85%    21087       134       44         0          0.37 sec
//   384        19.06%    21031        56       27         0          0.43 sec
//   448        19.25%    20981        50       24         0          0.49 sec
//   512        19.41%    20941        40       18         0          0.54 sec
//   576        19.61%    20889        52       25         0          0.60 sec
//   640        19.81%    20836        53       19         0          0.65 sec
//   704        19.91%    20810        26       18         0          0.71 sec
//   768        20.00%    20786        24       13         0          0.76 sec
//   832        20.14%    20750        36       10         0          0.82 sec
//   896        20.20%    20734        16        8         0          0.87 sec
//   960        20.25%    20723        11        5         0          0.92 sec
//   1024       20.35%    20697        26       12         0          0.98 sec
//   1056       20.36%    20693         4        4         0          1.03 sec
