// | ------------------------------------------------------------------------------------------------------------------ |
// |                                                                                                                    |
// |          Current split capture setting:     Off (optimal)                                                          |
// |                                                                                                                    |
// |   Current clock off simulation setting:     Off (optimal)                                                          |
// | ------------------------------------------------------------------------------------------------------------------ |
//  ------------------------------------------------------------------------
//  Simulation performed for #gates = 12864  #faults = 25984
//  Run fault simulation without storing patterns.  pattern source = 779 external patterns
//  ------------------------------------------------------------------------
//  #patterns  test      #faults  #faults    # eff.    # test         process 
//  simulated  coverage  in list  detected   patterns  patterns       CPU time
//   64         15.69%    21906      4078       64         0          0.13 sec
//   128        17.73%    21377       529       61         0          0.20 sec
//   192        18.42%    21197       180       44         0          0.26 sec
//   256        19.00%    21046       151       44         0          0.32 sec
//   320        19.39%    20947        99       33         0          0.38 sec
//   384        19.70%    20866        81       31         0          0.44 sec
//   448        19.98%    20793        73       27         0          0.50 sec
//   512        20.14%    20752        41       18         0          0.55 sec
//   576        20.29%    20711        41       20         0          0.61 sec
//   640        20.40%    20684        27       16         0          0.66 sec
//   704        20.55%    20644        40       23         0          0.72 sec
//   768        20.64%    20622        22       14         0          0.77 sec
//   779        20.66%    20616         6        4         0          0.82 sec
