// | ------------------------------------------------------------------------------------------------------------------ |
// |                                                                                                                    |
// |          Current split capture setting:     Off (optimal)                                                          |
// |                                                                                                                    |
// |   Current clock off simulation setting:     Off (optimal)                                                          |
// | ------------------------------------------------------------------------------------------------------------------ |
//  ------------------------------------------------------------------------
//  Simulation performed for #gates = 12864  #faults = 25984
//  Run fault simulation without storing patterns.  pattern source = 804 external patterns
//  ------------------------------------------------------------------------
//  #patterns  test      #faults  #faults    # eff.    # test         process 
//  simulated  coverage  in list  detected   patterns  patterns       CPU time
//   64         14.18%    22300      3684       64         0          0.12 sec
//   128        15.85%    21866       434       59         0          0.19 sec
//   192        16.56%    21682       184       49         0          0.25 sec
//   256        17.27%    21497       185       44         0          0.31 sec
//   320        17.64%    21401        96       35         0          0.36 sec
//   384        17.89%    21336        65       28         0          0.42 sec
//   448        18.09%    21284        52       22         0          0.48 sec
//   512        18.28%    21235        49       23         0          0.53 sec
//   576        18.45%    21190        45       26         0          0.59 sec
//   640        18.68%    21130        60       28         0          0.65 sec
//   704        18.92%    21068        62       21         0          0.70 sec
//   768        18.99%    21050        18        7         0          0.75 sec
//   804        19.02%    21043         7        6         0          0.80 sec
