// | ------------------------------------------------------------------------------------------------------------------ |
// |                                                                                                                    |
// |          Current split capture setting:     Off (optimal)                                                          |
// |                                                                                                                    |
// |   Current clock off simulation setting:     Off (optimal)                                                          |
// | ------------------------------------------------------------------------------------------------------------------ |
//  ------------------------------------------------------------------------
//  Simulation performed for #gates = 12864  #faults = 25984
//  Run fault simulation without storing patterns.  pattern source = 658 external patterns
//  ------------------------------------------------------------------------
//  #patterns  test      #faults  #faults    # eff.    # test         process 
//  simulated  coverage  in list  detected   patterns  patterns       CPU time
//   64         12.45%    22749      3235       64         0          0.11 sec
//   128        13.54%    22466       283       47         0          0.17 sec
//   192        14.30%    22269       197       45         0          0.23 sec
//   256        14.90%    22112       157       39         0          0.29 sec
//   320        15.34%    21998       114       29         0          0.35 sec
//   384        15.66%    21915        83       30         0          0.41 sec
//   448        16.03%    21818        97       24         0          0.47 sec
//   512        16.31%    21747        71       27         0          0.53 sec
//   576        16.39%    21726        21        9         0          0.59 sec
//   640        16.50%    21696        30       12         0          0.65 sec
//   658        16.57%    21679        17        6         0          0.70 sec
