// | ------------------------------------------------------------------------------------------------------------------ |
// |                                                                                                                    |
// |          Current split capture setting:     Off (optimal)                                                          |
// |                                                                                                                    |
// |   Current clock off simulation setting:     Off (optimal)                                                          |
// | ------------------------------------------------------------------------------------------------------------------ |
//  ------------------------------------------------------------------------
//  Simulation performed for #gates = 12864  #faults = 25984
//  Run fault simulation without storing patterns.  pattern source = 607 external patterns
//  ------------------------------------------------------------------------
//  #patterns  test      #faults  #faults    # eff.    # test         process 
//  simulated  coverage  in list  detected   patterns  patterns       CPU time
//   64         14.62%    22185      3799       63         0          0.13 sec
//   128        16.43%    21715       470       57         0          0.20 sec
//   192        17.25%    21502       213       50         0          0.26 sec
//   256        17.93%    21325       177       43         0          0.33 sec
//   320        18.44%    21193       132       37         0          0.39 sec
//   384        18.72%    21120        73       28         0          0.45 sec
//   448        18.92%    21067        53       30         0          0.51 sec
//   512        19.14%    21011        56       22         0          0.56 sec
//   576        19.32%    20964        47       22         0          0.62 sec
//   607        19.43%    20936        28       12         0          0.68 sec
