// | ------------------------------------------------------------------------------------------------------------------ |
// |                                                                                                                    |
// |          Current split capture setting:     Off (optimal)                                                          |
// |                                                                                                                    |
// |   Current clock off simulation setting:     Off (optimal)                                                          |
// | ------------------------------------------------------------------------------------------------------------------ |
//  ------------------------------------------------------------------------
//  Simulation performed for #gates = 12864  #faults = 25984
//  Run fault simulation without storing patterns.  pattern source = 783 external patterns
//  ------------------------------------------------------------------------
//  #patterns  test      #faults  #faults    # eff.    # test         process 
//  simulated  coverage  in list  detected   patterns  patterns       CPU time
//   64         14.83%    22131      3853       64         0          0.13 sec
//   128        16.42%    21718       413       60         0          0.20 sec
//   192        17.48%    21441       277       50         0          0.26 sec
//   256        18.04%    21297       144       46         0          0.32 sec
//   320        18.39%    21205        92       35         0          0.38 sec
//   384        18.65%    21139        66       29         0          0.44 sec
//   448        18.86%    21084        55       26         0          0.49 sec
//   512        19.02%    21043        41       21         0          0.55 sec
//   576        19.27%    20977        66       25         0          0.61 sec
//   640        19.46%    20927        50       25         0          0.66 sec
//   704        19.59%    20893        34       18         0          0.72 sec
//   768        19.76%    20849        44       18         0          0.77 sec
//   783        19.78%    20844         5        3         0          0.82 sec
