// | ------------------------------------------------------------------------------------------------------------------ |
// |                                                                                                                    |
// |          Current split capture setting:     Off (optimal)                                                          |
// |                                                                                                                    |
// |   Current clock off simulation setting:     Off (optimal)                                                          |
// | ------------------------------------------------------------------------------------------------------------------ |
//  ------------------------------------------------------------------------
//  Simulation performed for #gates = 12864  #faults = 25984
//  Run fault simulation without storing patterns.  pattern source = 658 external patterns
//  ------------------------------------------------------------------------
//  #patterns  test      #faults  #faults    # eff.    # test         process 
//  simulated  coverage  in list  detected   patterns  patterns       CPU time
//   64         14.76%    22150      3834       64         0          0.13 sec
//   128        16.38%    21727       423       53         0          0.20 sec
//   192        17.31%    21487       240       50         0          0.26 sec
//   256        17.95%    21320       167       48         0          0.33 sec
//   320        18.32%    21225        95       32         0          0.39 sec
//   384        18.66%    21136        89       33         0          0.45 sec
//   448        19.00%    21047        89       32         0          0.50 sec
//   512        19.28%    20975        72       26         0          0.56 sec
//   576        19.53%    20910        65       23         0          0.62 sec
//   640        19.64%    20881        29       14         0          0.68 sec
//   658        19.68%    20871        10        6         0          0.73 sec
