// | ------------------------------------------------------------------------------------------------------------------ |
// |                                                                                                                    |
// |          Current split capture setting:     Off (optimal)                                                          |
// |                                                                                                                    |
// |   Current clock off simulation setting:     Off (optimal)                                                          |
// | ------------------------------------------------------------------------------------------------------------------ |
//  ------------------------------------------------------------------------
//  Simulation performed for #gates = 12864  #faults = 25984
//  Run fault simulation without storing patterns.  pattern source = 689 external patterns
//  ------------------------------------------------------------------------
//  #patterns  test      #faults  #faults    # eff.    # test         process 
//  simulated  coverage  in list  detected   patterns  patterns       CPU time
//   64         14.42%    22238      3746       64         0          0.12 sec
//   128        16.08%    21805       433       56         0          0.19 sec
//   192        17.01%    21564       241       54         0          0.25 sec
//   256        17.56%    21420       144       46         0          0.31 sec
//   320        17.90%    21332        88       35         0          0.37 sec
//   384        18.14%    21271        61       28         0          0.43 sec
//   448        18.31%    21227        44       25         0          0.48 sec
//   512        18.42%    21198        29       17         0          0.54 sec
//   576        18.51%    21175        23       14         0          0.59 sec
//   640        18.61%    21149        26       13         0          0.65 sec
//   689        18.68%    21129        20       10         0          0.70 sec
