// | ------------------------------------------------------------------------------------------------------------------ |
// |                                                                                                                    |
// |          Current split capture setting:     Off (optimal)                                                          |
// |                                                                                                                    |
// |   Current clock off simulation setting:     Off (optimal)                                                          |
// | ------------------------------------------------------------------------------------------------------------------ |
//  ------------------------------------------------------------------------
//  Simulation performed for #gates = 12864  #faults = 25984
//  Run fault simulation without storing patterns.  pattern source = 760 external patterns
//  ------------------------------------------------------------------------
//  #patterns  test      #faults  #faults    # eff.    # test         process 
//  simulated  coverage  in list  detected   patterns  patterns       CPU time
//   64         13.56%    22460      3524       64         0          0.12 sec
//   128        14.90%    22112       348       50         0          0.19 sec
//   192        15.72%    21900       212       47         0          0.26 sec
//   256        16.24%    21765       135       38         0          0.32 sec
//   320        16.74%    21635       130       37         0          0.38 sec
//   384        17.11%    21539        96       30         0          0.44 sec
//   448        17.38%    21467        72       31         0          0.50 sec
//   512        17.67%    21393        74       28         0          0.56 sec
//   576        17.85%    21346        47       21         0          0.63 sec
//   640        18.06%    21291        55       26         0          0.68 sec
//   704        18.18%    21260        31       13         0          0.74 sec
//   760        18.31%    21227        33       14         0          0.80 sec
