// | ------------------------------------------------------------------------------------------------------------------ |
// |                                                                                                                    |
// |          Current split capture setting:     Off (optimal)                                                          |
// |                                                                                                                    |
// |   Current clock off simulation setting:     Off (optimal)                                                          |
// | ------------------------------------------------------------------------------------------------------------------ |
//  ------------------------------------------------------------------------
//  Simulation performed for #gates = 12864  #faults = 25984
//  Run fault simulation without storing patterns.  pattern source = 909 external patterns
//  ------------------------------------------------------------------------
//  #patterns  test      #faults  #faults    # eff.    # test         process 
//  simulated  coverage  in list  detected   patterns  patterns       CPU time
//   64         14.58%    22195      3789       63         0          0.13 sec
//   128        16.05%    21814       381       56         0          0.19 sec
//   192        16.94%    21583       231       48         0          0.26 sec
//   256        17.58%    21417       166       49         0          0.32 sec
//   320        17.99%    21309       108       33         0          0.38 sec
//   384        18.30%    21229        80       30         0          0.44 sec
//   448        18.63%    21144        85       35         0          0.49 sec
//   512        18.83%    21090        54       23         0          0.55 sec
//   576        19.09%    21024        66       25         0          0.61 sec
//   640        19.25%    20982        42       17         0          0.66 sec
//   704        19.38%    20949        33       18         0          0.72 sec
//   768        19.54%    20907        42       16         0          0.77 sec
//   832        19.65%    20879        28       11         0          0.82 sec
//   896        19.76%    20850        29       15         0          0.88 sec
//   909        19.76%    20849         1        1         0          0.92 sec
