// | ------------------------------------------------------------------------------------------------------------------ |
// |                                                                                                                    |
// |          Current split capture setting:     Off (optimal)                                                          |
// |                                                                                                                    |
// |   Current clock off simulation setting:     Off (optimal)                                                          |
// | ------------------------------------------------------------------------------------------------------------------ |
//  ------------------------------------------------------------------------
//  Simulation performed for #gates = 12864  #faults = 25984
//  Run fault simulation without storing patterns.  pattern source = 695 external patterns
//  ------------------------------------------------------------------------
//  #patterns  test      #faults  #faults    # eff.    # test         process 
//  simulated  coverage  in list  detected   patterns  patterns       CPU time
//   64         15.44%    21971      4013       64         0          0.13 sec
//   128        17.25%    21501       470       60         0          0.20 sec
//   192        18.15%    21267       234       51         0          0.26 sec
//   256        18.58%    21155       112       40         0          0.32 sec
//   320        18.84%    21089        66       30         0          0.38 sec
//   384        19.12%    21015        74       31         0          0.44 sec
//   448        19.38%    20948        67       27         0          0.50 sec
//   512        19.60%    20890        58       25         0          0.55 sec
//   576        19.82%    20835        55       18         0          0.61 sec
//   640        20.06%    20772        63       30         0          0.66 sec
//   695        20.17%    20742        30       18         0          0.72 sec
