// | ------------------------------------------------------------------------------------------------------------------ |
// |                                                                                                                    |
// |          Current split capture setting:     Off (optimal)                                                          |
// |                                                                                                                    |
// |   Current clock off simulation setting:     Off (optimal)                                                          |
// | ------------------------------------------------------------------------------------------------------------------ |
//  ------------------------------------------------------------------------
//  Simulation performed for #gates = 12864  #faults = 25984
//  Run fault simulation without storing patterns.  pattern source = 703 external patterns
//  ------------------------------------------------------------------------
//  #patterns  test      #faults  #faults    # eff.    # test         process 
//  simulated  coverage  in list  detected   patterns  patterns       CPU time
//   64         13.31%    22525      3459       63         0          0.11 sec
//   128        14.62%    22186       339       48         0          0.18 sec
//   192        15.42%    21976       210       44         0          0.24 sec
//   256        15.99%    21829       147       38         0          0.30 sec
//   320        16.30%    21749        80       28         0          0.36 sec
//   384        16.65%    21658        91       28         0          0.42 sec
//   448        17.03%    21558       100       29         0          0.48 sec
//   512        17.24%    21504        54       22         0          0.54 sec
//   576        17.40%    21463        41       17         0          0.60 sec
//   640        17.48%    21441        22       12         0          0.65 sec
//   703        17.58%    21416        25       13         0          0.71 sec
