// | ------------------------------------------------------------------------------------------------------------------ |
// |                                                                                                                    |
// |          Current split capture setting:     Off (optimal)                                                          |
// |                                                                                                                    |
// |   Current clock off simulation setting:     Off (optimal)                                                          |
// | ------------------------------------------------------------------------------------------------------------------ |
//  ------------------------------------------------------------------------
//  Simulation performed for #gates = 12864  #faults = 25984
//  Run fault simulation without storing patterns.  pattern source = 1013 external patterns
//  ------------------------------------------------------------------------
//  #patterns  test      #faults  #faults    # eff.    # test         process 
//  simulated  coverage  in list  detected   patterns  patterns       CPU time
//   64         16.03%    21819      4165       64         0          0.14 sec
//   128        17.96%    21317       502       60         0          0.21 sec
//   192        18.85%    21085       232       54         0          0.27 sec
//   256        19.27%    20977       108       42         0          0.33 sec
//   320        19.62%    20886        91       29         0          0.39 sec
//   384        19.83%    20831        55       27         0          0.45 sec
//   448        20.07%    20769        62       29         0          0.51 sec
//   512        20.22%    20730        39       16         0          0.57 sec
//   576        20.39%    20685        45       25         0          0.62 sec
//   640        20.55%    20643        42       18         0          0.68 sec
//   704        20.72%    20599        44       20         0          0.74 sec
//   768        20.80%    20579        20       16         0          0.79 sec
//   832        20.89%    20555        24        9         0          0.85 sec
//   896        21.00%    20528        27       19         0          0.90 sec
//   960        21.11%    20500        28       12         0          0.96 sec
//   1013       21.15%    20489        11        7         0          1.01 sec
