// | ------------------------------------------------------------------------------------------------------------------ |
// |                                                                                                                    |
// |          Current split capture setting:     Off (optimal)                                                          |
// |                                                                                                                    |
// |   Current clock off simulation setting:     Off (optimal)                                                          |
// | ------------------------------------------------------------------------------------------------------------------ |
//  ------------------------------------------------------------------------
//  Simulation performed for #gates = 12864  #faults = 25984
//  Run fault simulation without storing patterns.  pattern source = 668 external patterns
//  ------------------------------------------------------------------------
//  #patterns  test      #faults  #faults    # eff.    # test         process 
//  simulated  coverage  in list  detected   patterns  patterns       CPU time
//   64         11.86%    22901      3083       63         0          0.10 sec
//   128        13.11%    22578       323       43         0          0.17 sec
//   192        13.91%    22369       209       46         0          0.23 sec
//   256        14.67%    22173       196       37         0          0.29 sec
//   320        15.39%    21984       189       36         0          0.35 sec
//   384        15.73%    21897        87       23         0          0.41 sec
//   448        15.96%    21837        60       23         0          0.46 sec
//   512        16.26%    21758        79       20         0          0.52 sec
//   576        16.63%    21664        94       29         0          0.58 sec
//   640        16.76%    21630        34       18         0          0.63 sec
//   668        16.78%    21624         6        5         0          0.69 sec
