// | ------------------------------------------------------------------------------------------------------------------ |
// |                                                                                                                    |
// |          Current split capture setting:     Off (optimal)                                                          |
// |                                                                                                                    |
// |   Current clock off simulation setting:     Off (optimal)                                                          |
// | ------------------------------------------------------------------------------------------------------------------ |
//  ------------------------------------------------------------------------
//  Simulation performed for #gates = 12864  #faults = 25984
//  Run fault simulation without storing patterns.  pattern source = 768 external patterns
//  ------------------------------------------------------------------------
//  #patterns  test      #faults  #faults    # eff.    # test         process 
//  simulated  coverage  in list  detected   patterns  patterns       CPU time
//   64         15.21%    22032      3952       64         0          0.13 sec
//   128        17.00%    21568       464       61         0          0.20 sec
//   192        18.00%    21307       261       54         0          0.26 sec
//   256        18.57%    21158       149       46         0          0.32 sec
//   320        18.92%    21069        89       32         0          0.38 sec
//   384        19.17%    21004        65       29         0          0.44 sec
//   448        19.46%    20928        76       32         0          0.49 sec
//   512        19.70%    20866        62       32         0          0.55 sec
//   576        19.85%    20826        40       19         0          0.60 sec
//   640        20.09%    20764        62       23         0          0.66 sec
//   704        20.22%    20731        33       18         0          0.71 sec
//   768        20.35%    20697        34       21         0          0.77 sec
