// | ------------------------------------------------------------------------------------------------------------------ |
// |                                                                                                                    |
// |          Current split capture setting:     Off (optimal)                                                          |
// |                                                                                                                    |
// |   Current clock off simulation setting:     Off (optimal)                                                          |
// | ------------------------------------------------------------------------------------------------------------------ |
//  ------------------------------------------------------------------------
//  Simulation performed for #gates = 12864  #faults = 25984
//  Run fault simulation without storing patterns.  pattern source = 827 external patterns
//  ------------------------------------------------------------------------
//  #patterns  test      #faults  #faults    # eff.    # test         process 
//  simulated  coverage  in list  detected   patterns  patterns       CPU time
//   64         14.45%    22230      3754       64         0          0.12 sec
//   128        15.97%    21834       396       56         0          0.18 sec
//   192        16.46%    21707       127       44         0          0.24 sec
//   256        16.95%    21581       126       43         0          0.30 sec
//   320        17.33%    21481       100       37         0          0.36 sec
//   384        17.54%    21426        55       27         0          0.42 sec
//   448        17.76%    21370        56       23         0          0.47 sec
//   512        17.94%    21322        48       21         0          0.53 sec
//   576        18.08%    21286        36       18         0          0.58 sec
//   640        18.18%    21259        27       17         0          0.64 sec
//   704        18.27%    21236        23        9         0          0.69 sec
//   768        18.35%    21215        21       13         0          0.74 sec
//   827        18.41%    21200        15        8         0          0.80 sec
