// | ------------------------------------------------------------------------------------------------------------------ |
// |                                                                                                                    |
// |          Current split capture setting:     Off (optimal)                                                          |
// |                                                                                                                    |
// |   Current clock off simulation setting:     Off (optimal)                                                          |
// | ------------------------------------------------------------------------------------------------------------------ |
//  ------------------------------------------------------------------------
//  Simulation performed for #gates = 12864  #faults = 25984
//  Run fault simulation without storing patterns.  pattern source = 836 external patterns
//  ------------------------------------------------------------------------
//  #patterns  test      #faults  #faults    # eff.    # test         process 
//  simulated  coverage  in list  detected   patterns  patterns       CPU time
//   64         14.54%    22205      3779       64         0          0.13 sec
//   128        16.66%    21654       551       60         0          0.21 sec
//   192        17.46%    21447       207       50         0          0.27 sec
//   256        18.04%    21297       150       43         0          0.33 sec
//   320        18.39%    21206        91       25         0          0.39 sec
//   384        18.74%    21114        92       33         0          0.45 sec
//   448        19.01%    21044        70       27         0          0.51 sec
//   512        19.25%    20981        63       25         0          0.57 sec
//   576        19.39%    20946        35       20         0          0.63 sec
//   640        19.49%    20920        26       13         0          0.68 sec
//   704        19.60%    20892        28       17         0          0.74 sec
//   768        19.69%    20869        23       13         0          0.80 sec
//   832        19.82%    20834        35       12         0          0.85 sec
