// | ------------------------------------------------------------------------------------------------------------------ |
// |                                                                                                                    |
// |          Current split capture setting:     Off (optimal)                                                          |
// |                                                                                                                    |
// |   Current clock off simulation setting:     Off (optimal)                                                          |
// | ------------------------------------------------------------------------------------------------------------------ |
//  ------------------------------------------------------------------------
//  Simulation performed for #gates = 12864  #faults = 25984
//  Run fault simulation without storing patterns.  pattern source = 567 external patterns
//  ------------------------------------------------------------------------
//  #patterns  test      #faults  #faults    # eff.    # test         process 
//  simulated  coverage  in list  detected   patterns  patterns       CPU time
//   64         15.34%    21998      3986       64         0          0.13 sec
//   128        16.96%    21577       421       59         0          0.20 sec
//   192        17.93%    21326       251       51         0          0.26 sec
//   256        18.57%    21159       167       43         0          0.32 sec
//   320        18.98%    21052       107       36         0          0.38 sec
//   384        19.29%    20971        81       35         0          0.44 sec
//   448        19.52%    20912        59       26         0          0.49 sec
//   512        19.74%    20856        56       22         0          0.55 sec
//   567        19.87%    20820        36       19         0          0.61 sec
