// | ------------------------------------------------------------------------------------------------------------------ |
// |                                                                                                                    |
// |          Current split capture setting:     Off (optimal)                                                          |
// |                                                                                                                    |
// |   Current clock off simulation setting:     Off (optimal)                                                          |
// | ------------------------------------------------------------------------------------------------------------------ |
//  ------------------------------------------------------------------------
//  Simulation performed for #gates = 12864  #faults = 25984
//  Run fault simulation without storing patterns.  pattern source = 679 external patterns
//  ------------------------------------------------------------------------
//  #patterns  test      #faults  #faults    # eff.    # test         process 
//  simulated  coverage  in list  detected   patterns  patterns       CPU time
//   64         14.51%    22213      3771       64         0          0.12 sec
//   128        16.14%    21790       423       55         0          0.19 sec
//   192        17.03%    21558       232       49         0          0.25 sec
//   256        17.49%    21440       118       44         0          0.31 sec
//   320        17.78%    21363        77       32         0          0.36 sec
//   384        18.02%    21302        61       28         0          0.42 sec
//   448        18.27%    21236        66       27         0          0.48 sec
//   512        18.41%    21200        36       19         0          0.53 sec
//   576        18.54%    21166        34       18         0          0.59 sec
//   640        18.66%    21135        31       15         0          0.65 sec
//   679        18.73%    21116        19       11         0          0.70 sec
