// | ------------------------------------------------------------------------------------------------------------------ |
// |                                                                                                                    |
// |          Current split capture setting:     Off (optimal)                                                          |
// |                                                                                                                    |
// |   Current clock off simulation setting:     Off (optimal)                                                          |
// | ------------------------------------------------------------------------------------------------------------------ |
//  ------------------------------------------------------------------------
//  Simulation performed for #gates = 12864  #faults = 25984
//  Run fault simulation without storing patterns.  pattern source = 1007 external patterns
//  ------------------------------------------------------------------------
//  #patterns  test      #faults  #faults    # eff.    # test         process 
//  simulated  coverage  in list  detected   patterns  patterns       CPU time
//   64         14.42%    22238      3746       64         0          0.12 sec
//   128        15.84%    21867       371       57         0          0.19 sec
//   192        16.60%    21671       196       50         0          0.25 sec
//   256        17.03%    21560       111       38         0          0.31 sec
//   320        17.35%    21476        84       29         0          0.37 sec
//   384        17.64%    21401        75       27         0          0.43 sec
//   448        17.86%    21343        58       21         0          0.49 sec
//   512        17.99%    21309        34       11         0          0.55 sec
//   576        18.15%    21269        40       20         0          0.60 sec
//   640        18.44%    21193        76       29         0          0.66 sec
//   704        18.63%    21143        50       24         0          0.72 sec
//   768        18.71%    21122        21       16         0          0.77 sec
//   832        18.80%    21099        23        8         0          0.83 sec
//   896        18.84%    21089        10        6         0          0.89 sec
//   960        18.89%    21075        14        8         0          0.95 sec
//   1007       18.90%    21073         2        2         0          1.00 sec
