// | ------------------------------------------------------------------------------------------------------------------ |
// |                                                                                                                    |
// |          Current split capture setting:     Off (optimal)                                                          |
// |                                                                                                                    |
// |   Current clock off simulation setting:     Off (optimal)                                                          |
// | ------------------------------------------------------------------------------------------------------------------ |
//  ------------------------------------------------------------------------
//  Simulation performed for #gates = 12864  #faults = 25984
//  Run fault simulation without storing patterns.  pattern source = 658 external patterns
//  ------------------------------------------------------------------------
//  #patterns  test      #faults  #faults    # eff.    # test         process 
//  simulated  coverage  in list  detected   patterns  patterns       CPU time
//   64         12.12%    22835      3149       64         0          0.10 sec
//   128        13.32%    22523       312       48         0          0.17 sec
//   192        14.25%    22280       243       43         0          0.23 sec
//   256        14.91%    22111       169       46         0          0.29 sec
//   320        15.49%    21959       152       41         0          0.35 sec
//   384        15.81%    21875        84       28         0          0.40 sec
//   448        16.18%    21779        96       30         0          0.46 sec
//   512        16.53%    21689        90       25         0          0.52 sec
//   576        16.73%    21638        51       23         0          0.57 sec
//   640        16.89%    21595        43       19         0          0.63 sec
//   658        16.96%    21578        17        6         0          0.68 sec
