// | ------------------------------------------------------------------------------------------------------------------ |
// |                                                                                                                    |
// |          Current split capture setting:     Off (optimal)                                                          |
// |                                                                                                                    |
// |   Current clock off simulation setting:     Off (optimal)                                                          |
// | ------------------------------------------------------------------------------------------------------------------ |
//  ------------------------------------------------------------------------
//  Simulation performed for #gates = 12864  #faults = 25984
//  Run fault simulation without storing patterns.  pattern source = 809 external patterns
//  ------------------------------------------------------------------------
//  #patterns  test      #faults  #faults    # eff.    # test         process 
//  simulated  coverage  in list  detected   patterns  patterns       CPU time
//   64         12.38%    22766      3218       63         0          0.10 sec
//   128        13.74%    22415       351       51         0          0.17 sec
//   192        14.46%    22228       187       40         0          0.23 sec
//   256        15.12%    22054       174       40         0          0.29 sec
//   320        15.61%    21929       125       34         0          0.35 sec
//   384        15.96%    21836        93       30         0          0.40 sec
//   448        16.29%    21750        86       24         0          0.46 sec
//   512        16.54%    21685        65       26         0          0.51 sec
//   576        16.77%    21627        58       24         0          0.57 sec
//   640        16.90%    21592        35       13         0          0.62 sec
//   704        17.17%    21523        69       21         0          0.68 sec
//   768        17.29%    21491        32       17         0          0.73 sec
//   809        17.36%    21472        19        7         0          0.79 sec
