// | ------------------------------------------------------------------------------------------------------------------ |
// |                                                                                                                    |
// |          Current split capture setting:     Off (optimal)                                                          |
// |                                                                                                                    |
// |   Current clock off simulation setting:     Off (optimal)                                                          |
// | ------------------------------------------------------------------------------------------------------------------ |
//  ------------------------------------------------------------------------
//  Simulation performed for #gates = 12864  #faults = 25984
//  Run fault simulation without storing patterns.  pattern source = 907 external patterns
//  ------------------------------------------------------------------------
//  #patterns  test      #faults  #faults    # eff.    # test         process 
//  simulated  coverage  in list  detected   patterns  patterns       CPU time
//   64         13.27%    22537      3447       59         0          0.12 sec
//   128        14.77%    22147       390       55         0          0.19 sec
//   192        15.59%    21934       213       47         0          0.25 sec
//   256        16.23%    21768       166       46         0          0.31 sec
//   320        16.71%    21641       127       39         0          0.37 sec
//   384        17.05%    21553        88       32         0          0.43 sec
//   448        17.25%    21503        50       24         0          0.49 sec
//   512        17.52%    21431        72       28         0          0.55 sec
//   576        17.69%    21387        44       21         0          0.61 sec
//   640        17.83%    21350        37       20         0          0.67 sec
//   704        18.00%    21306        44       17         0          0.72 sec
//   768        18.23%    21248        58       22         0          0.78 sec
//   832        18.41%    21200        48       20         0          0.84 sec
//   896        18.52%    21172        28       11         0          0.90 sec
//   907        18.54%    21167         5        2         0          0.94 sec
