// | ------------------------------------------------------------------------------------------------------------------ |
// |                                                                                                                    |
// |          Current split capture setting:     Off (optimal)                                                          |
// |                                                                                                                    |
// |   Current clock off simulation setting:     Off (optimal)                                                          |
// | ------------------------------------------------------------------------------------------------------------------ |
//  ------------------------------------------------------------------------
//  Simulation performed for #gates = 12864  #faults = 25984
//  Run fault simulation without storing patterns.  pattern source = 848 external patterns
//  ------------------------------------------------------------------------
//  #patterns  test      #faults  #faults    # eff.    # test         process 
//  simulated  coverage  in list  detected   patterns  patterns       CPU time
//   64         14.78%    22143      3841       64         0          0.12 sec
//   128        16.55%    21683       460       61         0          0.19 sec
//   192        17.30%    21489       194       46         0          0.25 sec
//   256        17.81%    21356       133       42         0          0.31 sec
//   320        18.15%    21267        89       36         0          0.37 sec
//   384        18.44%    21193        74       36         0          0.42 sec
//   448        18.71%    21122        71       32         0          0.48 sec
//   512        18.88%    21079        43       22         0          0.54 sec
//   576        18.95%    21059        20       14         0          0.60 sec
//   640        19.08%    21026        33       16         0          0.65 sec
//   704        19.17%    21004        22       15         0          0.71 sec
//   768        19.29%    20971        33       12         0          0.76 sec
//   832        19.39%    20947        24       10         0          0.82 sec
//   848        19.40%    20944         3        2         0          0.87 sec
