// | ------------------------------------------------------------------------------------------------------------------ |
// |                                                                                                                    |
// |          Current split capture setting:     Off (optimal)                                                          |
// |                                                                                                                    |
// |   Current clock off simulation setting:     Off (optimal)                                                          |
// | ------------------------------------------------------------------------------------------------------------------ |
//  ------------------------------------------------------------------------
//  Simulation performed for #gates = 12864  #faults = 25984
//  Run fault simulation without storing patterns.  pattern source = 825 external patterns
//  ------------------------------------------------------------------------
//  #patterns  test      #faults  #faults    # eff.    # test         process 
//  simulated  coverage  in list  detected   patterns  patterns       CPU time
//   64         15.01%    22084      3900       64         0          0.13 sec
//   128        16.53%    21689       395       57         0          0.20 sec
//   192        17.30%    21490       199       48         0          0.26 sec
//   256        17.77%    21366       124       36         0          0.32 sec
//   320        18.06%    21290        76       41         0          0.38 sec
//   384        18.40%    21203        87       28         0          0.44 sec
//   448        18.75%    21112        91       32         0          0.50 sec
//   512        18.85%    21087        25       11         0          0.56 sec
//   576        19.04%    21036        51       24         0          0.62 sec
//   640        19.20%    20994        42       14         0          0.68 sec
//   704        19.33%    20962        32       14         0          0.73 sec
//   768        19.48%    20922        40       19         0          0.79 sec
//   825        19.51%    20914         8        6         0          0.84 sec
