// | ------------------------------------------------------------------------------------------------------------------ |
// |                                                                                                                    |
// |          Current split capture setting:     Off (optimal)                                                          |
// |                                                                                                                    |
// |   Current clock off simulation setting:     Off (optimal)                                                          |
// | ------------------------------------------------------------------------------------------------------------------ |
//  ------------------------------------------------------------------------
//  Simulation performed for #gates = 12864  #faults = 25984
//  Run fault simulation without storing patterns.  pattern source = 757 external patterns
//  ------------------------------------------------------------------------
//  #patterns  test      #faults  #faults    # eff.    # test         process 
//  simulated  coverage  in list  detected   patterns  patterns       CPU time
//   64         16.05%    21814      4170       64         0          0.14 sec
//   128        17.60%    21412       402       60         0          0.21 sec
//   192        18.34%    21219       193       44         0          0.27 sec
//   256        18.75%    21112       107       37         0          0.33 sec
//   320        19.13%    21013        99       32         0          0.39 sec
//   384        19.32%    20964        49       25         0          0.45 sec
//   448        19.55%    20905        59       24         0          0.51 sec
//   512        19.71%    20863        42       20         0          0.57 sec
//   576        19.86%    20824        39       21         0          0.63 sec
//   640        19.95%    20800        24       21         0          0.69 sec
//   704        20.02%    20782        18       10         0          0.74 sec
//   757        20.08%    20767        15        6         0          0.80 sec
