// | ------------------------------------------------------------------------------------------------------------------ |
// |                                                                                                                    |
// |          Current split capture setting:     Off (optimal)                                                          |
// |                                                                                                                    |
// |   Current clock off simulation setting:     Off (optimal)                                                          |
// | ------------------------------------------------------------------------------------------------------------------ |
//  ------------------------------------------------------------------------
//  Simulation performed for #gates = 12864  #faults = 25984
//  Run fault simulation without storing patterns.  pattern source = 827 external patterns
//  ------------------------------------------------------------------------
//  #patterns  test      #faults  #faults    # eff.    # test         process 
//  simulated  coverage  in list  detected   patterns  patterns       CPU time
//   64         13.58%    22455      3529       64         0          0.11 sec
//   128        15.36%    21994       461       56         0          0.18 sec
//   192        15.99%    21830       164       40         0          0.24 sec
//   256        16.47%    21705       125       40         0          0.29 sec
//   320        16.84%    21607        98       32         0          0.35 sec
//   384        17.17%    21522        85       30         0          0.41 sec
//   448        17.44%    21453        69       27         0          0.46 sec
//   512        17.70%    21384        69       27         0          0.52 sec
//   576        17.84%    21349        35       18         0          0.57 sec
//   640        17.95%    21321        28       13         0          0.63 sec
//   704        18.03%    21299        22       13         0          0.68 sec
//   768        18.08%    21287        12        8         0          0.73 sec
//   827        18.15%    21267        20        8         0          0.79 sec
