// | ------------------------------------------------------------------------------------------------------------------ |
// |                                                                                                                    |
// |          Current split capture setting:     Off (optimal)                                                          |
// |                                                                                                                    |
// |   Current clock off simulation setting:     Off (optimal)                                                          |
// | ------------------------------------------------------------------------------------------------------------------ |
//  ------------------------------------------------------------------------
//  Simulation performed for #gates = 12864  #faults = 25984
//  Run fault simulation without storing patterns.  pattern source = 836 external patterns
//  ------------------------------------------------------------------------
//  #patterns  test      #faults  #faults    # eff.    # test         process 
//  simulated  coverage  in list  detected   patterns  patterns       CPU time
//   64         15.48%    21962      4022       64         0          0.13 sec
//   128        17.20%    21516       446       60         0          0.20 sec
//   192        17.98%    21312       204       53         0          0.26 sec
//   256        18.63%    21143       169       47         0          0.32 sec
//   320        19.09%    21024       119       38         0          0.37 sec
//   384        19.29%    20971        53       21         0          0.43 sec
//   448        19.44%    20933        38       18         0          0.49 sec
//   512        19.60%    20891        42       19         0          0.54 sec
//   576        19.81%    20836        55       21         0          0.60 sec
//   640        19.94%    20803        33       19         0          0.65 sec
//   704        20.04%    20778        25       13         0          0.71 sec
//   768        20.09%    20764        14        8         0          0.77 sec
//   832        20.17%    20744        20       10         0          0.82 sec
