// | ------------------------------------------------------------------------------------------------------------------ |
// |                                                                                                                    |
// |          Current split capture setting:     Off (optimal)                                                          |
// |                                                                                                                    |
// |   Current clock off simulation setting:     Off (optimal)                                                          |
// | ------------------------------------------------------------------------------------------------------------------ |
//  ------------------------------------------------------------------------
//  Simulation performed for #gates = 12864  #faults = 25984
//  Run fault simulation without storing patterns.  pattern source = 865 external patterns
//  ------------------------------------------------------------------------
//  #patterns  test      #faults  #faults    # eff.    # test         process 
//  simulated  coverage  in list  detected   patterns  patterns       CPU time
//   64         14.97%    22093      3891       63         0          0.12 sec
//   128        16.59%    21674       419       58         0          0.19 sec
//   192        17.47%    21445       229       47         0          0.25 sec
//   256        17.88%    21339       106       38         0          0.31 sec
//   320        18.26%    21239       100       33         0          0.37 sec
//   384        18.55%    21165        74       32         0          0.42 sec
//   448        18.76%    21110        55       25         0          0.48 sec
//   512        18.96%    21058        52       24         0          0.54 sec
//   576        19.16%    21006        52       30         0          0.59 sec
//   640        19.24%    20984        22       16         0          0.65 sec
//   704        19.35%    20957        27       14         0          0.70 sec
//   768        19.42%    20937        20       12         0          0.76 sec
//   832        19.47%    20924        13        8         0          0.81 sec
//   865        19.50%    20918         6        4         0          0.87 sec
