// | ------------------------------------------------------------------------------------------------------------------ |
// |                                                                                                                    |
// |          Current split capture setting:     Off (optimal)                                                          |
// |                                                                                                                    |
// |   Current clock off simulation setting:     Off (optimal)                                                          |
// | ------------------------------------------------------------------------------------------------------------------ |
//  ------------------------------------------------------------------------
//  Simulation performed for #gates = 12864  #faults = 25984
//  Run fault simulation without storing patterns.  pattern source = 1013 external patterns
//  ------------------------------------------------------------------------
//  #patterns  test      #faults  #faults    # eff.    # test         process 
//  simulated  coverage  in list  detected   patterns  patterns       CPU time
//   64         14.23%    22287      3697       64         0          0.12 sec
//   128        15.79%    21882       405       56         0          0.19 sec
//   192        16.55%    21683       199       44         0          0.25 sec
//   256        17.01%    21565       118       34         0          0.31 sec
//   320        17.43%    21455       110       31         0          0.37 sec
//   384        17.65%    21398        57       23         0          0.43 sec
//   448        17.95%    21319        79       33         0          0.49 sec
//   512        18.17%    21262        57       21         0          0.55 sec
//   576        18.39%    21205        57       21         0          0.60 sec
//   640        18.69%    21128        77       27         0          0.66 sec
//   704        18.87%    21081        47       26         0          0.72 sec
//   768        19.03%    21040        41       21         0          0.78 sec
//   832        19.17%    21003        37       22         0          0.83 sec
//   896        19.24%    20985        18       13         0          0.89 sec
//   960        19.38%    20948        37       17         0          0.94 sec
//   1013       19.42%    20937        11        4         0          1.00 sec
