// | ------------------------------------------------------------------------------------------------------------------ |
// |                                                                                                                    |
// |          Current split capture setting:     Off (optimal)                                                          |
// |                                                                                                                    |
// |   Current clock off simulation setting:     Off (optimal)                                                          |
// | ------------------------------------------------------------------------------------------------------------------ |
//  ------------------------------------------------------------------------
//  Simulation performed for #gates = 12864  #faults = 25984
//  Run fault simulation without storing patterns.  pattern source = 854 external patterns
//  ------------------------------------------------------------------------
//  #patterns  test      #faults  #faults    # eff.    # test         process 
//  simulated  coverage  in list  detected   patterns  patterns       CPU time
//   64         13.83%    22390      3594       63         0          0.12 sec
//   128        15.87%    21860       530       55         0          0.19 sec
//   192        16.93%    21585       275       49         0          0.26 sec
//   256        17.56%    21420       165       44         0          0.31 sec
//   320        17.97%    21315       105       38         0          0.38 sec
//   384        18.34%    21218        97       36         0          0.43 sec
//   448        18.63%    21142        76       27         0          0.49 sec
//   512        18.95%    21059        83       31         0          0.55 sec
//   576        19.09%    21024        35       20         0          0.61 sec
//   640        19.32%    20965        59       29         0          0.67 sec
//   704        19.51%    20914        51       18         0          0.72 sec
//   768        19.69%    20869        45       17         0          0.78 sec
//   832        19.78%    20844        25       13         0          0.84 sec
//   854        19.81%    20836         8        4         0          0.89 sec
