// | ------------------------------------------------------------------------------------------------------------------ |
// |                                                                                                                    |
// |          Current split capture setting:     Off (optimal)                                                          |
// |                                                                                                                    |
// |   Current clock off simulation setting:     Off (optimal)                                                          |
// | ------------------------------------------------------------------------------------------------------------------ |
//  ------------------------------------------------------------------------
//  Simulation performed for #gates = 12864  #faults = 25984
//  Run fault simulation without storing patterns.  pattern source = 656 external patterns
//  ------------------------------------------------------------------------
//  #patterns  test      #faults  #faults    # eff.    # test         process 
//  simulated  coverage  in list  detected   patterns  patterns       CPU time
//   64         15.17%    22042      3942       64         0          0.13 sec
//   128        16.70%    21644       398       60         0          0.20 sec
//   192        17.66%    21396       248       53         0          0.27 sec
//   256        18.33%    21220       176       46         0          0.33 sec
//   320        18.85%    21087       133       40         0          0.39 sec
//   384        19.24%    20985       102       36         0          0.45 sec
//   448        19.51%    20914        71       26         0          0.50 sec
//   512        19.70%    20866        48       21         0          0.56 sec
//   576        19.86%    20824        42       19         0          0.62 sec
//   640        19.96%    20797        27       15         0          0.67 sec
//   656        19.99%    20791         6        4         0          0.73 sec
