// | ------------------------------------------------------------------------------------------------------------------ |
// |                                                                                                                    |
// |          Current split capture setting:     Off (optimal)                                                          |
// |                                                                                                                    |
// |   Current clock off simulation setting:     Off (optimal)                                                          |
// | ------------------------------------------------------------------------------------------------------------------ |
//  ------------------------------------------------------------------------
//  Simulation performed for #gates = 12864  #faults = 25984
//  Run fault simulation without storing patterns.  pattern source = 658 external patterns
//  ------------------------------------------------------------------------
//  #patterns  test      #faults  #faults    # eff.    # test         process 
//  simulated  coverage  in list  detected   patterns  patterns       CPU time
//   64         15.04%    22075      3909       64         0          0.13 sec
//   128        16.90%    21594       481       58         0          0.20 sec
//   192        17.87%    21341       253       48         0          0.26 sec
//   256        18.40%    21202       139       43         0          0.32 sec
//   320        18.81%    21096       106       41         0          0.38 sec
//   384        19.21%    20992       104       37         0          0.43 sec
//   448        19.40%    20942        50       26         0          0.49 sec
//   512        19.60%    20892        50       22         0          0.55 sec
//   576        19.77%    20846        46       24         0          0.60 sec
//   640        19.91%    20811        35       19         0          0.66 sec
//   658        19.97%    20795        16        9         0          0.71 sec
