// | ------------------------------------------------------------------------------------------------------------------ |
// |                                                                                                                    |
// |          Current split capture setting:     Off (optimal)                                                          |
// |                                                                                                                    |
// |   Current clock off simulation setting:     Off (optimal)                                                          |
// | ------------------------------------------------------------------------------------------------------------------ |
//  ------------------------------------------------------------------------
//  Simulation performed for #gates = 12864  #faults = 25984
//  Run fault simulation without storing patterns.  pattern source = 720 external patterns
//  ------------------------------------------------------------------------
//  #patterns  test      #faults  #faults    # eff.    # test         process 
//  simulated  coverage  in list  detected   patterns  patterns       CPU time
//   64         20.72%    20599      5385       64         0          0.14 sec
//   128        24.48%    19622       977       64         0          0.20 sec
//   192        26.56%    19082       540       64         0          0.25 sec
//   256        27.99%    18710       372       64         0          0.30 sec
//   320        29.07%    18430       280       64         0          0.35 sec
//   384        29.90%    18215       215       64         0          0.40 sec
//   448        30.59%    18036       179       64         0          0.45 sec
//   512        31.15%    17890       146       64         0          0.49 sec
//   576        31.58%    17777       113       64         0          0.54 sec
//   640        31.99%    17672       105       64         0          0.58 sec
//   704        32.39%    17569       103       64         0          0.63 sec
//   720        32.47%    17547        22       16         0          0.67 sec
