// | ------------------------------------------------------------------------------------------------------------------ |
// |                                                                                                                    |
// |          Current split capture setting:     Off (optimal)                                                          |
// |                                                                                                                    |
// |   Current clock off simulation setting:     Off (optimal)                                                          |
// | ------------------------------------------------------------------------------------------------------------------ |
//  ------------------------------------------------------------------------
//  Simulation performed for #gates = 12864  #faults = 25984
//  Run fault simulation without storing patterns.  pattern source = 827 external patterns
//  ------------------------------------------------------------------------
//  #patterns  test      #faults  #faults    # eff.    # test         process 
//  simulated  coverage  in list  detected   patterns  patterns       CPU time
//   64         14.20%    22293      3691       64         0          0.12 sec
//   128        15.93%    21844       449       56         0          0.18 sec
//   192        16.62%    21665       179       41         0          0.24 sec
//   256        17.03%    21558       107       37         0          0.30 sec
//   320        17.43%    21456       102       35         0          0.36 sec
//   384        17.72%    21380        76       34         0          0.41 sec
//   448        17.89%    21335        45       24         0          0.47 sec
//   512        18.03%    21300        35       17         0          0.53 sec
//   576        18.23%    21246        54       23         0          0.58 sec
//   640        18.33%    21222        24       16         0          0.64 sec
//   704        18.47%    21186        36       17         0          0.69 sec
//   768        18.58%    21156        30       14         0          0.75 sec
//   827        18.62%    21147         9        4         0          0.80 sec
