// | ------------------------------------------------------------------------------------------------------------------ |
// |                                                                                                                    |
// |          Current split capture setting:     Off (optimal)                                                          |
// |                                                                                                                    |
// |   Current clock off simulation setting:     Off (optimal)                                                          |
// | ------------------------------------------------------------------------------------------------------------------ |
//  ------------------------------------------------------------------------
//  Simulation performed for #gates = 12864  #faults = 25984
//  Run fault simulation without storing patterns.  pattern source = 662 external patterns
//  ------------------------------------------------------------------------
//  #patterns  test      #faults  #faults    # eff.    # test         process 
//  simulated  coverage  in list  detected   patterns  patterns       CPU time
//   64         13.05%    22592      3392       63         0          0.11 sec
//   128        14.67%    22173       419       54         0          0.18 sec
//   192        15.50%    21957       216       48         0          0.24 sec
//   256        15.92%    21848       109       35         0          0.30 sec
//   320        16.32%    21743       105       38         0          0.35 sec
//   384        16.56%    21681        62       28         0          0.41 sec
//   448        16.73%    21638        43       18         0          0.47 sec
//   512        16.95%    21579        59       27         0          0.52 sec
//   576        17.16%    21525        54       19         0          0.58 sec
//   640        17.30%    21490        35       13         0          0.64 sec
//   662        17.31%    21487         3        3         0          0.69 sec
