// | ------------------------------------------------------------------------------------------------------------------ |
// |                                                                                                                    |
// |          Current split capture setting:     Off (optimal)                                                          |
// |                                                                                                                    |
// |   Current clock off simulation setting:     Off (optimal)                                                          |
// | ------------------------------------------------------------------------------------------------------------------ |
//  ------------------------------------------------------------------------
//  Simulation performed for #gates = 12864  #faults = 25984
//  Run fault simulation without storing patterns.  pattern source = 708 external patterns
//  ------------------------------------------------------------------------
//  #patterns  test      #faults  #faults    # eff.    # test         process 
//  simulated  coverage  in list  detected   patterns  patterns       CPU time
//   64         14.09%    22323      3661       62         0          0.11 sec
//   128        15.92%    21848       475       57         0          0.18 sec
//   192        16.73%    21638       210       43         0          0.24 sec
//   256        17.17%    21522       116       39         0          0.30 sec
//   320        17.44%    21453        69       25         0          0.35 sec
//   384        17.74%    21374        79       32         0          0.41 sec
//   448        17.96%    21316        58       25         0          0.47 sec
//   512        18.16%    21265        51       21         0          0.52 sec
//   576        18.29%    21231        34       18         0          0.58 sec
//   640        18.37%    21212        19       13         0          0.63 sec
//   704        18.41%    21200        12        7         0          0.68 sec
