// | ------------------------------------------------------------------------------------------------------------------ |
// |                                                                                                                    |
// |          Current split capture setting:     Off (optimal)                                                          |
// |                                                                                                                    |
// |   Current clock off simulation setting:     Off (optimal)                                                          |
// | ------------------------------------------------------------------------------------------------------------------ |
//  ------------------------------------------------------------------------
//  Simulation performed for #gates = 12864  #faults = 25984
//  Run fault simulation without storing patterns.  pattern source = 892 external patterns
//  ------------------------------------------------------------------------
//  #patterns  test      #faults  #faults    # eff.    # test         process 
//  simulated  coverage  in list  detected   patterns  patterns       CPU time
//   64         13.12%    22575      3409       64         0          0.11 sec
//   128        14.81%    22136       439       57         0          0.18 sec
//   192        15.71%    21903       233       42         0          0.25 sec
//   256        16.17%    21782       121       44         0          0.31 sec
//   320        16.47%    21704        78       24         0          0.37 sec
//   384        16.74%    21634        70       28         0          0.43 sec
//   448        16.98%    21571        63       22         0          0.49 sec
//   512        17.16%    21524        47       24         0          0.54 sec
//   576        17.30%    21489        35       18         0          0.60 sec
//   640        17.42%    21458        31       15         0          0.66 sec
//   704        17.61%    21409        49       19         0          0.71 sec
//   768        17.84%    21348        61       25         0          0.77 sec
//   832        18.04%    21297        51       19         0          0.83 sec
//   892        18.18%    21261        36       13         0          0.88 sec
