// | ------------------------------------------------------------------------------------------------------------------ |
// |                                                                                                                    |
// |          Current split capture setting:     Off (optimal)                                                          |
// |                                                                                                                    |
// |   Current clock off simulation setting:     Off (optimal)                                                          |
// | ------------------------------------------------------------------------------------------------------------------ |
//  ------------------------------------------------------------------------
//  Simulation performed for #gates = 12864  #faults = 25984
//  Run fault simulation without storing patterns.  pattern source = 757 external patterns
//  ------------------------------------------------------------------------
//  #patterns  test      #faults  #faults    # eff.    # test         process 
//  simulated  coverage  in list  detected   patterns  patterns       CPU time
//   64         13.19%    22557      3427       64         0          0.12 sec
//   128        14.75%    22151       406       53         0          0.18 sec
//   192        15.69%    21907       244       48         0          0.24 sec
//   256        16.42%    21717       190       42         0          0.30 sec
//   320        16.79%    21621        96       31         0          0.36 sec
//   384        17.31%    21487       134       38         0          0.42 sec
//   448        17.53%    21430        57       22         0          0.48 sec
//   512        17.81%    21357        73       30         0          0.54 sec
//   576        18.17%    21262        95       31         0          0.60 sec
//   640        18.39%    21206        56       23         0          0.65 sec
//   704        18.46%    21187        19       11         0          0.71 sec
//   757        18.60%    21152        35       12         0          0.77 sec
