// | ------------------------------------------------------------------------------------------------------------------ |
// |                                                                                                                    |
// |          Current split capture setting:     Off (optimal)                                                          |
// |                                                                                                                    |
// |   Current clock off simulation setting:     Off (optimal)                                                          |
// | ------------------------------------------------------------------------------------------------------------------ |
//  ------------------------------------------------------------------------
//  Simulation performed for #gates = 12864  #faults = 25984
//  Run fault simulation without storing patterns.  pattern source = 933 external patterns
//  ------------------------------------------------------------------------
//  #patterns  test      #faults  #faults    # eff.    # test         process 
//  simulated  coverage  in list  detected   patterns  patterns       CPU time
//   64         14.10%    22319      3665       64         0          0.13 sec
//   128        15.98%    21832       487       62         0          0.19 sec
//   192        16.63%    21664       168       47         0          0.26 sec
//   256        17.20%    21515       149       43         0          0.32 sec
//   320        17.51%    21434        81       29         0          0.38 sec
//   384        17.84%    21348        86       32         0          0.44 sec
//   448        18.03%    21299        49       27         0          0.50 sec
//   512        18.21%    21252        47       19         0          0.55 sec
//   576        18.35%    21215        37       21         0          0.61 sec
//   640        18.45%    21189        26        9         0          0.67 sec
//   704        18.63%    21144        45       19         0          0.73 sec
//   768        18.68%    21129        15        8         0          0.79 sec
//   832        18.83%    21092        37       13         0          0.84 sec
//   896        18.95%    21060        32       11         0          0.90 sec
//   933        18.96%    21058         2        2         0          0.95 sec
