// | ------------------------------------------------------------------------------------------------------------------ |
// |                                                                                                                    |
// |          Current split capture setting:     Off (optimal)                                                          |
// |                                                                                                                    |
// |   Current clock off simulation setting:     Off (optimal)                                                          |
// | ------------------------------------------------------------------------------------------------------------------ |
//  ------------------------------------------------------------------------
//  Simulation performed for #gates = 12864  #faults = 25984
//  Run fault simulation without storing patterns.  pattern source = 1127 external patterns
//  ------------------------------------------------------------------------
//  #patterns  test      #faults  #faults    # eff.    # test         process 
//  simulated  coverage  in list  detected   patterns  patterns       CPU time
//   64         15.34%    21997      3987       64         0          0.13 sec
//   128        17.01%    21564       433       56         0          0.20 sec
//   192        17.89%    21336       228       51         0          0.26 sec
//   256        18.35%    21216       120       37         0          0.32 sec
//   320        18.69%    21127        89       35         0          0.38 sec
//   384        19.09%    21023       104       36         0          0.44 sec
//   448        19.33%    20962        61       24         0          0.50 sec
//   512        19.57%    20899        63       30         0          0.55 sec
//   576        19.77%    20848        51       23         0          0.61 sec
//   640        19.94%    20803        45       23         0          0.67 sec
//   704        20.06%    20772        31       19         0          0.72 sec
//   768        20.15%    20748        24       12         0          0.78 sec
//   832        20.22%    20730        18       11         0          0.83 sec
//   896        20.28%    20714        16       12         0          0.88 sec
//   960        20.34%    20698        16       11         0          0.94 sec
//   1024       20.37%    20692         6        3         0          0.99 sec
//   1088       20.40%    20683         9        6         0          1.04 sec
