// | ------------------------------------------------------------------------------------------------------------------ |
// |                                                                                                                    |
// |          Current split capture setting:     Off (optimal)                                                          |
// |                                                                                                                    |
// |   Current clock off simulation setting:     Off (optimal)                                                          |
// | ------------------------------------------------------------------------------------------------------------------ |
//  ------------------------------------------------------------------------
//  Simulation performed for #gates = 12864  #faults = 25984
//  Run fault simulation without storing patterns.  pattern source = 708 external patterns
//  ------------------------------------------------------------------------
//  #patterns  test      #faults  #faults    # eff.    # test         process 
//  simulated  coverage  in list  detected   patterns  patterns       CPU time
//   64         13.55%    22464      3520       62         0          0.11 sec
//   128        15.18%    22039       425       59         0          0.18 sec
//   192        16.03%    21818       221       52         0          0.24 sec
//   256        16.57%    21678       140       37         0          0.30 sec
//   320        16.93%    21586        92       32         0          0.36 sec
//   384        17.18%    21520        66       32         0          0.41 sec
//   448        17.43%    21454        66       24         0          0.47 sec
//   512        17.61%    21409        45       18         0          0.53 sec
//   576        17.78%    21364        45       18         0          0.58 sec
//   640        17.91%    21329        35       19         0          0.64 sec
//   704        18.00%    21308        21       10         0          0.69 sec
