// | ------------------------------------------------------------------------------------------------------------------ |
// |                                                                                                                    |
// |          Current split capture setting:     Off (optimal)                                                          |
// |                                                                                                                    |
// |   Current clock off simulation setting:     Off (optimal)                                                          |
// | ------------------------------------------------------------------------------------------------------------------ |
//  ------------------------------------------------------------------------
//  Simulation performed for #gates = 12864  #faults = 25984
//  Run fault simulation without storing patterns.  pattern source = 596 external patterns
//  ------------------------------------------------------------------------
//  #patterns  test      #faults  #faults    # eff.    # test         process 
//  simulated  coverage  in list  detected   patterns  patterns       CPU time
//   64         13.86%    22383      3601       63         0          0.12 sec
//   128        15.36%    21992       391       55         0          0.19 sec
//   192        16.09%    21804       188       49         0          0.26 sec
//   256        16.61%    21668       136       44         0          0.32 sec
//   320        17.02%    21561       107       34         0          0.38 sec
//   384        17.37%    21471        90       29         0          0.44 sec
//   448        17.70%    21386        85       27         0          0.50 sec
//   512        17.95%    21319        67       23         0          0.56 sec
//   576        18.29%    21232        87       34         0          0.62 sec
//   596        18.30%    21228         4        3         0          0.67 sec
