// | ------------------------------------------------------------------------------------------------------------------ |
// |                                                                                                                    |
// |          Current split capture setting:     Off (optimal)                                                          |
// |                                                                                                                    |
// |   Current clock off simulation setting:     Off (optimal)                                                          |
// | ------------------------------------------------------------------------------------------------------------------ |
//  ------------------------------------------------------------------------
//  Simulation performed for #gates = 12864  #faults = 25984
//  Run fault simulation without storing patterns.  pattern source = 865 external patterns
//  ------------------------------------------------------------------------
//  #patterns  test      #faults  #faults    # eff.    # test         process 
//  simulated  coverage  in list  detected   patterns  patterns       CPU time
//   64         13.73%    22417      3567       62         0          0.12 sec
//   128        15.46%    21966       451       62         0          0.19 sec
//   192        16.25%    21762       204       46         0          0.25 sec
//   256        16.59%    21673        89       31         0          0.31 sec
//   320        16.88%    21597        76       29         0          0.37 sec
//   384        17.15%    21529        68       28         0          0.43 sec
//   448        17.37%    21471        58       25         0          0.49 sec
//   512        17.62%    21405        66       25         0          0.55 sec
//   576        17.84%    21348        57       25         0          0.60 sec
//   640        17.97%    21314        34       17         0          0.66 sec
//   704        18.19%    21258        56       16         0          0.72 sec
//   768        18.25%    21241        17       10         0          0.78 sec
//   832        18.33%    21222        19       10         0          0.83 sec
//   865        18.35%    21217         5        3         0          0.88 sec
