// | ------------------------------------------------------------------------------------------------------------------ |
// |                                                                                                                    |
// |          Current split capture setting:     Off (optimal)                                                          |
// |                                                                                                                    |
// |   Current clock off simulation setting:     Off (optimal)                                                          |
// | ------------------------------------------------------------------------------------------------------------------ |
//  ------------------------------------------------------------------------
//  Simulation performed for #gates = 12864  #faults = 25984
//  Run fault simulation without storing patterns.  pattern source = 610 external patterns
//  ------------------------------------------------------------------------
//  #patterns  test      #faults  #faults    # eff.    # test         process 
//  simulated  coverage  in list  detected   patterns  patterns       CPU time
//   64         15.30%    22008      3976       64         0          0.13 sec
//   128        16.96%    21577       431       59         0          0.19 sec
//   192        17.84%    21348       229       53         0          0.25 sec
//   256        18.32%    21225       123       42         0          0.31 sec
//   320        18.63%    21144        81       26         0          0.37 sec
//   384        18.88%    21077        67       30         0          0.43 sec
//   448        19.26%    20979        98       35         0          0.48 sec
//   512        19.47%    20925        54       21         0          0.54 sec
//   576        19.61%    20888        37       17         0          0.59 sec
//   610        19.72%    20860        28       13         0          0.65 sec
