// | ------------------------------------------------------------------------------------------------------------------ |
// |                                                                                                                    |
// |          Current split capture setting:     Off (optimal)                                                          |
// |                                                                                                                    |
// |   Current clock off simulation setting:     Off (optimal)                                                          |
// | ------------------------------------------------------------------------------------------------------------------ |
//  ------------------------------------------------------------------------
//  Simulation performed for #gates = 12864  #faults = 25984
//  Run fault simulation without storing patterns.  pattern source = 892 external patterns
//  ------------------------------------------------------------------------
//  #patterns  test      #faults  #faults    # eff.    # test         process 
//  simulated  coverage  in list  detected   patterns  patterns       CPU time
//   64         14.22%    22288      3696       64         0          0.13 sec
//   128        15.95%    21839       449       56         0          0.19 sec
//   192        16.73%    21636       203       49         0          0.25 sec
//   256        17.36%    21474       162       39         0          0.31 sec
//   320        17.73%    21376        98       34         0          0.37 sec
//   384        18.02%    21302        74       28         0          0.43 sec
//   448        18.20%    21255        47       22         0          0.49 sec
//   512        18.47%    21184        71       21         0          0.54 sec
//   576        18.55%    21164        20       14         0          0.60 sec
//   640        18.70%    21126        38       15         0          0.66 sec
//   704        18.93%    21065        61       16         0          0.71 sec
//   768        19.07%    21029        36       19         0          0.77 sec
//   832        19.23%    20987        42       21         0          0.83 sec
//   892        19.33%    20961        26        9         0          0.88 sec
