// | ------------------------------------------------------------------------------------------------------------------ |
// |                                                                                                                    |
// |          Current split capture setting:     Off (optimal)                                                          |
// |                                                                                                                    |
// |   Current clock off simulation setting:     Off (optimal)                                                          |
// | ------------------------------------------------------------------------------------------------------------------ |
//  ------------------------------------------------------------------------
//  Simulation performed for #gates = 12864  #faults = 25984
//  Run fault simulation without storing patterns.  pattern source = 804 external patterns
//  ------------------------------------------------------------------------
//  #patterns  test      #faults  #faults    # eff.    # test         process 
//  simulated  coverage  in list  detected   patterns  patterns       CPU time
//   64         12.50%    22736      3248       64         0          0.11 sec
//   128        13.92%    22366       370       52         0          0.17 sec
//   192        14.83%    22131       235       35         0          0.23 sec
//   256        15.38%    21987       144       37         0          0.29 sec
//   320        15.66%    21916        71       24         0          0.34 sec
//   384        15.98%    21831        85       32         0          0.40 sec
//   448        16.37%    21730       101       28         0          0.46 sec
//   512        16.59%    21674        56       19         0          0.51 sec
//   576        16.92%    21588        86       34         0          0.57 sec
//   640        17.19%    21518        70       25         0          0.62 sec
//   704        17.36%    21473        45       24         0          0.68 sec
//   768        17.42%    21457        16       11         0          0.73 sec
//   804        17.47%    21444        13        9         0          0.78 sec
