// | ------------------------------------------------------------------------------------------------------------------ |
// |                                                                                                                    |
// |          Current split capture setting:     Off (optimal)                                                          |
// |                                                                                                                    |
// |   Current clock off simulation setting:     Off (optimal)                                                          |
// | ------------------------------------------------------------------------------------------------------------------ |
//  ------------------------------------------------------------------------
//  Simulation performed for #gates = 12864  #faults = 25984
//  Run fault simulation without storing patterns.  pattern source = 772 external patterns
//  ------------------------------------------------------------------------
//  #patterns  test      #faults  #faults    # eff.    # test         process 
//  simulated  coverage  in list  detected   patterns  patterns       CPU time
//   64         13.02%    22601      3383       63         0          0.11 sec
//   128        14.39%    22245       356       49         0          0.17 sec
//   192        15.29%    22010       235       51         0          0.23 sec
//   256        15.76%    21888       122       36         0          0.29 sec
//   320        16.19%    21776       112       35         0          0.35 sec
//   384        16.44%    21713        63       25         0          0.40 sec
//   448        16.77%    21627        86       28         0          0.46 sec
//   512        16.99%    21569        58       26         0          0.52 sec
//   576        17.13%    21534        35       17         0          0.57 sec
//   640        17.28%    21493        41       19         0          0.62 sec
//   704        17.40%    21463        30       19         0          0.68 sec
//   768        17.45%    21451        12        6         0          0.73 sec
