// | ------------------------------------------------------------------------------------------------------------------ |
// |                                                                                                                    |
// |          Current split capture setting:     Off (optimal)                                                          |
// |                                                                                                                    |
// |   Current clock off simulation setting:     Off (optimal)                                                          |
// | ------------------------------------------------------------------------------------------------------------------ |
//  ------------------------------------------------------------------------
//  Simulation performed for #gates = 12864  #faults = 25984
//  Run fault simulation without storing patterns.  pattern source = 931 external patterns
//  ------------------------------------------------------------------------
//  #patterns  test      #faults  #faults    # eff.    # test         process 
//  simulated  coverage  in list  detected   patterns  patterns       CPU time
//   64         14.98%    22091      3893       64         0          0.13 sec
//   128        16.78%    21625       466       56         0          0.19 sec
//   192        17.73%    21377       248       49         0          0.26 sec
//   256        18.21%    21252       125       49         0          0.32 sec
//   320        18.56%    21161        91       28         0          0.38 sec
//   384        18.75%    21111        50       24         0          0.43 sec
//   448        19.08%    21027        84       30         0          0.49 sec
//   512        19.28%    20973        54       24         0          0.55 sec
//   576        19.52%    20913        60       23         0          0.61 sec
//   640        19.72%    20860        53       24         0          0.66 sec
//   704        19.81%    20836        24       15         0          0.72 sec
//   768        19.92%    20807        29       11         0          0.77 sec
//   832        20.00%    20788        19       11         0          0.83 sec
//   896        20.04%    20776        12        9         0          0.88 sec
//   931        20.05%    20773         3        3         0          0.93 sec
