// | ------------------------------------------------------------------------------------------------------------------ |
// |                                                                                                                    |
// |          Current split capture setting:     Off (optimal)                                                          |
// |                                                                                                                    |
// |   Current clock off simulation setting:     Off (optimal)                                                          |
// | ------------------------------------------------------------------------------------------------------------------ |
//  ------------------------------------------------------------------------
//  Simulation performed for #gates = 12864  #faults = 25984
//  Run fault simulation without storing patterns.  pattern source = 624 external patterns
//  ------------------------------------------------------------------------
//  #patterns  test      #faults  #faults    # eff.    # test         process 
//  simulated  coverage  in list  detected   patterns  patterns       CPU time
//   64         14.72%    22158      3826       63         0          0.12 sec
//   128        16.58%    21676       482       62         0          0.19 sec
//   192        17.40%    21464       212       48         0          0.25 sec
//   256        17.97%    21314       150       44         0          0.31 sec
//   320        18.25%    21243        71       31         0          0.37 sec
//   384        18.49%    21180        63       27         0          0.42 sec
//   448        18.62%    21145        35       18         0          0.48 sec
//   512        18.68%    21131        14       10         0          0.53 sec
//   576        18.80%    21100        31       19         0          0.59 sec
//   624        18.88%    21078        22       11         0          0.64 sec
