// | ------------------------------------------------------------------------------------------------------------------ |
// |                                                                                                                    |
// |          Current split capture setting:     Off (optimal)                                                          |
// |                                                                                                                    |
// |   Current clock off simulation setting:     Off (optimal)                                                          |
// | ------------------------------------------------------------------------------------------------------------------ |
//  ------------------------------------------------------------------------
//  Simulation performed for #gates = 12864  #faults = 25984
//  Run fault simulation without storing patterns.  pattern source = 857 external patterns
//  ------------------------------------------------------------------------
//  #patterns  test      #faults  #faults    # eff.    # test         process 
//  simulated  coverage  in list  detected   patterns  patterns       CPU time
//   64         14.96%    22098      3886       64         0          0.13 sec
//   128        16.90%    21594       504       57         0          0.19 sec
//   192        17.75%    21372       222       49         0          0.25 sec
//   256        18.18%    21259       113       40         0          0.31 sec
//   320        18.58%    21155       104       38         0          0.37 sec
//   384        18.82%    21093        62       21         0          0.43 sec
//   448        19.02%    21042        51       21         0          0.49 sec
//   512        19.18%    20999        43       19         0          0.54 sec
//   576        19.32%    20965        34       19         0          0.60 sec
//   640        19.49%    20921        44       18         0          0.66 sec
//   704        19.61%    20888        33       18         0          0.71 sec
//   768        19.73%    20858        30       17         0          0.77 sec
//   832        19.84%    20830        28       12         0          0.82 sec
//   857        19.84%    20829         1        1         0          0.88 sec
