// | ------------------------------------------------------------------------------------------------------------------ |
// |                                                                                                                    |
// |          Current split capture setting:     Off (optimal)                                                          |
// |                                                                                                                    |
// |   Current clock off simulation setting:     Off (optimal)                                                          |
// | ------------------------------------------------------------------------------------------------------------------ |
//  ------------------------------------------------------------------------
//  Simulation performed for #gates = 12864  #faults = 25984
//  Run fault simulation without storing patterns.  pattern source = 772 external patterns
//  ------------------------------------------------------------------------
//  #patterns  test      #faults  #faults    # eff.    # test         process 
//  simulated  coverage  in list  detected   patterns  patterns       CPU time
//   64         15.24%    22023      3961       63         0          0.13 sec
//   128        17.05%    21553       470       63         0          0.20 sec
//   192        17.91%    21329       224       51         0          0.26 sec
//   256        18.52%    21173       156       47         0          0.32 sec
//   320        18.90%    21074        99       35         0          0.38 sec
//   384        19.16%    21005        69       31         0          0.44 sec
//   448        19.39%    20945        60       25         0          0.50 sec
//   512        19.52%    20912        33       17         0          0.56 sec
//   576        19.68%    20870        42       21         0          0.62 sec
//   640        19.81%    20837        33       14         0          0.67 sec
//   704        19.91%    20811        26        9         0          0.73 sec
//   768        19.96%    20798        13       10         0          0.79 sec
