// | ------------------------------------------------------------------------------------------------------------------ |
// |                                                                                                                    |
// |          Current split capture setting:     Off (optimal)                                                          |
// |                                                                                                                    |
// |   Current clock off simulation setting:     Off (optimal)                                                          |
// | ------------------------------------------------------------------------------------------------------------------ |
//  ------------------------------------------------------------------------
//  Simulation performed for #gates = 12864  #faults = 25984
//  Run fault simulation without storing patterns.  pattern source = 629 external patterns
//  ------------------------------------------------------------------------
//  #patterns  test      #faults  #faults    # eff.    # test         process 
//  simulated  coverage  in list  detected   patterns  patterns       CPU time
//   64         14.19%    22298      3686       64         0          0.12 sec
//   128        15.73%    21896       402       56         0          0.19 sec
//   192        16.46%    21707       189       53         0          0.25 sec
//   256        16.93%    21584       123       37         0          0.31 sec
//   320        17.33%    21480       104       40         0          0.37 sec
//   384        17.76%    21370       110       38         0          0.43 sec
//   448        18.05%    21295        75       27         0          0.49 sec
//   512        18.28%    21233        62       25         0          0.55 sec
//   576        18.48%    21182        51       25         0          0.61 sec
//   629        18.65%    21139        43       16         0          0.66 sec
