// | ------------------------------------------------------------------------------------------------------------------ |
// |                                                                                                                    |
// |          Current split capture setting:     Off (optimal)                                                          |
// |                                                                                                                    |
// |   Current clock off simulation setting:     Off (optimal)                                                          |
// | ------------------------------------------------------------------------------------------------------------------ |
//  ------------------------------------------------------------------------
//  Simulation performed for #gates = 12864  #faults = 25984
//  Run fault simulation without storing patterns.  pattern source = 697 external patterns
//  ------------------------------------------------------------------------
//  #patterns  test      #faults  #faults    # eff.    # test         process 
//  simulated  coverage  in list  detected   patterns  patterns       CPU time
//   64         14.66%    22175      3809       64         0          0.12 sec
//   128        16.29%    21752       423       61         0          0.19 sec
//   192        17.05%    21554       198       51         0          0.25 sec
//   256        17.51%    21435       119       38         0          0.31 sec
//   320        17.90%    21332       103       32         0          0.37 sec
//   384        18.15%    21269        63       26         0          0.42 sec
//   448        18.38%    21209        60       28         0          0.48 sec
//   512        18.57%    21159        50       25         0          0.54 sec
//   576        18.67%    21133        26       15         0          0.59 sec
//   640        18.78%    21105        28       17         0          0.65 sec
//   697        18.86%    21083        22       11         0          0.71 sec
