// | ------------------------------------------------------------------------------------------------------------------ |
// |                                                                                                                    |
// |          Current split capture setting:     Off (optimal)                                                          |
// |                                                                                                                    |
// |   Current clock off simulation setting:     Off (optimal)                                                          |
// | ------------------------------------------------------------------------------------------------------------------ |
//  ------------------------------------------------------------------------
//  Simulation performed for #gates = 12864  #faults = 25984
//  Run fault simulation without storing patterns.  pattern source = 697 external patterns
//  ------------------------------------------------------------------------
//  #patterns  test      #faults  #faults    # eff.    # test         process 
//  simulated  coverage  in list  detected   patterns  patterns       CPU time
//   64         13.12%    22575      3409       62         0          0.11 sec
//   128        14.59%    22194       381       55         0          0.18 sec
//   192        15.46%    21966       228       48         0          0.24 sec
//   256        15.98%    21833       133       42         0          0.30 sec
//   320        16.30%    21748        85       35         0          0.36 sec
//   384        16.55%    21683        65       27         0          0.42 sec
//   448        16.80%    21619        64       24         0          0.47 sec
//   512        17.05%    21553        66       23         0          0.53 sec
//   576        17.30%    21488        65       21         0          0.59 sec
//   640        17.49%    21439        49       19         0          0.65 sec
//   697        17.61%    21407        32       17         0          0.70 sec
