// | ------------------------------------------------------------------------------------------------------------------ |
// |                                                                                                                    |
// |          Current split capture setting:     Off (optimal)                                                          |
// |                                                                                                                    |
// |   Current clock off simulation setting:     Off (optimal)                                                          |
// | ------------------------------------------------------------------------------------------------------------------ |
//  ------------------------------------------------------------------------
//  Simulation performed for #gates = 12864  #faults = 25984
//  Run fault simulation without storing patterns.  pattern source = 697 external patterns
//  ------------------------------------------------------------------------
//  #patterns  test      #faults  #faults    # eff.    # test         process 
//  simulated  coverage  in list  detected   patterns  patterns       CPU time
//   64         15.87%    21860      4124       64         0          0.13 sec
//   128        17.43%    21456       404       59         0          0.20 sec
//   192        18.19%    21258       198       52         0          0.26 sec
//   256        18.83%    21090       168       50         0          0.32 sec
//   320        19.21%    20993        97       43         0          0.37 sec
//   384        19.51%    20914        79       28         0          0.43 sec
//   448        19.79%    20843        71       31         0          0.49 sec
//   512        19.99%    20791        52       21         0          0.54 sec
//   576        20.10%    20762        29       13         0          0.60 sec
//   640        20.24%    20725        37       21         0          0.65 sec
//   697        20.37%    20692        33       15         0          0.70 sec
