// | ------------------------------------------------------------------------------------------------------------------ |
// |                                                                                                                    |
// |          Current split capture setting:     Off (optimal)                                                          |
// |                                                                                                                    |
// |   Current clock off simulation setting:     Off (optimal)                                                          |
// | ------------------------------------------------------------------------------------------------------------------ |
//  ------------------------------------------------------------------------
//  Simulation performed for #gates = 12864  #faults = 25984
//  Run fault simulation without storing patterns.  pattern source = 567 external patterns
//  ------------------------------------------------------------------------
//  #patterns  test      #faults  #faults    # eff.    # test         process 
//  simulated  coverage  in list  detected   patterns  patterns       CPU time
//   64         15.11%    22057      3927       64         0          0.13 sec
//   128        16.86%    21603       454       62         0          0.20 sec
//   192        17.61%    21407       196       51         0          0.26 sec
//   256        18.15%    21268       139       42         0          0.32 sec
//   320        18.56%    21161       107       37         0          0.38 sec
//   384        18.89%    21075        86       35         0          0.44 sec
//   448        19.10%    21021        54       25         0          0.50 sec
//   512        19.37%    20952        69       24         0          0.56 sec
//   567        19.50%    20917        35       22         0          0.61 sec
