// | ------------------------------------------------------------------------------------------------------------------ |
// |                                                                                                                    |
// |          Current split capture setting:     Off (optimal)                                                          |
// |                                                                                                                    |
// |   Current clock off simulation setting:     Off (optimal)                                                          |
// | ------------------------------------------------------------------------------------------------------------------ |
//  ------------------------------------------------------------------------
//  Simulation performed for #gates = 12864  #faults = 25984
//  Run fault simulation without storing patterns.  pattern source = 679 external patterns
//  ------------------------------------------------------------------------
//  #patterns  test      #faults  #faults    # eff.    # test         process 
//  simulated  coverage  in list  detected   patterns  patterns       CPU time
//   64         15.10%    22061      3923       64         0          0.13 sec
//   128        16.74%    21633       428       59         0          0.20 sec
//   192        17.38%    21467       166       46         0          0.26 sec
//   256        17.87%    21340       127       38         0          0.32 sec
//   320        18.22%    21250        90       25         0          0.37 sec
//   384        18.60%    21150       100       35         0          0.43 sec
//   448        18.78%    21105        45       26         0          0.49 sec
//   512        18.93%    21065        40       20         0          0.54 sec
//   576        19.14%    21011        54       20         0          0.60 sec
//   640        19.27%    20977        34       17         0          0.65 sec
//   679        19.33%    20961        16        9         0          0.70 sec
