// | ------------------------------------------------------------------------------------------------------------------ |
// |                                                                                                                    |
// |          Current split capture setting:     Off (optimal)                                                          |
// |                                                                                                                    |
// |   Current clock off simulation setting:     Off (optimal)                                                          |
// | ------------------------------------------------------------------------------------------------------------------ |
//  ------------------------------------------------------------------------
//  Simulation performed for #gates = 12864  #faults = 25984
//  Run fault simulation without storing patterns.  pattern source = 567 external patterns
//  ------------------------------------------------------------------------
//  #patterns  test      #faults  #faults    # eff.    # test         process 
//  simulated  coverage  in list  detected   patterns  patterns       CPU time
//   64         14.19%    22298      3686       64         0          0.12 sec
//   128        15.58%    21935       363       54         0          0.19 sec
//   192        16.43%    21716       219       51         0          0.25 sec
//   256        17.08%    21546       170       46         0          0.31 sec
//   320        17.62%    21406       140       40         0          0.37 sec
//   384        17.88%    21338        68       28         0          0.43 sec
//   448        18.05%    21294        44       21         0          0.49 sec
//   512        18.33%    21222        72       30         0          0.54 sec
//   567        18.46%    21188        34       22         0          0.60 sec
