// | ------------------------------------------------------------------------------------------------------------------ |
// |                                                                                                                    |
// |          Current split capture setting:     Off (optimal)                                                          |
// |                                                                                                                    |
// |   Current clock off simulation setting:     Off (optimal)                                                          |
// | ------------------------------------------------------------------------------------------------------------------ |
//  ------------------------------------------------------------------------
//  Simulation performed for #gates = 12864  #faults = 25984
//  Run fault simulation without storing patterns.  pattern source = 672 external patterns
//  ------------------------------------------------------------------------
//  #patterns  test      #faults  #faults    # eff.    # test         process 
//  simulated  coverage  in list  detected   patterns  patterns       CPU time
//   64         14.27%    22275      3709       64         0          0.12 sec
//   128        15.80%    21878       397       60         0          0.19 sec
//   192        16.66%    21655       223       51         0          0.25 sec
//   256        17.22%    21509       146       44         0          0.31 sec
//   320        17.58%    21415        94       39         0          0.36 sec
//   384        17.76%    21370        45       20         0          0.42 sec
//   448        18.00%    21307        63       26         0          0.48 sec
//   512        18.23%    21248        59       21         0          0.54 sec
//   576        18.37%    21210        38       20         0          0.59 sec
//   640        18.53%    21168        42       17         0          0.65 sec
//   672        18.60%    21152        16        7         0          0.70 sec
