// | ------------------------------------------------------------------------------------------------------------------ |
// |                                                                                                                    |
// |          Current split capture setting:     Off (optimal)                                                          |
// |                                                                                                                    |
// |   Current clock off simulation setting:     Off (optimal)                                                          |
// | ------------------------------------------------------------------------------------------------------------------ |
//  ------------------------------------------------------------------------
//  Simulation performed for #gates = 12864  #faults = 25984
//  Run fault simulation without storing patterns.  pattern source = 764 external patterns
//  ------------------------------------------------------------------------
//  #patterns  test      #faults  #faults    # eff.    # test         process 
//  simulated  coverage  in list  detected   patterns  patterns       CPU time
//   64         12.69%    22687      3297       64         0          0.11 sec
//   128        14.24%    22283       404       56         0          0.18 sec
//   192        15.06%    22071       212       40         0          0.24 sec
//   256        15.88%    21859       212       48         0          0.31 sec
//   320        16.24%    21763        96       28         0          0.37 sec
//   384        16.67%    21652       111       33         0          0.42 sec
//   448        16.95%    21579        73       30         0          0.48 sec
//   512        17.20%    21515        64       21         0          0.54 sec
//   576        17.41%    21461        54       25         0          0.60 sec
//   640        17.63%    21404        57       30         0          0.65 sec
//   704        17.82%    21354        50       22         0          0.71 sec
//   764        18.01%    21305        49       14         0          0.76 sec
