// | ------------------------------------------------------------------------------------------------------------------ |
// |                                                                                                                    |
// |          Current split capture setting:     Off (optimal)                                                          |
// |                                                                                                                    |
// |   Current clock off simulation setting:     Off (optimal)                                                          |
// | ------------------------------------------------------------------------------------------------------------------ |
//  ------------------------------------------------------------------------
//  Simulation performed for #gates = 12864  #faults = 25984
//  Run fault simulation without storing patterns.  pattern source = 706 external patterns
//  ------------------------------------------------------------------------
//  #patterns  test      #faults  #faults    # eff.    # test         process 
//  simulated  coverage  in list  detected   patterns  patterns       CPU time
//   64         12.91%    22630      3354       63         0          0.11 sec
//   128        14.71%    22161       469       54         0          0.18 sec
//   192        15.41%    21979       182       47         0          0.24 sec
//   256        15.95%    21840       139       43         0          0.30 sec
//   320        16.37%    21731       109       33         0          0.36 sec
//   384        16.73%    21638        93       34         0          0.42 sec
//   448        17.20%    21514       124       39         0          0.48 sec
//   512        17.50%    21437        77       28         0          0.53 sec
//   576        17.71%    21383        54       24         0          0.59 sec
//   640        17.83%    21350        33       18         0          0.65 sec
//   704        17.98%    21313        37       18         0          0.70 sec
//   706        17.99%    21309         4        2         0          0.75 sec
