// | ------------------------------------------------------------------------------------------------------------------ |
// |                                                                                                                    |
// |          Current split capture setting:     Off (optimal)                                                          |
// |                                                                                                                    |
// |   Current clock off simulation setting:     Off (optimal)                                                          |
// | ------------------------------------------------------------------------------------------------------------------ |
//  ------------------------------------------------------------------------
//  Simulation performed for #gates = 12864  #faults = 25984
//  Run fault simulation without storing patterns.  pattern source = 825 external patterns
//  ------------------------------------------------------------------------
//  #patterns  test      #faults  #faults    # eff.    # test         process 
//  simulated  coverage  in list  detected   patterns  patterns       CPU time
//   64         15.08%    22065      3919       64         0          0.13 sec
//   128        16.79%    21622       443       55         0          0.20 sec
//   192        17.57%    21419       203       48         0          0.26 sec
//   256        18.20%    21255       164       42         0          0.32 sec
//   320        18.49%    21180        75       30         0          0.38 sec
//   384        18.75%    21113        67       23         0          0.44 sec
//   448        19.00%    21048        65       29         0          0.49 sec
//   512        19.16%    21005        43       20         0          0.55 sec
//   576        19.35%    20957        48       20         0          0.61 sec
//   640        19.47%    20926        31       15         0          0.66 sec
//   704        19.60%    20892        34       16         0          0.72 sec
//   768        19.74%    20854        38       15         0          0.78 sec
//   825        19.82%    20835        19       12         0          0.83 sec
