// | ------------------------------------------------------------------------------------------------------------------ |
// |                                                                                                                    |
// |          Current split capture setting:     Off (optimal)                                                          |
// |                                                                                                                    |
// |   Current clock off simulation setting:     Off (optimal)                                                          |
// | ------------------------------------------------------------------------------------------------------------------ |
//  ------------------------------------------------------------------------
//  Simulation performed for #gates = 12864  #faults = 25984
//  Run fault simulation without storing patterns.  pattern source = 706 external patterns
//  ------------------------------------------------------------------------
//  #patterns  test      #faults  #faults    # eff.    # test         process 
//  simulated  coverage  in list  detected   patterns  patterns       CPU time
//   64         15.53%    21948      4036       64         0          0.13 sec
//   128        17.36%    21472       476       60         0          0.20 sec
//   192        18.08%    21287       185       51         0          0.26 sec
//   256        18.56%    21162       125       42         0          0.32 sec
//   320        18.83%    21092        70       28         0          0.38 sec
//   384        19.13%    21013        79       33         0          0.44 sec
//   448        19.39%    20947        66       27         0          0.49 sec
//   512        19.62%    20886        61       30         0          0.55 sec
//   576        19.85%    20825        61       23         0          0.61 sec
//   640        19.92%    20809        16       12         0          0.66 sec
//   704        20.07%    20770        39       17         0          0.72 sec
//   706        20.08%    20766         4        1         0          0.77 sec
