// | ------------------------------------------------------------------------------------------------------------------ |
// |                                                                                                                    |
// |          Current split capture setting:     Off (optimal)                                                          |
// |                                                                                                                    |
// |   Current clock off simulation setting:     Off (optimal)                                                          |
// | ------------------------------------------------------------------------------------------------------------------ |
//  ------------------------------------------------------------------------
//  Simulation performed for #gates = 12864  #faults = 25984
//  Run fault simulation without storing patterns.  pattern source = 931 external patterns
//  ------------------------------------------------------------------------
//  #patterns  test      #faults  #faults    # eff.    # test         process 
//  simulated  coverage  in list  detected   patterns  patterns       CPU time
//   64         14.08%    22326      3658       63         0          0.12 sec
//   128        15.76%    21888       438       57         0          0.19 sec
//   192        16.60%    21670       218       47         0          0.25 sec
//   256        17.08%    21546       124       39         0          0.31 sec
//   320        17.41%    21459        87       35         0          0.37 sec
//   384        17.68%    21390        69       24         0          0.43 sec
//   448        17.87%    21340        50       20         0          0.48 sec
//   512        18.05%    21295        45       24         0          0.54 sec
//   576        18.19%    21257        38       15         0          0.60 sec
//   640        18.28%    21234        23       13         0          0.65 sec
//   704        18.38%    21207        27       15         0          0.71 sec
//   768        18.42%    21199         8        5         0          0.77 sec
//   832        18.51%    21175        24       10         0          0.82 sec
//   896        18.64%    21141        34       11         0          0.88 sec
//   931        18.67%    21132         9        5         0          0.93 sec
