// | ------------------------------------------------------------------------------------------------------------------ |
// |                                                                                                                    |
// |          Current split capture setting:     Off (optimal)                                                          |
// |                                                                                                                    |
// |   Current clock off simulation setting:     Off (optimal)                                                          |
// | ------------------------------------------------------------------------------------------------------------------ |
//  ------------------------------------------------------------------------
//  Simulation performed for #gates = 12864  #faults = 25984
//  Run fault simulation without storing patterns.  pattern source = 607 external patterns
//  ------------------------------------------------------------------------
//  #patterns  test      #faults  #faults    # eff.    # test         process 
//  simulated  coverage  in list  detected   patterns  patterns       CPU time
//   64         14.78%    22143      3841       64         0          0.12 sec
//   128        16.73%    21636       507       58         0          0.19 sec
//   192        17.45%    21451       185       50         0          0.25 sec
//   256        17.89%    21335       116       43         0          0.30 sec
//   320        18.22%    21249        86       31         0          0.36 sec
//   384        18.49%    21180        69       28         0          0.42 sec
//   448        18.74%    21115        65       33         0          0.48 sec
//   512        18.93%    21065        50       30         0          0.53 sec
//   576        19.07%    21030        35       22         0          0.59 sec
//   607        19.15%    21009        21       10         0          0.64 sec
