// | ------------------------------------------------------------------------------------------------------------------ |
// |                                                                                                                    |
// |          Current split capture setting:     Off (optimal)                                                          |
// |                                                                                                                    |
// |   Current clock off simulation setting:     Off (optimal)                                                          |
// | ------------------------------------------------------------------------------------------------------------------ |
//  ------------------------------------------------------------------------
//  Simulation performed for #gates = 12864  #faults = 25984
//  Run fault simulation without storing patterns.  pattern source = 658 external patterns
//  ------------------------------------------------------------------------
//  #patterns  test      #faults  #faults    # eff.    # test         process 
//  simulated  coverage  in list  detected   patterns  patterns       CPU time
//   64         15.19%    22037      3947       64         0          0.13 sec
//   128        17.09%    21543       494       60         0          0.20 sec
//   192        17.85%    21345       198       46         0          0.26 sec
//   256        18.33%    21220       125       42         0          0.32 sec
//   320        18.83%    21092       128       39         0          0.38 sec
//   384        19.12%    21016        76       29         0          0.44 sec
//   448        19.49%    20921        95       26         0          0.49 sec
//   512        19.63%    20883        38       22         0          0.55 sec
//   576        19.81%    20836        47       22         0          0.61 sec
//   640        19.90%    20812        24       17         0          0.66 sec
//   658        19.95%    20799        13        6         0          0.71 sec
