// | ------------------------------------------------------------------------------------------------------------------ |
// |                                                                                                                    |
// |          Current split capture setting:     Off (optimal)                                                          |
// |                                                                                                                    |
// |   Current clock off simulation setting:     Off (optimal)                                                          |
// | ------------------------------------------------------------------------------------------------------------------ |
//  ------------------------------------------------------------------------
//  Simulation performed for #gates = 12864  #faults = 25984
//  Run fault simulation without storing patterns.  pattern source = 895 external patterns
//  ------------------------------------------------------------------------
//  #patterns  test      #faults  #faults    # eff.    # test         process 
//  simulated  coverage  in list  detected   patterns  patterns       CPU time
//   64         14.07%    22327      3657       64         0          0.12 sec
//   128        15.45%    21969       358       58         0          0.19 sec
//   192        16.24%    21764       205       44         0          0.26 sec
//   256        16.79%    21622       142       44         0          0.32 sec
//   320        17.13%    21534        88       39         0          0.38 sec
//   384        17.42%    21457        77       33         0          0.44 sec
//   448        17.66%    21395        62       27         0          0.50 sec
//   512        17.82%    21354        41       22         0          0.56 sec
//   576        17.95%    21321        33       16         0          0.61 sec
//   640        18.10%    21280        41       23         0          0.67 sec
//   704        18.31%    21227        53       22         0          0.73 sec
//   768        18.39%    21206        21       10         0          0.78 sec
//   832        18.47%    21185        21       14         0          0.84 sec
//   895        18.56%    21162        23        9         0          0.90 sec
