// | ------------------------------------------------------------------------------------------------------------------ |
// |                                                                                                                    |
// |          Current split capture setting:     Off (optimal)                                                          |
// |                                                                                                                    |
// |   Current clock off simulation setting:     Off (optimal)                                                          |
// | ------------------------------------------------------------------------------------------------------------------ |
//  ------------------------------------------------------------------------
//  Simulation performed for #gates = 12864  #faults = 25984
//  Run fault simulation without storing patterns.  pattern source = 876 external patterns
//  ------------------------------------------------------------------------
//  #patterns  test      #faults  #faults    # eff.    # test         process 
//  simulated  coverage  in list  detected   patterns  patterns       CPU time
//   64         14.06%    22330      3654       64         0          0.12 sec
//   128        15.58%    21935       395       51         0          0.18 sec
//   192        16.35%    21735       200       49         0          0.25 sec
//   256        17.06%    21552       183       43         0          0.31 sec
//   320        17.38%    21468        84       32         0          0.37 sec
//   384        17.64%    21401        67       24         0          0.42 sec
//   448        17.92%    21328        73       29         0          0.48 sec
//   512        18.17%    21262        66       28         0          0.54 sec
//   576        18.40%    21204        58       25         0          0.59 sec
//   640        18.63%    21144        60       23         0          0.65 sec
//   704        18.80%    21099        45       22         0          0.70 sec
//   768        18.91%    21071        28       15         0          0.76 sec
//   832        19.02%    21043        28       13         0          0.81 sec
//   876        19.04%    21037         6        4         0          0.86 sec
