// | ------------------------------------------------------------------------------------------------------------------ |
// |                                                                                                                    |
// |          Current split capture setting:     Off (optimal)                                                          |
// |                                                                                                                    |
// |   Current clock off simulation setting:     Off (optimal)                                                          |
// | ------------------------------------------------------------------------------------------------------------------ |
//  ------------------------------------------------------------------------
//  Simulation performed for #gates = 12864  #faults = 25984
//  Run fault simulation without storing patterns.  pattern source = 567 external patterns
//  ------------------------------------------------------------------------
//  #patterns  test      #faults  #faults    # eff.    # test         process 
//  simulated  coverage  in list  detected   patterns  patterns       CPU time
//   64         13.32%    22522      3462       62         0          0.11 sec
//   128        14.65%    22178       344       54         0          0.18 sec
//   192        15.44%    21972       206       48         0          0.24 sec
//   256        15.98%    21832       140       38         0          0.30 sec
//   320        16.44%    21711       121       39         0          0.36 sec
//   384        16.68%    21651        60       26         0          0.42 sec
//   448        16.96%    21578        73       26         0          0.47 sec
//   512        17.20%    21515        63       25         0          0.53 sec
//   567        17.41%    21461        54       23         0          0.58 sec
