// | ------------------------------------------------------------------------------------------------------------------ |
// |                                                                                                                    |
// |          Current split capture setting:     Off (optimal)                                                          |
// |                                                                                                                    |
// |   Current clock off simulation setting:     Off (optimal)                                                          |
// | ------------------------------------------------------------------------------------------------------------------ |
//  ------------------------------------------------------------------------
//  Simulation performed for #gates = 12864  #faults = 25984
//  Run fault simulation without storing patterns.  pattern source = 614 external patterns
//  ------------------------------------------------------------------------
//  #patterns  test      #faults  #faults    # eff.    # test         process 
//  simulated  coverage  in list  detected   patterns  patterns       CPU time
//   64         13.59%    22452      3532       63         0          0.11 sec
//   128        15.08%    22065       387       59         0          0.18 sec
//   192        15.84%    21867       198       50         0          0.24 sec
//   256        16.31%    21746       121       37         0          0.30 sec
//   320        16.77%    21626       120       42         0          0.35 sec
//   384        17.17%    21522       104       32         0          0.41 sec
//   448        17.47%    21444        78       29         0          0.47 sec
//   512        17.66%    21395        49       30         0          0.52 sec
//   576        17.81%    21356        39       19         0          0.58 sec
//   614        17.86%    21342        14        5         0          0.63 sec
