// | ------------------------------------------------------------------------------------------------------------------ |
// |                                                                                                                    |
// |          Current split capture setting:     Off (optimal)                                                          |
// |                                                                                                                    |
// |   Current clock off simulation setting:     Off (optimal)                                                          |
// | ------------------------------------------------------------------------------------------------------------------ |
//  ------------------------------------------------------------------------
//  Simulation performed for #gates = 12864  #faults = 25984
//  Run fault simulation without storing patterns.  pattern source = 892 external patterns
//  ------------------------------------------------------------------------
//  #patterns  test      #faults  #faults    # eff.    # test         process 
//  simulated  coverage  in list  detected   patterns  patterns       CPU time
//   64         16.61%    21668      4316       64         0          0.15 sec
//   128        18.59%    21154       514       63         0          0.21 sec
//   192        19.37%    20950       204       50         0          0.28 sec
//   256        19.83%    20832       118       41         0          0.34 sec
//   320        20.14%    20750        82       33         0          0.40 sec
//   384        20.41%    20680        70       29         0          0.46 sec
//   448        20.73%    20598        82       30         0          0.52 sec
//   512        20.89%    20555        43       22         0          0.58 sec
//   576        21.01%    20525        30       21         0          0.64 sec
//   640        21.11%    20500        25       13         0          0.69 sec
//   704        21.19%    20479        21       11         0          0.75 sec
//   768        21.28%    20454        25       15         0          0.81 sec
//   832        21.36%    20434        20        9         0          0.87 sec
//   892        21.42%    20419        15        9         0          0.92 sec
