// | ------------------------------------------------------------------------------------------------------------------ |
// |                                                                                                                    |
// |          Current split capture setting:     Off (optimal)                                                          |
// |                                                                                                                    |
// |   Current clock off simulation setting:     Off (optimal)                                                          |
// | ------------------------------------------------------------------------------------------------------------------ |
//  ------------------------------------------------------------------------
//  Simulation performed for #gates = 12864  #faults = 25984
//  Run fault simulation without storing patterns.  pattern source = 804 external patterns
//  ------------------------------------------------------------------------
//  #patterns  test      #faults  #faults    # eff.    # test         process 
//  simulated  coverage  in list  detected   patterns  patterns       CPU time
//   64         16.11%    21798      4186       63         0          0.13 sec
//   128        17.66%    21396       402       59         0          0.19 sec
//   192        18.60%    21152       244       53         0          0.25 sec
//   256        19.20%    20995       157       46         0          0.31 sec
//   320        19.52%    20912        83       33         0          0.37 sec
//   384        19.82%    20833        79       32         0          0.42 sec
//   448        19.94%    20804        29       18         0          0.48 sec
//   512        20.15%    20748        56       30         0          0.53 sec
//   576        20.30%    20709        39       19         0          0.59 sec
//   640        20.39%    20686        23       16         0          0.64 sec
//   704        20.53%    20650        36       19         0          0.69 sec
//   768        20.58%    20636        14        9         0          0.75 sec
//   804        20.61%    20628         8        4         0          0.80 sec
