// | ------------------------------------------------------------------------------------------------------------------ |
// |                                                                                                                    |
// |          Current split capture setting:     Off (optimal)                                                          |
// |                                                                                                                    |
// |   Current clock off simulation setting:     Off (optimal)                                                          |
// | ------------------------------------------------------------------------------------------------------------------ |
//  ------------------------------------------------------------------------
//  Simulation performed for #gates = 12864  #faults = 25984
//  Run fault simulation without storing patterns.  pattern source = 684 external patterns
//  ------------------------------------------------------------------------
//  #patterns  test      #faults  #faults    # eff.    # test         process 
//  simulated  coverage  in list  detected   patterns  patterns       CPU time
//   64         14.87%    22119      3865       64         0          0.14 sec
//   128        16.56%    21682       437       62         0          0.21 sec
//   192        17.56%    21421       261       51         0          0.27 sec
//   256        18.17%    21264       157       39         0          0.33 sec
//   320        18.62%    21147       117       41         0          0.39 sec
//   384        18.96%    21058        89       34         0          0.45 sec
//   448        19.25%    20981        77       29         0          0.51 sec
//   512        19.49%    20919        62       26         0          0.57 sec
//   576        19.63%    20883        36       21         0          0.63 sec
//   640        19.78%    20844        39       21         0          0.69 sec
//   684        19.90%    20814        30       15         0          0.74 sec
