// | ------------------------------------------------------------------------------------------------------------------ |
// |                                                                                                                    |
// |          Current split capture setting:     Off (optimal)                                                          |
// |                                                                                                                    |
// |   Current clock off simulation setting:     Off (optimal)                                                          |
// | ------------------------------------------------------------------------------------------------------------------ |
//  ------------------------------------------------------------------------
//  Simulation performed for #gates = 12864  #faults = 25984
//  Run fault simulation without storing patterns.  pattern source = 1007 external patterns
//  ------------------------------------------------------------------------
//  #patterns  test      #faults  #faults    # eff.    # test         process 
//  simulated  coverage  in list  detected   patterns  patterns       CPU time
//   64         13.88%    22378      3606       63         0          0.12 sec
//   128        15.71%    21902       476       57         0          0.19 sec
//   192        16.44%    21713       189       41         0          0.25 sec
//   256        17.02%    21562       151       43         0          0.31 sec
//   320        17.36%    21474        88       36         0          0.37 sec
//   384        17.66%    21396        78       26         0          0.43 sec
//   448        17.85%    21347        49       22         0          0.49 sec
//   512        18.06%    21291        56       19         0          0.55 sec
//   576        18.19%    21257        34       19         0          0.60 sec
//   640        18.45%    21189        68       31         0          0.66 sec
//   704        18.66%    21135        54       25         0          0.72 sec
//   768        18.78%    21104        31       15         0          0.77 sec
//   832        18.92%    21068        36       16         0          0.83 sec
//   896        18.97%    21055        13       11         0          0.88 sec
//   960        19.04%    21036        19       11         0          0.94 sec
//   1007       19.10%    21022        14        6         0          0.99 sec
