// | ------------------------------------------------------------------------------------------------------------------ |
// |                                                                                                                    |
// |          Current split capture setting:     Off (optimal)                                                          |
// |                                                                                                                    |
// |   Current clock off simulation setting:     Off (optimal)                                                          |
// | ------------------------------------------------------------------------------------------------------------------ |
//  ------------------------------------------------------------------------
//  Simulation performed for #gates = 12864  #faults = 25984
//  Run fault simulation without storing patterns.  pattern source = 907 external patterns
//  ------------------------------------------------------------------------
//  #patterns  test      #faults  #faults    # eff.    # test         process 
//  simulated  coverage  in list  detected   patterns  patterns       CPU time
//   64         12.75%    22671      3313       63         0          0.12 sec
//   128        14.54%    22206       465       57         0          0.19 sec
//   192        15.35%    21995       211       49         0          0.25 sec
//   256        16.09%    21803       192       39         0          0.31 sec
//   320        16.53%    21690       113       35         0          0.37 sec
//   384        16.79%    21620        70       27         0          0.43 sec
//   448        16.97%    21575        45       21         0          0.49 sec
//   512        17.23%    21507        68       23         0          0.55 sec
//   576        17.33%    21481        26       11         0          0.61 sec
//   640        17.55%    21425        56       14         0          0.67 sec
//   704        17.76%    21370        55       22         0          0.72 sec
//   768        18.01%    21305        65       24         0          0.78 sec
//   832        18.13%    21274        31       17         0          0.83 sec
//   896        18.19%    21257        17       10         0          0.89 sec
//   907        18.20%    21255         2        1         0          0.94 sec
