// | ------------------------------------------------------------------------------------------------------------------ |
// |                                                                                                                    |
// |          Current split capture setting:     Off (optimal)                                                          |
// |                                                                                                                    |
// |   Current clock off simulation setting:     Off (optimal)                                                          |
// | ------------------------------------------------------------------------------------------------------------------ |
//  ------------------------------------------------------------------------
//  Simulation performed for #gates = 12864  #faults = 25984
//  Run fault simulation without storing patterns.  pattern source = 1517 external patterns
//  ------------------------------------------------------------------------
//  #patterns  test      #faults  #faults    # eff.    # test         process 
//  simulated  coverage  in list  detected   patterns  patterns       CPU time
//   64         15.11%    22058      3926       64         0          0.13 sec
//   128        17.04%    21557       501       58         0          0.19 sec
//   192        18.08%    21285       272       56         0          0.25 sec
//   256        18.67%    21133       152       40         0          0.31 sec
//   320        19.11%    21019       114       39         0          0.37 sec
//   384        19.35%    20955        64       31         0          0.42 sec
//   448        19.54%    20907        48       24         0          0.48 sec
//   512        19.79%    20843        64       20         0          0.54 sec
//   576        19.94%    20803        40       19         0          0.59 sec
//   640        20.09%    20763        40       15         0          0.65 sec
//   704        20.19%    20739        24       12         0          0.70 sec
//   768        20.31%    20707        32       15         0          0.75 sec
//   832        20.44%    20673        34       17         0          0.81 sec
//   896        20.49%    20659        14        9         0          0.86 sec
//   960        20.60%    20632        27       19         0          0.91 sec
//   1024       20.67%    20614        18       13         0          0.97 sec
//   1088       20.74%    20595        19       13         0          1.02 sec
//   1152       20.81%    20577        18       11         0          1.07 sec
//   1216       20.91%    20552        25       13         0          1.13 sec
//   1280       20.95%    20541        11        8         0          1.18 sec
//   1344       20.99%    20531        10        4         0          1.24 sec
//   1408       21.01%    20524         7        4         0          1.29 sec
//   1472       21.07%    20510        14        8         0          1.34 sec
//   1517       21.09%    20505         5        3         0          1.40 sec
