// | ------------------------------------------------------------------------------------------------------------------ |
// |                                                                                                                    |
// |          Current split capture setting:     Off (optimal)                                                          |
// |                                                                                                                    |
// |   Current clock off simulation setting:     Off (optimal)                                                          |
// | ------------------------------------------------------------------------------------------------------------------ |
//  ------------------------------------------------------------------------
//  Simulation performed for #gates = 12864  #faults = 25984
//  Run fault simulation without storing patterns.  pattern source = 1456 external patterns
//  ------------------------------------------------------------------------
//  #patterns  test      #faults  #faults    # eff.    # test         process 
//  simulated  coverage  in list  detected   patterns  patterns       CPU time
//   64         14.88%    22118      3866       64         0          0.13 sec
//   128        16.69%    21648       470       62         0          0.19 sec
//   192        17.46%    21446       202       51         0          0.26 sec
//   256        17.81%    21355        91       31         0          0.32 sec
//   320        18.24%    21245       110       37         0          0.38 sec
//   384        18.53%    21170        75       26         0          0.43 sec
//   448        18.72%    21121        49       24         0          0.49 sec
//   512        18.84%    21089        32       19         0          0.55 sec
//   576        19.05%    21035        54       23         0          0.60 sec
//   640        19.25%    20983        52       22         0          0.66 sec
//   704        19.32%    20963        20       10         0          0.71 sec
//   768        19.40%    20943        20       14         0          0.77 sec
//   832        19.47%    20924        19       14         0          0.82 sec
//   896        19.54%    20906        18        6         0          0.88 sec
//   960        19.65%    20877        29       15         0          0.93 sec
//   1024       19.78%    20844        33       14         0          0.99 sec
//   1088       19.82%    20835         9        5         0          1.04 sec
//   1152       19.86%    20823        12       11         0          1.09 sec
//   1216       19.90%    20812        11        6         0          1.15 sec
//   1280       19.94%    20802        10        8         0          1.20 sec
//   1344       19.99%    20791        11        7         0          1.25 sec
//   1408       20.01%    20784         7        5         0          1.31 sec
//   1456       20.02%    20783         1        1         0          1.36 sec
