// | ------------------------------------------------------------------------------------------------------------------ |
// |                                                                                                                    |
// |          Current split capture setting:     Off (optimal)                                                          |
// |                                                                                                                    |
// |   Current clock off simulation setting:     Off (optimal)                                                          |
// | ------------------------------------------------------------------------------------------------------------------ |
//  ------------------------------------------------------------------------
//  Simulation performed for #gates = 12864  #faults = 25984
//  Run fault simulation without storing patterns.  pattern source = 1456 external patterns
//  ------------------------------------------------------------------------
//  #patterns  test      #faults  #faults    # eff.    # test         process 
//  simulated  coverage  in list  detected   patterns  patterns       CPU time
//   64         15.59%    21933      4051       64         0          0.13 sec
//   128        17.57%    21418       515       63         0          0.20 sec
//   192        18.70%    21125       293       51         0          0.26 sec
//   256        19.32%    20965       160       44         0          0.32 sec
//   320        19.68%    20871        94       39         0          0.38 sec
//   384        19.97%    20796        75       29         0          0.43 sec
//   448        20.19%    20739        57       28         0          0.49 sec
//   512        20.46%    20668        71       25         0          0.54 sec
//   576        20.57%    20638        30       19         0          0.60 sec
//   640        20.74%    20594        44       24         0          0.65 sec
//   704        20.83%    20572        22       10         0          0.70 sec
//   768        20.93%    20546        26       15         0          0.76 sec
//   832        21.03%    20520        26       16         0          0.81 sec
//   896        21.15%    20488        32       16         0          0.86 sec
//   960        21.20%    20475        13        9         0          0.92 sec
//   1024       21.28%    20454        21       14         0          0.97 sec
//   1088       21.34%    20438        16       10         0          1.02 sec
//   1152       21.43%    20416        22       12         0          1.08 sec
//   1216       21.47%    20406        10        5         0          1.13 sec
//   1280       21.52%    20391        15        8         0          1.18 sec
//   1344       21.59%    20374        17       10         0          1.23 sec
//   1408       21.61%    20370         4        4         0          1.28 sec
//   1456       21.65%    20359        11        8         0          1.34 sec
