// | ------------------------------------------------------------------------------------------------------------------ |
// |                                                                                                                    |
// |          Current split capture setting:     Off (optimal)                                                          |
// |                                                                                                                    |
// |   Current clock off simulation setting:     Off (optimal)                                                          |
// | ------------------------------------------------------------------------------------------------------------------ |
//  ------------------------------------------------------------------------
//  Simulation performed for #gates = 12864  #faults = 25984
//  Run fault simulation without storing patterns.  pattern source = 1508 external patterns
//  ------------------------------------------------------------------------
//  #patterns  test      #faults  #faults    # eff.    # test         process 
//  simulated  coverage  in list  detected   patterns  patterns       CPU time
//   64         14.13%    22312      3672       62         0          0.12 sec
//   128        15.59%    21932       380       57         0          0.18 sec
//   192        16.57%    21679       253       53         0          0.24 sec
//   256        17.06%    21551       128       38         0          0.30 sec
//   320        17.51%    21434       117       33         0          0.36 sec
//   384        17.76%    21368        66       27         0          0.42 sec
//   448        17.92%    21328        40       25         0          0.48 sec
//   512        18.12%    21276        52       25         0          0.53 sec
//   576        18.28%    21234        42       17         0          0.59 sec
//   640        18.54%    21167        67       28         0          0.64 sec
//   704        18.63%    21144        23       11         0          0.70 sec
//   768        18.71%    21123        21       11         0          0.76 sec
//   832        18.82%    21093        30       13         0          0.81 sec
//   896        18.93%    21066        27       13         0          0.87 sec
//   960        18.99%    21050        16       12         0          0.92 sec
//   1024       19.08%    21025        25        9         0          0.98 sec
//   1088       19.14%    21011        14        9         0          1.03 sec
//   1152       19.24%    20984        27       12         0          1.09 sec
//   1216       19.31%    20966        18       11         0          1.14 sec
//   1280       19.33%    20960         6        6         0          1.19 sec
//   1344       19.44%    20933        27       12         0          1.24 sec
//   1408       19.51%    20914        19       11         0          1.30 sec
//   1472       19.54%    20907         7        6         0          1.35 sec
//   1508       19.55%    20903         4        3         0          1.40 sec
