// | ------------------------------------------------------------------------------------------------------------------ |
// |                                                                                                                    |
// |          Current split capture setting:     Off (optimal)                                                          |
// |                                                                                                                    |
// |   Current clock off simulation setting:     Off (optimal)                                                          |
// | ------------------------------------------------------------------------------------------------------------------ |
//  ------------------------------------------------------------------------
//  Simulation performed for #gates = 760  #faults = 1686
//  Run fault simulation without storing patterns.  pattern source = 202 external patterns
//  ------------------------------------------------------------------------
//  #patterns  test      #faults  #faults    # eff.    # test         process 
//  simulated  coverage  in list  detected   patterns  patterns       CPU time
//   64         46.32%      905       781       56         0          0.01 sec
//   128        62.40%      634       271       51         0          0.01 sec
//   192        67.97%      540        94       29         0          0.01 sec
//   202        68.80%      526        14        6         0          0.01 sec
