// | ------------------------------------------------------------------------------------------------------------------ |
// |                                                                                                                    |
// |          Current split capture setting:     Off (optimal)                                                          |
// |                                                                                                                    |
// |   Current clock off simulation setting:     Off (optimal)                                                          |
// | ------------------------------------------------------------------------------------------------------------------ |
//  ------------------------------------------------------------------------
//  Simulation performed for #gates = 760  #faults = 1705
//  Run fault simulation without storing patterns.  pattern source = 200 external patterns
//  ------------------------------------------------------------------------
//  #patterns  test      #faults  #faults    # eff.    # test         process 
//  simulated  coverage  in list  detected   patterns  patterns       CPU time
//   64         41.23%     1002       703       56         0          0.01 sec
//   128        54.37%      778       224       43         0          0.01 sec
//   192        62.40%      641       137       42         0          0.01 sec
//   200        62.76%      635         6        2         0          0.01 sec
