// | ------------------------------------------------------------------------------------------------------------------ |
// |                                                                                                                    |
// |          Current split capture setting:     Off (optimal)                                                          |
// |                                                                                                                    |
// |   Current clock off simulation setting:     Off (optimal)                                                          |
// | ------------------------------------------------------------------------------------------------------------------ |
//  ------------------------------------------------------------------------
//  Simulation performed for #gates = 760  #faults = 1702
//  Run fault simulation without storing patterns.  pattern source = 205 external patterns
//  ------------------------------------------------------------------------
//  #patterns  test      #faults  #faults    # eff.    # test         process 
//  simulated  coverage  in list  detected   patterns  patterns       CPU time
//   64         41.66%      993       709       52         0          0.01 sec
//   128        54.41%      776       217       34         0          0.01 sec
//   192        60.58%      671       105       33         0          0.01 sec
//   205        62.04%      646        25        6         0          0.01 sec
