          Statistics Report          
           Stuck-at Faults           
-------------------------------------
Fault Classes              #faults   
                           (coll.)   
---------------------  --------------
  FU (full)                 4754     
  -------------------  --------------
  DS (det_simulation)   2965 (62.37%)
  TI (tied)              192 ( 4.04%)
  BL (blocked)           402 ( 8.46%)
  RE (redundant)        1195 (25.14%)
-------------------------------------
Coverage                             
  -------------------                
  test_coverage              100.00% 
  fault_coverage              62.37% 
  atpg_effectiveness         100.00% 
-------------------------------------
#test_patterns                   102 
#simulated_patterns              122 
CPU_time (secs)                  2.5 
-------------------------------------

