// | ------------------------------------------------------------------------------------------------------------------ |
// |                                                                                                                    |
// |          Current split capture setting:     Off (optimal)                                                          |
// |                                                                                                                    |
// |   Current clock off simulation setting:     Off (optimal)                                                          |
// | ------------------------------------------------------------------------------------------------------------------ |
//  ------------------------------------------------------------------------
//  Simulation performed for #gates = 760  #faults = 1703
//  Run fault simulation without storing patterns.  pattern source = 218 external patterns
//  ------------------------------------------------------------------------
//  #patterns  test      #faults  #faults    # eff.    # test         process 
//  simulated  coverage  in list  detected   patterns  patterns       CPU time
//   64         24.49%     1286       417       35         0          0.01 sec
//   128        29.95%     1193        93       16         0          0.01 sec
//   192        32.77%     1145        48        9         0          0.01 sec
//   218        33.76%     1128        17        4         0          0.01 sec
