// | ------------------------------------------------------------------------------------------------------------------ |
// |                                                                                                                    |
// |          Current split capture setting:     Off (optimal)                                                          |
// |                                                                                                                    |
// |   Current clock off simulation setting:     Off (optimal)                                                          |
// | ------------------------------------------------------------------------------------------------------------------ |
//  ------------------------------------------------------------------------
//  Simulation performed for #gates = 1698  #faults = 3545
//  Run fault simulation without storing patterns.  pattern source = 133 external patterns
//  ------------------------------------------------------------------------
//  #patterns  test      #faults  #faults    # eff.    # test         process 
//  simulated  coverage  in list  detected   patterns  patterns       CPU time
//   64         48.46%     1827      1718       46         0          0.01 sec
//   128        53.46%     1650       177       26         0          0.01 sec
//   133        53.71%     1641         9        3         0          0.02 sec
