// | ------------------------------------------------------------------------------------------------------------------ |
// |                                                                                                                    |
// |          Current split capture setting:     Off (optimal)                                                          |
// |                                                                                                                    |
// |   Current clock off simulation setting:     Off (optimal)                                                          |
// | ------------------------------------------------------------------------------------------------------------------ |
//  ------------------------------------------------------------------------
//  Simulation performed for #gates = 1698  #faults = 3554
//  Run fault simulation without storing patterns.  pattern source = 132 external patterns
//  ------------------------------------------------------------------------
//  #patterns  test      #faults  #faults    # eff.    # test         process 
//  simulated  coverage  in list  detected   patterns  patterns       CPU time
//   64         79.60%      725      2829       62         0          0.01 sec
//   128        84.72%      543       182       50         0          0.01 sec
//   132        85.03%      532        11        4         0          0.01 sec
