          Statistics Report          
           Stuck-at Faults           
-------------------------------------
Fault Classes              #faults   
                           (coll.)   
---------------------  --------------
  FU (full)                 33032    
  -------------------  --------------
  DS (det_simulation)  28835 (87.29%)
  UU (unused)             18 ( 0.05%)
  TI (tied)              247 ( 0.75%)
  BL (blocked)           106 ( 0.32%)
  RE (redundant)        3826 (11.58%)
-------------------------------------
Coverage                             
  -------------------                
  test_coverage              100.00% 
  fault_coverage              87.29% 
  atpg_effectiveness         100.00% 
-------------------------------------
#test_patterns                   159 
#simulated_patterns              159 
CPU_time (secs)                  4.3 
-------------------------------------

