          Statistics Report          
           Stuck-at Faults           
-------------------------------------
Fault Classes              #faults   
                           (coll.)   
---------------------  --------------
  FU (full)                 1706     
  -------------------  --------------
  DS (det_simulation)   1227 (71.92%)
  TI (tied)                6 ( 0.35%)
  BL (blocked)             3 ( 0.18%)
  RE (redundant)         470 (27.55%)
-------------------------------------
Coverage                             
  -------------------                
  test_coverage              100.00% 
  fault_coverage              71.92% 
  atpg_effectiveness         100.00% 
-------------------------------------
#test_patterns                   194 
#simulated_patterns              203 
CPU_time (secs)                  1.5 
-------------------------------------

