          Statistics Report          
           Stuck-at Faults           
-------------------------------------
Fault Classes              #faults   
                           (coll.)   
---------------------  --------------
  FU (full)                 1706     
  -------------------  --------------
  DS (det_simulation)   1179 (69.11%)
  TI (tied)               10 ( 0.59%)
  BL (blocked)             4 ( 0.23%)
  RE (redundant)         513 (30.07%)
-------------------------------------
Coverage                             
  -------------------                
  test_coverage              100.00% 
  fault_coverage              69.11% 
  atpg_effectiveness         100.00% 
-------------------------------------
#test_patterns                   171 
#simulated_patterns              188 
CPU_time (secs)                  1.5 
-------------------------------------

