          Statistics Report          
           Stuck-at Faults           
-------------------------------------
Fault Classes              #faults   
                           (coll.)   
---------------------  --------------
  FU (full)                 1706     
  -------------------  --------------
  DS (det_simulation)   1205 (70.63%)
  TI (tied)                8 ( 0.47%)
  BL (blocked)             1 ( 0.06%)
  RE (redundant)         492 (28.84%)
-------------------------------------
Coverage                             
  -------------------                
  test_coverage              100.00% 
  fault_coverage              70.63% 
  atpg_effectiveness         100.00% 
-------------------------------------
#test_patterns                   191 
#simulated_patterns              204 
CPU_time (secs)                  1.6 
-------------------------------------

