          Statistics Report          
           Stuck-at Faults           
-------------------------------------
Fault Classes              #faults   
                           (coll.)   
---------------------  --------------
  FU (full)                 2586     
  -------------------  --------------
  DS (det_simulation)   2289 (88.52%)
  TI (tied)               28 ( 1.08%)
  BL (blocked)             8 ( 0.31%)
  RE (redundant)         261 (10.09%)
-------------------------------------
Coverage                             
  -------------------                
  test_coverage              100.00% 
  fault_coverage              88.52% 
  atpg_effectiveness         100.00% 
-------------------------------------
#test_patterns                   172 
#simulated_patterns              185 
CPU_time (secs)                  2.1 
-------------------------------------

