cktName,percentChange,FU,TE,UT,DS,DI,PT,PU,AU,UC,UO,UU,TI,BL,RE,test_cov,fault_cov,atpg_eff
c3540_synth_tenPercent_0,tenPercent,2586,1772,814,1772,0,0,0,0,0,0,0,100,186,528,100.00,68.52,100.00
c3540_synth_tenPercent_1,tenPercent,2586,1824,762,1824,0,0,0,0,0,0,0,125,91,546,100.00,70.53,100.00
c3540_synth_tenPercent_2,tenPercent,2586,2015,571,2015,0,0,0,0,0,0,0,39,14,518,100.00,77.92,100.00
c3540_synth_tenPercent_3,tenPercent,2586,2184,402,2184,0,0,0,0,0,0,0,24,73,305,100.00,84.45,100.00
c3540_synth_tenPercent_4,tenPercent,2586,2010,576,2010,0,0,0,0,0,0,0,55,37,484,100.00,77.73,100.00
c3540_synth_tenPercent_5,tenPercent,2586,2084,502,2084,0,0,0,0,0,0,0,55,36,411,100.00,80.59,100.00
c3540_synth_tenPercent_6,tenPercent,2586,1727,859,1727,0,0,0,0,0,0,0,74,40,745,100.00,66.78,100.00
c3540_synth_tenPercent_7,tenPercent,2586,2094,492,2094,0,0,0,0,0,0,0,51,25,416,100.00,80.97,100.00
c3540_synth_tenPercent_8,tenPercent,2586,2136,450,2136,0,0,0,0,0,0,0,49,23,378,100.00,82.60,100.00
c3540_synth_tenPercent_9,tenPercent,2586,2223,363,2223,0,0,0,0,0,0,0,43,60,260,100.00,85.96,100.00
c3540_synth_tenPercent_10,tenPercent,2586,2338,248,2338,0,0,0,0,0,0,0,30,21,197,100.00,90.41,100.00
c3540_synth_tenPercent_11,tenPercent,2586,2000,586,2000,0,0,0,0,0,0,0,61,65,460,100.00,77.34,100.00
c3540_synth_tenPercent_12,tenPercent,2586,2289,297,2289,0,0,0,0,0,0,0,28,8,261,100.00,88.52,100.00
c3540_synth_tenPercent_13,tenPercent,2586,2190,396,2190,0,0,0,0,0,0,0,64,75,257,100.00,84.69,100.00
c3540_synth_tenPercent_14,tenPercent,2586,2112,474,2112,0,0,0,0,0,0,0,23,29,422,100.00,81.67,100.00
c3540_synth_tenPercent_15,tenPercent,2586,1960,626,1960,0,0,0,0,0,0,0,23,1,602,100.00,75.79,100.00
c3540_synth_tenPercent_16,tenPercent,2586,2164,422,2164,0,0,0,0,0,0,0,28,0,394,100.00,83.68,100.00
c3540_synth_tenPercent_17,tenPercent,2586,2097,489,2097,0,0,0,0,0,0,0,26,67,396,100.00,81.09,100.00
c3540_synth_tenPercent_18,tenPercent,2586,1825,761,1825,0,0,0,0,0,0,0,49,26,686,100.00,70.57,100.00
c3540_synth_tenPercent_19,tenPercent,2586,2177,409,2177,0,0,0,0,0,0,0,61,46,302,100.00,84.18,100.00
c3540_synth_tenPercent_20,tenPercent,2586,2007,579,2007,0,0,0,0,0,0,0,100,47,432,100.00,77.61,100.00
c3540_synth_tenPercent_21,tenPercent,2586,2029,557,2029,0,0,0,0,0,0,0,56,38,463,100.00,78.46,100.00
c3540_synth_tenPercent_22,tenPercent,2586,2102,484,2102,0,0,0,0,0,0,0,49,41,394,100.00,81.28,100.00
c3540_synth_tenPercent_23,tenPercent,2586,2242,344,2242,0,0,0,0,0,0,0,48,39,257,100.00,86.70,100.00
c3540_synth_tenPercent_24,tenPercent,2586,2100,486,2100,0,0,0,0,0,0,0,75,44,367,100.00,81.21,100.00
c3540_synth_tenPercent_25,tenPercent,2586,2040,546,2040,0,0,0,0,0,0,0,55,21,470,100.00,78.89,100.00
c3540_synth_tenPercent_26,tenPercent,2586,2062,524,2062,0,0,0,0,0,0,0,40,28,456,100.00,79.74,100.00
c3540_synth_tenPercent_27,tenPercent,2586,2142,444,2142,0,0,0,0,0,0,0,56,17,371,100.00,82.83,100.00
c3540_synth_tenPercent_28,tenPercent,2586,1899,687,1899,0,0,0,0,0,0,0,87,106,494,100.00,73.43,100.00
c3540_synth_tenPercent_29,tenPercent,2586,1987,599,1987,0,0,0,0,0,0,0,83,110,406,100.00,76.84,100.00
c3540_synth_tenPercent_30,tenPercent,2586,2118,468,2118,0,0,0,0,0,0,0,42,23,403,100.00,81.90,100.00
c3540_synth_tenPercent_31,tenPercent,2586,1772,814,1771,0,0,0,1,0,0,0,57,62,695,99.94,68.48,100.00
c3540_synth_tenPercent_32,tenPercent,2586,2162,424,2162,0,0,0,0,0,0,0,33,13,378,100.00,83.60,100.00
c3540_synth_tenPercent_33,tenPercent,2586,2113,473,2113,0,0,0,0,0,0,0,9,0,464,100.00,81.71,100.00
c3540_synth_tenPercent_34,tenPercent,2586,1910,676,1910,0,0,0,0,0,0,0,39,2,635,100.00,73.86,100.00
c3540_synth_tenPercent_35,tenPercent,2586,2211,375,2211,0,0,0,0,0,0,0,53,20,302,100.00,85.50,100.00
c3540_synth_tenPercent_36,tenPercent,2586,2129,457,2128,0,0,0,0,0,1,0,56,27,374,99.95,82.29,99.96
c3540_synth_tenPercent_37,tenPercent,2586,2001,585,2001,0,0,0,0,0,0,0,61,141,383,100.00,77.38,100.00
c3540_synth_tenPercent_38,tenPercent,2586,2048,538,2048,0,0,0,0,0,0,0,47,38,453,100.00,79.20,100.00
c3540_synth_tenPercent_39,tenPercent,2586,2041,545,2041,0,0,0,0,0,0,0,100,96,349,100.00,78.92,100.00
c3540_synth_thirtyPercent_0,thirtyPercent,2586,1504,1082,1502,0,0,0,1,0,1,0,65,85,932,99.87,58.08,99.96
c3540_synth_thirtyPercent_1,thirtyPercent,2586,1577,1009,1577,0,0,0,0,0,0,0,152,335,522,100.00,60.98,100.00
c3540_synth_thirtyPercent_2,thirtyPercent,2586,1329,1257,1329,0,0,0,0,0,0,0,165,476,616,100.00,51.39,100.00
c3540_synth_thirtyPercent_3,thirtyPercent,2586,1483,1103,1483,0,0,0,0,0,0,0,129,241,733,100.00,57.35,100.00
c3540_synth_thirtyPercent_4,thirtyPercent,2586,1167,1419,1167,0,0,0,0,0,0,0,145,248,1026,100.00,45.13,100.00
c3540_synth_thirtyPercent_5,thirtyPercent,2586,1724,862,1723,0,0,0,0,0,1,0,90,196,576,99.94,66.63,99.96
c3540_synth_thirtyPercent_6,thirtyPercent,2586,1629,957,1629,0,0,0,0,0,0,0,64,57,836,100.00,62.99,100.00
c3540_synth_thirtyPercent_7,thirtyPercent,2586,1597,989,1597,0,0,0,0,0,0,0,112,177,700,100.00,61.76,100.00
c3540_synth_thirtyPercent_8,thirtyPercent,2586,1700,886,1700,0,0,0,0,0,0,0,37,29,820,100.00,65.74,100.00
c3540_synth_thirtyPercent_9,thirtyPercent,2586,1363,1223,1363,0,0,0,0,0,0,0,80,334,809,100.00,52.71,100.00
c3540_synth_thirtyPercent_10,thirtyPercent,2586,1538,1048,1538,0,0,0,0,0,0,0,110,219,719,100.00,59.47,100.00
c3540_synth_thirtyPercent_11,thirtyPercent,2586,1422,1164,1422,0,0,0,0,0,0,0,49,85,1030,100.00,54.99,100.00
c3540_synth_thirtyPercent_12,thirtyPercent,2586,1753,833,1753,0,0,0,0,0,0,0,118,118,597,100.00,67.79,100.00
c3540_synth_thirtyPercent_13,thirtyPercent,2586,1468,1118,1467,0,0,0,0,0,1,0,96,90,932,99.93,56.73,99.96
c3540_synth_thirtyPercent_14,thirtyPercent,2586,1634,952,1634,0,0,0,0,0,0,0,116,177,659,100.00,63.19,100.00
c3540_synth_thirtyPercent_15,thirtyPercent,2586,1495,1091,1495,0,0,0,0,0,0,0,89,160,842,100.00,57.81,100.00
c3540_synth_thirtyPercent_16,thirtyPercent,2586,1767,819,1767,0,0,0,0,0,0,0,69,33,717,100.00,68.33,100.00
c3540_synth_thirtyPercent_17,thirtyPercent,2586,1380,1206,1380,0,0,0,0,0,0,0,114,123,969,100.00,53.36,100.00
c3540_synth_thirtyPercent_18,thirtyPercent,2586,1782,804,1782,0,0,0,0,0,0,0,70,178,556,100.00,68.91,100.00
c3540_synth_thirtyPercent_19,thirtyPercent,2586,1495,1091,1495,0,0,0,0,0,0,0,101,182,808,100.00,57.81,100.00
c3540_synth_thirtyPercent_20,thirtyPercent,2586,1345,1241,1345,0,0,0,0,0,0,0,57,39,1145,100.00,52.01,100.00
c3540_synth_thirtyPercent_21,thirtyPercent,2586,1446,1140,1446,0,0,0,0,0,0,0,127,217,796,100.00,55.92,100.00
c3540_synth_thirtyPercent_22,thirtyPercent,2586,1371,1215,1371,0,0,0,0,0,0,0,35,119,1061,100.00,53.02,100.00
c3540_synth_thirtyPercent_23,thirtyPercent,2586,1322,1264,1322,0,0,0,0,0,0,0,136,263,865,100.00,51.12,100.00
c3540_synth_thirtyPercent_24,thirtyPercent,2586,1530,1056,1530,0,0,0,0,0,0,0,104,96,856,100.00,59.16,100.00
c3540_synth_thirtyPercent_25,thirtyPercent,2586,1246,1340,1246,0,0,0,0,0,0,0,119,275,946,100.00,48.18,100.00
c3540_synth_thirtyPercent_26,thirtyPercent,2586,1391,1195,1391,0,0,0,0,0,0,0,73,98,1024,100.00,53.79,100.00
c3540_synth_thirtyPercent_27,thirtyPercent,2586,1719,867,1719,0,0,0,0,0,0,0,123,135,609,100.00,66.47,100.00
c3540_synth_thirtyPercent_28,thirtyPercent,2586,1541,1045,1541,0,0,0,0,0,0,0,82,88,875,100.00,59.59,100.00
c3540_synth_thirtyPercent_29,thirtyPercent,2586,1743,843,1743,0,0,0,0,0,0,0,87,175,581,100.00,67.40,100.00
c3540_synth_thirtyPercent_30,thirtyPercent,2586,1501,1085,1501,0,0,0,0,0,0,0,81,46,958,100.00,58.04,100.00
c3540_synth_thirtyPercent_31,thirtyPercent,2586,1507,1079,1507,0,0,0,0,0,0,0,110,107,862,100.00,58.28,100.00
c3540_synth_thirtyPercent_32,thirtyPercent,2586,1561,1025,1561,0,0,0,0,0,0,0,16,133,876,100.00,60.36,100.00
c3540_synth_thirtyPercent_33,thirtyPercent,2586,1712,874,1712,0,0,0,0,0,0,0,113,208,553,100.00,66.20,100.00
c3540_synth_thirtyPercent_34,thirtyPercent,2586,1462,1124,1462,0,0,0,0,0,0,0,84,515,525,100.00,56.54,100.00
c3540_synth_thirtyPercent_35,thirtyPercent,2586,1560,1026,1560,0,0,0,0,0,0,0,125,163,738,100.00,60.32,100.00
c3540_synth_thirtyPercent_36,thirtyPercent,2586,1599,987,1599,0,0,0,0,0,0,0,133,316,538,100.00,61.83,100.00
c3540_synth_thirtyPercent_37,thirtyPercent,2586,1605,981,1605,0,0,0,0,0,0,0,119,148,714,100.00,62.06,100.00
c3540_synth_thirtyPercent_38,thirtyPercent,2586,978,1608,978,0,0,0,0,0,0,0,179,316,1113,100.00,37.82,100.00
c3540_synth_thirtyPercent_39,thirtyPercent,2586,1722,864,1722,0,0,0,0,0,0,0,86,163,615,100.00,66.59,100.00
c3540_synth_fiftyPercent_0,fiftyPercent,2586,1069,1517,1069,0,0,0,0,0,0,0,109,639,769,100.00,41.34,100.00
c3540_synth_fiftyPercent_1,fiftyPercent,2586,1557,1029,1557,0,0,0,0,0,0,0,121,212,696,100.00,60.21,100.00
c3540_synth_fiftyPercent_2,fiftyPercent,2586,1397,1189,1397,0,0,0,0,0,0,0,145,150,894,100.00,54.02,100.00
c3540_synth_fiftyPercent_3,fiftyPercent,2586,1133,1453,1133,0,0,0,0,0,0,0,167,393,893,100.00,43.81,100.00
c3540_synth_fiftyPercent_4,fiftyPercent,2586,1200,1386,1200,0,0,0,0,0,0,0,122,206,1058,100.00,46.40,100.00
c3540_synth_fiftyPercent_5,fiftyPercent,2586,1426,1160,1426,0,0,0,0,0,0,0,126,247,787,100.00,55.14,100.00
c3540_synth_fiftyPercent_6,fiftyPercent,2586,1285,1301,1285,0,0,0,0,0,0,0,201,353,747,100.00,49.69,100.00
c3540_synth_fiftyPercent_7,fiftyPercent,2586,1217,1369,1217,0,0,0,0,0,0,0,151,505,713,100.00,47.06,100.00
c3540_synth_fiftyPercent_8,fiftyPercent,2586,1342,1244,1342,0,0,0,0,0,0,0,108,187,949,100.00,51.89,100.00
c3540_synth_fiftyPercent_9,fiftyPercent,2586,1255,1331,1250,0,0,0,5,0,0,0,150,362,819,99.60,48.34,100.00
c3540_synth_fiftyPercent_10,fiftyPercent,2586,1627,959,1627,0,0,0,0,0,0,0,133,205,621,100.00,62.92,100.00
c3540_synth_fiftyPercent_11,fiftyPercent,2586,1660,926,1660,0,0,0,0,0,0,0,109,147,670,100.00,64.19,100.00
c3540_synth_fiftyPercent_12,fiftyPercent,2586,1609,977,1609,0,0,0,0,0,0,0,98,234,645,100.00,62.22,100.00
c3540_synth_fiftyPercent_13,fiftyPercent,2586,1259,1327,1259,0,0,0,0,0,0,0,135,358,834,100.00,48.69,100.00
c3540_synth_fiftyPercent_14,fiftyPercent,2586,1497,1089,1497,0,0,0,0,0,0,0,149,269,671,100.00,57.89,100.00
c3540_synth_fiftyPercent_15,fiftyPercent,2586,1540,1046,1540,0,0,0,0,0,0,0,80,73,893,100.00,59.55,100.00
c3540_synth_fiftyPercent_16,fiftyPercent,2586,1472,1114,1472,0,0,0,0,0,0,0,89,189,836,100.00,56.92,100.00
c3540_synth_fiftyPercent_17,fiftyPercent,2586,1339,1247,1339,0,0,0,0,0,0,0,110,196,941,100.00,51.78,100.00
c3540_synth_fiftyPercent_18,fiftyPercent,2586,1439,1147,1439,0,0,0,0,0,0,0,90,192,865,100.00,55.65,100.00
c3540_synth_fiftyPercent_19,fiftyPercent,2586,1276,1310,1276,0,0,0,0,0,0,0,146,223,941,100.00,49.34,100.00
c3540_synth_fiftyPercent_20,fiftyPercent,2586,1548,1038,1548,0,0,0,0,0,0,0,109,102,827,100.00,59.86,100.00
c3540_synth_fiftyPercent_21,fiftyPercent,2586,1709,877,1709,0,0,0,0,0,0,0,106,160,611,100.00,66.09,100.00
c3540_synth_fiftyPercent_22,fiftyPercent,2586,1225,1361,1225,0,0,0,0,0,0,0,212,472,677,100.00,47.37,100.00
c3540_synth_fiftyPercent_23,fiftyPercent,2586,1549,1037,1549,0,0,0,0,0,0,0,134,124,779,100.00,59.90,100.00
c3540_synth_fiftyPercent_24,fiftyPercent,2586,1136,1450,1136,0,0,0,0,0,0,0,95,164,1191,100.00,43.93,100.00
c3540_synth_fiftyPercent_25,fiftyPercent,2586,1387,1199,1387,0,0,0,0,0,0,0,89,108,1002,100.00,53.63,100.00
c3540_synth_fiftyPercent_26,fiftyPercent,2586,1388,1198,1388,0,0,0,0,0,0,0,126,209,863,100.00,53.67,100.00
c3540_synth_fiftyPercent_27,fiftyPercent,2586,1407,1179,1405,0,0,0,2,0,0,0,186,171,822,99.86,54.33,100.00
c3540_synth_fiftyPercent_28,fiftyPercent,2586,1370,1216,1370,0,0,0,0,0,0,0,112,263,841,100.00,52.98,100.00
c3540_synth_fiftyPercent_29,fiftyPercent,2586,998,1588,998,0,0,0,0,0,0,0,215,749,624,100.00,38.59,100.00
c3540_synth_fiftyPercent_30,fiftyPercent,2586,1198,1388,1198,0,0,0,0,0,0,0,150,295,943,100.00,46.33,100.00
c3540_synth_fiftyPercent_31,fiftyPercent,2586,1651,935,1651,0,0,0,0,0,0,0,100,205,630,100.00,63.84,100.00
c3540_synth_fiftyPercent_32,fiftyPercent,2586,1603,983,1603,0,0,0,0,0,0,0,103,111,769,100.00,61.99,100.00
c3540_synth_fiftyPercent_33,fiftyPercent,2586,1148,1438,1148,0,0,0,0,0,0,0,203,564,671,100.00,44.39,100.00
c3540_synth_fiftyPercent_34,fiftyPercent,2586,1315,1271,1315,0,0,0,0,0,0,0,105,80,1086,100.00,50.85,100.00
c3540_synth_fiftyPercent_35,fiftyPercent,2586,1393,1193,1393,0,0,0,0,0,0,0,100,222,871,100.00,53.87,100.00
c3540_synth_fiftyPercent_36,fiftyPercent,2586,1451,1135,1451,0,0,0,0,0,0,0,144,368,623,100.00,56.11,100.00
c3540_synth_fiftyPercent_37,fiftyPercent,2586,1183,1403,1183,0,0,0,0,0,0,0,159,335,909,100.00,45.75,100.00
c3540_synth_fiftyPercent_38,fiftyPercent,2586,1591,995,1591,0,0,0,0,0,0,0,19,13,963,100.00,61.52,100.00
c3540_synth_fiftyPercent_39,fiftyPercent,2586,1389,1197,1389,0,0,0,0,0,0,0,163,170,864,100.00,53.71,100.00
c3540_synth_seventyPercent_0,seventyPercent,2586,1284,1302,1284,0,0,0,0,0,0,0,92,166,1044,100.00,49.65,100.00
c3540_synth_seventyPercent_1,seventyPercent,2586,1515,1071,1515,0,0,0,0,0,0,0,92,124,855,100.00,58.58,100.00
c3540_synth_seventyPercent_2,seventyPercent,2586,1521,1065,1521,0,0,0,0,0,0,0,109,132,824,100.00,58.82,100.00
c3540_synth_seventyPercent_3,seventyPercent,2586,1138,1448,1138,0,0,0,0,0,0,0,179,400,869,100.00,44.01,100.00
c3540_synth_seventyPercent_4,seventyPercent,2586,1708,878,1708,0,0,0,0,0,0,0,128,289,461,100.00,66.05,100.00
c3540_synth_seventyPercent_5,seventyPercent,2586,1370,1216,1370,0,0,0,0,0,0,0,107,99,1010,100.00,52.98,100.00
c3540_synth_seventyPercent_6,seventyPercent,2586,1562,1024,1562,0,0,0,0,0,0,0,115,199,710,100.00,60.40,100.00
c3540_synth_seventyPercent_7,seventyPercent,2586,1440,1146,1440,0,0,0,0,0,0,0,160,232,754,100.00,55.68,100.00
c3540_synth_seventyPercent_8,seventyPercent,2586,1318,1268,1318,0,0,0,0,0,0,0,121,395,752,100.00,50.97,100.00
c3540_synth_seventyPercent_9,seventyPercent,2586,1369,1217,1369,0,0,0,0,0,0,0,153,332,732,100.00,52.94,100.00
c3540_synth_seventyPercent_10,seventyPercent,2586,1537,1049,1537,0,0,0,0,0,0,0,117,123,809,100.00,59.44,100.00
c3540_synth_seventyPercent_11,seventyPercent,2586,1477,1109,1477,0,0,0,0,0,0,0,35,36,1038,100.00,57.12,100.00
c3540_synth_seventyPercent_12,seventyPercent,2586,1590,996,1590,0,0,0,0,0,0,0,76,151,769,100.00,61.48,100.00
c3540_synth_seventyPercent_13,seventyPercent,2586,1606,980,1606,0,0,0,0,0,0,0,109,79,792,100.00,62.10,100.00
c3540_synth_seventyPercent_14,seventyPercent,2586,1734,852,1734,0,0,0,0,0,0,0,108,102,642,100.00,67.05,100.00
c3540_synth_seventyPercent_15,seventyPercent,2586,1348,1238,1348,0,0,0,0,0,0,0,165,313,760,100.00,52.13,100.00
c3540_synth_seventyPercent_16,seventyPercent,2586,1606,980,1606,0,0,0,0,0,0,0,107,230,643,100.00,62.10,100.00
c3540_synth_seventyPercent_17,seventyPercent,2586,1620,966,1620,0,0,0,0,0,0,0,105,265,596,100.00,62.65,100.00
c3540_synth_seventyPercent_18,seventyPercent,2586,1278,1308,1278,0,0,0,0,0,0,0,35,29,1244,100.00,49.42,100.00
c3540_synth_seventyPercent_19,seventyPercent,2586,1809,777,1809,0,0,0,0,0,0,0,73,30,674,100.00,69.95,100.00
c3540_synth_seventyPercent_20,seventyPercent,2586,1620,966,1620,0,0,0,0,0,0,0,15,17,934,100.00,62.65,100.00
c3540_synth_seventyPercent_21,seventyPercent,2586,1548,1038,1548,0,0,0,0,0,0,0,122,236,680,100.00,59.86,100.00
c3540_synth_seventyPercent_22,seventyPercent,2586,1252,1334,1252,0,0,0,0,0,0,0,6,32,1296,100.00,48.41,100.00
c3540_synth_seventyPercent_23,seventyPercent,2586,1343,1243,1343,0,0,0,0,0,0,0,170,257,816,100.00,51.93,100.00
c3540_synth_seventyPercent_24,seventyPercent,2586,1501,1085,1501,0,0,0,0,0,0,0,107,81,897,100.00,58.04,100.00
c3540_synth_seventyPercent_25,seventyPercent,2586,1411,1175,1411,0,0,0,0,0,0,0,91,121,963,100.00,54.56,100.00
c3540_synth_seventyPercent_26,seventyPercent,2586,1013,1573,1013,0,0,0,0,0,0,0,138,346,1089,100.00,39.17,100.00
c3540_synth_seventyPercent_27,seventyPercent,2586,1806,780,1806,0,0,0,0,0,0,0,76,72,632,100.00,69.84,100.00
c3540_synth_seventyPercent_28,seventyPercent,2586,1641,945,1641,0,0,0,0,0,0,0,93,81,771,100.00,63.46,100.00
c3540_synth_seventyPercent_29,seventyPercent,2586,1143,1443,1143,0,0,0,0,0,0,0,211,231,1001,100.00,44.20,100.00
c3540_synth_seventyPercent_30,seventyPercent,2586,1631,955,1631,0,0,0,0,0,0,0,92,164,699,100.00,63.07,100.00
c3540_synth_seventyPercent_31,seventyPercent,2586,1553,1033,1553,0,0,0,0,0,0,0,108,134,791,100.00,60.05,100.00
c3540_synth_seventyPercent_32,seventyPercent,2586,1428,1158,1428,0,0,0,0,0,0,0,94,427,637,100.00,55.22,100.00
c3540_synth_seventyPercent_33,seventyPercent,2586,1452,1134,1452,0,0,0,0,0,0,0,148,167,819,100.00,56.15,100.00
c3540_synth_seventyPercent_34,seventyPercent,2586,1803,783,1803,0,0,0,0,0,0,0,65,50,668,100.00,69.72,100.00
c3540_synth_seventyPercent_35,seventyPercent,2586,1256,1330,1256,0,0,0,0,0,0,0,157,511,662,100.00,48.57,100.00
c3540_synth_seventyPercent_36,seventyPercent,2586,1596,990,1596,0,0,0,0,0,0,0,75,99,816,100.00,61.72,100.00
c3540_synth_seventyPercent_37,seventyPercent,2586,1548,1038,1548,0,0,0,0,0,0,0,65,134,839,100.00,59.86,100.00
c3540_synth_seventyPercent_38,seventyPercent,2586,1498,1088,1498,0,0,0,0,0,0,0,111,233,744,100.00,57.93,100.00
c3540_synth_seventyPercent_39,seventyPercent,2586,1599,987,1599,0,0,0,0,0,0,0,117,395,475,100.00,61.83,100.00
c3540_synth_ninetyPercent_0,ninetyPercent,2586,1901,685,1901,0,0,0,0,0,0,0,37,5,643,100.00,73.51,100.00
c3540_synth_ninetyPercent_1,ninetyPercent,2586,2250,336,2250,0,0,0,0,0,0,0,26,16,294,100.00,87.01,100.00
c3540_synth_ninetyPercent_2,ninetyPercent,2586,1956,630,1956,0,0,0,0,0,0,0,46,65,519,100.00,75.64,100.00
c3540_synth_ninetyPercent_3,ninetyPercent,2586,1990,596,1990,0,0,0,0,0,0,0,63,45,488,100.00,76.95,100.00
c3540_synth_ninetyPercent_4,ninetyPercent,2586,1984,602,1984,0,0,0,0,0,0,0,55,23,524,100.00,76.72,100.00
c3540_synth_ninetyPercent_5,ninetyPercent,2586,2012,574,2012,0,0,0,0,0,0,0,46,29,499,100.00,77.80,100.00
c3540_synth_ninetyPercent_6,ninetyPercent,2586,2103,483,2103,0,0,0,0,0,0,0,78,94,311,100.00,81.32,100.00
c3540_synth_ninetyPercent_7,ninetyPercent,2586,1989,597,1989,0,0,0,0,0,0,0,32,11,554,100.00,76.91,100.00
c3540_synth_ninetyPercent_8,ninetyPercent,2586,1993,593,1993,0,0,0,0,0,0,0,46,37,510,100.00,77.07,100.00
c3540_synth_ninetyPercent_9,ninetyPercent,2586,2112,474,2112,0,0,0,0,0,0,0,40,17,417,100.00,81.67,100.00
c3540_synth_ninetyPercent_10,ninetyPercent,2586,2074,512,2074,0,0,0,0,0,0,0,59,38,415,100.00,80.20,100.00
c3540_synth_ninetyPercent_11,ninetyPercent,2586,1990,596,1990,0,0,0,0,0,0,0,57,39,500,100.00,76.95,100.00
c3540_synth_ninetyPercent_12,ninetyPercent,2586,1644,942,1644,0,0,0,0,0,0,0,66,152,724,100.00,63.57,100.00
c3540_synth_ninetyPercent_13,ninetyPercent,2586,2212,374,2212,0,0,0,0,0,0,0,59,39,276,100.00,85.54,100.00
c3540_synth_ninetyPercent_14,ninetyPercent,2586,2013,573,2013,0,0,0,0,0,0,0,70,45,458,100.00,77.84,100.00
c3540_synth_ninetyPercent_15,ninetyPercent,2586,1954,632,1954,0,0,0,0,0,0,0,85,142,405,100.00,75.56,100.00
c3540_synth_ninetyPercent_16,ninetyPercent,2586,1831,755,1831,0,0,0,0,0,0,0,116,260,379,100.00,70.80,100.00
c3540_synth_ninetyPercent_17,ninetyPercent,2586,2169,417,2169,0,0,0,0,0,0,0,47,34,336,100.00,83.87,100.00
c3540_synth_ninetyPercent_18,ninetyPercent,2586,2056,530,2056,0,0,0,0,0,0,0,48,102,380,100.00,79.51,100.00
c3540_synth_ninetyPercent_19,ninetyPercent,2586,1705,881,1705,0,0,0,0,0,0,0,119,73,689,100.00,65.93,100.00
c3540_synth_ninetyPercent_20,ninetyPercent,2586,2083,503,2083,0,0,0,0,0,0,0,31,10,462,100.00,80.55,100.00
c3540_synth_ninetyPercent_21,ninetyPercent,2586,2039,547,2039,0,0,0,0,0,0,0,43,4,500,100.00,78.85,100.00
c3540_synth_ninetyPercent_22,ninetyPercent,2586,2140,446,2140,0,0,0,0,0,0,0,57,28,361,100.00,82.75,100.00
c3540_synth_ninetyPercent_23,ninetyPercent,2586,2132,454,2132,0,0,0,0,0,0,0,32,1,421,100.00,82.44,100.00
c3540_synth_ninetyPercent_24,ninetyPercent,2586,1946,640,1946,0,0,0,0,0,0,0,82,61,497,100.00,75.25,100.00
c3540_synth_ninetyPercent_25,ninetyPercent,2586,2120,466,2120,0,0,0,0,0,0,0,33,16,417,100.00,81.98,100.00
c3540_synth_ninetyPercent_26,ninetyPercent,2586,2137,449,2137,0,0,0,0,0,0,0,38,8,403,100.00,82.64,100.00
c3540_synth_ninetyPercent_27,ninetyPercent,2586,2071,515,2071,0,0,0,0,0,0,0,50,17,448,100.00,80.09,100.00
c3540_synth_ninetyPercent_28,ninetyPercent,2586,2135,451,2135,0,0,0,0,0,0,0,28,0,423,100.00,82.56,100.00
c3540_synth_ninetyPercent_29,ninetyPercent,2586,1985,601,1985,0,0,0,0,0,0,0,37,32,532,100.00,76.76,100.00
c3540_synth_ninetyPercent_30,ninetyPercent,2586,2094,492,2094,0,0,0,0,0,0,0,45,15,432,100.00,80.97,100.00
c3540_synth_ninetyPercent_31,ninetyPercent,2586,2126,460,2126,0,0,0,0,0,0,0,92,85,283,100.00,82.21,100.00
c3540_synth_ninetyPercent_32,ninetyPercent,2586,1954,632,1954,0,0,0,0,0,0,0,59,52,521,100.00,75.56,100.00
c3540_synth_ninetyPercent_33,ninetyPercent,2586,1989,597,1989,0,0,0,0,0,0,0,60,42,495,100.00,76.91,100.00
c3540_synth_ninetyPercent_34,ninetyPercent,2586,2198,388,2198,0,0,0,0,0,0,0,38,116,234,100.00,85.00,100.00
c3540_synth_ninetyPercent_35,ninetyPercent,2586,2171,415,2171,0,0,0,0,0,0,0,49,15,351,100.00,83.95,100.00
c3540_synth_ninetyPercent_36,ninetyPercent,2586,2003,583,2003,0,0,0,0,0,0,0,43,23,517,100.00,77.46,100.00
c3540_synth_ninetyPercent_37,ninetyPercent,2586,2124,462,2124,0,0,0,0,0,0,0,51,21,390,100.00,82.13,100.00
c3540_synth_ninetyPercent_38,ninetyPercent,2586,1948,638,1948,0,0,0,0,0,0,0,55,62,521,100.00,75.33,100.00
c3540_synth_ninetyPercent_39,ninetyPercent,2586,1974,612,1974,0,0,0,0,0,0,0,72,108,432,100.00,76.33,100.00
