// | ------------------------------------------------------------------------------------------------------------------ |
// |                                                                                                                    |
// |          Current split capture setting:     Off (optimal)                                                          |
// |                                                                                                                    |
// |   Current clock off simulation setting:     Off (optimal)                                                          |
// | ------------------------------------------------------------------------------------------------------------------ |
//  ------------------------------------------------------------------------
//  Simulation performed for #gates = 4839  #faults = 13296
//  Run fault simulation without storing patterns.  pattern source = 221 external patterns
//  ------------------------------------------------------------------------
//  #patterns  test      #faults  #faults    # eff.    # test         process 
//  simulated  coverage  in list  detected   patterns  patterns       CPU time
//   64         71.81%     3748      9548       64         0          0.52 sec
//   128        75.35%     3278       470       52         0          0.54 sec
//   192        77.23%     3027       251       35         0          0.56 sec
//   221        77.91%     2937        90       15         0          0.57 sec
