// | ------------------------------------------------------------------------------------------------------------------ |
// |                                                                                                                    |
// |          Current split capture setting:     Off (optimal)                                                          |
// |                                                                                                                    |
// |   Current clock off simulation setting:     Off (optimal)                                                          |
// | ------------------------------------------------------------------------------------------------------------------ |
//  ------------------------------------------------------------------------
//  Simulation performed for #gates = 4839  #faults = 13397
//  Run fault simulation without storing patterns.  pattern source = 211 external patterns
//  ------------------------------------------------------------------------
//  #patterns  test      #faults  #faults    # eff.    # test         process 
//  simulated  coverage  in list  detected   patterns  patterns       CPU time
//   64         64.64%     4737      8660       64         0          0.43 sec
//   128        68.16%     4265       472       37         0          0.46 sec
//   192        69.32%     4110       155       31         0          0.47 sec
//   211        69.69%     4060        50        8         0          0.48 sec
