// | ------------------------------------------------------------------------------------------------------------------ |
// |                                                                                                                    |
// |          Current split capture setting:     Off (optimal)                                                          |
// |                                                                                                                    |
// |   Current clock off simulation setting:     Off (optimal)                                                          |
// | ------------------------------------------------------------------------------------------------------------------ |
//  ------------------------------------------------------------------------
//  Simulation performed for #gates = 4839  #faults = 13574
//  Run fault simulation without storing patterns.  pattern source = 283 external patterns
//  ------------------------------------------------------------------------
//  #patterns  test      #faults  #faults    # eff.    # test         process 
//  simulated  coverage  in list  detected   patterns  patterns       CPU time
//   64         69.56%     4132      9442       62         0          0.51 sec
//   128        73.66%     3575       557       50         0          0.54 sec
//   192        75.77%     3289       286       39         0          0.56 sec
//   256        76.57%     3180       109       33         0          0.57 sec
//   283        77.24%     3089        91        7         0          0.58 sec
