// | ------------------------------------------------------------------------------------------------------------------ |
// |                                                                                                                    |
// |          Current split capture setting:     Off (optimal)                                                          |
// |                                                                                                                    |
// |   Current clock off simulation setting:     Off (optimal)                                                          |
// | ------------------------------------------------------------------------------------------------------------------ |
//  ------------------------------------------------------------------------
//  Simulation performed for #gates = 4839  #faults = 13581
//  Run fault simulation without storing patterns.  pattern source = 247 external patterns
//  ------------------------------------------------------------------------
//  #patterns  test      #faults  #faults    # eff.    # test         process 
//  simulated  coverage  in list  detected   patterns  patterns       CPU time
//   64         67.40%     4428      9153       64         0          0.49 sec
//   128        69.98%     4077       351       48         0          0.51 sec
//   192        71.67%     3848       229       32         0          0.53 sec
//   247        72.28%     3765        83       17         0          0.54 sec
