// | ------------------------------------------------------------------------------------------------------------------ |
// |                                                                                                                    |
// |          Current split capture setting:     Off (optimal)                                                          |
// |                                                                                                                    |
// |   Current clock off simulation setting:     Off (optimal)                                                          |
// | ------------------------------------------------------------------------------------------------------------------ |
//  ------------------------------------------------------------------------
//  Simulation performed for #gates = 4839  #faults = 13481
//  Run fault simulation without storing patterns.  pattern source = 227 external patterns
//  ------------------------------------------------------------------------
//  #patterns  test      #faults  #faults    # eff.    # test         process 
//  simulated  coverage  in list  detected   patterns  patterns       CPU time
//   64         66.96%     4454      9027       63         0          0.48 sec
//   128        70.66%     3955       499       53         0          0.51 sec
//   192        72.18%     3750       205       37         0          0.53 sec
//   227        72.80%     3667        83       16         0          0.54 sec
