// | ------------------------------------------------------------------------------------------------------------------ |
// |                                                                                                                    |
// |          Current split capture setting:     Off (optimal)                                                          |
// |                                                                                                                    |
// |   Current clock off simulation setting:     Off (optimal)                                                          |
// | ------------------------------------------------------------------------------------------------------------------ |
//  ------------------------------------------------------------------------
//  Simulation performed for #gates = 4839  #faults = 13388
//  Run fault simulation without storing patterns.  pattern source = 250 external patterns
//  ------------------------------------------------------------------------
//  #patterns  test      #faults  #faults    # eff.    # test         process 
//  simulated  coverage  in list  detected   patterns  patterns       CPU time
//   64         71.05%     3876      9512       64         0          0.50 sec
//   128        79.14%     2793      1083       64         0          0.54 sec
//   192        81.27%     2507       286       60         0          0.56 sec
//   250        82.63%     2325       182       56         0          0.56 sec
