// | ------------------------------------------------------------------------------------------------------------------ |
// |                                                                                                                    |
// |          Current split capture setting:     Off (optimal)                                                          |
// |                                                                                                                    |
// |   Current clock off simulation setting:     Off (optimal)                                                          |
// | ------------------------------------------------------------------------------------------------------------------ |
//  ------------------------------------------------------------------------
//  Simulation performed for #gates = 4839  #faults = 13466
//  Run fault simulation without storing patterns.  pattern source = 278 external patterns
//  ------------------------------------------------------------------------
//  #patterns  test      #faults  #faults    # eff.    # test         process 
//  simulated  coverage  in list  detected   patterns  patterns       CPU time
//   64         69.94%     4048      9418       63         0          0.48 sec
//   128        74.27%     3465       583       49         0          0.51 sec
//   192        76.72%     3135       330       38         0          0.53 sec
//   256        77.48%     3032       103       24         0          0.54 sec
//   278        77.62%     3014        18        5         0          0.55 sec
