// | ------------------------------------------------------------------------------------------------------------------ |
// |                                                                                                                    |
// |          Current split capture setting:     Off (optimal)                                                          |
// |                                                                                                                    |
// |   Current clock off simulation setting:     Off (optimal)                                                          |
// | ------------------------------------------------------------------------------------------------------------------ |
//  ------------------------------------------------------------------------
//  Simulation performed for #gates = 4839  #faults = 13424
//  Run fault simulation without storing patterns.  pattern source = 265 external patterns
//  ------------------------------------------------------------------------
//  #patterns  test      #faults  #faults    # eff.    # test         process 
//  simulated  coverage  in list  detected   patterns  patterns       CPU time
//   64         68.58%     4218      9206       64         0          0.51 sec
//   128        72.49%     3693       525       47         0          0.53 sec
//   192        74.54%     3418       275       30         0          0.55 sec
//   256        75.25%     3322        96       18         0          0.56 sec
//   265        75.31%     3314         8        3         0          0.57 sec
