// | ------------------------------------------------------------------------------------------------------------------ |
// |                                                                                                                    |
// |          Current split capture setting:     Off (optimal)                                                          |
// |                                                                                                                    |
// |   Current clock off simulation setting:     Off (optimal)                                                          |
// | ------------------------------------------------------------------------------------------------------------------ |
//  ------------------------------------------------------------------------
//  Simulation performed for #gates = 4839  #faults = 13296
//  Run fault simulation without storing patterns.  pattern source = 265 external patterns
//  ------------------------------------------------------------------------
//  #patterns  test      #faults  #faults    # eff.    # test         process 
//  simulated  coverage  in list  detected   patterns  patterns       CPU time
//   64         69.82%     4013      9283       64         0          0.49 sec
//   128        75.63%     3240       773       54         0          0.52 sec
//   192        77.48%     2994       246       43         0          0.54 sec
//   256        78.41%     2870       124       31         0          0.55 sec
//   265        78.60%     2846        24        5         0          0.56 sec
