// | ------------------------------------------------------------------------------------------------------------------ |
// |                                                                                                                    |
// |          Current split capture setting:     Off (optimal)                                                          |
// |                                                                                                                    |
// |   Current clock off simulation setting:     Off (optimal)                                                          |
// | ------------------------------------------------------------------------------------------------------------------ |
//  ------------------------------------------------------------------------
//  Simulation performed for #gates = 4839  #faults = 13593
//  Run fault simulation without storing patterns.  pattern source = 231 external patterns
//  ------------------------------------------------------------------------
//  #patterns  test      #faults  #faults    # eff.    # test         process 
//  simulated  coverage  in list  detected   patterns  patterns       CPU time
//   64         67.04%     4480      9113       62         0          0.46 sec
//   128        70.15%     4058       422       39         0          0.48 sec
//   192        71.69%     3848       210       29         0          0.50 sec
//   231        72.28%     3768        80       13         0          0.51 sec
