          Statistics Report          
           Stuck-at Faults           
-------------------------------------
Fault Classes              #faults   
                           (coll.)   
---------------------  --------------
  FU (full)                 1706     
  -------------------  --------------
  DS (det_simulation)    753 (44.14%)
  TI (tied)               19 ( 1.11%)
  RE (redundant)         934 (54.75%)
-------------------------------------
Coverage                             
  -------------------                
  test_coverage              100.00% 
  fault_coverage              44.14% 
  atpg_effectiveness         100.00% 
-------------------------------------
#test_patterns                   119 
#simulated_patterns              139 
CPU_time (secs)                  1.5 
-------------------------------------

