          Statistics Report          
           Stuck-at Faults           
-------------------------------------
Fault Classes              #faults   
                           (coll.)   
---------------------  --------------
  FU (full)                  582     
  -------------------  --------------
  DS (det_simulation)    549 (94.33%)
  TI (tied)               10 ( 1.72%)
  BL (blocked)             3 ( 0.52%)
  RE (redundant)          20 ( 3.44%)
-------------------------------------
Coverage                             
  -------------------                
  test_coverage              100.00% 
  fault_coverage              94.33% 
  atpg_effectiveness         100.00% 
-------------------------------------
#test_patterns                    68 
#simulated_patterns              101 
CPU_time (secs)                  1.6 
-------------------------------------

