// | ------------------------------------------------------------------------------------------------------------------ |
// |                                                                                                                    |
// |          Current split capture setting:     Off (optimal)                                                          |
// |                                                                                                                    |
// |   Current clock off simulation setting:     Off (optimal)                                                          |
// | ------------------------------------------------------------------------------------------------------------------ |
//  ------------------------------------------------------------------------
//  Simulation performed for #gates = 20871  #faults = 58906
//  Run fault simulation without storing patterns.  pattern source = 256 external patterns
//  ------------------------------------------------------------------------
//  #patterns  test      #faults  #faults    # eff.    # test         process 
//  simulated  coverage  in list  detected   patterns  patterns       CPU time
//   64         86.03%     8228     50678       64         0          1.64 sec
//   128        88.09%     7013      1215       64         0          1.68 sec
//   192        88.69%     6663       350       62         0          1.70 sec
//   256        88.94%     6517       146       49         0          1.72 sec
