// | ------------------------------------------------------------------------------------------------------------------ |
// |                                                                                                                    |
// |          Current split capture setting:     Off (optimal)                                                          |
// |                                                                                                                    |
// |   Current clock off simulation setting:     Off (optimal)                                                          |
// | ------------------------------------------------------------------------------------------------------------------ |
//  ------------------------------------------------------------------------
//  Simulation performed for #gates = 20871  #faults = 58829
//  Run fault simulation without storing patterns.  pattern source = 258 external patterns
//  ------------------------------------------------------------------------
//  #patterns  test      #faults  #faults    # eff.    # test         process 
//  simulated  coverage  in list  detected   patterns  patterns       CPU time
//   64         86.23%     8103     50726       64         0          1.66 sec
//   128        88.27%     6902      1201       64         0          1.70 sec
//   192        88.91%     6525       377       62         0          1.73 sec
//   256        89.18%     6366       159       52         0          1.75 sec
//   258        89.19%     6362         4        2         0          1.76 sec
