// | ------------------------------------------------------------------------------------------------------------------ |
// |                                                                                                                    |
// |          Current split capture setting:     Off (optimal)                                                          |
// |                                                                                                                    |
// |   Current clock off simulation setting:     Off (optimal)                                                          |
// | ------------------------------------------------------------------------------------------------------------------ |
//  ------------------------------------------------------------------------
//  Simulation performed for #gates = 20871  #faults = 58951
//  Run fault simulation without storing patterns.  pattern source = 268 external patterns
//  ------------------------------------------------------------------------
//  #patterns  test      #faults  #faults    # eff.    # test         process 
//  simulated  coverage  in list  detected   patterns  patterns       CPU time
//   64         86.22%     8126     50825       64         0          1.62 sec
//   128        88.21%     6951      1175       64         0          1.66 sec
//   192        89.00%     6482       469       63         0          1.69 sec
//   256        89.25%     6337       145       52         0          1.70 sec
//   268        89.29%     6315        22       10         0          1.72 sec
