// | ------------------------------------------------------------------------------------------------------------------ |
// |                                                                                                                    |
// |          Current split capture setting:     Off (optimal)                                                          |
// |                                                                                                                    |
// |   Current clock off simulation setting:     Off (optimal)                                                          |
// | ------------------------------------------------------------------------------------------------------------------ |
//  ------------------------------------------------------------------------
//  Simulation performed for #gates = 20871  #faults = 58910
//  Run fault simulation without storing patterns.  pattern source = 258 external patterns
//  ------------------------------------------------------------------------
//  #patterns  test      #faults  #faults    # eff.    # test         process 
//  simulated  coverage  in list  detected   patterns  patterns       CPU time
//   64         85.95%     8277     50633       64         0          1.65 sec
//   128        88.05%     7038      1239       64         0          1.69 sec
//   192        88.76%     6624       414       62         0          1.71 sec
//   256        89.05%     6452       172       54         0          1.73 sec
//   258        89.06%     6446         6        2         0          1.74 sec
