//  command: set_current_design top 
//  Warning: 1 case: Unused net in DFT library model
//  Note: Issue set_current_design with the -show_elaboration_warnings option to see more details about previous warnings
//  command: set_system_mode analysis
//  Flattening process completed,  design_cells=19948  leaf_cells=19948  library_primitives=19948  sim_gates=20871  PIs=128  POs=128  CPU time=0.09 sec.
//  ---------------------------------------------------------------------------
//  Begin circuit learning analyses.
//  --------------------------------
//  Learning completed, CPU time=0.12 sec.
//  ---------------------------------------------------------------------------
//  Begin scan chain identification process, memory elements = 0.
//  ---------------------------------------------------------------------------
//  Circuit has no memory elements.
//  command: add_faults -all
//  command: set_fault_mode collapsed
//  command: set_fault_type stuck
//  command: read_patterns /home/animesh/currentResearch/ISI/atpg_structural/code/dumpData/tessent/epfl/arithmetic/multiplier_synth/seventyPercent/multiplier_synth_seventyPercent_31.spf
//  Reading STIL input file "/home/animesh/currentResearch/ISI/atpg_structural/code/dumpData/tessent/epfl/arithmetic/multiplier_synth/seventyPercent/multiplier_synth_seventyPercent_31.spf"
//  command: simulate_patterns > /home/animesh/currentResearch/ISI/atpg_structural/code/dumpData/tessent/epfl/arithmetic/multiplier_synth/bin_2/simulateLogFile_multiplier_synth_seventyPercent_19_multiplier_synth_seventyPercent_31.atpg.result
//  command: exit 
