// | ------------------------------------------------------------------------------------------------------------------ |
// |                                                                                                                    |
// |          Current split capture setting:     Off (optimal)                                                          |
// |                                                                                                                    |
// |   Current clock off simulation setting:     Off (optimal)                                                          |
// | ------------------------------------------------------------------------------------------------------------------ |
//  ------------------------------------------------------------------------
//  Simulation performed for #gates = 20871  #faults = 58951
//  Run fault simulation without storing patterns.  pattern source = 272 external patterns
//  ------------------------------------------------------------------------
//  #patterns  test      #faults  #faults    # eff.    # test         process 
//  simulated  coverage  in list  detected   patterns  patterns       CPU time
//   64         86.28%     8086     50865       64         0          1.60 sec
//   128        88.34%     6875      1211       64         0          1.64 sec
//   192        88.99%     6490       385       64         0          1.66 sec
//   256        89.24%     6341       149       46         0          1.68 sec
//   272        89.30%     6310        31       11         0          1.70 sec
