          Statistics Report          
           Stuck-at Faults           
-------------------------------------
Fault Classes              #faults   
                           (coll.)   
---------------------  --------------
  FU (full)                 15054    
  -------------------  --------------
  UO (unobserved)         53 ( 0.35%)
  DS (det_simulation)   9689 (64.36%)
  UU (unused)              4 ( 0.03%)
  TI (tied)              344 ( 2.29%)
  BL (blocked)          1183 ( 7.86%)
  RE (redundant)        3781 (25.12%)
-------------------------------------
Fault Sub-classes                    
  -------------------                
  UC+UO                              
    AAB  (atpg_abort)     53 ( 0.35%)
-------------------------------------
Coverage                             
  -------------------                
  test_coverage               99.46% 
  fault_coverage              64.36% 
  atpg_effectiveness          99.65% 
-------------------------------------
#test_patterns                   322 
#simulated_patterns              356 
CPU_time (secs)                 10.5 
-------------------------------------

