          Statistics Report          
           Stuck-at Faults           
-------------------------------------
Fault Classes              #faults   
                           (coll.)   
---------------------  --------------
  FU (full)                 1010     
  -------------------  --------------
  DS (det_simulation)    803 (79.50%)
  TI (tied)               45 ( 4.46%)
  BL (blocked)            78 ( 7.72%)
  RE (redundant)          84 ( 8.32%)
-------------------------------------
Coverage                             
  -------------------                
  test_coverage              100.00% 
  fault_coverage              79.50% 
  atpg_effectiveness         100.00% 
-------------------------------------
#test_patterns                    53 
#simulated_patterns               93 
CPU_time (secs)                  1.8 
-------------------------------------

