//  command: set_current_design b22_C 
//  Warning: 1 case: Unused net in DFT library model
//  Note: Issue set_current_design with the -show_elaboration_warnings option to see more details about previous warnings
//  command: set_system_mode analysis
//  Flattening process completed,  design_cells=18259  leaf_cells=18259  library_primitives=18259  sim_gates=20077  PIs=767  POs=757  CPU time=0.09 sec.
//  ---------------------------------------------------------------------------
//  Begin circuit learning analyses.
//  --------------------------------
//  Learning completed, CPU time=0.09 sec.
//  ---------------------------------------------------------------------------
//  Begin scan chain identification process, memory elements = 0.
//  ---------------------------------------------------------------------------
//  Circuit has no memory elements.
//  command: add_faults -all
//  command: set_fault_mode collapsed
//  command: set_fault_type stuck
//  command: create_patterns 
// | ------------------------------------------------------------------------------------------------------------------ |
// |                                             Analyzing the design                                                   |
// |                                                                                                                    |
// |      Current clock restriction setting:     Domain_clock (edge interaction)                                        |
// |                                             (optimal)                                                              |
// |                                                                                                                    |
// |          Current split capture setting:     Off (optimal)                                                          |
// |                                                                                                                    |
// |   Current clock off simulation setting:     Off (optimal)                                                          |
// |                                                                                                                    |
// |            Current abort limit setting:     30                                                                     |
// |                                Calling:     set_abort_limit 300 100                                                |
// | ------------------------------------------------------------------------------------------------------------------ |
// |                                                                                                                    |
// |               Current sequential depth:     0 (optimal)                                                            |
// |                                                                                                                    |
// | ------------------------------------------------------------------------------------------------------------------ |
//  ------------------------------------------------------------------------
//  Simulation performed for #gates = 20077  #faults = 36198
//  system mode = analysis    pattern source = internal patterns
//  ------------------------------------------------------------------------
//  #patterns  test      #faults  #faults    # eff.    # test         process      RE/AU/AAB
//  simulated  coverage  in list  detected   patterns  patterns       CPU time
//  deterministic ATPG invoked with comb/seq abort limit = 300/100
//   ---        ------      ---       ---      ---       ---          2.14 sec     1027/4/1
//   64         59.21%    14342     20825       64        64          2.58 sec
//   ---        ------      ---       ---      ---       ---          6.01 sec     4905/14/2
//   128        72.53%     8583      1871       64       128          6.07 sec
//   ---        ------      ---       ---      ---       ---         10.10 sec     11890/53/16
//   192        95.57%     1025       534       63       191         10.12 sec
//   ---        ------      ---       ---      ---       ---         10.67 sec     12792/59/16
//   255        99.68%       15       102       58       249         10.67 sec
//  -----------------------------------------------------------------------
//  Performing redundant fault identification for 15 faults
//  -----------------------------------------------------------------------
//  deterministic ATPG invoked with abort limit = 300
//  # red.    # non-red.   # abort     # remn.   progress   test        process
//  faults      faults      faults      faults              coverage    CPU time
//       1           0         14            0   100.00%    99.69%       0.32 sec
// | ------------------------------------------------------------------------------------------------------------------ |
// |                                                                                                                    |
// |                   Next step suggestion:     (optional)                                                             |
// |              If truncating pattern set:     Use command 'order_patterns 3'                                         |
// |                                                                                                                    |
// | ------------------------------------------------------------------------------------------------------------------ |
           Statistics Report          
            Stuck-at Faults           
--------------------------------------
Fault Classes               #faults   
                            (coll.)   
----------------------  --------------
  FU (full)                  47162    
  --------------------  --------------
  UO (unobserved)          14 ( 0.03%)
  DS (det_simulation)   23332 (49.47%)
  TI (tied)              3257 ( 6.91%)
  BL (blocked)           7707 (16.34%)
  RE (redundant)        12793 (27.13%)
  AU (atpg_untestable)     59 ( 0.13%)
--------------------------------------
Fault Sub-classes                     
  --------------------                
  UC+UO                               
    AAB  (atpg_abort)      14 ( 0.03%)
--------------------------------------
Coverage                              
  --------------------                
  test_coverage                99.69% 
  fault_coverage               49.47% 
  atpg_effectiveness           99.97% 
--------------------------------------
#test_patterns                    249 
#simulated_patterns               255 
CPU_time (secs)                  13.1 
--------------------------------------

//  command: write_patterns /home/animesh/currentResearch/ISI/atpg_structural/code/dumpData/tessent/itc99/b22_synth/seventyPercent/b22_synth_seventyPercent_6.spf -stil -rep
//  command: report_statistics > /home/animesh/currentResearch/ISI/atpg_structural/code/dumpData/tessent/itc99/b22_synth/seventyPercent/b22_synth_seventyPercent_6.atpg.result
//  command: exit 
