          Statistics Report          
           Stuck-at Faults           
-------------------------------------
Fault Classes              #faults   
                           (coll.)   
---------------------  --------------
  FU (full)                 9584     
  -------------------  --------------
  DS (det_simulation)   8466 (88.33%)
  UU (unused)             22 ( 0.23%)
  TI (tied)              137 ( 1.43%)
  BL (blocked)           116 ( 1.21%)
  RE (redundant)         843 ( 8.80%)
-------------------------------------
Coverage                             
  -------------------                
  test_coverage              100.00% 
  fault_coverage              88.33% 
  atpg_effectiveness         100.00% 
-------------------------------------
#test_patterns                   132 
#simulated_patterns              135 
CPU_time (secs)                  2.7 
-------------------------------------

