// | ------------------------------------------------------------------------------------------------------------------ |
// |                                                                                                                    |
// |          Current split capture setting:     Off (optimal)                                                          |
// |                                                                                                                    |
// |   Current clock off simulation setting:     Off (optimal)                                                          |
// | ------------------------------------------------------------------------------------------------------------------ |
//  ------------------------------------------------------------------------
//  Simulation performed for #gates = 6497  #faults = 11480
//  Run fault simulation without storing patterns.  pattern source = 201 external patterns
//  ------------------------------------------------------------------------
//  #patterns  test      #faults  #faults    # eff.    # test         process 
//  simulated  coverage  in list  detected   patterns  patterns       CPU time
//   64         46.87%     6099      5381       60         0          0.08 sec
//   128        49.29%     5821       278       41         0          0.10 sec
//   192        51.17%     5606       215       30         0          0.11 sec
//   201        51.20%     5602         4        2         0          0.13 sec
