// | ------------------------------------------------------------------------------------------------------------------ |
// |                                                                                                                    |
// |          Current split capture setting:     Off (optimal)                                                          |
// |                                                                                                                    |
// |   Current clock off simulation setting:     Off (optimal)                                                          |
// | ------------------------------------------------------------------------------------------------------------------ |
//  ------------------------------------------------------------------------
//  Simulation performed for #gates = 6497  #faults = 11869
//  Run fault simulation without storing patterns.  pattern source = 236 external patterns
//  ------------------------------------------------------------------------
//  #patterns  test      #faults  #faults    # eff.    # test         process 
//  simulated  coverage  in list  detected   patterns  patterns       CPU time
//   64         46.44%     6357      5512       58         0          0.10 sec
//   128        51.58%     5747       610       42         0          0.12 sec
//   192        54.14%     5443       304       26         0          0.14 sec
//   236        54.98%     5343       100       13         0          0.16 sec
