// | ------------------------------------------------------------------------------------------------------------------ |
// |                                                                                                                    |
// |          Current split capture setting:     Off (optimal)                                                          |
// |                                                                                                                    |
// |   Current clock off simulation setting:     Off (optimal)                                                          |
// | ------------------------------------------------------------------------------------------------------------------ |
//  ------------------------------------------------------------------------
//  Simulation performed for #gates = 760  #faults = 1702
//  Run fault simulation without storing patterns.  pattern source = 197 external patterns
//  ------------------------------------------------------------------------
//  #patterns  test      #faults  #faults    # eff.    # test         process 
//  simulated  coverage  in list  detected   patterns  patterns       CPU time
//   64         21.39%     1338       364       33         0          0.01 sec
//   128        32.26%     1153       185       27         0          0.01 sec
//   192        36.08%     1088        65       16         0          0.01 sec
//   197        36.37%     1083         5        1         0          0.01 sec
