          Statistics Report          
           Stuck-at Faults           
-------------------------------------
Fault Classes              #faults   
                           (coll.)   
---------------------  --------------
  FU (full)                  582     
  -------------------  --------------
  DS (det_simulation)    471 (80.93%)
  TI (tied)                1 ( 0.17%)
  RE (redundant)         110 (18.90%)
-------------------------------------
Coverage                             
  -------------------                
  test_coverage              100.00% 
  fault_coverage              80.93% 
  atpg_effectiveness         100.00% 
-------------------------------------
#test_patterns                    54 
#simulated_patterns               87 
CPU_time (secs)                  1.6 
-------------------------------------

