          Statistics Report          
           Stuck-at Faults           
-------------------------------------
Fault Classes              #faults   
                           (coll.)   
---------------------  --------------
  FU (full)                 5106     
  -------------------  --------------
  DS (det_simulation)   3722 (72.89%)
  TI (tied)              128 ( 2.51%)
  BL (blocked)           319 ( 6.25%)
  RE (redundant)         937 (18.35%)
-------------------------------------
Coverage                             
  -------------------                
  test_coverage              100.00% 
  fault_coverage              72.89% 
  atpg_effectiveness         100.00% 
-------------------------------------
#test_patterns                   108 
#simulated_patterns              115 
CPU_time (secs)                  2.1 
-------------------------------------

