          Statistics Report          
           Stuck-at Faults           
-------------------------------------
Fault Classes              #faults   
                           (coll.)   
---------------------  --------------
  FU (full)                 5106     
  -------------------  --------------
  DS (det_simulation)   3420 (66.98%)
  TI (tied)              183 ( 3.58%)
  BL (blocked)           411 ( 8.05%)
  RE (redundant)        1092 (21.39%)
-------------------------------------
Coverage                             
  -------------------                
  test_coverage              100.00% 
  fault_coverage              66.98% 
  atpg_effectiveness         100.00% 
-------------------------------------
#test_patterns                   102 
#simulated_patterns              113 
CPU_time (secs)                  2.3 
-------------------------------------

