          Statistics Report          
           Stuck-at Faults           
-------------------------------------
Fault Classes              #faults   
                           (coll.)   
---------------------  --------------
  FU (full)                 8388     
  -------------------  --------------
  DS (det_simulation)   3880 (46.26%)
  TI (tied)              112 ( 1.34%)
  BL (blocked)           240 ( 2.86%)
  RE (redundant)        4156 (49.55%)
-------------------------------------
Coverage                             
  -------------------                
  test_coverage              100.00% 
  fault_coverage              46.26% 
  atpg_effectiveness         100.00% 
-------------------------------------
#test_patterns                   107 
#simulated_patterns              147 
CPU_time (secs)                  5.8 
-------------------------------------

