          Statistics Report          
           Stuck-at Faults           
-------------------------------------
Fault Classes              #faults   
                           (coll.)   
---------------------  --------------
  FU (full)                  596     
  -------------------  --------------
  DS (det_simulation)    469 (78.69%)
  TI (tied)                2 ( 0.34%)
  RE (redundant)         125 (20.97%)
-------------------------------------
Coverage                             
  -------------------                
  test_coverage              100.00% 
  fault_coverage              78.69% 
  atpg_effectiveness         100.00% 
-------------------------------------
#test_patterns                    74 
#simulated_patterns               89 
CPU_time (secs)                  1.5 
-------------------------------------

