          Statistics Report          
           Stuck-at Faults           
-------------------------------------
Fault Classes              #faults   
                           (coll.)   
---------------------  --------------
  FU (full)                 3062     
  -------------------  --------------
  DS (det_simulation)   2924 (95.49%)
  RE (redundant)         138 ( 4.51%)
-------------------------------------
Coverage                             
  -------------------                
  test_coverage              100.00% 
  fault_coverage              95.49% 
  atpg_effectiveness         100.00% 
-------------------------------------
#test_patterns                    39 
#simulated_patterns               65 
CPU_time (secs)                  1.9 
-------------------------------------

