          Statistics Report          
           Stuck-at Faults           
-------------------------------------
Fault Classes              #faults   
                           (coll.)   
---------------------  --------------
  FU (full)                 3574     
  -------------------  --------------
  DS (det_simulation)   3259 (91.19%)
  TI (tied)               16 ( 0.45%)
  BL (blocked)             6 ( 0.17%)
  RE (redundant)         293 ( 8.20%)
-------------------------------------
Coverage                             
  -------------------                
  test_coverage              100.00% 
  fault_coverage              91.19% 
  atpg_effectiveness         100.00% 
-------------------------------------
#test_patterns                   115 
#simulated_patterns              116 
CPU_time (secs)                  2.0 
-------------------------------------

