          Statistics Report          
           Stuck-at Faults           
-------------------------------------
Fault Classes              #faults   
                           (coll.)   
---------------------  --------------
  FU (full)                 3574     
  -------------------  --------------
  DS (det_simulation)   3310 (92.61%)
  TI (tied)               15 ( 0.42%)
  BL (blocked)             3 ( 0.08%)
  RE (redundant)         246 ( 6.88%)
-------------------------------------
Coverage                             
  -------------------                
  test_coverage              100.00% 
  fault_coverage              92.61% 
  atpg_effectiveness         100.00% 
-------------------------------------
#test_patterns                   114 
#simulated_patterns              114 
CPU_time (secs)                  2.0 
-------------------------------------

