          Statistics Report          
           Stuck-at Faults           
-------------------------------------
Fault Classes              #faults   
                           (coll.)   
---------------------  --------------
  FU (full)                 3574     
  -------------------  --------------
  DS (det_simulation)   3166 (88.58%)
  TI (tied)               14 ( 0.39%)
  BL (blocked)             2 ( 0.06%)
  RE (redundant)         392 (10.97%)
-------------------------------------
Coverage                             
  -------------------                
  test_coverage              100.00% 
  fault_coverage              88.58% 
  atpg_effectiveness         100.00% 
-------------------------------------
#test_patterns                   129 
#simulated_patterns              132 
CPU_time (secs)                  2.0 
-------------------------------------

